title	url	date	cost
Ипотека от "Совкомбанк"!    💰Сумма кредита - От 300 000 до 30 000 000 рублей    	https://vk.com/wall-6126497_3133815	01.10.2020 11:21	0
	https://vk.com/wall-6126497_3133955	01.10.2020 13:30	100
Ипотека от "Совкомбанк"!    💰Сумма кредита - От 300 000 до 30 000 000 рублей    	https://vk.com/wall-6126497_3134227	01.10.2020 18:09	0
	https://vk.com/wall-6126497_3135420	02.10.2020 18:30	100
	https://vk.com/wall-6126497_3135552	02.10.2020 20:06	100
	https://vk.com/wall-6126497_3136203	03.10.2020 13:30	100
Ипотека от "Совкомбанк"!    💰Сумма кредита - От 300 000 до 30 000 000 рублей    	https://vk.com/wall-6126497_3136700	03.10.2020 21:29	0
	https://vk.com/wall-6126497_3137103	04.10.2020 12:26	100
	https://vk.com/wall-6126497_3137221	04.10.2020 14:24	100
	https://vk.com/wall-6126497_3137337	04.10.2020 16:16	100
	https://vk.com/wall-6126497_3137463	04.10.2020 18:30	100
Заполярный и Печенгский район.🏘🏘🏘  Куплю золото в любом виде и количестве💍💍💍  От	https://vk.com/wall-6126497_3137505	04.10.2020 19:03	199
Ипотека от "Совкомбанк"!    💰Сумма кредита - От 300 000 до 30 000 000 рублей    	https://vk.com/wall-6126497_3137623	04.10.2020 20:45	0
	https://vk.com/wall-6126497_3137662	04.10.2020 21:13	100
П.Спутник  Наращивание ресниц🧚🏻‍♂    https://m.vk.com/kolyada_a_d	https://vk.com/wall-6126497_3137669	04.10.2020 21:23	100
Ипотека от "Совкомбанк"!    💰Сумма кредита - От 300 000 до 30 000 000 рублей    	https://vk.com/wall-6126497_3137900	05.10.2020 09:04	0
	https://vk.com/wall-6126497_3138153	05.10.2020 13:30	100
	https://vk.com/wall-6126497_3138405	05.10.2020 16:34	100
	https://vk.com/wall-6126497_3138606	05.10.2020 20:04	100
Ипотека от "Совкомбанк"!    💰Сумма кредита - От 300 000 до 30 000 000 рублей    	https://vk.com/wall-6126497_3138626	05.10.2020 20:25	0
💫Сеть магазинов «Центр Медтехники» поздравляет всех работников нашей медицины 💫Б	https://vk.com/wall-6126497_3138972	06.10.2020 10:10	200
	https://vk.com/wall-6126497_3139138	06.10.2020 12:59	100
	https://vk.com/wall-6126497_3139483	06.10.2020 18:30	100
Заполярный и Печенгский район.🏘🏘🏘  Куплю золото в любом виде и количестве💍💍💍  От	https://vk.com/wall-6126497_3139522	06.10.2020 19:07	199
Ипотека от "Совкомбанк"!    💰Сумма кредита - От 300 000 до 30 000 000 рублей    	https://vk.com/wall-6126497_3139654	06.10.2020 20:41	0
	https://vk.com/wall-6126497_3139768	06.10.2020 22:21	100
	https://vk.com/wall-6126497_3140048	07.10.2020 11:14	100
	https://vk.com/wall-6126497_3140187	07.10.2020 13:30	100
Ипотека от "Совкомбанк"!    💰Сумма кредита - От 300 000 до 30 000 000 рублей    	https://vk.com/wall-6126497_3140721	07.10.2020 22:37	0
ЗАЙМЫ выдаются только военнослужащим по контрату и офицерам служащим в г. Заполя	https://vk.com/wall-6126497_3141010	08.10.2020 12:01	199
	https://vk.com/wall-6126497_3141371	08.10.2020 18:30	100
ЗАЙМЫ выдаются только военнослужащим по контрату и офицерам служащим в г. Заполя	https://vk.com/wall-6126497_3141475	08.10.2020 20:01	199
	https://vk.com/wall-6126497_3141526	08.10.2020 20:53	100
Ипотека от "Совкомбанк"!    💰Сумма кредита - От 300 000 до 30 000 000 рублей    	https://vk.com/wall-6126497_3142000	09.10.2020 10:31	0
❗❗❗Внимание❗❗❗ С 13 октября в связи с ростом курса доллара 💸мы вынуждены повысит	https://vk.com/wall-6126497_3142057	09.10.2020 11:40	500
	https://vk.com/wall-6126497_3142070	09.10.2020 11:50	100
ЗАЙМЫ выдаются только военнослужащим по контрату и офицерам служащим в г. Заполя	https://vk.com/wall-6126497_3142084	09.10.2020 12:01	199
	https://vk.com/wall-6126497_3142157	09.10.2020 13:30	100
	https://vk.com/wall-6126497_3142206	09.10.2020 14:24	100
	https://vk.com/wall-6126497_3142208	09.10.2020 14:24	100
Ипотека от "Совкомбанк"!    💰Сумма кредита - От 300 000 до 30 000 000 рублей    	https://vk.com/wall-6126497_3142462	09.10.2020 18:23	0
ЗАЙМЫ выдаются только военнослужащим по контрату и офицерам служащим в г. Заполя	https://vk.com/wall-6126497_3142535	09.10.2020 20:01	199
	https://vk.com/wall-6126497_3142948	10.10.2020 10:52	100
ЗАЙМЫ выдаются только военнослужащим по контрату и офицерам служащим в г. Заполя	https://vk.com/wall-6126497_3143039	10.10.2020 12:01	199
Заполярный.  Приглашаем вас в нашу группу  "Трезвый Строитель".  https://vk.com/	https://vk.com/wall-6126497_3143424	10.10.2020 17:08	500
	https://vk.com/wall-6126497_3143520	10.10.2020 18:30	100
	https://vk.com/wall-6126497_3143534	10.10.2020 18:52	100
ЗАЙМЫ выдаются только военнослужащим по контрату и офицерам служащим в г. Заполя	https://vk.com/wall-6126497_3143603	10.10.2020 20:01	199
Ипотека от "Совкомбанк"!    💰Сумма кредита - От 300 000 до 30 000 000 рублей    	https://vk.com/wall-6126497_3143740	10.10.2020 21:50	0
ЗАЙМЫ выдаются только военнослужащим по контрату и офицерам служащим в г. Заполя	https://vk.com/wall-6126497_3144099	11.10.2020 12:01	199
📌12 ОКТЯБРЯ ВСЕМИРНЫЙ ДЕНЬ БОРЬБЫ С АРТРИТОМ❗ 💫Основные задачи этого Дня – привл	https://vk.com/wall-6126497_3144167	11.10.2020 12:49	200
	https://vk.com/wall-6126497_3144223	11.10.2020 13:30	100
ЗАЙМЫ выдаются только военнослужащим по контрату и офицерам служащим в г. Заполя	https://vk.com/wall-6126497_3144679	11.10.2020 20:01	199
Заполярный и Печенгский район.🏘🏘🏘  Куплю золото в любом виде и количестве💍💍💍  От	https://vk.com/wall-6126497_3144745	11.10.2020 21:02	199
Ипотека от "Совкомбанк"!    💰Сумма кредита - От 300 000 до 30 000 000 рублей    	https://vk.com/wall-6126497_3144746	11.10.2020 21:03	0
	https://vk.com/wall-6126497_3145059	12.10.2020 10:47	100
Займы на любые нужды под низкий ПРОЦЕНТ! Скорей в ЛС!!!  https://vk.com/id494491	https://vk.com/wall-6126497_3145534	12.10.2020 16:55	100
	https://vk.com/wall-6126497_3145623	12.10.2020 18:30	100
Заполярный и Печенгский район.🏘🏘🏘  Куплю золото в любом виде и количестве💍💍💍  От	https://vk.com/wall-6126497_3145648	12.10.2020 19:02	199
Ипотека от "Совкомбанк"!    💰Сумма кредита - От 300 000 до 30 000 000 рублей    	https://vk.com/wall-6126497_3145819	12.10.2020 21:30	0
Икра лосося , доставлена с Сахалина.  Цена за кг 4.000₽ ,свыше цена обговаривает	https://vk.com/wall-6126497_3145907	12.10.2020 22:41	500
Кафе-бар "У мангала" предлагает вам комплексные обеды с 12:00 до 18:00 ежедневно	https://vk.com/wall-6126497_3146125	13.10.2020 09:00	199
	https://vk.com/wall-6126497_3146463	13.10.2020 13:30	100
Стрижка собак. Верхнее Луостари. Возможен выезд.)https://vk.com/id131621700	https://vk.com/wall-6126497_3147260	13.10.2020 23:40	100
Кафе-бар "У мангала" предлагает вам комплексные обеды с 12:00 до 18:00 ежедневно	https://vk.com/wall-6126497_3147439	14.10.2020 09:00	199
	https://vk.com/wall-6126497_3147911	14.10.2020 16:24	100
	https://vk.com/wall-6126497_3147912	14.10.2020 16:24	100
Последние новости салона Много Мебели Заполярный. Ответим на все ваши вопросы. h	https://vk.com/wall-6126497_3147988	14.10.2020 17:28	100
	https://vk.com/wall-6126497_3148149	14.10.2020 20:02	100
Заполярный, Никель, Печенга.   Добрый день! Изготавливаю сырные трюфеля, шоколад	https://vk.com/wall-6126497_3148310	14.10.2020 21:47	500
Кафе-бар "У мангала" предлагает вам комплексные обеды с 12:00 до 18:00 ежедневно	https://vk.com/wall-6126497_3148588	15.10.2020 09:00	199
Заполярный и Печенгский район.🏘🏘🏘  Куплю золото в любом виде и количестве💍💍💍  От	https://vk.com/wall-6126497_3149346	15.10.2020 20:18	199
ЗАЙМЫ  выдаются только военнослужащим по контрату и офицерам служащим в г. Запол	https://vk.com/wall-6126497_3149352	15.10.2020 20:21	199
	https://vk.com/wall-6126497_3149353	15.10.2020 20:23	100
📍Спутник Милые дамы, приглашаю Вас на наращивание ресничек🌾 Эта процедура придёт	https://vk.com/wall-6126497_3149364	15.10.2020 20:41	500
Стрижка собак. Верхнее Луостари. Возможен выезд.)https://vk.com/id131621700	https://vk.com/wall-6126497_3149390	15.10.2020 21:20	100
	https://vk.com/wall-6126497_3149402	15.10.2020 21:28	100
Заполярный, Никель, Печенга.   Добрый день! Изготавливаю сырные трюфеля, шоколад	https://vk.com/wall-6126497_3149404	15.10.2020 21:30	199
Кафе-бар "У мангала" предлагает вам комплексные обеды с 12:00 до 18:00 ежедневно	https://vk.com/wall-6126497_3149630	16.10.2020 09:00	199
Принимаем сбережения до 7,6 % годовых. КПК Илма. Вопросы в личку!  https://vk.co	https://vk.com/wall-6126497_3149981	16.10.2020 14:04	100
Приглашаем вас в нашу группу "Трезвый Строитель".  https://vk.com/trezstroy    З	https://vk.com/wall-6126497_3150125	16.10.2020 15:37	500
Кафе-бар "У мангала" предлагает вам комплексные обеды с 12:00 до 18:00 ежедневно	https://vk.com/wall-6126497_3150234	16.10.2020 17:21	199
Кафе-бар "У мангала" предлагает вам комплексные обеды с 12:00 до 18:00 ежедневно	https://vk.com/wall-6126497_3150422	16.10.2020 20:09	199
Заполярный, Никель, Печенга.    Добрый день! Изготавливаю сырные трюфеля, шокола	https://vk.com/wall-6126497_3150466	16.10.2020 20:47	199
Кафе-бар "У мангала" предлагает вам комплексные обеды с 12:00 до 18:00 ежедневно	https://vk.com/wall-6126497_3150843	17.10.2020 09:00	199
Кафе-бар "У мангала" предлагает вам комплексные обеды с 12:00 до 18:00 ежедневно	https://vk.com/wall-6126497_3150989	17.10.2020 11:01	199
Пекарня [club192648767|"Дары востока" ] приглашает жителей Печенгского района от	https://vk.com/wall-6126497_3151220	17.10.2020 13:44	199
Кафе-бар "У мангала" предлагает вам комплексные обеды с 12:00 до 18:00 ежедневно	https://vk.com/wall-6126497_3151328	17.10.2020 15:01	199
	https://vk.com/wall-6126497_3151410	17.10.2020 16:01	100
	https://vk.com/wall-6126497_3151568	17.10.2020 17:25	100
Заполярный, Никель, Печенга.    Добрый день! Изготавливаю сырные трюфеля, шокола	https://vk.com/wall-6126497_3151622	17.10.2020 18:01	199
Кафе-бар "У мангала" предлагает вам комплексные обеды с 12:00 до 18:00 ежедневно	https://vk.com/wall-6126497_3151691	17.10.2020 19:01	199
Заполярный и Печенгский район.🏘🏘🏘  Куплю золото в любом виде и количестве💍💍💍  От	https://vk.com/wall-6126497_3151704	17.10.2020 19:11	199
Ипотека от "Совкомбанк"!    💰Сумма кредита - От 300 000 до 30 000 000 рублей    	https://vk.com/wall-6126497_3151716	17.10.2020 19:29	0
	https://vk.com/wall-6126497_3151742	17.10.2020 20:01	100
Кафе-бар "У мангала" предлагает вам комплексные обеды с 12:00 до 18:00 ежедневно	https://vk.com/wall-6126497_3152253	18.10.2020 13:01	199
	https://vk.com/wall-6126497_3152384	18.10.2020 14:25	100
Пекарня [club192648767|"Дары востока"] приглашает жителей Печенгского района отв	https://vk.com/wall-6126497_3152488	18.10.2020 16:01	199
Заполярный, Никель, Печенга.    Добрый день! Изготавливаю сырные трюфеля, шокола	https://vk.com/wall-6126497_3152635	18.10.2020 18:01	199
Кафе-бар "У мангала" предлагает вам комплексные обеды с 12:00 до 18:00 ежедневно	https://vk.com/wall-6126497_3152696	18.10.2020 19:01	199
	https://vk.com/wall-6126497_3152741	18.10.2020 19:54	100
Кафе-бар "У мангала" предлагает вам комплексные обеды с 12:00 до 18:00 ежедневно	https://vk.com/wall-6126497_3153287	19.10.2020 11:01	199
Пекарня [club192648767|"Дары востока"] приглашает жителей Печенгского района отв	https://vk.com/wall-6126497_3153582	19.10.2020 16:01	199
	https://vk.com/wall-6126497_3153634	19.10.2020 16:54	100
Заполярный, Никель, Печенга.    Добрый день! Изготавливаю сырные трюфеля, шокола	https://vk.com/wall-6126497_3153720	19.10.2020 18:01	199
Заполярный и Печенгский район.🏘🏘🏘  Куплю золото в любом виде и количестве💍💍💍  От	https://vk.com/wall-6126497_3153806	19.10.2020 19:11	199
ЗАЙМЫ выдаются только военнослужащим по контракту и офицерам служащим в г. Запол	https://vk.com/wall-6126497_3153857	19.10.2020 20:05	199
	https://vk.com/wall-6126497_3154534	20.10.2020 14:25	100
Пекарня [club192648767|"Дары востока"] приглашает жителей Печенгского района отв	https://vk.com/wall-6126497_3154655	20.10.2020 16:01	199
	https://vk.com/wall-6126497_3154696	20.10.2020 16:37	100
Заполярный, Никель, Печенга.    Добрый день! Изготавливаю сырные трюфеля, шокола	https://vk.com/wall-6126497_3154785	20.10.2020 18:01	199
	https://vk.com/wall-6126497_3154935	20.10.2020 20:00	100
	https://vk.com/wall-6126497_3154984	20.10.2020 20:30	100
	https://vk.com/wall-6126497_3155651	21.10.2020 14:25	100
Пекарня [club192648767|"Дары востока"] приглашает жителей Печенгского района отв	https://vk.com/wall-6126497_3155756	21.10.2020 16:01	199
Заполярный, Никель, Печенга.    Добрый день! Изготавливаю сырные трюфеля, шокола	https://vk.com/wall-6126497_3155886	21.10.2020 18:01	199
Заполярный и Печенгский район.🏘🏘🏘  Куплю золото в любом виде и количестве💍💍💍  От	https://vk.com/wall-6126497_3155961	21.10.2020 19:11	199
	https://vk.com/wall-6126497_3156020	21.10.2020 20:01	100
	https://vk.com/wall-6126497_3156252	21.10.2020 23:20	100
	https://vk.com/wall-6126497_3156741	22.10.2020 14:25	100
Пекарня [club192648767|"Дары востока"] приглашает жителей Печенгского района отв	https://vk.com/wall-6126497_3156830	22.10.2020 16:01	199
Заполярный, Никель, Печенга.    Добрый день! Изготавливаю сырные трюфеля, шокола	https://vk.com/wall-6126497_3156937	22.10.2020 18:01	199
ЗАЙМЫ выдаются только военнослужащим по контрату и офицерам служащим в г. Заполя	https://vk.com/wall-6126497_3157071	22.10.2020 20:05	199
Кафе-бар "У мангала" предлагает вам комплексные обеды с 12:00 до 18:00 ежедневно	https://vk.com/wall-6126497_3157467	23.10.2020 11:01	199
	https://vk.com/wall-6126497_3157649	23.10.2020 14:25	100
Кафе-бар "У мангала" предлагает вам комплексные обеды с 12:00 до 18:00 ежедневно	https://vk.com/wall-6126497_3157692	23.10.2020 15:01	199
Пекарня [club192648767|"Дары востока"] приглашает жителей Печенгского района отв	https://vk.com/wall-6126497_3157757	23.10.2020 16:01	199
Заполярный, Никель, Печенга.    Добрый день! Изготавливаю сырные трюфеля, шокола	https://vk.com/wall-6126497_3157861	23.10.2020 18:01	199
Заполярный и Печенгский район.🏘🏘🏘  Куплю золото в любом виде и количестве💍💍💍  От	https://vk.com/wall-6126497_3157932	23.10.2020 19:11	199
Кафе-бар "У мангала" предлагает вам комплексные обеды с 12:00 до 18:00 ежедневно	https://vk.com/wall-6126497_3158403	24.10.2020 11:01	199
	https://vk.com/wall-6126497_3158644	24.10.2020 14:25	100
Пекарня [club192648767|"Дары востока"] приглашает жителей Печенгского района отв	https://vk.com/wall-6126497_3158757	24.10.2020 16:01	199
Заполярный, Никель, Печенга.    Добрый день! Изготавливаю сырные трюфеля, шокола	https://vk.com/wall-6126497_3158873	24.10.2020 18:01	199
	https://vk.com/wall-6126497_3159694	25.10.2020 14:25	100
Пекарня [club192648767|"Дары востока"] приглашает жителей Печенгского района отв	https://vk.com/wall-6126497_3159803	25.10.2020 16:01	199
Заполярный и Печенгский район.🏘🏘🏘  Куплю золото в любом виде и количестве💍💍💍  От	https://vk.com/wall-6126497_3160012	25.10.2020 19:11	199
	https://vk.com/wall-6126497_3160061	25.10.2020 19:56	100
ЗАЙМЫ выдаются только военнослужащим по контрату и офицерам служащим в г. Заполя	https://vk.com/wall-6126497_3160078	25.10.2020 20:05	199
	https://vk.com/wall-6126497_3160785	26.10.2020 14:25	100
Пекарня [club192648767|"Дары востока"] приглашает жителей Печенгского района отв	https://vk.com/wall-6126497_3160911	26.10.2020 16:01	199
	https://vk.com/wall-6126497_3161071	26.10.2020 18:24	100
В магазине Промтовары (Заполярный, ул Юбилейная дом5) новое поступление:детские 	https://vk.com/wall-6126497_3161118	26.10.2020 19:02	500
Займы от 2000 до 200 000 рублей. Никель. Вопросы в лс. https://vk.com/id49449172	https://vk.com/wall-6126497_3161634	27.10.2020 11:25	100
	https://vk.com/wall-6126497_3161861	27.10.2020 14:25	100
Пекарня [club192648767|"Дары востока"] приглашает жителей Печенгского района отв	https://vk.com/wall-6126497_3161965	27.10.2020 16:01	199
Заполярный и Печенгский район.🏘🏘🏘  Куплю золото в любом виде и количестве💍💍💍  От	https://vk.com/wall-6126497_3162193	27.10.2020 19:11	199
Подарки сделанные с душой!    Шокобоксы, наборы с кофе и чаем,подарочный шоколад	https://vk.com/wall-6126497_3162376	27.10.2020 21:50	500
	https://vk.com/wall-6126497_3162896	28.10.2020 14:25	100
Пекарня [club192648767|"Дары востока"] приглашает жителей Печенгского района отв	https://vk.com/wall-6126497_3163029	28.10.2020 16:01	199
	https://vk.com/wall-6126497_3163292	28.10.2020 20:01	100
ЗАЙМЫ выдаются только военнослужащим по контрату и офицерам служащим в г. Заполя	https://vk.com/wall-6126497_3163299	28.10.2020 20:05	199
	https://vk.com/wall-6126497_3163973	29.10.2020 14:25	100
Пекарня [club192648767|"Дары востока"] приглашает жителей Печенгского района отв	https://vk.com/wall-6126497_3164082	29.10.2020 16:01	199
Заполярный и Печенгский район.🏘🏘🏘  Куплю золото в любом виде и количестве💍💍💍  От	https://vk.com/wall-6126497_3164251	29.10.2020 19:11	199
Заполярный.  Приглашаем вас в нашу группу  "Трезвый Строитель".  https://vk.com/	https://vk.com/wall-6126497_3164260	29.10.2020 19:15	500
	https://vk.com/wall-6126497_3164873	30.10.2020 12:09	100
	https://vk.com/wall-6126497_3164874	30.10.2020 12:11	100
	https://vk.com/wall-6126497_3165022	30.10.2020 14:25	100
Пекарня [club192648767|"Дары востока"] приглашает жителей Печенгского района отв	https://vk.com/wall-6126497_3165111	30.10.2020 16:01	199
	https://vk.com/wall-6126497_3165332	30.10.2020 20:03	100
В магазине Промтовары (Заполярный, ул Юбилейная дом5) новое поступление:детские 	https://vk.com/wall-6126497_3165884	31.10.2020 12:01	500
	https://vk.com/wall-6126497_3166079	31.10.2020 14:25	100
Пекарня [club192648767|"Дары востока"] приглашает жителей Печенгского района отв	https://vk.com/wall-6126497_3166206	31.10.2020 16:01	199
Заполярный и Печенгский район.🏘🏘🏘  Куплю золото в любом виде и количестве💍💍💍  От	https://vk.com/wall-6126497_3166401	31.10.2020 19:11	199
ЗАЙМЫ выдаются только военнослужащим по контрату и офицерам служащим в г. Заполя	https://vk.com/wall-6126497_3166457	31.10.2020 20:05	199