title	url	date	cost
2 октября  очередная свежая поставка живых раков из Карелии. Порадуйте себя и св	https://vk.com/wall-6126497_3464425	01.10.2021 10:47	200
	https://vk.com/wall-6126497_3464527	01.10.2021 12:30	150
	https://vk.com/wall-6126497_3464695	01.10.2021 15:05	199
ХОТИТЕ НАТЯЖНОЙ ПОТОЛОК? ОКНА? ДВЕРИ?  НУЖНА КОМПАНИЯ С ОПЫТОМ, ДОГОВОРОМ И ГАРА	https://vk.com/wall-6126497_3464783	01.10.2021 16:15	199
Ремонт и обслуживание компьютерной техники по Печенгскому району.  - помощь с вы	https://vk.com/wall-6126497_3464854	01.10.2021 17:21	199
г.Заполярный.  Стрижки мужские, женские, окрашивание и мелирование волос. т.8960	https://vk.com/wall-6126497_3464928	01.10.2021 18:36	100
Заполярный и Печенгский район.🏘🏘🏘  Куплю золото в любом виде и количестве💍💍💍  От	https://vk.com/wall-6126497_3464957	01.10.2021 19:03	199
Грузоперевозки по Печенгскому району и Мурманской области.  Беру груз до 1.5тонн	https://vk.com/wall-6126497_3464986	01.10.2021 19:21	199
Предлагаем вашему вниманию ❗🔴  ✔Фарш щучий -500 рублей за кг ✔наборы для ухи-250	https://vk.com/wall-6126497_3465022	01.10.2021 19:49	298
Компания Умнaя SRЕDA специализирующаяся в сфере переработки отходов из пластика.	https://vk.com/wall-6126497_3465135	01.10.2021 21:36	500
🧿ШИНОМОНТАЖ🧿   ➡️Заполярный ⬅️    Переобуем вашего железного коня!)  Залатаем По	https://vk.com/wall-6126497_3465136	01.10.2021 21:36	199
	https://vk.com/wall-6126497_3465419	02.10.2021 10:01	199
Предлагаем вашему вниманию ❗🔴  ✔Фарш щучий -500 рублей за кг ✔наборы для ухи-250	https://vk.com/wall-6126497_3465869	02.10.2021 17:00	298
продам печень трески.креветки и другие морепродукты https://m.vk.com/public20526	https://vk.com/wall-6126497_3465886	02.10.2021 17:17	100
	https://vk.com/wall-6126497_3465944	02.10.2021 18:30	150
	https://vk.com/wall-6126497_3466028	02.10.2021 20:33	199
	https://vk.com/wall-6126497_3466029	02.10.2021 20:33	199
Компания Умнaя SRЕDA специализирующаяся в сфере переработки отходов из пластика.	https://vk.com/wall-6126497_3466033	02.10.2021 20:37	500
Доброго времени суток 👋  Успейте попробовать свежей посоленную  рыбку под марина	https://vk.com/wall-6126497_3466268	03.10.2021 09:00	298
	https://vk.com/wall-6126497_3466506	03.10.2021 12:30	150
	https://vk.com/wall-6126497_3466826	03.10.2021 16:44	199
ХОТИТЕ НАТЯЖНОЙ ПОТОЛОК? ОКНА? ДВЕРИ?  НУЖНА КОМПАНИЯ С ОПЫТОМ, ДОГОВОРОМ И ГАРА	https://vk.com/wall-6126497_3466857	03.10.2021 17:15	199
продам печень трески.креветки и другие морепродукты https://m.vk.com/public20526	https://vk.com/wall-6126497_3466977	03.10.2021 18:46	100
🧿ШИНОМОНТАЖ🧿   ➡️Заполярный ⬅️    Переобуем вашего железного коня!)  Залатаем По	https://vk.com/wall-6126497_3466982	03.10.2021 18:49	199
Компания Умнaя SRЕDA специализирующаяся в сфере переработки отходов из пластика.	https://vk.com/wall-6126497_3466983	03.10.2021 18:50	500
Заполярный и Печенгский район.🏘🏘🏘  Куплю золото в любом виде и количестве💍💍💍  От	https://vk.com/wall-6126497_3467025	03.10.2021 20:03	199
	https://vk.com/wall-6126497_3467593	04.10.2021 17:03	199
	https://vk.com/wall-6126497_3467667	04.10.2021 18:30	150
🧿ШИНОМОНТАЖ🧿   ➡️Заполярный ⬅️    Переобуем вашего железного коня!)  Залатаем По	https://vk.com/wall-6126497_3467706	04.10.2021 19:41	199
Доброго времени суток 👋  Успейте попробовать свежую малосольную  рыбку под марин	https://vk.com/wall-6126497_3468149	05.10.2021 11:41	298
	https://vk.com/wall-6126497_3468182	05.10.2021 12:30	150
	https://vk.com/wall-6126497_3468424	05.10.2021 17:14	199
ХОТИТЕ НАТЯЖНОЙ ПОТОЛОК? ОКНА? ДВЕРИ?  НУЖНА КОМПАНИЯ С ОПЫТОМ, ДОГОВОРОМ И ГАРА	https://vk.com/wall-6126497_3468464	05.10.2021 18:15	199
Заполярный и Печенгский район.🏘🏘🏘  Куплю золото в любом виде и количестве💍💍💍  От	https://vk.com/wall-6126497_3468493	05.10.2021 19:03	199
Болит спина? Не можете расслабиться? Мышцы забиты? Замучила бессонница? Бесит ап	https://vk.com/wall-6126497_3468591	05.10.2021 20:39	500
	https://vk.com/wall-6126497_3468857	06.10.2021 10:01	199
	https://vk.com/wall-6126497_3468963	06.10.2021 11:38	199
	https://vk.com/wall-6126497_3468974	06.10.2021 11:55	298
	https://vk.com/wall-6126497_3469154	06.10.2021 14:46	298
	https://vk.com/wall-6126497_3469155	06.10.2021 14:46	199
	https://vk.com/wall-6126497_3469156	06.10.2021 14:47	150
	https://vk.com/wall-6126497_3469336	06.10.2021 18:30	150
	https://vk.com/wall-6126497_3469461	06.10.2021 20:30	199
	https://vk.com/wall-6126497_3469501	06.10.2021 21:27	199
ТОРТЫ и ДЕСЕРТЫ НА ЗАКАЗ  • г. Заполярный  • Широкий ассортимент начинок на любо	https://vk.com/wall-6126497_3469532	06.10.2021 22:22	500
🧿ШИНОМОНТАЖ🧿   ➡️Заполярный ⬅️    Переобуем вашего железного коня!)  Залатаем По	https://vk.com/wall-6126497_3469543	06.10.2021 22:40	199
	https://vk.com/wall-6126497_3469878	07.10.2021 12:30	150
ХОТИТЕ НАТЯЖНОЙ ПОТОЛОК? ОКНА? ДВЕРИ?  НУЖНА КОМПАНИЯ С ОПЫТОМ, ДОГОВОРОМ И ГАРА	https://vk.com/wall-6126497_3470173	07.10.2021 18:15	199
	https://vk.com/wall-6126497_3470188	07.10.2021 18:25	298
	https://vk.com/wall-6126497_3470189	07.10.2021 18:25	199
	https://vk.com/wall-6126497_3470190	07.10.2021 18:26	199
Заполярный и Печенгский район.🏘🏘🏘  Куплю золото в любом виде и количестве💍💍💍  От	https://vk.com/wall-6126497_3470228	07.10.2021 19:03	199
	https://vk.com/wall-6126497_3470238	07.10.2021 19:14	199
	https://vk.com/wall-6126497_3470273	07.10.2021 20:12	199
	https://vk.com/wall-6126497_3470534	08.10.2021 08:53	199
	https://vk.com/wall-6126497_3470566	08.10.2021 09:41	199
	https://vk.com/wall-6126497_3470804	08.10.2021 13:25	199
	https://vk.com/wall-6126497_3470805	08.10.2021 13:25	298
Ремонт и обслуживание компьютерной техники по Печенгскому району.  - помощь с вы	https://vk.com/wall-6126497_3470988	08.10.2021 17:21	199
	https://vk.com/wall-6126497_3471054	08.10.2021 18:30	150
Грузоперевозки по Печенгскому району и Мурманской области.  Беру груз до 1.5тонн	https://vk.com/wall-6126497_3471108	08.10.2021 19:21	199
Замена тормозных дисков – это недешёвое удовольствие, которое может позволить се	https://vk.com/wall-6126497_3471302	08.10.2021 22:43	500
🧿ШИНОМОНТАЖ🧿   ➡️Заполярный ⬅️    Переобуем вашего железного коня!)  Залатаем По	https://vk.com/wall-6126497_3471303	08.10.2021 22:44	199
продам печень трески.креветки и другие морепродукты https://m.vk.com/public20526	https://vk.com/wall-6126497_3471547	09.10.2021 11:29	100
	https://vk.com/wall-6126497_3471622	09.10.2021 12:30	150
💎Letique cosmetics💎   Самый лучший уход для тебя💜      https://vk.com/id56941339	https://vk.com/wall-6126497_3471868	09.10.2021 16:00	500
Заполярный и Печенгский район.🏘🏘🏘  Куплю золото в любом виде и количестве💍💍💍  От	https://vk.com/wall-6126497_3472077	09.10.2021 19:03	199
ХОТИТЕ НАТЯЖНОЙ ПОТОЛОК? ОКНА? ДВЕРИ?  НУЖНА КОМПАНИЯ С ОПЫТОМ, ДОГОВОРОМ И ГАРА	https://vk.com/wall-6126497_3472090	09.10.2021 19:15	199
	https://vk.com/wall-6126497_3472290	09.10.2021 22:31	199
	https://vk.com/wall-6126497_3472629	10.10.2021 12:11	199
	https://vk.com/wall-6126497_3472749	10.10.2021 13:56	298
	https://vk.com/wall-6126497_3472752	10.10.2021 13:58	199
https://instagram.com/irmagavrilenko.ph?utm_medium=copy_link https://vk.com/id51	https://vk.com/wall-6126497_3472883	10.10.2021 16:08	500
	https://vk.com/wall-6126497_3473010	10.10.2021 18:30	150
г.Заполярный Стрижки мужские, детские,  женские, окрашивание и мелирование волос	https://vk.com/wall-6126497_3473050	10.10.2021 19:10	100
🧿ШИНОМОНТАЖ🧿   ➡️Заполярный ⬅️    Переобуем вашего железного коня!)  Залатаем По	https://vk.com/wall-6126497_3473183	10.10.2021 21:48	199
Кафе-бар « у Мангала» приглашает вас🌸вкусно пообедать‼‼‼    Комплексный обед пре	https://vk.com/wall-6126497_3473498	11.10.2021 11:01	199
Город Заполярный  Продаётся 2-х комнатная квартира 🔑 На юбилейной 6  Этаж 4  ➡️Е	https://vk.com/wall-6126497_3473521	11.10.2021 11:20	199
	https://vk.com/wall-6126497_3473579	11.10.2021 12:30	150
Дорогие участники, приглашаю вас в группу для заказа косметики AVON и FABERLIC h	https://vk.com/wall-6126497_3473707	11.10.2021 14:36	100
🧿ШИНОМОНТАЖ🧿   ➡️Заполярный ⬅️    Переобуем вашего железного коня!)  Залатаем По	https://vk.com/wall-6126497_3473863	11.10.2021 17:39	199
	https://vk.com/wall-6126497_3473873	11.10.2021 17:51	199
продам печень трески.креветки и другие морепродукты https://m.vk.com/public20526	https://vk.com/wall-6126497_3473874	11.10.2021 17:51	100
Заполярный и Печенгский район.🏘🏘🏘  Куплю золото в любом виде и количестве💍💍💍  От	https://vk.com/wall-6126497_3473938	11.10.2021 19:03	199
Выдаем займы до 300 000 руб. сроком до 3 лет. Никель, Заполярный.Вопросы в лс.  	https://vk.com/wall-6126497_3474391	12.10.2021 11:33	100
Заполярный.  Приглашаем вас в нашу группу  "Трезвый Строитель".  https://vk.com/	https://vk.com/wall-6126497_3474413	12.10.2021 12:02	500
	https://vk.com/wall-6126497_3474605	12.10.2021 14:59	199
	https://vk.com/wall-6126497_3474701	12.10.2021 16:46	298
	https://vk.com/wall-6126497_3474702	12.10.2021 16:46	199
	https://vk.com/wall-6126497_3474703	12.10.2021 16:46	199
	https://vk.com/wall-6126497_3474706	12.10.2021 16:47	500
	https://vk.com/wall-6126497_3474787	12.10.2021 18:01	199
	https://vk.com/wall-6126497_3474826	12.10.2021 18:30	150
	https://vk.com/wall-6126497_3474929	12.10.2021 20:03	199
	https://vk.com/wall-6126497_3474975	12.10.2021 20:46	199
Заполярный и Печенгский район.🏘🏘🏘  Куплю золото в любом виде и количестве💍💍💍  От	https://vk.com/wall-6126497_3475851	13.10.2021 19:03	199
	https://vk.com/wall-6126497_3475880	13.10.2021 19:31	199
🧿ШИНОМОНТАЖ🧿   ➡️Заполярный ⬅️    Переобуем вашего железного коня!)  Залатаем По	https://vk.com/wall-6126497_3475893	13.10.2021 19:49	199
Приглашаю милых дам, в группу: ламинирование/ BOTOX   ресниц, бровей. Оформление	https://vk.com/wall-6126497_3475955	13.10.2021 21:00	100
	https://vk.com/wall-6126497_3476772	14.10.2021 16:54	300
	https://vk.com/wall-6126497_3476881	14.10.2021 18:47	199
	https://vk.com/wall-6126497_3476952	14.10.2021 19:54	150
	https://vk.com/wall-6126497_3476969	14.10.2021 20:11	199
	https://vk.com/wall-6126497_3477379	15.10.2021 10:49	199
	https://vk.com/wall-6126497_3477493	15.10.2021 12:30	150
Ремонт и обслуживание компьютерной техники по Печенгскому району.  - помощь с вы	https://vk.com/wall-6126497_3477756	15.10.2021 17:21	199
Заполярный и Печенгский район.🏘🏘🏘  Куплю золото в любом виде и количестве💍💍💍  От	https://vk.com/wall-6126497_3477876	15.10.2021 19:03	199
Грузоперевозки по Печенгскому району и Мурманской области.  Беру груз до 1.5тонн	https://vk.com/wall-6126497_3477890	15.10.2021 19:21	199
	https://vk.com/wall-6126497_3477947	15.10.2021 20:27	199
🧿ШИНОМОНТАЖ🧿   ➡️Заполярный ⬅️    Переобуем вашего железного коня!)  Залатаем По	https://vk.com/wall-6126497_3477992	15.10.2021 21:18	199
	https://vk.com/wall-6126497_3478038	15.10.2021 21:39	300
	https://vk.com/wall-6126497_3478779	16.10.2021 17:37	199
	https://vk.com/wall-6126497_3478834	16.10.2021 18:30	150
продам печень трески.креветки и другие морепродукты https://m.vk.com/public20526	https://vk.com/wall-6126497_3478875	16.10.2021 19:27	100
🧿ШИНОМОНТАЖ🧿   ➡️Заполярный ⬅️    Переобуем вашего железного коня!)  Залатаем По	https://vk.com/wall-6126497_3479082	16.10.2021 23:34	199
	https://vk.com/wall-6126497_3479587	17.10.2021 12:30	150
	https://vk.com/wall-6126497_3479768	17.10.2021 14:21	199
💛Мечтаешь отрастить длинные волосы, но секущиеся кончики портят твой образ?!🤷🏼‍♀	https://vk.com/wall-6126497_3480433	17.10.2021 23:00	500
	https://vk.com/wall-6126497_3480472	17.10.2021 23:28	199
	https://vk.com/wall-6126497_3480748	18.10.2021 11:46	298
	https://vk.com/wall-6126497_3480780	18.10.2021 12:19	199
Никель.Сертифицированный мастер.Керапластика,Ботокс,Кератиновое выпрямление.Сост	https://vk.com/wall-6126497_3481116	18.10.2021 17:00	100
	https://vk.com/wall-6126497_3481194	18.10.2021 18:30	150
Заполярный и Печенгский район.🏘🏘🏘  Куплю золото в любом виде и количестве💍💍💍  От	https://vk.com/wall-6126497_3481216	18.10.2021 18:55	199
🧿ШИНОМОНТАЖ🧿    ➡Заполярный ⬅    Переобуем вашего железного коня!)  Залатаем  По	https://vk.com/wall-6126497_3481248	18.10.2021 19:30	199
	https://vk.com/wall-6126497_3481292	18.10.2021 20:10	199
	https://vk.com/wall-6126497_3481796	19.10.2021 12:30	150
	https://vk.com/wall-6126497_3482004	19.10.2021 15:41	199
	https://vk.com/wall-6126497_3482005	19.10.2021 15:42	199
	https://vk.com/wall-6126497_3482006	19.10.2021 15:42	199
	https://vk.com/wall-6126497_3482174	19.10.2021 18:43	199
	https://vk.com/wall-6126497_3482190	19.10.2021 18:59	199
🧿ШИНОМОНТАЖ🧿    ➡Заполярный ⬅    Переобуем вашего железного коня!)  Залатаем  По	https://vk.com/wall-6126497_3482287	19.10.2021 20:30	199
🧿ШИНОМОНТАЖ🧿    ➡Заполярный ⬅    Переобуем вашего железного коня!)  Залатаем  По	https://vk.com/wall-6126497_3483045	20.10.2021 16:30	199
	https://vk.com/wall-6126497_3483153	20.10.2021 18:30	150
	https://vk.com/wall-6126497_3483174	20.10.2021 18:49	199
	https://vk.com/wall-6126497_3483240	20.10.2021 19:59	199
	https://vk.com/wall-6126497_3483739	21.10.2021 12:30	150
ХОТИТЕ НАТЯЖНОЙ ПОТОЛОК? ОКНА? ДВЕРИ?  НУЖНА КОМПАНИЯ С ОПЫТОМ, ДОГОВОРОМ И ГАРА	https://vk.com/wall-6126497_3483836	21.10.2021 13:52	199
🧿ШИНОМОНТАЖ🧿    ➡Заполярный ⬅    Переобуем вашего железного коня!)  Залатаем  По	https://vk.com/wall-6126497_3484031	21.10.2021 17:30	199
	https://vk.com/wall-6126497_3484065	21.10.2021 18:28	199
	https://vk.com/wall-6126497_3484089	21.10.2021 19:00	199
ЗАЙМЫ выдаются только военнослужащим по контрату и офицерам служащим в г. Заполя	https://vk.com/wall-6126497_3484150	21.10.2021 20:05	500
Заполярный и Печенгский район.🏘🏘🏘  Куплю золото в любом виде и количестве💍💍💍  От	https://vk.com/wall-6126497_3484152	21.10.2021 20:06	199
Мужские/стрижки Ленина д. 5 "Городская баня" 9095618904 https://vk.com/club20417	https://vk.com/wall-6126497_3484839	22.10.2021 16:31	100
	https://vk.com/wall-6126497_3484937	22.10.2021 18:21	199
🧿ШИНОМОНТАЖ🧿    ➡Заполярный ⬅    Переобуем вашего железного коня!)  Залатаем  По	https://vk.com/wall-6126497_3484943	22.10.2021 18:27	199
	https://vk.com/wall-6126497_3484948	22.10.2021 18:30	150
	https://vk.com/wall-6126497_3485520	23.10.2021 12:30	150
🧿ШИНОМОНТАЖ🧿    ➡Заполярный ⬅    Переобуем вашего железного коня!)  Залатаем  По	https://vk.com/wall-6126497_3486005	23.10.2021 19:27	199
	https://vk.com/wall-6126497_3486136	23.10.2021 21:51	500
Город Заполярный  Продаётся 2-х комнатная квартира 🔑  На юбилейной 6  Этаж 4  ➡Е	https://vk.com/wall-6126497_3486149	23.10.2021 22:06	199
	https://vk.com/wall-6126497_3486163	23.10.2021 22:24	199
Город Заполярный  Продаётся 2-х комнатная квартира 🔑  На юбилейной 6  Этаж 4  ➡Е	https://vk.com/wall-6126497_3486195	23.10.2021 22:58	199
Город Заполярный🍂🍂🍂  Кафе бар «у Мангала» приглашает на работу!!!  ✅Пекаря  ✅Пом	https://vk.com/wall-6126497_3486342	24.10.2021 09:58	199
Город Заполярный🍂🍂🍂  Кафе бар «у Мангала» приглашает на работу!!!  ✅Пекаря  ✅Пом	https://vk.com/wall-6126497_3486467	24.10.2021 11:58	199
ХОТИТЕ НАТЯЖНОЙ ПОТОЛОК? ОКНА? ДВЕРИ?  НУЖНА КОМПАНИЯ С ОПЫТОМ, ДОГОВОРОМ И ГАРА	https://vk.com/wall-6126497_3486543	24.10.2021 13:03	199
Город Заполярный🍂🍂🍂  Кафе бар «у Мангала» приглашает на работу!!!  ✅Пекаря  ✅Пом	https://vk.com/wall-6126497_3486743	24.10.2021 15:58	199
	https://vk.com/wall-6126497_3486913	24.10.2021 18:30	150
🧿ШИНОМОНТАЖ🧿    ➡Заполярный ⬅    Переобуем вашего железного коня!)  Залатаем  По	https://vk.com/wall-6126497_3487008	24.10.2021 20:27	199
	https://vk.com/wall-6126497_3487211	25.10.2021 08:20	199
	https://vk.com/wall-6126497_3487401	25.10.2021 12:30	150
Заполярный.Продам котят,3 шотландские вислоухие,2 девочки ,1 мальчик.Д.Р.08.09,л	https://vk.com/wall-6126497_3487808	25.10.2021 19:21	100
🧿ШИНОМОНТАЖ🧿    ➡Заполярный ⬅    Переобуем вашего железного коня!)  Залатаем  По	https://vk.com/wall-6126497_3487911	25.10.2021 21:27	199
🧿ШИНОМОНТАЖ🧿    ➡Заполярный ⬅    Переобуем вашего железного коня!)  Залатаем  По	https://vk.com/wall-6126497_3488568	26.10.2021 17:27	199
	https://vk.com/wall-6126497_3488585	26.10.2021 17:44	199
	https://vk.com/wall-6126497_3488629	26.10.2021 18:30	150
	https://vk.com/wall-6126497_3488648	26.10.2021 18:52	199
	https://vk.com/wall-6126497_3488722	26.10.2021 20:00	199
	https://vk.com/wall-6126497_3489296	27.10.2021 12:30	150
ХОТИТЕ НАТЯЖНОЙ ПОТОЛОК? ОКНА? ДВЕРИ?  НУЖНА КОМПАНИЯ С ОПЫТОМ, ДОГОВОРОМ И ГАРА	https://vk.com/wall-6126497_3489416	27.10.2021 14:03	199
🔥Распродажа letique cosmetics 🔥 https://vk.com/id569413395      ✔️Отличная возмо	https://vk.com/wall-6126497_3489571	27.10.2021 16:34	500
🧿ШИНОМОНТАЖ🧿    ➡Заполярный ⬅    Переобуем вашего железного коня!)  Залатаем  По	https://vk.com/wall-6126497_3489666	27.10.2021 18:27	199
ТОРТЫ и ДЕСЕРТЫ НА ЗАКАЗ  • г. Заполярный  • Широкий ассортимент начинок на любо	https://vk.com/wall-6126497_3489713	27.10.2021 19:13	500
	https://vk.com/wall-6126497_3489757	27.10.2021 19:59	199
ЗАЙМЫ выдаются только военнослужащим по контрату и офицерам служащим в г. Заполя	https://vk.com/wall-6126497_3489847	27.10.2021 21:43	500
Заполярный!!На реснички и брови, до конца месяца действует скидка 20% . Успей за	https://vk.com/wall-6126497_3490211	28.10.2021 12:55	100
	https://vk.com/wall-6126497_3490549	28.10.2021 18:30	150
🧿ШИНОМОНТАЖ🧿    ➡Заполярный ⬅    Переобуем вашего железного коня!)  Залатаем  По	https://vk.com/wall-6126497_3490587	28.10.2021 19:27	199
	https://vk.com/wall-6126497_3490648	28.10.2021 20:45	199
	https://vk.com/wall-6126497_3490759	28.10.2021 23:11	199
	https://vk.com/wall-6126497_3491068	29.10.2021 12:30	150
	https://vk.com/wall-6126497_3491181	29.10.2021 14:20	298
	https://vk.com/wall-6126497_3491191	29.10.2021 14:30	298
	https://vk.com/wall-6126497_3491493	29.10.2021 19:50	199
	https://vk.com/wall-6126497_3491595	29.10.2021 21:40	199
ХОТИТЕ НАТЯЖНОЙ ПОТОЛОК? ОКНА? ДВЕРИ?  НУЖНА КОМПАНИЯ С ОПЫТОМ, ДОГОВОРОМ И ГАРА	https://vk.com/wall-6126497_3492136	30.10.2021 15:03	199
	https://vk.com/wall-6126497_3492178	30.10.2021 15:45	199
	https://vk.com/wall-6126497_3492354	30.10.2021 18:30	150
31 октября очередная поставка живых раков из Карелии Будут только крупные живые 	https://vk.com/wall-6126497_3492416	30.10.2021 19:50	200
Милые девушки, приглашаю к себе на услуги: 🔥Оформление и окрашивание бровей 🔥Лам	https://vk.com/wall-6126497_3492429	30.10.2021 20:19	500
ЗАЙМЫ выдаются только военнослужащим по контрату и офицерам служащим в г. Заполя	https://vk.com/wall-6126497_3492430	30.10.2021 20:20	500
	https://vk.com/wall-6126497_3492902	31.10.2021 12:30	150
	https://vk.com/wall-6126497_3493391	31.10.2021 19:52	199
	https://vk.com/wall-6126497_3493393	31.10.2021 19:52	199
	https://vk.com/wall-6126497_3493395	31.10.2021 19:52	199