title	start-date	start-time	end-date	end-time	hours	cost
Нилова	02.10.2021	22:00	02.10.2021	23:45	1	120
Ракицкая	03.10.2021	22:00	03.10.2021	23:00	1	120
Нилова	03.10.2021	23:00	03.10.2021	23:45	0	0
Нилова	04.10.2021	22:00	04.10.2021	23:45	1	120
Екатерина	05.10.2021	10:00	05.10.2021	12:00	2	180
Нилова	05.10.2021	19:00	05.10.2021	23:45	4	480
Акулич	06.10.2021	21:00	06.10.2021	23:00	2	240
Акулич	07.10.2021	12:00	07.10.2021	13:00	1	100
Акулич	11.10.2021	12:00	11.10.2021	14:00	2	180
Акулич	11.10.2021	17:00	11.10.2021	19:00	2	240
Нилова	12.10.2021	21:00	12.10.2021	23:45	2	240
Вол	13.10.2021	10:00	13.10.2021	11:00	1	80
Иголкина	14.10.2021	13:00	14.10.2021	18:00	5	440
Нилова	14.10.2021	19:00	14.10.2021	22:00	3	360
Иголкина	14.10.2021	22:00	14.10.2021	23:45	1	120
Екатерина	15.10.2021	10:00	15.10.2021	12:00	2	180
Иголкина	15.10.2021	12:00	15.10.2021	19:00	7	660
Вол	15.10.2021	19:00	15.10.2021	20:00	1	120
Ирина стайл	16.10.2021	09:00	16.10.2021	20:00	11	1040
Нилова	16.10.2021	20:00	16.10.2021	23:45	3	360
Астахов	17.10.2021	00:00	17.10.2021	08:00	8	533
Басецкая	17.10.2021	22:00	17.10.2021	23:45	1	120
Астахов	18.10.2021	22:00	18.10.2021	23:45	1	120
Селякова	19.10.2021	11:00	19.10.2021	12:00	1	100
Екатерина	20.10.2021	10:00	20.10.2021	12:00	2	180
Селякова	20.10.2021	17:00	20.10.2021	18:00	1	120
Астахов	20.10.2021	19:00	20.10.2021	20:00	1	120
Селякова	21.10.2021	12:00	21.10.2021	13:00	1	100
Нилова	21.10.2021	20:00	21.10.2021	23:45	3	360
Шитова	22.10.2021	19:00	22.10.2021	23:45	4	480
Астахов	23.10.2021	18:00	23.10.2021	20:00	2	240
Селякова	24.10.2021	20:00	24.10.2021	21:00	1	120
Басецкая	24.10.2021	21:00	24.10.2021	23:45	2	240
Селякова	25.10.2021	20:00	25.10.2021	21:00	1	120
Селякова	26.10.2021	11:00	26.10.2021	12:00	1	100
Селякова	27.10.2021	17:00	27.10.2021	18:00	1	120
Селякова	28.10.2021	12:00	28.10.2021	13:00	1	100
Селякова	29.10.2021	18:00	29.10.2021	19:00	1	120
Екатерина	30.10.2021	13:00	30.10.2021	15:00	2	160
Шитова	30.10.2021	19:00	30.10.2021	23:45	4	480
Нилова	31.10.2021	21:00	31.10.2021	23:45	2	240