title	url	date	cost
	https://vk.com/wall-6126497_3385643	02.07.2021 09:48	199
💫Дорогие друзья! Приглашаем Вас вступить в группу магазина "Центр Медтехники" ht	https://vk.com/wall-6126497_3385650	02.07.2021 10:03	200
Большой выбор чемоданов ,в наличии более 50 чемоданнов  https://vk.com/club18913	https://vk.com/wall-6126497_3386087	02.07.2021 21:32	500
	https://vk.com/wall-6126497_3386650	03.07.2021 17:10	199
ЗАМЕНА РЕМНЕЙ И ЦЕПЕЙ ГРМ ЗАПОЛЯРНЫЙ  89110646666	https://vk.com/wall-6126497_3388248	05.07.2021 17:55	199
	https://vk.com/wall-6126497_3388259	05.07.2021 18:02	300
ЗАМЕНА РЕМНЕЙ И ЦЕПЕЙ ГРМ ЗАПОЛЯРНЫЙ  89110646666	https://vk.com/wall-6126497_3388968	06.07.2021 17:05	199
	https://vk.com/wall-6126497_3389022	06.07.2021 18:35	199
Изготовление дубликатов госномеров за 15 минут. Все номера по ГОСТ. Высокое каче	https://vk.com/wall-6126497_3389106	06.07.2021 20:19	500
Изготовление дубликатов госномеров за 15 минут. Все номера по ГОСТ. Высокое каче	https://vk.com/wall-6126497_3389875	07.07.2021 20:54	500
ЗАМЕНА РЕМНЕЙ И ЦЕПЕЙ ГРМ ЗАПОЛЯРНЫЙ  89110646666	https://vk.com/wall-6126497_3390591	08.07.2021 17:29	199
	https://vk.com/wall-6126497_3390678	08.07.2021 18:35	199
	https://vk.com/wall-6126497_3391338	09.07.2021 14:46	150
	https://vk.com/wall-6126497_3392994	11.07.2021 20:03	199
	https://vk.com/wall-6126497_3393741	12.07.2021 19:42	150
ЗАМЕНА РЕМНЕЙ И ЦЕПЕЙ ГРМ ЗАПОЛЯРНЫЙ  89110646666	https://vk.com/wall-6126497_3394129	13.07.2021 10:04	199
	https://vk.com/wall-6126497_3394134	13.07.2021 10:19	500
	https://vk.com/wall-6126497_3394211	13.07.2021 12:01	500
	https://vk.com/wall-6126497_3394234	13.07.2021 12:30	150
ВАКАНСИЯ! ПРОДАВЕЦ-КОНСУЛЬТАНТ    Продавец - консультант    от 38 000 руб. на ру	https://vk.com/wall-6126497_3394283	13.07.2021 13:58	500
	https://vk.com/wall-6126497_3394423	13.07.2021 17:18	199
	https://vk.com/wall-6126497_3394464	13.07.2021 18:01	300
	https://vk.com/wall-6126497_3394521	13.07.2021 19:10	199
	https://vk.com/wall-6126497_3395156	14.07.2021 18:30	150
	https://vk.com/wall-6126497_3395286	14.07.2021 21:21	199
	https://vk.com/wall-6126497_3395630	15.07.2021 12:30	150
	https://vk.com/wall-6126497_3395886	15.07.2021 17:19	298
	https://vk.com/wall-6126497_3395962	15.07.2021 19:15	199
	https://vk.com/wall-6126497_3396039	15.07.2021 21:23	199
ЗАМЕНА РЕМНЕЙ И ЦЕПЕЙ ГРМ  ЗАПОЛЯРНЫЙ  89110646666	https://vk.com/wall-6126497_3396318	16.07.2021 10:30	199
	https://vk.com/wall-6126497_3396366	16.07.2021 11:28	298
	https://vk.com/wall-6126497_3396600	16.07.2021 17:05	199
	https://vk.com/wall-6126497_3396671	16.07.2021 18:30	150
В МАГАЗИНЕ СКИДКИ НА ВСЮ ОДЕЖДУ 30-50% !ВРЕМЯ РАБОТЫ С 12 ДО 15 https://vk.com/m	https://vk.com/wall-6126497_3396672	16.07.2021 18:31	100
🚚 Квартирные переезды по России 🇷🇺 и в Беларусь 🇧🇾 !  Осуществляем перевозки в К	https://vk.com/wall-6126497_3396737	16.07.2021 19:45	150
	https://vk.com/wall-6126497_3397210	17.07.2021 12:30	150
ЗАМЕНА РЕМНЕЙ И ЦЕПЕЙ ГРМ  ЗАПОЛЯРНЫЙ  89110646666	https://vk.com/wall-6126497_3397251	17.07.2021 13:25	199
	https://vk.com/wall-6126497_3397641	17.07.2021 21:01	199
Никель  Ищу моделей на покрытие  Бесплатно  Писать в л/с https://vk.com/steisha.	https://vk.com/wall-6126497_3398093	18.07.2021 12:25	100
	https://vk.com/wall-6126497_3398460	18.07.2021 18:30	150
	https://vk.com/wall-6126497_3398576	18.07.2021 20:20	199
	https://vk.com/wall-6126497_3399143	19.07.2021 12:30	150
	https://vk.com/wall-6126497_3399630	19.07.2021 20:36	199
	https://vk.com/wall-6126497_3400161	20.07.2021 13:17	298
ЗАМЕНА РЕМНЕЙ И ЦЕПЕЙ ГРМ  ЗАПОЛЯРНЫЙ  89110646666	https://vk.com/wall-6126497_3400192	20.07.2021 14:05	199
	https://vk.com/wall-6126497_3400427	20.07.2021 18:01	500
	https://vk.com/wall-6126497_3400441	20.07.2021 18:30	150
Дневники школьные (350 р) и ежедневники с фото, фотокниги, игральные фотокарты и	https://vk.com/wall-6126497_3400466	20.07.2021 19:02	500
🚚 Квартирные переезды по России 🇷🇺 и в Беларусь 🇧🇾 !  Осуществляем перевозки в К	https://vk.com/wall-6126497_3400840	21.07.2021 09:00	150
	https://vk.com/wall-6126497_3401059	21.07.2021 12:30	150
	https://vk.com/wall-6126497_3401472	21.07.2021 21:10	199
🚚 Квартирные переезды по России 🇷🇺 и в Беларусь 🇧🇾 !  Осуществляем перевозки в К	https://vk.com/wall-6126497_3401714	22.07.2021 09:00	150
	https://vk.com/wall-6126497_3401813	22.07.2021 11:05	298
Продам свежие лапы краба  Заполярный  89113081130	https://vk.com/wall-6126497_3402126	22.07.2021 16:58	100
	https://vk.com/wall-6126497_3402176	22.07.2021 18:12	199
	https://vk.com/wall-6126497_3402189	22.07.2021 18:30	150
	https://vk.com/wall-6126497_3402216	22.07.2021 18:55	199
🚚 Квартирные переезды по России 🇷🇺 и в Беларусь 🇧🇾 !  Осуществляем перевозки в К	https://vk.com/wall-6126497_3402554	23.07.2021 09:00	150
	https://vk.com/wall-6126497_3402694	23.07.2021 12:30	150
	https://vk.com/wall-6126497_3402728	23.07.2021 13:13	199
Продам свежие лапы краба  Заполярный  89113081130	https://vk.com/wall-6126497_3402885	23.07.2021 16:03	100
Продаётся 3-х комнатная квартира❗️ Город Заполярный. На Ленина 37, этаж 4 из 5  	https://vk.com/wall-6126497_3402955	23.07.2021 17:01	500
Продаётся помещение свободного назначения на Ждановке❗️❗️❗️ Можно использовать п	https://vk.com/wall-6126497_3402957	23.07.2021 17:02	500
Продаётся 1-х комнатная квартира 🔑  На Ленина 35 🏢4 этаж из 5 🏘Также имеется бал	https://vk.com/wall-6126497_3402959	23.07.2021 17:03	500
🚚 Квартирные переезды по России 🇷🇺 и в Беларусь 🇧🇾 !  Осуществляем перевозки в К	https://vk.com/wall-6126497_3403439	24.07.2021 11:00	150
	https://vk.com/wall-6126497_3403743	24.07.2021 16:28	150
	https://vk.com/wall-6126497_3403841	24.07.2021 18:30	150
	https://vk.com/wall-6126497_3404035	24.07.2021 22:38	199
🚚 Квартирные переезды по России 🇷🇺 и в Беларусь 🇧🇾 !  Осуществляем перевозки в К	https://vk.com/wall-6126497_3404254	25.07.2021 11:00	150
	https://vk.com/wall-6126497_3404319	25.07.2021 12:30	150
	https://vk.com/wall-6126497_3404385	25.07.2021 13:24	199
🚚 Квартирные переезды по России 🇷🇺 и в Беларусь 🇧🇾 !  Осуществляем перевозки в К	https://vk.com/wall-6126497_3404974	26.07.2021 09:00	150
	https://vk.com/wall-6126497_3405402	26.07.2021 18:30	150
ЗАМЕНА РЕМНЕЙ И ЦЕПЕЙ ГРМ  ЗАПОЛЯРНЫЙ  89110646666	https://vk.com/wall-6126497_3405484	26.07.2021 20:41	199
ХОТИТЕ НАТЯЖНОЙ ПОТОЛОК? ОКНА? ДВЕРИ? НУЖНА КОМПАНИЯ С ОПЫТОМ, ДОГОВОРОМ И ГАРАН	https://vk.com/wall-6126497_3405488	26.07.2021 20:45	298
🚚 Квартирные переезды по России 🇷🇺 и в Беларусь 🇧🇾 !  Осуществляем перевозки в К	https://vk.com/wall-6126497_3405670	27.07.2021 09:00	150
Приглашаю всех за красивыми бровками и ресницами  Запись на август/сентябрь отпу	https://vk.com/wall-6126497_3405704	27.07.2021 10:01	100
	https://vk.com/wall-6126497_3405823	27.07.2021 12:30	150
	https://vk.com/wall-6126497_3406182	27.07.2021 18:24	199
	https://vk.com/wall-6126497_3406265	27.07.2021 19:58	199
ХОТИТЕ НАТЯЖНОЙ ПОТОЛОК? ОКНА? ДВЕРИ? НУЖНА КОМПАНИЯ С ОПЫТОМ, ДОГОВОРОМ И ГАРАН	https://vk.com/wall-6126497_3406475	27.07.2021 22:35	298
🚚 Квартирные переезды по России 🇷🇺 и в Беларусь 🇧🇾 !  Осуществляем перевозки в К	https://vk.com/wall-6126497_3406625	28.07.2021 09:00	150
	https://vk.com/wall-6126497_3407102	28.07.2021 18:30	150
ХОТИТЕ НАТЯЖНОЙ ПОТОЛОК? ОКНА? ДВЕРИ? НУЖНА КОМПАНИЯ С ОПЫТОМ, ДОГОВОРОМ И ГАРАН	https://vk.com/wall-6126497_3407123	28.07.2021 18:49	298
ЗАМЕНА РЕМНЕЙ И ЦЕПЕЙ ГРМ  ЗАПОЛЯРНЫЙ  89110646666	https://vk.com/wall-6126497_3407125	28.07.2021 18:50	199
🚚 Квартирные переезды по России 🇷🇺 и в Беларусь 🇧🇾 !  Осуществляем перевозки в К	https://vk.com/wall-6126497_3407411	29.07.2021 09:00	150
	https://vk.com/wall-6126497_3407541	29.07.2021 12:30	150
	https://vk.com/wall-6126497_3407933	29.07.2021 20:01	199
	https://vk.com/wall-6126497_3407989	29.07.2021 21:10	199
🚚 Квартирные переезды по России 🇷🇺 и в Беларусь 🇧🇾 !  Осуществляем перевозки в К	https://vk.com/wall-6126497_3408153	30.07.2021 09:00	150
	https://vk.com/wall-6126497_3408545	30.07.2021 18:24	199
ХОТИТЕ НАТЯЖНОЙ ПОТОЛОК? ОКНА? ДВЕРИ? НУЖНА КОМПАНИЯ С ОПЫТОМ, ДОГОВОРОМ И ГАРАН	https://vk.com/wall-6126497_3408546	30.07.2021 18:25	298
	https://vk.com/wall-6126497_3408555	30.07.2021 18:30	150
Кафе-бар « у Мангала» приглашает вас🌸вкусно пообедать‼‼‼    Комплексный обед пре	https://vk.com/wall-6126497_3408579	30.07.2021 19:05	500
Продаётся помещение свободного назначения на Ждановке❗❗❗  ✅Есть свет  ✅Есть вода	https://vk.com/wall-6126497_3408583	30.07.2021 19:14	500
	https://vk.com/wall-6126497_3408618	30.07.2021 20:01	199
Милые девушки, женщины. Предлагаю Вам подготовиться к новому году, к 8 марта, а 	https://vk.com/wall-6126497_3408729	30.07.2021 22:38	500
🚚 Квартирные переезды по России 🇷🇺 и в Беларусь 🇧🇾 !  Осуществляем перевозки в К	https://vk.com/wall-6126497_3408930	31.07.2021 11:00	150
	https://vk.com/wall-6126497_3408996	31.07.2021 12:30	150
Продам печень трески 0.5 банка 550р,Заполярный https://vk.com/id132593389	https://vk.com/wall-6126497_3409376	31.07.2021 18:38	100