title	url	date	cost
Ремонт? Автомобиль? Отпуск?    Вы можете себе это позволить!    Успейте подать з	https://vk.com/wall-6126497_3385039	01.07.2021 14:30	298
	https://vk.com/wall-6126497_3385051	01.07.2021 14:48	199
Услуги автосервиса и сход-развал. Качественно и недорого! ➡Сход-Развал Заполярны	https://vk.com/wall-6126497_3385939	02.07.2021 17:30	500
Ремонт мобильных телефонов📱  ✅ Планшетов  💻 ноутбуков  📺 ЖК- телевизоров    http	https://vk.com/wall-6126497_3386018	02.07.2021 19:30	199
В магазине  «Альт» в наличии : - Легкие мужские ботинки! - Босоножки женские! - 	https://vk.com/wall-6126497_3386840	03.07.2021 21:21	199
	https://vk.com/wall-6126497_3387219	04.07.2021 12:49	199
Ремонт? Автомобиль? Отпуск?    Вы можете себе это позволить!    Успейте подать з	https://vk.com/wall-6126497_3387388	04.07.2021 16:00	298
Услуги автосервиса и сход-развал. Качественно и недорого! ➡Сход-Развал Заполярны	https://vk.com/wall-6126497_3387423	04.07.2021 16:30	500
В магазине  «Альт» в наличии : - Легкие мужские ботинки! - Босоножки женские! - 	https://vk.com/wall-6126497_3387568	04.07.2021 20:05	199
Всем тем кто едет в Лето 😃  👋 Открыто  ✨Б̲р̲о̲н̲и̲р̲о̲в̲а̲н̲и̲е̲ ̲З̲а̲к̲а̲з̲о̲в̲	https://vk.com/wall-6126497_3387724	04.07.2021 23:32	200
	https://vk.com/wall-6126497_3388229	05.07.2021 17:44	199
Ремонт мобильных телефонов📱  ✅ Планшетов  💻 ноутбуков  📺 ЖК- телевизоров    http	https://vk.com/wall-6126497_3388258	05.07.2021 18:00	199
	https://vk.com/wall-6126497_3388268	05.07.2021 18:12	500
https://vk.com/imperatrica_murmansk	https://vk.com/wall-6126497_3388839	06.07.2021 14:13	500
	https://vk.com/wall-6126497_3388863	06.07.2021 14:37	199
Добро пожаловать в "Ni-Строй"! 👋   Мы с радостью поможем Вам с ремонтом, и сдела	https://vk.com/wall-6126497_3389168	06.07.2021 21:30	500
	https://vk.com/wall-6126497_3389498	07.07.2021 12:02	199
	https://vk.com/wall-6126497_3389583	07.07.2021 14:00	199
	https://vk.com/wall-6126497_3389633	07.07.2021 14:45	199
Ремонт? Автомобиль? Отпуск?    Вы можете себе это позволить!    Успейте подать з	https://vk.com/wall-6126497_3389719	07.07.2021 17:00	298
В магазине  «Альт» распродажа всей летней обуви (кроме тапочек)!!!  Скидка 40%!!	https://vk.com/wall-6126497_3389854	07.07.2021 20:27	199
	https://vk.com/wall-6126497_3390360	08.07.2021 14:01	199
	https://vk.com/wall-6126497_3390577	08.07.2021 17:10	199
Ремонт мобильных телефонов📱  ✅ Планшетов  💻 ноутбуков  📺 ЖК- телевизоров    http	https://vk.com/wall-6126497_3390707	08.07.2021 19:00	199
В магазине  «Альт» распродажа всей летней обуви (кроме тапочек)!!!  Скидка 40%!!	https://vk.com/wall-6126497_3390776	08.07.2021 20:00	199
	https://vk.com/wall-6126497_3391301	09.07.2021 13:52	199
В наличии есть различные аксессуары - запчасти для iPhone - Android защитные стё	https://vk.com/wall-6126497_3391519	09.07.2021 18:38	500
В магазине  «Альт» распродажа всей летней обуви (кроме тапочек)!!!  Скидка 40%!!	https://vk.com/wall-6126497_3391600	09.07.2021 20:00	199
Продам печень трески 0.5 банка 550р,Заполярный  https://vk.com/id109507767	https://vk.com/wall-6126497_3391934	10.07.2021 10:23	100
	https://vk.com/wall-6126497_3392005	10.07.2021 12:00	199
	https://vk.com/wall-6126497_3392086	10.07.2021 14:01	199
Ремонт? Автомобиль? Отпуск?    Вы можете себе это позволить!    Успейте подать з	https://vk.com/wall-6126497_3392114	10.07.2021 14:30	298
Ремонт мобильных телефонов📱  ✅ Планшетов  💻 ноутбуков  📺 ЖК- телевизоров    http	https://vk.com/wall-6126497_3392362	10.07.2021 20:00	199
	https://vk.com/wall-6126497_3392746	11.07.2021 14:02	199
	https://vk.com/wall-6126497_3392747	11.07.2021 14:03	199
	https://vk.com/wall-6126497_3392849	11.07.2021 16:28	199
Добро пожаловать в "Ni-Строй"! 👋 Мы с радостью поможем Вам с ремонтом, и сделаем	https://vk.com/wall-6126497_3392859	11.07.2021 16:38	500
Пассажирские перевозки https://vk.com/avtonazakaz51.         Грузовые перевозки 	https://vk.com/wall-6126497_3393094	11.07.2021 23:00	500
	https://vk.com/wall-6126497_3393460	12.07.2021 14:01	199
Этим летом здоровый сон от Askona максимально выгодный🔥  ГЛАВНЫЙ SALE ЛЕТА в Ask	https://vk.com/wall-6126497_3393553	12.07.2021 15:35	200
	https://vk.com/wall-6126497_3394443	13.07.2021 17:45	199
Ремонт мобильных телефонов📱  ✅ Планшетов  💻 ноутбуков  📺 ЖК- телевизоров    http	https://vk.com/wall-6126497_3394447	13.07.2021 17:48	199
	https://vk.com/wall-6126497_3394968	14.07.2021 14:00	199
Ремонт? Автомобиль? Отпуск?    Вы можете себе это позволить!    Успейте подать з	https://vk.com/wall-6126497_3394991	14.07.2021 14:30	298
	https://vk.com/wall-6126497_3395695	15.07.2021 13:43	199
	https://vk.com/wall-6126497_3395835	15.07.2021 16:07	199
Ремонт мобильных телефонов📱  ✅ Планшетов  💻 ноутбуков  📺 ЖК- телевизоров    http	https://vk.com/wall-6126497_3395912	15.07.2021 18:00	199
Заполярный. Приглашаю девушек на шугаринг/восковую депиляцию. По очень приятным 	https://vk.com/wall-6126497_3397230	17.07.2021 13:00	100
Ремонт мобильных телефонов📱  ✅ Планшетов  💻 ноутбуков  📺 ЖК- телевизоров    http	https://vk.com/wall-6126497_3397541	17.07.2021 19:30	199
Ремонт мобильных телефонов📱  ✅ Планшетов  💻 ноутбуков  📺 ЖК- телевизоров    http	https://vk.com/wall-6126497_3399416	19.07.2021 17:30	199
	https://vk.com/wall-6126497_3401226	21.07.2021 15:45	199
Здоровый и крепкий сон с максимальной скидкой в Askona 💤 Распродажа товаров из н	https://vk.com/wall-6126497_3401309	21.07.2021 18:04	200
Пассажирские перевозки https://vk.com/avtonazakaz51              Грузовые перево	https://vk.com/wall-6126497_3401541	21.07.2021 23:00	200
Дорогие девушки, я сертифицированный мастер по педикюру,каждая девушка хочет быт	https://vk.com/wall-6126497_3401942	22.07.2021 13:46	500
	https://vk.com/wall-6126497_3402203	22.07.2021 18:40	199
	https://vk.com/wall-6126497_3402204	22.07.2021 18:41	199
Перманентный макияж/ Татуаж в Заполярном      Работаю в атравматичной технике, а	https://vk.com/wall-6126497_3402367	22.07.2021 21:52	500
	https://vk.com/wall-6126497_3402654	23.07.2021 11:39	199
В магазине  «Альт» распродажа всех женских платьев! Скидка 50%!!!  Так же напоми	https://vk.com/wall-6126497_3403124	23.07.2021 20:05	199
«Верни упругость и тонус кожи лица  без инъекций»  Заполярный  https://vk.com/cl	https://vk.com/wall-6126497_3403193	23.07.2021 21:30	100
	https://vk.com/wall-6126497_3403850	24.07.2021 18:39	199
В магазине  «Альт» распродажа всех женских платьев! Скидка 50%!!!  Так же напоми	https://vk.com/wall-6126497_3403939	24.07.2021 20:00	199
«Верни упругость и тонус кожи лица  без инъекций»  https://vk.com/club181254207 	https://vk.com/wall-6126497_3404467	25.07.2021 14:19	100
	https://vk.com/wall-6126497_3404681	25.07.2021 18:46	199
В магазине  «Альт» распродажа всех женских платьев! Скидка 50%!!!  Так же напоми	https://vk.com/wall-6126497_3404739	25.07.2021 20:00	199
Продам печень трески 0.5 банка 550р,Заполярный  https://vk.com/id109507767	https://vk.com/wall-6126497_3405863	27.07.2021 13:23	100
	https://vk.com/wall-6126497_3406276	27.07.2021 20:07	199
Массаж лица💆🏻‍♀️- это палочка выручалочка🪄 для любой представительницы🎀 прекрасн	https://vk.com/wall-6126497_3407224	28.07.2021 21:05	500
	https://vk.com/wall-6126497_3407776	29.07.2021 16:44	199
Здоровый и крепкий сон с максимальной скидкой в Askona 💤 Распродажа выставочных 	https://vk.com/wall-6126497_3407875	29.07.2021 19:01	200
Помощь в оформлении Диагностических карт ТО и продлении полиса ОСАГО категории А	https://vk.com/wall-6126497_3407889	29.07.2021 19:09	500
В магазине  «Альт» в наличии : - Рюкзаки для школьников! - Блузы и футболки женс	https://vk.com/wall-6126497_3407930	29.07.2021 20:00	199
	https://vk.com/wall-6126497_3408288	30.07.2021 13:07	199
Кузовной ремонт в Никеле  Сварочные работы, ремонт авто  Вступайте: https://vk.c	https://vk.com/wall-6126497_3408359	30.07.2021 14:20	100
В магазине  «Альт» в наличии : - Рюкзаки для школьников! - Блузы и футболки женс	https://vk.com/wall-6126497_3408616	30.07.2021 20:00	199
	https://vk.com/wall-6126497_3409072	31.07.2021 13:27	199
	https://vk.com/wall-6126497_3409141	31.07.2021 14:26	199
	https://vk.com/wall-6126497_3409221	31.07.2021 15:45	500
В магазине  «Альт» в наличии : - Рюкзаки для школьников! - Блузы и футболки женс	https://vk.com/wall-6126497_3409444	31.07.2021 20:00	199