title	start-date	start-time	end-date	end-time	hours	cost
Гасанов (оплата Саше от Лены)	04.03.2022	00:00	04.03.2022	23:45	23	2000
Гасанов (оплата Саше от Лены)	08.03.2022	00:00	08.03.2022	12:00	12	860
	08.03.2022	17:00	08.03.2022	19:00	2	240
	10.03.2022	13:00	10.03.2022	18:00	5	440
	10.03.2022	18:00	10.03.2022	23:45	5	600
	11.03.2022	00:00	11.03.2022	09:00	9	600
	16.03.2022	16:00	16.03.2022	23:00	7	800
	17.03.2022	12:00	17.03.2022	16:00	4	340
	17.03.2022	16:00	17.03.2022	19:00	3	320
	17.03.2022	19:00	17.03.2022	23:45	4	480
	18.03.2022	18:00	18.03.2022	19:00	1	120
	19.03.2022	17:00	19.03.2022	19:00	2	240
	20.03.2022	15:00	20.03.2022	19:00	4	400
	28.03.2022	22:00	28.03.2022	23:00	1	120
	29.03.2022	15:00	29.03.2022	21:00	6	640
	30.03.2022	00:00	30.03.2022	09:00	9	600