title	start-date	start-time	end-date	end-time	hours	cost
960р Нилова	01.09.2020	01:00	01.09.2020	14:00	13	973
Махач	03.09.2020	11:00	03.09.2020	19:00	8	760
Магазин, Костин	03.09.2020	19:00	03.09.2020	20:00	1	120
Ракицкая	04.09.2020	20:00	04.09.2020	23:45	3	360
Астахов 120р	05.09.2020	15:30	05.09.2020	17:00	2	160
Ракицкая	05.09.2020	17:00	05.09.2020	19:00	2	240
Костин	05.09.2020	19:00	05.09.2020	20:00	1	120
Нилова	05.09.2020	20:00	05.09.2020	23:45	3	360
Нилова	06.09.2020	20:00	06.09.2020	23:45	3	360
Костин	07.09.2020	19:00	07.09.2020	20:00	1	120
Вычегжанин	07.09.2020	20:00	07.09.2020	23:45	3	360
Вычегжанин	08.09.2020	00:00	08.09.2020	16:00	16	1200
Костин	09.09.2020	19:00	09.09.2020	20:00	1	120
Стародубова	09.09.2020	21:00	09.09.2020	23:45	2	240
Акулич	13.09.2020	11:00	13.09.2020	13:00	2	200
Ай	13.09.2020	13:00	13.09.2020	16:00	3	240
Костин	13.09.2020	19:00	13.09.2020	20:00	1	120
Нилова	13.09.2020	20:00	13.09.2020	23:45	3	360
Акулич	15.09.2020	17:00	15.09.2020	19:00	2	240
Костин	15.09.2020	19:00	15.09.2020	20:00	1	120
Костин	17.09.2020	19:00	17.09.2020	20:00	1	120
Нилова	18.09.2020	20:00	18.09.2020	23:45	3	360
Костин	19.09.2020	19:00	19.09.2020	20:00	1	120
Костин	21.09.2020	19:00	21.09.2020	20:00	1	120
Нилова	22.09.2020	20:00	22.09.2020	23:45	3	360
Костин	23.09.2020	19:00	23.09.2020	20:00	1	120
Астахов	23.09.2020	22:00	23.09.2020	23:45	1	120
Костин	25.09.2020	19:00	25.09.2020	20:00	1	120
Нилова	25.09.2020	20:00	25.09.2020	23:45	3	360
Костин	27.09.2020	19:00	27.09.2020	20:00	1	120
Костин	29.09.2020	19:00	29.09.2020	20:00	1	120
Нилова	30.09.2020	20:00	30.09.2020	22:30	2	240