title	url	date	cost
Предлагаю услуги педикюра https://vk.com/club183498474  - Классический с примене	https://vk.com/wall-6126497_3102123	01.09.2020 14:00	500
Куплю золото-лом дорого от 1500 за грамм ! Никель ! Возможен выезд по печенгском	https://vk.com/wall-6126497_3102294	01.09.2020 17:00	199
Скидки продолжаются!😍 В [id507978342|Бруснике] распродажа до -70%, -50% от цены 	https://vk.com/wall-6126497_3102387	01.09.2020 18:30	200
	https://vk.com/wall-6126497_3102570	01.09.2020 21:40	100
Теперь в EvgeniyaStudio в г. Заполярный профкосметика в наличии и под заказ🔥🔥🔥по	https://vk.com/wall-6126497_3103172	02.09.2020 14:29	200
Продам самца карелла, возраст 1,5 года, какарик (новозеландский попугай), амадин	https://vk.com/wall-6126497_3103259	02.09.2020 16:00	298
📦 ПЛАНИРУЕТЕ ПЕРЕЕЗД? 7 причин, почему стоит обратиться в профессиональную транс	https://vk.com/wall-6126497_3103410	02.09.2020 19:00	200
📢 Формируем заказ на печать в типографии! Высокое качество печати по низкой цене	https://vk.com/wall-6126497_3103423	02.09.2020 19:12	500
Никель, Печенгский район: доставка бесплатная. Заявки в личном сообщении. Формир	https://vk.com/wall-6126497_3103430	02.09.2020 19:17	500
💥⚡❗ХИМЧИСТКА ❗⚡💥  Мы делаем КАЧЕСТВЕННУЮ ХИМЧИСТКУ мягкой мебели, кожаной мебели	https://vk.com/wall-6126497_3103471	02.09.2020 20:00	199
Заполярный, Печенгский район.  Массаж, красота и здоровье!  Предлагаю: 🌼Классиче	https://vk.com/wall-6126497_3104400	03.09.2020 18:30	500
Несложный велоремонт. Настройка тормозов, переключение передач, замена тросиков 	https://vk.com/wall-6126497_3104542	03.09.2020 20:37	500
Акция! При единовременной оплате 8 сеансов массажа -  9 и 10 бесплатно! Запись п	https://vk.com/wall-6126497_3104569	03.09.2020 21:00	199
Распродажа зимней обуви за нал -25%. Угги, зимние кроссы, дутыши и летние брюки 	https://vk.com/wall-6126497_3104951	04.09.2020 10:00	500
Обод с кристаллами ручной работы 🔥 В наличии и под заказ.  👑 Короны ручной работ	https://vk.com/wall-6126497_3105483	04.09.2020 17:00	298
💥⚡❗ХИМЧИСТКА ❗⚡💥  Мы делаем КАЧЕСТВЕННУЮ ХИМЧИСТКУ мягкой мебели, кожаной мебели	https://vk.com/wall-6126497_3105750	04.09.2020 20:00	199
В магазин ,, Эконом класс,, поступил новый товар. Куртки женские, мужские и детс	https://vk.com/wall-6126497_3106137	05.09.2020 10:00	199
Уважаемые жители Печенгского района! В нашем сообществе отсутствуют забавные "ви	https://vk.com/wall-6126497_3106440	05.09.2020 14:13	200
Куплю золото-лом дорого от 1500 за грамм ! Никель ! Возможен выезд по печенгском	https://vk.com/wall-6126497_3106635	05.09.2020 17:00	199
Продам самца карелла, возраст 1,5 года, какарик (новозеландский попугай), амадин	https://vk.com/wall-6126497_3107703	06.09.2020 17:00	298
	https://vk.com/wall-6126497_3107755	06.09.2020 18:00	100
Детский массаж стимулирует все процессы организма ребенка.  Он направлен на укре	https://vk.com/wall-6126497_3107966	06.09.2020 21:00	199
❗❗❗❗❗❗❗❗❗ Каждая 7-я Вафля в подарок😉😋 Каждый 5-й кофе в подарок 🎁 от КофеCentr 	https://vk.com/wall-6126497_3108821	07.09.2020 17:03	298
	https://vk.com/wall-6126497_3108895	07.09.2020 18:31	100
🍯🍯🍯🍯🍯🍯🍯🍯🍯Мед 🍯 со своей пасеки! Привезённый с малонаселенной деревни в Белгородс	https://vk.com/wall-6126497_3108950	07.09.2020 19:15	298
Коллекционные сорта фиалок и пеларгоний(герань).Доставка в Заполярный 18 сентябр	https://vk.com/wall-6126497_3108962	07.09.2020 19:25	500
	https://vk.com/wall-6126497_3108981	07.09.2020 19:35	100
В магазин ,, Эконом класс,, поступил новый товар. Куртки женские, мужские и детс	https://vk.com/wall-6126497_3108992	07.09.2020 19:55	199
❗❗❗❗❗❗❗❗❗ Каждая 7-я Вафля в подарок😉😋 Каждый 5-й кофе в подарок 🎁 от КофеCentr 	https://vk.com/wall-6126497_3109461	08.09.2020 11:00	298
Куплю золото-лом дорого от 1500 за грамм ! Никель ! Возможен выезд по печенгском	https://vk.com/wall-6126497_3109855	08.09.2020 17:00	199
Заполярный https://vk.com/club170832177 - Шугаринг, воск - Ламинирование и боток	https://vk.com/wall-6126497_3110450	09.09.2020 11:04	100
	https://vk.com/wall-6126497_3110561	09.09.2020 12:44	100
Осень 🍁🍂 вступила в свои права. Стало больше пасмурных дней, которые наводят гру	https://vk.com/wall-6126497_3111079	09.09.2020 21:00	199
Заполярный https://vk.com/club170832177 - Шугаринг, воск - Ламинирование и боток	https://vk.com/wall-6126497_3111481	10.09.2020 11:15	100
💡В магазине одежды "Альбатрос" поступление нового товара. Предлагаем вам 👗платья	https://vk.com/wall-6126497_3112242	10.09.2020 22:12	199
💡В магазине одежды "Альбатрос" поступление нового товара. Предлагаем вам 👗платья	https://vk.com/wall-6126497_3112518	11.09.2020 10:00	199
В магазин ,, Эконом класс,, поступил новый товар. Куртки женские, мужские и детс	https://vk.com/wall-6126497_3112542	11.09.2020 10:15	199
Предлагаю услуги: маникюр, укрепление ногтей, покрытие гель-лак. Нижнее Луостари	https://vk.com/wall-6126497_3113129	11.09.2020 17:00	100
💡В магазине одежды "Альбатрос" поступление нового товара. Предлагаем вам 👗платья	https://vk.com/wall-6126497_3113426	11.09.2020 22:00	199
💡В магазине одежды "Альбатрос" поступление нового товара. Предлагаем вам 👗платья	https://vk.com/wall-6126497_3113676	12.09.2020 10:00	199
	https://vk.com/wall-6126497_3113757	12.09.2020 11:00	100
Заполярный. Предлагаю парикмахерские услуги с выездом на дом! Все вопросы в личк	https://vk.com/wall-6126497_3113843	12.09.2020 12:13	100
Куплю золото-лом дорого от 1500 за грамм ! Никель ! Возможен выезд по печенгском	https://vk.com/wall-6126497_3114247	12.09.2020 17:00	199
Обод с кристаллами ручной работы 🔥  В наличии и под заказ.  👑 Короны ручной рабо	https://vk.com/wall-6126497_3114258	12.09.2020 17:10	298
🍯🍯🍯🍯🍯🍯🍯🍯🍯Мед 🍯 со своей пасеки! Привезённый с малонаселенной деревни в Белгородс	https://vk.com/wall-6126497_3114373	12.09.2020 19:00	298
На вопрос делать эпиляцию осенью или нет, ответ однозначный: ДА! Если хотите все	https://vk.com/wall-6126497_3114479	12.09.2020 21:05	199
Заполярный. Предлагаю парикмахерские услуги с выездом на дом! Все вопросы в личк	https://vk.com/wall-6126497_3115071	13.09.2020 13:00	100
Народная ярмарка с 14 по 21 сентября! Заполярный. Торговая площадка между магази	https://vk.com/wall-6126497_3115196	13.09.2020 14:40	200
В магазин ,, Эконом класс,, поступил новый товар. Куртки женские, мужские и детс	https://vk.com/wall-6126497_3115634	13.09.2020 20:51	199
Народная ярмарка с 14 по 21 сентября! Заполярный. Торговая площадка между магази	https://vk.com/wall-6126497_3115994	14.09.2020 10:50	200
	https://vk.com/wall-6126497_3116698	14.09.2020 21:35	100
Народная ярмарка с 14 по 21 сентября! Заполярный. Торговая площадка между магази	https://vk.com/wall-6126497_3117010	15.09.2020 10:02	200
В магазин,, Эконом класс,, поступление нового товара. Куртки женские, мужские и 	https://vk.com/wall-6126497_3117129	15.09.2020 11:55	199
🍯🍯🍯🍯🍯🍯🍯🍯🍯Мед 🍯 со своей пасеки! Привезённый с малонаселенной деревни в Белгородс	https://vk.com/wall-6126497_3117324	15.09.2020 15:17	298
Куплю золото-лом дорого от 1500 за грамм ! Никель ! Возможен выезд по печенгском	https://vk.com/wall-6126497_3117436	15.09.2020 17:00	199
💥⚡❗ХИМЧИСТКА ❗⚡💥 Мы делаем КАЧЕСТВЕННУЮ ХИМЧИСТКУ мягкой мебели, кожаной мебели,	https://vk.com/wall-6126497_3117609	15.09.2020 20:00	199
На вопрос: Делать эпиляцию осенью или нет? Ответ однозначный: ДА! Если хотите вс	https://vk.com/wall-6126497_3117702	15.09.2020 21:21	199
Народная ярмарка с 14 по 21 сентября! Заполярный. Торговая площадка между магази	https://vk.com/wall-6126497_3118031	16.09.2020 10:30	200
Заполярный https://vk.com/club170832177 - Шугаринг, воск - Ламинирование и боток	https://vk.com/wall-6126497_3118105	16.09.2020 11:40	100
🇷🇺 ПЕРЕЕЗД ДЛЯ ВОЕННОСЛУЖАЩИХ 🇷🇺   Вряд ли в нашей стране найдутся семьи, меняющ	https://vk.com/wall-6126497_3118650	16.09.2020 19:00	200
	https://vk.com/wall-6126497_3118886	16.09.2020 22:16	100
https://vk.com/club171868588 ремонт двигателей, удаление катализаторов и установ	https://vk.com/wall-6126497_3118981	17.09.2020 00:57	298
Народная ярмарка с 14 по 21 сентября! Заполярный. Торговая площадка между магази	https://vk.com/wall-6126497_3119153	17.09.2020 10:30	200
	https://vk.com/wall-6126497_3119563	17.09.2020 17:00	100
	https://vk.com/wall-6126497_3119668	17.09.2020 19:10	100
💥⚡❗ХИМЧИСТКА ❗⚡💥 Мы делаем КАЧЕСТВЕННУЮ ХИМЧИСТКУ мягкой мебели, кожаной мебели,	https://vk.com/wall-6126497_3119725	17.09.2020 20:00	199
	https://vk.com/wall-6126497_3119747	17.09.2020 20:20	100
	https://vk.com/wall-6126497_3120547	18.09.2020 15:32	100
Обод с кристаллами ручной работы 🔥  В наличии и под заказ.  👑 Короны ручной рабо	https://vk.com/wall-6126497_3120661	18.09.2020 17:00	298
	https://vk.com/wall-6126497_3120727	18.09.2020 18:13	100
Требуется парикмахер, мастер маникюра, мастер по наращиванию ресниц на аренду. М	https://vk.com/wall-6126497_3120762	18.09.2020 18:54	200
	https://vk.com/wall-6126497_3120836	18.09.2020 20:00	100
На вопрос: Делать эпиляцию осенью или нет? Ответ однозначный: ДА! Если хотите вс	https://vk.com/wall-6126497_3120912	18.09.2020 21:06	199
🔥 *ВНИМАНИЕ!*🔥  *ОТКРЫТ НАБОР В НОВЫЙ ПРОЕКТ ПО ПОХУДЕНИЮ*  «АДСКАЯ НЕДЕЛЯ»  🧨Ст	https://vk.com/wall-6126497_3120942	18.09.2020 21:26	200
В магазин,, Эконом класс,, поступление нового товара. Куртки женские, мужские и 	https://vk.com/wall-6126497_3121291	19.09.2020 11:00	199
Заполярный https://vk.com/club170832177 - Шугаринг, воск - Ламинирование и боток	https://vk.com/wall-6126497_3121340	19.09.2020 11:50	100
Куплю золото-лом дорого от 1500 за грамм ! Никель ! Возможен выезд по печенгском	https://vk.com/wall-6126497_3121699	19.09.2020 17:00	199
	https://vk.com/wall-6126497_3121894	19.09.2020 20:00	100
Парикмахерская "Бабочка" предлагает обслужиться у начинающего парикмахера со ски	https://vk.com/wall-6126497_3123219	20.09.2020 21:49	199
	https://vk.com/wall-6126497_3123267	20.09.2020 22:42	100
Спутник - Заполярный косметика Oriflame по цене консультанта, вступайте https://	https://vk.com/wall-6126497_3123477	21.09.2020 10:45	100
В магазине ,, Эконом класс,, поступление нового товара. Куртки женские, мужские 	https://vk.com/wall-6126497_3123575	21.09.2020 12:06	199
🍯🍯🍯🍯🍯🍯🍯🍯🍯Мед 🍯 со своей пасеки! Привезённый с малонаселенной деревни в Белгородс	https://vk.com/wall-6126497_3124089	21.09.2020 20:27	298
Парикмахерская "Бабочка" предлагает обслужиться у начинающего парикмахера со ски	https://vk.com/wall-6126497_3124126	21.09.2020 21:00	199
Рада Приветствовать Вас в моей группе!!! Вступайте!!! Заказывайте!!! https://m.v	https://vk.com/wall-6126497_3124379	22.09.2020 09:05	100
Заполярный https://vk.com/club170832177 - Шугаринг, воск - Ламинирование и боток	https://vk.com/wall-6126497_3124460	22.09.2020 11:05	100
Никель. Магазин "ЭКОНОМ" ул.Мира 17/9 (вход в магазин улыбка радуги). Скидка на 	https://vk.com/wall-6126497_3124754	22.09.2020 15:01	199
Куплю золото-лом дорого от 1500 за грамм ! Никель ! Возможен выезд по печенгском	https://vk.com/wall-6126497_3124878	22.09.2020 17:00	199
	https://vk.com/wall-6126497_3125824	23.09.2020 18:00	100
Никель, маг 《Дом》 поступление товара: сантехника, вентиляция, очки, линзы, сереб	https://vk.com/wall-6126497_3125836	23.09.2020 18:09	500
Грузоперевозки. г. Заполярный. тел: +7 921 034 45 54 https://vk.com/gruzo73	https://vk.com/wall-6126497_3125840	23.09.2020 18:10	100
Магазин 《Русская красавица》  Поступил новый товар! С 24.09.2020 скидка -50% на з	https://vk.com/wall-6126497_3125850	23.09.2020 18:14	500
💥⚡❗ХИМЧИСТКА ❗⚡💥 Мы делаем КАЧЕСТВЕННУЮ ХИМЧИСТКУ мягкой мебели, кожаной мебели,	https://vk.com/wall-6126497_3126006	23.09.2020 21:00	199
	https://vk.com/wall-6126497_3126067	23.09.2020 22:02	100
https://vk.com/club171868588 ремонт двигателей, удаление катализаторов и установ	https://vk.com/wall-6126497_3126097	23.09.2020 22:37	298
Никель. Магазин "ЭКОНОМ" ул.Мира 17/9 (вход в магазин улыбка радуги). Скидка на 	https://vk.com/wall-6126497_3126540	24.09.2020 12:28	199
Продается ёжик (австралийский белобрюхий) абсолютно ручной. Уживается с любыми д	https://vk.com/wall-6126497_3126542	24.09.2020 12:29	298
Обод с кристаллами ручной работы 🔥  В наличии и под заказ.  👑 Короны ручной рабо	https://vk.com/wall-6126497_3126844	24.09.2020 17:00	298
	https://vk.com/wall-6126497_3127035	24.09.2020 20:00	100
Ищу моделей на наращивание ресниц, оплата только за материалы. https://vk.com/la	https://vk.com/wall-6126497_3128057	25.09.2020 19:19	100
Продается ёжик (австралийский белобрюхий) абсолютно ручной. Уживается с любыми д	https://vk.com/wall-6126497_3128096	25.09.2020 20:05	298
💥⚡❗ХИМЧИСТКА ❗⚡💥 Мы делаем КАЧЕСТВЕННУЮ ХИМЧИСТКУ мягкой мебели, кожаной мебели,	https://vk.com/wall-6126497_3128146	25.09.2020 21:00	199
Заполярный. Предлагаю парикмахерские услуги с выездом на дом! Все вопросы в личк	https://vk.com/wall-6126497_3128587	26.09.2020 11:33	100
Заполярный https://vk.com/club170832177 - Шугаринг, воск - Ламинирование и боток	https://vk.com/wall-6126497_3128621	26.09.2020 11:55	100
	https://vk.com/wall-6126497_3128629	26.09.2020 12:00	100
Никель. Магазин "ЭКОНОМ" ул.Мира 17/9 (вход в магазин улыбка радуги). Скидка на 	https://vk.com/wall-6126497_3128793	26.09.2020 14:06	199
	https://vk.com/wall-6126497_3128858	26.09.2020 15:02	100
Куплю золото-лом дорого от 1500 за грамм ! Никель ! Возможен выезд по печенгском	https://vk.com/wall-6126497_3128998	26.09.2020 17:00	199
	https://vk.com/wall-6126497_3129061	26.09.2020 18:00	100
Ламинирование ресниц.  Ламинирование бровей.  Окрашивание.  Заполярный https://v	https://vk.com/wall-6126497_3129173	26.09.2020 19:36	100
💡Уважаемые жители Печенгского района, приглашаем вас посетить магазин одежды "Ал	https://vk.com/wall-6126497_3129304	26.09.2020 22:00	199
💡Уважаемые жители Печенгского района, приглашаем вас посетить магазин одежды "Ал	https://vk.com/wall-6126497_3129537	27.09.2020 10:00	199
Уважаемые жители Печенгского района! В нашем сообществе отсутствуют забавные "ви	https://vk.com/wall-6126497_3130220	27.09.2020 20:08	200
Никель. Магазин "ЭКОНОМ" ул.Мира 17/9 (вход в магазин улыбка радуги). Скидка на 	https://vk.com/wall-6126497_3130570	28.09.2020 10:30	199
https://vk.com/club171868588 ремонт двигателей, удаление катализаторов и установ	https://vk.com/wall-6126497_3131352	28.09.2020 21:53	298
Куплю золото-лом дорого от 1500 за грамм ! Никель ! Возможен выезд по печенгском	https://vk.com/wall-6126497_3132031	29.09.2020 17:00	199
	https://vk.com/wall-6126497_3132096	29.09.2020 18:00	100
Обод с кристаллами ручной работы 🔥  В наличии и под заказ.  👑 Короны ручной рабо	https://vk.com/wall-6126497_3133136	30.09.2020 17:00	298
Куплю золото-лом дорого от 1800 за грамм ! Никель ! Возможен выезд по печенгском	https://vk.com/wall-6126497_3133147	30.09.2020 17:10	199
❗️Внимание изменение цен ❗️ 🍯🍯🍯🍯🍯🍯🍯🍯🍯Мед 🍯 со своей пасеки! Привезённый с малона	https://vk.com/wall-6126497_3133269	30.09.2020 19:05	298
	https://vk.com/wall-6126497_3133289	30.09.2020 19:20	100
Заполярный. Предлагаю парикмахерские услуги с выездом на дом! Все вопросы в личк	https://vk.com/wall-6126497_3133320	30.09.2020 20:02	100
https://vk.com/club171868588 ремонт двигателей, удаление катализаторов и установ	https://vk.com/wall-6126497_3133327	30.09.2020 20:10	298
Никель. Магазин "ЭКОНОМ" ул.Мира 17/9 (вход в магазин улыбка радуги). Скидка на 	https://vk.com/wall-6126497_3133526	30.09.2020 23:33	199