title	start-date	start-time	end-date	end-time	hours	cost
Махач	04.09.2020	11:00	04.09.2020	19:00	8	760
Костин	04.09.2020	19:00	04.09.2020	20:00	1	120
Смородин	08.09.2020	16:00	08.09.2020	19:00	3	320
Костин	08.09.2020	19:00	08.09.2020	20:00	1	120
Лена	08.09.2020	20:00	08.09.2020	23:00	3	360
Смородин	09.09.2020	16:00	09.09.2020	19:00	3	320
Смородин	09.09.2020	20:00	09.09.2020	21:00	1	120
Смородин	10.09.2020	16:00	10.09.2020	19:00	3	320
Смородин	10.09.2020	20:00	10.09.2020	21:00	1	120
Печенга	11.09.2020	00:00	11.09.2020	16:00	16	1200
Смородин	11.09.2020	16:00	11.09.2020	21:00	5	560
Печенга	11.09.2020	21:00	11.09.2020	23:45	2	240
Пых пых	12.09.2020	09:00	12.09.2020	11:00	2	160
Тетерина Цветы	12.09.2020	11:00	12.09.2020	14:00	3	280
Пых пых	12.09.2020	14:00	12.09.2020	19:00	5	480
Костин	12.09.2020	19:00	12.09.2020	20:00	1	120
Пых пых	13.09.2020	16:00	13.09.2020	19:00	3	320
Окраина	14.09.2020	16:00	14.09.2020	19:00	3	320
Пых пых	14.09.2020	20:00	14.09.2020	22:00	2	240
Алена зисличкис	16.09.2020	15:00	16.09.2020	19:00	4	400
Костин	16.09.2020	19:00	16.09.2020	20:00	1	120
Динара омарова	16.09.2020	20:00	16.09.2020	23:45	3	360
Распродажа	17.09.2020	17:00	17.09.2020	19:00	2	240
Распродажа	18.09.2020	17:00	18.09.2020	19:00	2	240
Распродажа	20.09.2020	17:00	20.09.2020	19:00	2	240
Костин	20.09.2020	19:00	20.09.2020	20:00	1	120
Окраина	22.09.2020	16:00	22.09.2020	19:00	3	320
Смирнова цветы	23.09.2020	17:00	23.09.2020	19:00	2	240
Смирнова цветы	23.09.2020	20:00	23.09.2020	21:00	1	120
Смирнова цветы	24.09.2020	17:00	24.09.2020	19:00	2	240
Костин	24.09.2020	19:00	24.09.2020	20:00	1	120
Смирнова Цветы	24.09.2020	20:00	24.09.2020	21:00	1	120
Распродажа камилия	25.09.2020	17:00	25.09.2020	19:00	2	240
Окраина	26.09.2020	16:00	26.09.2020	19:00	3	320
Наталья	26.09.2020	20:00	26.09.2020	22:00	2	240
Распродажа	27.09.2020	17:00	27.09.2020	19:00	2	240
Волосы ботокс	27.09.2020	20:00	27.09.2020	23:45	3	360
Окраина	28.09.2020	16:00	28.09.2020	19:00	3	320
Костин	28.09.2020	19:00	28.09.2020	20:00	1	120
Распродажа камилия	29.09.2020	17:00	29.09.2020	19:00	2	240