title	url	date	cost
	https://vk.com/wall-6126497_3550390	01.01.2022 14:00	199
Никель. Сауна Заречье! Принимаем заказы на проведение новогодних каникул.  Цена:	https://vk.com/wall-6126497_3550471	01.01.2022 15:31	199
Услуги автосервиса и сход-развал. Качественно и недорого! ➡Сход-Развал Заполярны	https://vk.com/wall-6126497_3550544	01.01.2022 18:00	298
	https://vk.com/wall-6126497_3550902	02.01.2022 12:23	298
Никель. Сауна Заречье! Принимаем заказы на проведение новогодних каникул.  Цена:	https://vk.com/wall-6126497_3550922	02.01.2022 13:00	199
Ремонт мобильных телефонов📱  ✅ Планшетов  💻 ноутбуков  📺 ЖК- телевизоров    http	https://vk.com/wall-6126497_3551116	02.01.2022 16:30	199
Никель. Сауна Заречье! Принимаем заказы на проведение новогодних каникул.  Цена:	https://vk.com/wall-6126497_3551322	02.01.2022 20:08	199
‼️‼️Куплю ваше авто, целое, битое требующее срочной продажи, оформление на месте	https://vk.com/wall-6126497_3551750	03.01.2022 13:47	199
Никель. Сауна Заречье! Принимаем заказы на проведение новогодних каникул.  Цена:	https://vk.com/wall-6126497_3551765	03.01.2022 14:00	199
Никель. Сауна Заречье! Принимаем заказы на проведение новогодних каникул.  Цена:	https://vk.com/wall-6126497_3552025	03.01.2022 20:30	199
В магазине  «Альт» с 4 по 31 января скидка на все 20%!!! В наличии: - Нижнее бел	https://vk.com/wall-6126497_3552034	03.01.2022 20:56	200
	https://vk.com/wall-6126497_3552412	04.01.2022 14:00	199
Никель. Сауна Заречье! Принимаем заказы на проведение новогодних каникул.  Цена:	https://vk.com/wall-6126497_3552489	04.01.2022 16:00	199
Услуги автосервиса и сход-развал. Качественно и недорого! ➡Сход-Развал Заполярны	https://vk.com/wall-6126497_3552549	04.01.2022 17:00	298
Никель. Сауна Заречье! Принимаем заказы на проведение новогодних каникул.  Цена:	https://vk.com/wall-6126497_3552711	04.01.2022 20:00	199
В магазине  «Альт» с 4 по 31 января скидка на все 20%!!! В наличии: - Нижнее бел	https://vk.com/wall-6126497_3552716	04.01.2022 20:05	200
Никель. Сауна Заречье! Принимаем заказы на проведение новогодних каникул.  Цена:	https://vk.com/wall-6126497_3553310	05.01.2022 15:00	199
	https://vk.com/wall-6126497_3553374	05.01.2022 16:06	298
Милые Девушки жду вас !!! Коррекция (воск/пинцет ) и окрашивание бровей (краской	https://vk.com/wall-6126497_3553443	05.01.2022 17:30	199
Ремонт мобильных телефонов📱  ✅ Планшетов  💻 ноутбуков  📺 ЖК- телевизоров    http	https://vk.com/wall-6126497_3553548	05.01.2022 20:00	199
Никель. Сауна Заречье! Принимаем заказы на проведение новогодних каникул.  Цена:	https://vk.com/wall-6126497_3553592	05.01.2022 20:30	199
🚗Индивидуальный трансфер - это встреча заказчика в указанное время по указанному	https://vk.com/wall-6126497_3553716	05.01.2022 22:40	500
‼️‼️Куплю ваше авто, целое, битое требующее срочной продажи, оформление на месте	https://vk.com/wall-6126497_3553955	06.01.2022 10:50	199
‼️‼️Куплю ваше авто, целое, битое требующее срочной продажи, оформление на месте	https://vk.com/wall-6126497_3554078	06.01.2022 14:00	199
	https://vk.com/wall-6126497_3554194	06.01.2022 16:09	298
	https://vk.com/wall-6126497_3554200	06.01.2022 16:22	298
	https://vk.com/wall-6126497_3554278	06.01.2022 18:10	298
Никель. Сауна Заречье! Принимаем заказы на проведение новогодних каникул.  Цена:	https://vk.com/wall-6126497_3554353	06.01.2022 20:00	199
Приветствую Вас в нашей группе )))     https://vk.com/gruzoperevozki.zapolyarny 	https://vk.com/wall-6126497_3554454	06.01.2022 23:30	500
	https://vk.com/wall-6126497_3554717	07.01.2022 14:01	199
Приветствую всех и всех с Рождеством! 09. 01. Привезу с офиса г. Мурманск DrainE	https://vk.com/wall-6126497_3554862	07.01.2022 17:20	298
Услуги автосервиса и сход-развал. Качественно и недорого! ➡Сход-Развал Заполярны	https://vk.com/wall-6126497_3554986	07.01.2022 20:00	298
	https://vk.com/wall-6126497_3555478	08.01.2022 14:59	298
‼️‼️Куплю ваше авто, целое, битое требующее срочной продажи, оформление на месте	https://vk.com/wall-6126497_3555488	08.01.2022 15:03	199
Милые Девушки жду вас !!! Коррекция (воск/пинцет ) и окрашивание бровей (краской	https://vk.com/wall-6126497_3555580	08.01.2022 17:00	199
Ремонт мобильных телефонов📱  ✅ Планшетов  💻 ноутбуков  📺 ЖК- телевизоров    http	https://vk.com/wall-6126497_3555624	08.01.2022 18:00	199
Никель. Сауна Заречье! Принимаем заказы на проведение новогодних каникул.  Цена:	https://vk.com/wall-6126497_3555682	08.01.2022 19:05	199
🔧Сборка мебели и услуги "Мастер на час" в Заполярном.    Мы можем сделать 👍   Сб	https://vk.com/wall-6126497_3555721	08.01.2022 20:00	200
‼️‼️Куплю ваше авто, целое, битое требующее срочной продажи, оформление на месте	https://vk.com/wall-6126497_3556204	09.01.2022 15:46	199
Никель. Сауна Заречье! Принимаем заказы на проведение новогодних каникул.  Цена:	https://vk.com/wall-6126497_3556217	09.01.2022 16:00	199
Никель. Сауна Заречье!  Цена: 1500 р/ч. Заказ от 2х часов до 6 человек. Больше 6	https://vk.com/wall-6126497_3556850	10.01.2022 13:30	199
‼️Архитектура бровей‼️ Город Заполярный. Я-сертифицированный мастер-бровист.  Во	https://vk.com/wall-6126497_3556858	10.01.2022 13:35	500
	https://vk.com/wall-6126497_3556880	10.01.2022 14:00	199
Милые Девушки жду вас !!! Коррекция (воск/пинцет ) и окрашивание бровей (краской	https://vk.com/wall-6126497_3556982	10.01.2022 16:13	199
‼️‼️Куплю ваше авто, целое, битое требующее срочной продажи, оформление на месте	https://vk.com/wall-6126497_3557050	10.01.2022 18:00	199
В магазине  «Альт» с 4 по 31 января скидка на все 20%!!! В наличии: - Нижнее бел	https://vk.com/wall-6126497_3557150	10.01.2022 20:00	200
Услуги автосервиса и сход-развал. Качественно и недорого! ➡Сход-Развал Заполярны	https://vk.com/wall-6126497_3557193	10.01.2022 21:00	298
Никель. Сауна Заречье!  Цена: 1500 р/ч. Заказ от 2х часов до 6 человек. Больше 6	https://vk.com/wall-6126497_3557549	11.01.2022 11:00	199
Никель. Сауна Заречье!  Цена: 1500 р/ч. Заказ от 2х часов до 6 человек. Больше 6	https://vk.com/wall-6126497_3557880	11.01.2022 19:00	199
Никель. Сауна Заречье!  Цена: 1500 р/ч. Заказ от 2х часов до 6 человек. Больше 6	https://vk.com/wall-6126497_3558352	12.01.2022 12:00	199
https://vk.com/imperatrica_murmansk	https://vk.com/wall-6126497_3558353	12.01.2022 12:01	500
Уважаемые жители Печенгского округа!!! Открыто раннее бронирование на весну и ле	https://vk.com/wall-6126497_3558483	12.01.2022 14:15	200
Ремонт мобильных телефонов📱  ✅ Планшетов  💻 ноутбуков  📺 ЖК- телевизоров    http	https://vk.com/wall-6126497_3558714	12.01.2022 18:30	199
Никель. Сауна Заречье!  Цена: 1500 р/ч. Заказ от 2х часов до 6 человек. Больше 6	https://vk.com/wall-6126497_3558798	12.01.2022 20:00	199
В группе vk.com/choko_lt РОЗЫГРЫШ ВИТАМИННОГО БОКСА «ПОЛЕЗНЫЙ ПЕРЕКУС» (2 вида п	https://vk.com/wall-6126497_3558859	12.01.2022 20:59	500
‼️‼️Куплю ваше авто, целое, битое требующее срочной продажи, оформление на месте	https://vk.com/wall-6126497_3559195	13.01.2022 10:00	199
	https://vk.com/wall-6126497_3559471	13.01.2022 14:00	199
Никель. Сауна Заречье!  Цена: 1500 р/ч. Заказ от 2х часов до 6 человек. Больше 6	https://vk.com/wall-6126497_3559576	13.01.2022 15:18	199
Услуги автосервиса и сход-развал. Качественно и недорого! ➡Сход-Развал Заполярны	https://vk.com/wall-6126497_3559662	13.01.2022 17:00	298
Никель. Сауна Заречье!  Цена: 1500 р/ч. Заказ от 2х часов до 6 человек. Больше 6	https://vk.com/wall-6126497_3559879	13.01.2022 20:30	199
	https://vk.com/wall-6126497_3560581	14.01.2022 16:51	500
Никель. Сауна Заречье!  Цена: 1500 р/ч. Заказ от 2х часов до 6 человек. Больше 6	https://vk.com/wall-6126497_3560874	14.01.2022 22:05	199
	https://vk.com/wall-6126497_3561343	15.01.2022 14:13	500
	https://vk.com/wall-6126497_3561493	15.01.2022 17:38	500
Добро пожаловать в группу vk.com/choko_lt   Наборы из бельгийского шоколада, зеф	https://vk.com/wall-6126497_3561605	15.01.2022 19:00	500
‼️‼️Куплю ваше авто, целое, битое требующее срочной продажи, оформление на месте	https://vk.com/wall-6126497_3562050	16.01.2022 11:14	199
НУЖНЫ МОДЕЛИ!!! Коррекция (воск/пинцет ) и окрашивание бровей (краской/хной),дол	https://vk.com/wall-6126497_3562059	16.01.2022 11:17	199
	https://vk.com/wall-6126497_3562240	16.01.2022 14:00	199
🔧Сборка мебели и услуги "Мастер на час" в Заполярном.    Мы можем сделать 👍   Сб	https://vk.com/wall-6126497_3562576	16.01.2022 20:00	200
В магазине  «Альт» с 4 по 31 января скидка на все 20%!!! В наличии: - Нижнее бел	https://vk.com/wall-6126497_3564483	18.01.2022 20:05	200
‼️‼️Куплю ваше авто, целое, битое требующее срочной продажи, оформление на месте	https://vk.com/wall-6126497_3565794	20.01.2022 13:41	199
Милые Девушки жду вас !!! Коррекция (воск/пинцет ) и окрашивание бровей (краской	https://vk.com/wall-6126497_3566554	21.01.2022 13:00	199
🏠Полное обустройство дома🔝  🌟У нас вы можете приобрести мебель для любой комнаты	https://vk.com/wall-6126497_3566602	21.01.2022 13:45	500
Ремонт мобильных телефонов📱  ✅ Планшетов  💻 ноутбуков  📺 ЖК- телевизоров    http	https://vk.com/wall-6126497_3566764	21.01.2022 17:00	199
Милые Девушки жду вас !!! Коррекция (воск/пинцет ) и окрашивание бровей (краской	https://vk.com/wall-6126497_3567745	22.01.2022 19:19	199
‼️‼️Куплю ваше авто, целое, битое требующее срочной продажи, оформление на месте	https://vk.com/wall-6126497_3568177	23.01.2022 12:02	199
Милые Девушки жду вас !!! НУЖНЫ МОДЕЛИ НА ДОЛГОВРЕМЕННУЮ УКЛАДКУ Коррекция (воск	https://vk.com/wall-6126497_3568535	23.01.2022 17:40	199
https://vk.com/murmansk.toys	https://vk.com/wall-6126497_3569098	24.01.2022 12:22	500
Милые девушки приглашаю на маникюр  Заполярный https://vk.com/shine_ekaterina	https://vk.com/wall-6126497_3569451	24.01.2022 19:50	100
Ремонт мобильных телефонов📱  ✅ Планшетов  💻 ноутбуков  📺 ЖК- телевизоров    http	https://vk.com/wall-6126497_3569454	24.01.2022 19:53	199
	https://vk.com/wall-6126497_3570066	25.01.2022 16:55	298
Как выбрать диван-кровать?🛋 Сотрудники салона Askona в Заполярном знают ответ!  	https://vk.com/wall-6126497_3570120	25.01.2022 18:45	200
НИКЕЛЬ  Сварочные/покрасочные работы  Вступайте  https://vk.com/svarka51rus	https://vk.com/wall-6126497_3570832	26.01.2022 19:05	100
‼️‼️Куплю ваше авто, целое, битое требующее срочной продажи, оформление на месте	https://vk.com/wall-6126497_3570846	26.01.2022 19:34	199
В магазине  «Альт» с 4 по 31 января скидка на все 20%!!! В наличии: - Нижнее бел	https://vk.com/wall-6126497_3570859	26.01.2022 20:00	200
	https://vk.com/wall-6126497_3571466	27.01.2022 18:11	500
Ремонт мобильных телефонов📱  ✅ Планшетов  💻 ноутбуков  📺 ЖК- телевизоров    http	https://vk.com/wall-6126497_3571538	27.01.2022 19:40	199
‼️‼️Куплю ваше авто, целое, битое требующее срочной продажи, оформление на месте	https://vk.com/wall-6126497_3571963	28.01.2022 13:17	199
	https://vk.com/wall-6126497_3572002	28.01.2022 14:01	199
	https://vk.com/wall-6126497_3572161	28.01.2022 17:05	298
Никель. Сауна Заречье! Цена:1500 руб/час. Заказ от 2х часов до 6 человек. Больше	https://vk.com/wall-6126497_3572826	29.01.2022 16:00	199
Никель. Сауна Заречье! Цена:1500 руб/час. Заказ от 2х часов до 6 человек. Больше	https://vk.com/wall-6126497_3573456	30.01.2022 15:00	199
Ремонт мобильных телефонов📱  ✅ Планшетов  💻 ноутбуков  📺 ЖК- телевизоров    http	https://vk.com/wall-6126497_3573561	30.01.2022 17:00	199
	https://vk.com/wall-6126497_3574095	31.01.2022 14:00	199
Никель. Сауна Заречье! Цена:1500 руб/час. Заказ от 2х часов до 6 человек. Больше	https://vk.com/wall-6126497_3574169	31.01.2022 15:30	199
Всем привет!)    Предлагаю услуги по ремонту автомобиля, пока ваш бобер не съел 	https://vk.com/wall-6126497_3574237	31.01.2022 16:56	500