title	url	date	cost	comment
магазин «Смешные цены»(Никель,Спортивная,12) и магазин «Московская Ярмарка» (Зап	https://vk.com/wall-6126497_2531411	01.04.2019 11:36	200	
Грузоперевозки по г.Заполярный и Печенгскому р-ну. Бережно перевезем ваш груз по	https://vk.com/wall-6126497_2531785	01.04.2019 17:00	200	
🌸🌸🌸 Дорогие Дамы🌸🌸🌸 Приглашаю посетить парикмахерскую студию EvgeniyaStudio в г.	https://vk.com/wall-6126497_2531846	01.04.2019 18:05	200	
	https://vk.com/wall-6126497_2531862	01.04.2019 18:20	0	
Осуществляю добычу и продажу морского гребешка.  200 руб за 1 кг, в раковине. До	https://vk.com/wall-6126497_2532151	01.04.2019 22:33	200	
Милые дамы, весна время преображения с радостью Вам помогу. Предоставляю услуги 	https://vk.com/wall-6126497_2532166	01.04.2019 22:50	200	
💥 СЕВЕРНАЯ ЛАВКА💥 https://vk.com/club84353722  💥 МАМОЧКИ ГОТОВИМСЯ К ЛЕТУ 💥  В Н	https://vk.com/wall-6126497_2532345	02.04.2019 09:00	100	
	https://vk.com/wall-6126497_2532477	02.04.2019 11:00	300	
	https://vk.com/wall-6126497_2532567	02.04.2019 12:37	300	
	https://vk.com/wall-6126497_2532997	02.04.2019 18:30	0	
Милые девушки, пришла весна, а это значит пришло время преображаться!  Наращиван	https://vk.com/wall-6126497_2533028	02.04.2019 19:00	200	клиента обслуживают несколько модераторов: Дмитрий Дубов, Валерий Фатхуллин
	https://vk.com/wall-6126497_2533029	02.04.2019 19:02	0	
МАГАЗИН « МЕБЕЛЬ ПЛЮС» Часы работы с 10.00 - 19.00 ч. п. Никель.пр. Молодежный 5	https://vk.com/wall-6126497_2533070	02.04.2019 19:26	200	
ОКНА & ДВЕРИ & ПОТОЛКИ & ЖАЛЮЗИ  Окна  Двери  Кухни  Жалюзи  Реставрация ванн  К	https://vk.com/wall-6126497_2533092	02.04.2019 19:45	200	
https://vk.com/club152791206  "ТРИКОТАЖ ИЗ ИВАНОВО"  Рада Приветствовать Вас в м	https://vk.com/wall-6126497_2533094	02.04.2019 19:45	200	
	https://vk.com/wall-6126497_2533889	03.04.2019 15:24	0	
	https://vk.com/wall-6126497_2534115	03.04.2019 18:30	0	
Заполярный и километры! МЁД РАЗНОТРАВЬЕ,своя пасека. доставка до квартиры! все в	https://vk.com/wall-6126497_2534155	03.04.2019 19:10	200	
	https://vk.com/wall-6126497_2534376	03.04.2019 21:51	0	
#Никель #Заполярный #Акция #Набор #Роллы  С чего мы начнем этот четверг ? С акци	https://vk.com/wall-6126497_2534614	04.04.2019 09:00	200	клиента обслуживают несколько модераторов: Дмитрий Дубов, Елена Ушакова
УВАЖАЕМЫЕ ЖИТЕЛИ ПЕЧЕНГСКОГО РАЙОНА🏡    У Вас есть уникальная возможность,на пря	https://vk.com/wall-6126497_2534976	04.04.2019 13:39	200	
	https://vk.com/wall-6126497_2535120	04.04.2019 14:57	300	
	https://vk.com/wall-6126497_2535413	04.04.2019 18:22	270.0	клиента обслуживают несколько модераторов: Дмитрий Дубов, Валерий Фатхуллин, Елена Ушакова
	https://vk.com/wall-6126497_2535423	04.04.2019 18:30	0	
http://vk.com/club180561867	https://vk.com/wall-6126497_2535816	04.04.2019 22:07	300	
	https://vk.com/wall-6126497_2536147	05.04.2019 09:59	150	
💥 СЕВЕРНАЯ ЛАВКА💥 https://vk.com/club84353722  💥 ПАСХА 💥  В НАЛИЧИИ С 19 АПРЕЛЯ 	https://vk.com/wall-6126497_2536183	05.04.2019 10:30	100	
	https://vk.com/wall-6126497_2536299	05.04.2019 12:00	0	
Привет, северяне! У нас есть немного легкого джаза про [club173320785|одно очень	https://vk.com/wall-6126497_2536332	05.04.2019 12:25	200	клиента обслуживают несколько модераторов: Дмитрий Дубов, Денис Ширшов
	https://vk.com/wall-6126497_2536410	05.04.2019 13:26	300	
ОКНА & ДВЕРИ & ПОТОЛКИ & ЖАЛЮЗИ  Окна  Двери  Кухни  Жалюзи  Реставрация ванн  К	https://vk.com/wall-6126497_2536712	05.04.2019 18:00	200	
	https://vk.com/wall-6126497_2536747	05.04.2019 18:30	0	
	https://vk.com/wall-6126497_2536990	05.04.2019 21:54	0	
ОКНА & ДВЕРИ & ПОТОЛКИ & ЖАЛЮЗИ  Окна  Двери  Кухни  Жалюзи  Реставрация ванн  К	https://vk.com/wall-6126497_2537254	06.04.2019 09:00	200	
	https://vk.com/wall-6126497_2537437	06.04.2019 12:00	0	
Имеется в наличии 9 кг свежезамороженного филе морского гребешка.  Цена за 1 кг 	https://vk.com/wall-6126497_2537470	06.04.2019 12:16	200	
	https://vk.com/wall-6126497_2537938	06.04.2019 18:30	0	
	https://vk.com/wall-6126497_2538409	07.04.2019 09:40	300	
В магазинах «Мир обуви» г. Заполярный крытый рынок и п. Никель, Победы 13 к сезо	https://vk.com/wall-6126497_2538457	07.04.2019 10:33	200	
💥 СЕВЕРНАЯ ЛАВКА💥 https://vk.com/club84353722  💥 ПАСХА 💥  В НАЛИЧИИ С 19 АПРЕЛЯ 	https://vk.com/wall-6126497_2538479	07.04.2019 10:54	100	
	https://vk.com/wall-6126497_2538516	07.04.2019 11:20	300	
	https://vk.com/wall-6126497_2538558	07.04.2019 12:00	0	
	https://vk.com/wall-6126497_2538862	07.04.2019 16:00	300	
🔧Сборка мебели и услуги "Мастер на час" в Заполярном.  Мы можем сделать 👍  Сборк	https://vk.com/wall-6126497_2538952	07.04.2019 17:05	200	
	https://vk.com/wall-6126497_2539046	07.04.2019 18:30	0	
В магазинах «Мир обуви» г. Заполярный крытый рынок и п. Никель, Победы 13 к сезо	https://vk.com/wall-6126497_2539661	08.04.2019 11:30	200	
	https://vk.com/wall-6126497_2539695	08.04.2019 12:00	0	
Уважаемые жители Печенгского района!!! 🎉🎉 Спешите организовать свой летний отдых	https://vk.com/wall-6126497_2539803	08.04.2019 13:22	200	
Магазин «МЕБЕЛЬ ПЛЮС»(Заполярный, ул. Космонавтов 2а. часы работы: с 10.00 - 19.	https://vk.com/wall-6126497_2539841	08.04.2019 14:03	200	
Ребята, теперь в Заполярном есть возможность приобрести продукцию NL internation	https://vk.com/wall-6126497_2539885	08.04.2019 14:41	200	
	https://vk.com/wall-6126497_2539993	08.04.2019 15:58	300	
	https://vk.com/wall-6126497_2540065	08.04.2019 17:04	300	
💥 СЕВЕРНАЯ ЛАВКА💥 https://vk.com/club84353722  💥 ИГРУШКИ 💥 НОВИНКИ В НАЛИЧИИ С 1	https://vk.com/wall-6126497_2540137	08.04.2019 18:15	100	
	https://vk.com/wall-6126497_2540152	08.04.2019 18:30	0	
	https://vk.com/wall-6126497_2540429	08.04.2019 22:37	300	
Скидка на 5 видов блинчиков! Всего 2 дня!  «Все на свете влюблены в аппетитные б	https://vk.com/wall-6126497_2541159	09.04.2019 17:24	200	
Огромный выбор шин в наличии и на заказ в магазине «АВТОМАГиЯ». Шиномонтаж в под	https://vk.com/wall-6126497_2541204	09.04.2019 18:06	200	клиента обслуживают несколько модераторов: Дмитрий Дубов, Елена Ушакова
	https://vk.com/wall-6126497_2541238	09.04.2019 18:30	0	
В магазине «Альт» поступление товара!!!🎉🎉🎉 - Весенние сапоги и ботинки! - Сапоги	https://vk.com/wall-6126497_2541350	09.04.2019 20:00	200	
	https://vk.com/wall-6126497_2541463	09.04.2019 21:40	300	клиента обслуживают несколько модераторов: Дмитрий Дубов, Валерий Фатхуллин
http://vk.com/club180561867	https://vk.com/wall-6126497_2541480	09.04.2019 21:49	300	
В магазинах «Мир обуви» г. Заполярный крытый рынок и п. Никель, Победы 13 к сезо	https://vk.com/wall-6126497_2541904	10.04.2019 11:30	200	
	https://vk.com/wall-6126497_2541960	10.04.2019 12:00	0	
В магазине «Смешные цены»(Никель,Спортивная,12) свежее поступление одежды и обув	https://vk.com/wall-6126497_2542133	10.04.2019 13:45	200	
В магазине «Московская Ярмарка» (Заполярный,Ленина,33) свежее поступление одежды	https://vk.com/wall-6126497_2542135	10.04.2019 13:46	200	
Магазин «МЕБЕЛЬ ПЛЮС»  https://vk.com/club67281851  г. Заполярный. ул. Бабикова 	https://vk.com/wall-6126497_2542429	10.04.2019 17:13	200	
	https://vk.com/wall-6126497_2542529	10.04.2019 18:30	0	
	https://vk.com/wall-6126497_2542614	10.04.2019 19:32	180	
Мы предлагаем Натяжные потолки подходящие большинству покупателей по количеству 	https://vk.com/wall-6126497_2542654	10.04.2019 19:59	200	клиента обслуживают несколько модераторов: Дмитрий Дубов, Елена Ушакова
Предоставляю услуги массажа и шугаринга.  ✔Детский массаж.  ✔Массаж при плоскост	https://vk.com/wall-6126497_2542676	10.04.2019 20:15	200	
В магазинах «Мир обуви» г. Заполярный крытый рынок и п. Никель, Победы 13 к сезо	https://vk.com/wall-6126497_2542703	10.04.2019 20:30	200	
Заполярный и километры! МЁД РАЗНОТРАВЬЕ,своя пасека. доставка до квартиры! все в	https://vk.com/wall-6126497_2542716	10.04.2019 20:37	200	
В магазинах «Мир обуви» г. Заполярный крытый рынок и п. Никель, Победы 13 к сезо	https://vk.com/wall-6126497_2543357	11.04.2019 11:30	200	
Все космонавты любят пельмени!  Кто не мечтал в стать космонавтом? И не пугали н	https://vk.com/wall-6126497_2543470	11.04.2019 13:04	200	
Милые дамы, весна время преображения с радостью Вам помогу. Предоставляю услуги:	https://vk.com/wall-6126497_2543484	11.04.2019 13:17	200	
Магазин «МЕБЕЛЬ ПЛЮС» https://vk.com/nikelmebel п.Никель, пр. Молодежный 5. часы	https://vk.com/wall-6126497_2543518	11.04.2019 13:51	200	
	https://vk.com/wall-6126497_2543720	11.04.2019 15:37	0	
Не тратьте время на походы по магазинам,  лучше проводите его с семьей👪😊.  А оде	https://vk.com/wall-6126497_2543894	11.04.2019 17:45	100	
В магазине «Московская Ярмарка» (Заполярный,Ленина,33) свежее поступление одежды	https://vk.com/wall-6126497_2543919	11.04.2019 18:11	200	
В магазине «Смешные цены»(Никель,Спортивная,12) свежее поступление одежды и обув	https://vk.com/wall-6126497_2543921	11.04.2019 18:11	200	
Мёд со своей пасеки ;цветочный:0,5 литра-300р,1 литр -500р,3 литра -1450р ,гречи	https://vk.com/wall-6126497_2543965	11.04.2019 18:39	200	
	https://vk.com/wall-6126497_2544625	12.04.2019 12:00	0	
	https://vk.com/wall-6126497_2544753	12.04.2019 13:29	300	
	https://vk.com/wall-6126497_2544904	12.04.2019 15:06	0	
Мёд со своей пасеки ;цветочный:0,5 литра-300р,1 литр -500р,3 литра -1450р ,гречи	https://vk.com/wall-6126497_2544935	12.04.2019 15:27	200	
В магазине «Смешные цены»(Никель,Спортивная,12) свежее поступление одежды и обув	https://vk.com/wall-6126497_2544959	12.04.2019 15:33	200	
В магазине «Московская Ярмарка» (Заполярный,Ленина,33) свежее поступление одежды	https://vk.com/wall-6126497_2545013	12.04.2019 16:07	200	
В магазинах «Мир обуви» г. Заполярный крытый рынок и п. Никель, Победы 13 к сезо	https://vk.com/wall-6126497_2545348	12.04.2019 20:30	200	
	https://vk.com/wall-6126497_2545367	12.04.2019 20:52	0	
	https://vk.com/wall-6126497_2545796	13.04.2019 10:34	300	
	https://vk.com/wall-6126497_2545877	13.04.2019 11:29	0	
🌸🌸🌸Приглашаем в магазины  «Мир обуви», Вас ждёт НОВОЕ БОЛЬШОЕ ПОСТУПЛЕНИЕ весенн	https://vk.com/wall-6126497_2546011	13.04.2019 13:04	200	
Удобный шопинг не выходя из дома, по минимальной цене и с максимальной выгодой? 	https://vk.com/wall-6126497_2546016	13.04.2019 13:07	200	клиента обслуживают несколько модераторов: Дмитрий Дубов, Валерий Фатхуллин
Мёд со своей пасеки ;цветочный:0,5 литра-300р,1 литр -500р,3 литра -1450р ,гречи	https://vk.com/wall-6126497_2546283	13.04.2019 17:00	200	
	https://vk.com/wall-6126497_2546427	13.04.2019 19:25	0	
	https://vk.com/wall-6126497_2546660	13.04.2019 22:00	300	
	https://vk.com/wall-6126497_2546700	13.04.2019 22:45	300	
	https://vk.com/wall-6126497_2546795	14.04.2019 01:02	0	
	https://vk.com/wall-6126497_2547102	14.04.2019 12:30	0	
	https://vk.com/wall-6126497_2547143	14.04.2019 13:00	300	
Вы хотите, чтобы Ваш ребенок: Раскрыл свои таланты и развил способности? Получил	https://vk.com/wall-6126497_2547157	14.04.2019 13:10	200	
	https://vk.com/wall-6126497_2547296	14.04.2019 15:00	300	
	https://vk.com/wall-6126497_2547321	14.04.2019 15:28	300	
🌸🌸🌸Приглашаем в магазины  «Мир обуви», Вас ждёт НОВОЕ БОЛЬШОЕ ПОСТУПЛЕНИЕ весенн	https://vk.com/wall-6126497_2547399	14.04.2019 16:47	200	
Мёд со своей пасеки ;цветочный:0,5 литра-300р,1 литр -500р,3 литра -1450р ,гречи	https://vk.com/wall-6126497_2547411	14.04.2019 17:00	200	
	https://vk.com/wall-6126497_2547488	14.04.2019 18:24	0	
	https://vk.com/wall-6126497_2547514	14.04.2019 18:56	300	клиента обслуживают несколько модераторов: Дмитрий Дубов, Елена Ушакова
Здравствуйте, меня зовут Снежана.   Начинаю набор группы людей по направлению фи	https://vk.com/wall-6126497_2547589	14.04.2019 19:46	200	
🌸🌸🌸Приглашаем в магазины  «Мир обуви», Вас ждёт НОВОЕ БОЛЬШОЕ ПОСТУПЛЕНИЕ весенн	https://vk.com/wall-6126497_2548390	15.04.2019 13:00	200	
	https://vk.com/wall-6126497_2548490	15.04.2019 14:07	0	
Такси «Маршрутка» осуществляет пассажирские перевозки по маршруту Никель-Заполяр	https://vk.com/wall-6126497_2548586	15.04.2019 15:29	200	
Мёд со своей пасеки ;цветочный:0,5 литра-300р,1 литр -500р,3 литра -1450р ,гречи	https://vk.com/wall-6126497_2548702	15.04.2019 17:00	200	
Приветствую милые девушки! Предлагаю вам маникюр+ покрытие гель лаком,наращивани	https://vk.com/wall-6126497_2548832	15.04.2019 19:11	200	
	https://vk.com/wall-6126497_2548860	15.04.2019 19:49	0	
	https://vk.com/wall-6126497_2548896	15.04.2019 20:28	300	
💥 СЕВЕРНАЯ ЛАВКА💥 https://vk.com/club84353722  💥ДЕТСКИЕ ИГРОВЫЕ ПАЛАТКИ 💥 от 350	https://vk.com/wall-6126497_2548921	15.04.2019 20:41	100	
ОТБЕЛИВАНИЕ ЗУБОВ В ЗАПОЛЯРНОМ! Федеральная сеть beauty студий косметического от	https://vk.com/wall-6126497_2549789	16.04.2019 13:40	200	
💥 СЕВЕРНАЯ ЛАВКА💥 https://vk.com/club84353722  💥РЕЗИНОВЫЕ САПОГИ И ЗОНТЫ 💥 от 35	https://vk.com/wall-6126497_2549850	16.04.2019 14:40	100	
ВСЯ варёная колбаса со скидкой -25%!  Варёную колбасу можно по праву считать про	https://vk.com/wall-6126497_2549946	16.04.2019 16:05	200	
🌸🌸🌸Приглашаем в магазины «Мир обуви», Вас ждёт НОВОЕ БОЛЬШОЕ ПОСТУПЛЕНИЕ весенне	https://vk.com/wall-6126497_2549991	16.04.2019 16:51	200	
Мёд со своей пасеки ;цветочный:0,5 литра-300р,1 литр -500р,3 литра -1450р ,гречи	https://vk.com/wall-6126497_2550001	16.04.2019 17:00	200	
	https://vk.com/wall-6126497_2550020	16.04.2019 17:20	300	
	https://vk.com/wall-6126497_2550025	16.04.2019 17:23	0	
	https://vk.com/wall-6126497_2550175	16.04.2019 19:20	0	
Дорогие женщины!!!  19 и 20 апреля (пятница и суббота) в ДК г.Заполярного  состо	https://vk.com/wall-6126497_2550633	17.04.2019 09:25	200	
🌸🌸🌸Приглашаем в магазины «Мир обуви», Вас ждёт НОВОЕ БОЛЬШОЕ ПОСТУПЛЕНИЕ весенне	https://vk.com/wall-6126497_2550844	17.04.2019 13:00	200	
Установка домофонов. Берем на техническое обслуживание домофоны.  Установка труб	https://vk.com/wall-6126497_2550900	17.04.2019 13:33	200	
Осуществляю добычу и продажу морского гребешка.  Доставка в Спутник, Печенгу, Лу	https://vk.com/wall-6126497_2550911	17.04.2019 13:45	200	
Ко дню Великой Победы!!! Традиционно, самые красивые броши к празднику у нас, в 	https://vk.com/wall-6126497_2550937	17.04.2019 14:10	200	
Уважаемые жители Печенгского района!!! 🎉🎉 Спешите организовать свой летний отдых	https://vk.com/wall-6126497_2550979	17.04.2019 14:45	200	
Мёд со своей пасеки ;цветочный:0,5 литра-300р,1 литр -500р,3 литра -1450р ,гречи	https://vk.com/wall-6126497_2551142	17.04.2019 17:00	200	
	https://vk.com/wall-6126497_2551444	17.04.2019 21:27	0	
Дорогие женщины!!!  19 и 20 апреля (пятница и суббота) в ДК г.Заполярного состои	https://vk.com/wall-6126497_2551785	18.04.2019 08:00	200	
	https://vk.com/wall-6126497_2551851	18.04.2019 09:24	300	
🌸🌸🌸Приглашаем в магазины «Мир обуви», Вас ждёт НОВОЕ БОЛЬШОЕ ПОСТУПЛЕНИЕ весенне	https://vk.com/wall-6126497_2552065	18.04.2019 13:00	200	
Мёд со своей пасеки ;гречишный 0,5-350₽ 1 литр 600 р,3 литра 1700р ,Рапсовый лит	https://vk.com/wall-6126497_2552215	18.04.2019 15:00	200	
Дорогие женщины!!!  19 и 20 апреля (пятница и суббота) в ДК г.Заполярного состои	https://vk.com/wall-6126497_2552218	18.04.2019 15:04	200	
💥 СЕВЕРНАЯ ЛАВКА💥 https://vk.com/club84353722  💥 СУМОЧКИ, КОШЕЛЬКИ, РЮКЗАКИ 💥  В	https://vk.com/wall-6126497_2552251	18.04.2019 15:42	100	
Милые дамы, весна время преображения с радостью Вам помогу. Предоставляю услуги:	https://vk.com/wall-6126497_2552306	18.04.2019 16:20	200	
	https://vk.com/wall-6126497_2552456	18.04.2019 18:30	0	
	https://vk.com/wall-6126497_2552837	18.04.2019 23:52	300	
Весенние скидки начинаются📍    Скидка пенсионерам/ветеранам - 10%  Скидка счастл	https://vk.com/wall-6126497_2553237	19.04.2019 12:54	200	
🌸🌸🌸Приглашаем в магазины «Мир обуви», Вас ждёт НОВОЕ БОЛЬШОЕ ПОСТУПЛЕНИЕ весенне	https://vk.com/wall-6126497_2553245	19.04.2019 13:00	200	
	https://vk.com/wall-6126497_2553412	19.04.2019 15:22	300	
	https://vk.com/wall-6126497_2553607	19.04.2019 18:30	0	
Центр раннего развития "Капитошка" в Заполярном https://vk.com/detzentr! ждет де	https://vk.com/wall-6126497_2554114	20.04.2019 10:44	200	
🌸🌸🌸Приглашаем в магазины «Мир обуви», Вас ждёт НОВОЕ БОЛЬШОЕ ПОСТУПЛЕНИЕ весенне	https://vk.com/wall-6126497_2554294	20.04.2019 13:00	200	
	https://vk.com/wall-6126497_2554473	20.04.2019 15:02	0	
	https://vk.com/wall-6126497_2554638	20.04.2019 17:00	300	
	https://vk.com/wall-6126497_2554752	20.04.2019 18:30	0	
🔥🔥🔥АКЦИЯ 🔥🔥🔥 20% СКИДКА 20%🔥🔥🔥  НА НАТЯЖНЫЕ ПОТОЛКИ СО СПАЙКОЙ  📍Натяжные потолк	https://vk.com/wall-6126497_2555029	20.04.2019 22:33	200	клиента обслуживают несколько модераторов: Дмитрий Дубов, Елена Ушакова
🌺🌺ПРОДАМ ДЕТСКИЕ  ВЕЩИ🌺ИТАЛЬЯНСКОГО БРЕНДА 🌺ORIGINAL MARINERS 🌺ВСЕ ВЕЩИ В НАЛИЧИ	https://vk.com/wall-6126497_2555032	20.04.2019 22:34	100	
Здравствуйте меня зовут Снежана. Начинаю набор группы людей по направлению фитне	https://vk.com/wall-6126497_2555386	21.04.2019 11:38	200	
🌸🌸🌸Приглашаем в магазины «Мир обуви», Вас ждёт НОВОЕ БОЛЬШОЕ ПОСТУПЛЕНИЕ весенне	https://vk.com/wall-6126497_2555522	21.04.2019 13:00	200	
	https://vk.com/wall-6126497_2555928	21.04.2019 18:30	0	
🔥🔥🔥АКЦИЯ 🔥🔥🔥 20% СКИДКА 20%🔥🔥🔥  НА НАТЯЖНЫЕ ПОТОЛКИ СО СПАЙКОЙ  📍Натяжные потолк	https://vk.com/wall-6126497_2556072	21.04.2019 20:14	200	клиента обслуживают несколько модераторов: Дмитрий Дубов, Елена Ушакова
Вызвать клининговую компанию для уборки своей квартиры - не самый простой шаг дл	https://vk.com/wall-6126497_2556137	21.04.2019 21:14	200	
	https://vk.com/wall-6126497_2556170	21.04.2019 21:40	180	
Все виды сантехнических работ.  Быстро, качественно, недорого.  Гарантия, качест	https://vk.com/wall-6126497_2556312	21.04.2019 23:28	200	
Приглашаем жителей и гостей Печенгского района на народную ярмарку! (В Заполярно	https://vk.com/wall-6126497_2556365	22.04.2019 01:04	200	
	https://vk.com/wall-6126497_2556672	22.04.2019 12:10	0	
Девчули, привет 🙌 Я НАЧИНАЮЩИЙ мастер ногтевого сервиса 💅 Ищу моделей на покрыти	https://vk.com/wall-6126497_2556705	22.04.2019 12:25	200	
🌸🌸🌸Приглашаем в магазины «Мир обуви», Вас ждёт НОВОЕ БОЛЬШОЕ ПОСТУПЛЕНИЕ весенне	https://vk.com/wall-6126497_2556766	22.04.2019 13:00	200	
	https://vk.com/wall-6126497_2556803	22.04.2019 13:30	300	
	https://vk.com/wall-6126497_2556950	22.04.2019 15:17	300	клиента обслуживают несколько модераторов: Дмитрий Дубов, Валерий Фатхуллин
✅ГРУЗОПЕРЕВОЗКИ,УСЛУГИ ГРУЗЧИКОВ ❗❗ Автомобиль для перевозки различных грузов по	https://vk.com/wall-6126497_2556969	22.04.2019 15:37	200	
🧨Распродажа❗️ В связи с началом нового медосбора продаём по сниженным ценам мед 	https://vk.com/wall-6126497_2557029	22.04.2019 16:26	200	
	https://vk.com/wall-6126497_2557169	22.04.2019 18:30	0	
	https://vk.com/wall-6126497_2557287	22.04.2019 20:00	300	
Английский для детей по Skype. vk.com/id13868689	https://vk.com/wall-6126497_2557302	22.04.2019 20:17	100	
🔥🔥🔥АКЦИЯ 🔥🔥🔥 20% СКИДКА 20%🔥🔥🔥  НА НАТЯЖНЫЕ ПОТОЛКИ СО СПАЙКОЙ  📍Натяжные потолк	https://vk.com/wall-6126497_2557323	22.04.2019 20:30	200	клиента обслуживают несколько модераторов: Дмитрий Дубов, Елена Ушакова
#Никель #Заполярный #Акция #Набор #Роллы  С чего мы начнем этот вторник? С акции	https://vk.com/wall-6126497_2557732	23.04.2019 08:57	200	клиента обслуживают несколько модераторов: Дмитрий Дубов, Елена Ушакова
	https://vk.com/wall-6126497_2557912	23.04.2019 12:00	300	
Установка домофонов. Берем на техническое обслуживание домофоны.  Установка труб	https://vk.com/wall-6126497_2558039	23.04.2019 13:28	200	
✅ГРУЗОПЕРЕВОЗКИ,УСЛУГИ ГРУЗЧИКОВ ❗❗ Автомобиль для перевозки различных грузов по	https://vk.com/wall-6126497_2558193	23.04.2019 15:30	200	
	https://vk.com/wall-6126497_2558231	23.04.2019 15:56	0	
Все сосиски -24%!  Сколько видов сосисок вы сможете быстро вспомнить? Спорим, по	https://vk.com/wall-6126497_2558232	23.04.2019 15:57	200	
	https://vk.com/wall-6126497_2558243	23.04.2019 16:14	200	
🧨Распродажа❗️ В связи с началом нового медосбора продаём по сниженным ценам мед 	https://vk.com/wall-6126497_2558268	23.04.2019 16:26	200	
Все виды сантехнических работ.  Быстро, качественно, недорого.  Гарантия, качест	https://vk.com/wall-6126497_2558274	23.04.2019 16:30	200	
	https://vk.com/wall-6126497_2558527	23.04.2019 20:04	300	
🔥🔥🔥АКЦИЯ 🔥🔥🔥 20% СКИДКА 20%🔥🔥🔥  НА НАТЯЖНЫЕ ПОТОЛКИ СО СПАЙКОЙ  📍Натяжные потолк	https://vk.com/wall-6126497_2558531	23.04.2019 20:07	200	клиента обслуживают несколько модераторов: Дмитрий Дубов, Елена Ушакова
Английский для детей по Skype. vk.com/id13868689	https://vk.com/wall-6126497_2558548	23.04.2019 20:17	100	
	https://vk.com/wall-6126497_2559112	24.04.2019 11:18	0	
Вызвать клининговую компанию для уборки своей квартиры - не самый простой шаг дл	https://vk.com/wall-6126497_2559284	24.04.2019 14:00	200	
	https://vk.com/wall-6126497_2559301	24.04.2019 14:19	0	
	https://vk.com/wall-6126497_2559349	24.04.2019 15:04	300	
✅ГРУЗОПЕРЕВОЗКИ,УСЛУГИ ГРУЗЧИКОВ ❗❗ Автомобиль для перевозки различных грузов по	https://vk.com/wall-6126497_2559385	24.04.2019 15:30	200	
🧨Распродажа❗️ В связи с началом нового медосбора продаём по сниженным ценам мед 	https://vk.com/wall-6126497_2559464	24.04.2019 16:26	200	
Милые девушки,приглашаю на: У/З чистку лица У/З массаж лица Массаж  Шугаринг. Ес	https://vk.com/wall-6126497_2559561	24.04.2019 17:41	200	
📌Друзья📌- к вашему вниманию!!!  В нашей группе "Машина на заказ "-теперь 2-водит	https://vk.com/wall-6126497_2559564	24.04.2019 17:43	200	
Дорогие друзья!!! Приезжаем переобуваться на шиномонтаж "ДжONE-АВТО" г. Заполярн	https://vk.com/wall-6126497_2559574	24.04.2019 17:55	200	
	https://vk.com/wall-6126497_2559584	24.04.2019 18:08	300	
	https://vk.com/wall-6126497_2559667	24.04.2019 19:30	0	
Милые дамы, дорогие девушки❗️❗️❗️ Никель‼️ 😉🌷 Я сертифицированный мастер!!! Пред	https://vk.com/wall-6126497_2559828	24.04.2019 21:30	200	
	https://vk.com/wall-6126497_2559869	24.04.2019 22:08	300	
	https://vk.com/wall-6126497_2560235	25.04.2019 10:18	300	
Предпасхальная распродажа! 25-27 апреля  Православная Пасха – праздник света и т	https://vk.com/wall-6126497_2560394	25.04.2019 12:30	200	
Организуем морскую рыбалку из п. Лиинахамари до шести человек. Катер восемь метр	https://vk.com/wall-6126497_2560425	25.04.2019 12:54	200	
Вызвать клининговую компанию для уборки своей квартиры - не самый простой шаг дл	https://vk.com/wall-6126497_2560431	25.04.2019 13:00	200	
✅ГРУЗОПЕРЕВОЗКИ,УСЛУГИ ГРУЗЧИКОВ ❗❗ Автомобиль для перевозки различных грузов по	https://vk.com/wall-6126497_2560675	25.04.2019 15:30	200	
	https://vk.com/wall-6126497_2560732	25.04.2019 15:53	270.0	клиента обслуживают несколько модераторов: Дмитрий Дубов, Валерий Фатхуллин, Елена Ушакова
🧨Распродажа❗️ В связи с началом нового медосбора продаём по сниженным ценам мед 	https://vk.com/wall-6126497_2560762	25.04.2019 16:26	200	
Все виды сантехнических работ.  Быстро, качественно, недорого.  Гарантия, качест	https://vk.com/wall-6126497_2560766	25.04.2019 16:30	200	
	https://vk.com/wall-6126497_2560840	25.04.2019 17:20	150	
Игрушки и куколки, в наличии и на заказ❤  Курочка для светлого праздника Пасхи, 	https://vk.com/wall-6126497_2560847	25.04.2019 17:30	200	
	https://vk.com/wall-6126497_2560957	25.04.2019 19:00	300	
	https://vk.com/wall-6126497_2561002	25.04.2019 19:34	0	
Английский для детей по Skype. vk.com/id13868689	https://vk.com/wall-6126497_2561058	25.04.2019 20:17	100	
🚗 Погодка шепчет «скорей в шиномонтаж!»🚗 ⚠Шиномонтаж в СТО «Гараж»(г.Заполярный)	https://vk.com/wall-6126497_2561085	25.04.2019 20:37	200	
!!! ПЛАНЕТА ОДЕЖДА ОБУВЬ !!! Модно - не значит дорого! Режим работы: 10:00 - 19:	https://vk.com/wall-6126497_2561633	26.04.2019 11:04	200	
Организуем морскую рыбалку из п. Лиинахамари до шести человек. Катер восемь метр	https://vk.com/wall-6126497_2561669	26.04.2019 11:36	200	
	https://vk.com/wall-6126497_2561714	26.04.2019 12:04	0	
Планируешь встречу с друзьями? Тогда тебе понадобится набор для большой компании	https://vk.com/wall-6126497_2561935	26.04.2019 15:00	200	
✅ГРУЗОПЕРЕВОЗКИ,УСЛУГИ ГРУЗЧИКОВ ❗❗ Автомобиль для перевозки различных грузов по	https://vk.com/wall-6126497_2561988	26.04.2019 15:30	200	
🧨Распродажа❗️ В связи с началом нового медосбора продаём по сниженным ценам мед 	https://vk.com/wall-6126497_2562065	26.04.2019 16:27	200	
	https://vk.com/wall-6126497_2562072	26.04.2019 16:32	0	
Весенние скидки начинаются 📢  Спешите , сроки проведения акции до 31 мая😊   При 	https://vk.com/wall-6126497_2562130	26.04.2019 17:44	200	
	https://vk.com/wall-6126497_2562136	26.04.2019 17:47	300	
	https://vk.com/wall-6126497_2562195	26.04.2019 18:43	0	
🔥🔥🔥АКЦИЯ 🔥🔥🔥 20% СКИДКА 20%🔥🔥🔥  НА НАТЯЖНЫЕ ПОТОЛКИ СО СПАЙКОЙ  📍Натяжные потолк	https://vk.com/wall-6126497_2562267	26.04.2019 20:00	200	клиента обслуживают несколько модераторов: Дмитрий Дубов, Елена Ушакова
	https://vk.com/wall-6126497_2562336	26.04.2019 20:45	0	
	https://vk.com/wall-6126497_2562976	27.04.2019 12:50	0	
Привет , северяне! Скоро большой православный праздник и команда кафе "БЛИНПОН" 	https://vk.com/wall-6126497_2562997	27.04.2019 13:06	200	клиента обслуживают несколько модераторов: Дмитрий Дубов, Денис Ширшов
	https://vk.com/wall-6126497_2563108	27.04.2019 14:35	300	
	https://vk.com/wall-6126497_2563151	27.04.2019 15:03	180	
🔧Сборка мебели и услуги "Мастер на час" в Заполярном.  Мы можем сделать 👍  Сборк	https://vk.com/wall-6126497_2563154	27.04.2019 15:04	200	
	https://vk.com/wall-6126497_2563177	27.04.2019 15:24	0	
	https://vk.com/wall-6126497_2563256	27.04.2019 16:13	300	
Магазин «МЕБЕЛЬ ПЛЮС» ул. Космонавтов 2а. https://vk.com/club67281851 часы работ	https://vk.com/wall-6126497_2563439	27.04.2019 18:37	200	
🔥🔥🔥АКЦИЯ 🔥🔥🔥 20% СКИДКА 20%🔥🔥🔥  НА НАТЯЖНЫЕ ПОТОЛКИ СО СПАЙКОЙ  📍Натяжные потолк	https://vk.com/wall-6126497_2563547	27.04.2019 20:00	200	клиента обслуживают несколько модераторов: Дмитрий Дубов, Елена Ушакова
	https://vk.com/wall-6126497_2563605	27.04.2019 20:45	0	
Вызвать клининговую компанию для уборки своей квартиры - не самый простой шаг дл	https://vk.com/wall-6126497_2563615	27.04.2019 21:00	200	
	https://vk.com/wall-6126497_2563747	27.04.2019 22:53	300	
Привет , северяне! Сегодня-большой православный праздник и команда кафе "БЛИНПОН	https://vk.com/wall-6126497_2563809	28.04.2019 00:00	200	клиента обслуживают несколько модераторов: Дмитрий Дубов, Денис Ширшов
Для вас, милые дамы🌷  🌸🌸🌸РАСПРОДАЖА ЖЕНСКОЙ ВЕСЕННЕЙ ОБУВИ!!!🌸🌸🌸  🔥🔥🔥🔥СКИДКА 30%	https://vk.com/wall-6126497_2564157	28.04.2019 13:02	200	
МАГАЗИН « МЕБЕЛЬ ПЛЮС» Космонавтов 2а. https://vk.com/club67281851  Часы работы:	https://vk.com/wall-6126497_2564279	28.04.2019 14:00	200	
	https://vk.com/wall-6126497_2564289	28.04.2019 14:06	200	
	https://vk.com/wall-6126497_2564504	28.04.2019 17:10	300	
	https://vk.com/wall-6126497_2564536	28.04.2019 17:32	0	
🔥🔥🔥АКЦИЯ 🔥🔥🔥 20% СКИДКА 20%🔥🔥🔥  НА НАТЯЖНЫЕ ПОТОЛКИ СО СПАЙКОЙ  📍Натяжные потолк	https://vk.com/wall-6126497_2564692	28.04.2019 20:00	200	клиента обслуживают несколько модераторов: Дмитрий Дубов, Елена Ушакова
В магазине одежды "Альбатрос" поступление нового товара! Мы находимся по адресу:	https://vk.com/wall-6126497_2564881	28.04.2019 23:02	200	клиента обслуживают несколько модераторов: Дмитрий Дубов, Елена Ушакова
К маю – готовы! До -25%!  Впереди длинные майские праздники. Собираетесь ли вы н	https://vk.com/wall-6126497_2565301	29.04.2019 12:07	200	
Для вас, милые дамы🌷  🌸🌸🌸РАСПРОДАЖА ЖЕНСКОЙ ВЕСЕННЕЙ ОБУВИ!!!🌸🌸🌸  🔥🔥🔥🔥СКИДКА 30%	https://vk.com/wall-6126497_2565381	29.04.2019 13:00	200	
В магазине одежды "Альбатрос" поступление нового товара! Мы находимся по адресу:	https://vk.com/wall-6126497_2565423	29.04.2019 13:51	200	клиента обслуживают несколько модераторов: Дмитрий Дубов, Елена Ушакова
	https://vk.com/wall-6126497_2565657	29.04.2019 16:54	300	
	https://vk.com/wall-6126497_2565734	29.04.2019 17:45	300	
EvgeniyaStudio в г. Заполярный: - окрашивания волос любой сложности; - кератинов	https://vk.com/wall-6126497_2565811	29.04.2019 18:52	200	
Прекрасные леди п. Никеля, я расширила кругозор своих знаний, а это значит что, 	https://vk.com/wall-6126497_2565824	29.04.2019 19:00	200	
	https://vk.com/wall-6126497_2565983	29.04.2019 21:02	0	
	https://vk.com/wall-6126497_2566164	29.04.2019 23:29	0	
	https://vk.com/wall-6126497_2566351	30.04.2019 08:45	300	
	https://vk.com/wall-6126497_2566532	30.04.2019 11:49	150	
Для вас, милые дамы🌷  🌸🌸🌸РАСПРОДАЖА ЖЕНСКОЙ ВЕСЕННЕЙ ОБУВИ!!!🌸🌸🌸  🔥🔥🔥🔥СКИДКА 30%	https://vk.com/wall-6126497_2566630	30.04.2019 13:00	200	
Девчули, привет 🙌 Я НАЧИНАЮЩИЙ мастер ногтевого сервиса 💅 Ищу моделей на покрыти	https://vk.com/wall-6126497_2566771	30.04.2019 15:16	200	
	https://vk.com/wall-6126497_2566933	30.04.2019 18:00	300	
https://vk.com/club152791206  "ТРИКОТАЖ ИЗ ИВАНОВО"  Рада Приветствовать Вас в м	https://vk.com/wall-6126497_2566980	30.04.2019 18:33	200	
	https://vk.com/wall-6126497_2567002	30.04.2019 19:00	300	
Красотки приглашаю Вас к себе на маникюр и покрытие гель лаком.19км. 89211550178	https://vk.com/wall-6126497_2567120	30.04.2019 21:01	200	