title	url	date	cost
Центр_Здоровая_Семья	https://vk.com/wall-6126497_3929465	01.08.2023 12:03	220
Центр_Здоровая_Семья	https://vk.com/wall-6126497_3929466	01.08.2023 12:04	220
Центр_Здоровая_Семья	https://vk.com/wall-6126497_3929467	01.08.2023 12:04	220
Эстетика	https://vk.com/wall-6126497_3929517	01.08.2023 13:36	220
Прием_ягод	https://vk.com/wall-6126497_3929627	01.08.2023 17:05	100
Окна_двери_потолки_2	https://vk.com/wall-6126497_3929939	02.08.2023 12:00	220
Смешные_цены	https://vk.com/wall-6126497_3929951	02.08.2023 12:40	220
Ortolab	https://vk.com/wall-6126497_3930169	02.08.2023 20:00	500
Смешные_цены	https://vk.com/wall-6126497_3930400	03.08.2023 12:56	220
89211792552_печень_трески	https://vk.com/wall-6126497_3930491	03.08.2023 16:34	100
VeraBarber	https://vk.com/wall-6126497_3930573	03.08.2023 19:45	500
Эстетика	https://vk.com/wall-6126497_3930749	04.08.2023 10:58	220
Эстетика	https://vk.com/wall-6126497_3930751	04.08.2023 10:58	220
Эстетика	https://vk.com/wall-6126497_3930753	04.08.2023 10:59	220
Окна_двери_потолки_2	https://vk.com/wall-6126497_3930803	04.08.2023 12:30	220
Смешные_цены	https://vk.com/wall-6126497_3930943	04.08.2023 17:34	220
Эстетика	https://vk.com/wall-6126497_3931112	05.08.2023 07:36	220
Эстетика	https://vk.com/wall-6126497_3931210	05.08.2023 12:48	220
Смешные_цены	https://vk.com/wall-6126497_3931214	05.08.2023 12:49	220
Эстетика	https://vk.com/wall-6126497_3931434	05.08.2023 19:34	220
Смешные_цены	https://vk.com/wall-6126497_3931613	06.08.2023 10:52	220
Смешные_цены	https://vk.com/wall-6126497_3932096	07.08.2023 10:47	220
Окна_двери_потолки_2	https://vk.com/wall-6126497_3932130	07.08.2023 12:00	220
Окна_двери_потолки_2	https://vk.com/wall-6126497_3932554	08.08.2023 12:00	220
Смешные_цены	https://vk.com/wall-6126497_3932634	08.08.2023 14:15	220
Центр_Здоровая_Семья	https://vk.com/wall-6126497_3932685	08.08.2023 16:07	220
Эстетика	https://vk.com/wall-6126497_3932769	08.08.2023 19:47	220
Эстетика	https://vk.com/wall-6126497_3932770	08.08.2023 19:47	220
Окна_двери_потолки_2	https://vk.com/wall-6126497_3933004	09.08.2023 12:00	220
Эстетика	https://vk.com/wall-6126497_3933048	09.08.2023 14:23	220
Эстетика	https://vk.com/wall-6126497_3933049	09.08.2023 14:23	220
Эстетика	https://vk.com/wall-6126497_3933050	09.08.2023 14:23	220
Смешные_цены	https://vk.com/wall-6126497_3933051	09.08.2023 14:24	220
Центр_Здоровая_Семья	https://vk.com/wall-6126497_3933063	09.08.2023 14:56	220
Эстетика_лица_и_тела	https://vk.com/wall-6126497_3933130	09.08.2023 17:22	330
Окна_двери_потолки_2	https://vk.com/wall-6126497_3933449	10.08.2023 13:00	220
Центр_Здоровая_Семья	https://vk.com/wall-6126497_3933561	10.08.2023 16:11	220
Виталий_Владимирович	https://vk.com/wall-6126497_3933623	10.08.2023 18:51	220
Эстетика_лица_и_тела	https://vk.com/wall-6126497_3933648	10.08.2023 19:35	330
Окна_двери_потолки_2	https://vk.com/wall-6126497_3933890	11.08.2023 12:00	220
Виталий_Владимирович	https://vk.com/wall-6126497_3934118	11.08.2023 19:13	220
Окна_двери_потолки_2	https://vk.com/wall-6126497_3934459	12.08.2023 12:30	220
Виталий_Владимирович	https://vk.com/wall-6126497_3934951	13.08.2023 13:29	220
Эстетика_лица_и_тела	https://vk.com/wall-6126497_3935085	13.08.2023 17:54	330
Эстетика_лица_и_тела	https://vk.com/wall-6126497_3935111	13.08.2023 18:26	330
Окна_двери_потолки_2	https://vk.com/wall-6126497_3936136	15.08.2023 12:00	220
Моя_Семья	https://vk.com/wall-6126497_3936163	15.08.2023 12:39	500
Центр_Медтехники_Мурманск_и_область	https://vk.com/wall-6126497_3936212	15.08.2023 13:35	500
Окна_двери_потолки_2	https://vk.com/wall-6126497_3937212	17.08.2023 12:30	220
Елена_Николаева	https://vk.com/wall-6126497_3937295	17.08.2023 14:43	100
Виталий_Владимирович	https://vk.com/wall-6126497_3937520	17.08.2023 21:15	220
Эстетика	https://vk.com/wall-6126497_3937695	18.08.2023 10:36	220
Эстетика	https://vk.com/wall-6126497_3937697	18.08.2023 10:38	220
Эстетика	https://vk.com/wall-6126497_3937699	18.08.2023 10:39	220
Виталий_Владимирович	https://vk.com/wall-6126497_3937737	18.08.2023 11:47	220
Центр_Здоровая_Семья	https://vk.com/wall-6126497_3937876	18.08.2023 15:56	220
Центр_Здоровая_Семья	https://vk.com/wall-6126497_3937877	18.08.2023 15:57	220
Смешные_цены	https://vk.com/wall-6126497_3938510	19.08.2023 17:59	220
Виталий_Владимирович	https://vk.com/wall-6126497_3938710	19.08.2023 23:24	220
Смешные_цены	https://vk.com/wall-6126497_3939487	21.08.2023 11:59	220
Магазин_Клевер	https://vk.com/wall-6126497_3939735	21.08.2023 18:15	500
Виталий_Владимирович	https://vk.com/wall-6126497_3939865	21.08.2023 20:55	220
Смешные_цены	https://vk.com/wall-6126497_3940303	22.08.2023 13:54	220
Центр_Здоровая_Семья	https://vk.com/wall-6126497_3940304	22.08.2023 13:54	220
Центр_Здоровая_Семья	https://vk.com/wall-6126497_3940305	22.08.2023 13:55	220
Эстетика_лица_и_тела	https://vk.com/wall-6126497_3940538	22.08.2023 20:37	330
Виталий_Владимирович	https://vk.com/wall-6126497_3940678	23.08.2023 10:23	220
Центр_Медтехники_Мурманск_и_область	https://vk.com/wall-6126497_3940875	23.08.2023 15:33	500
Эстетика	https://vk.com/wall-6126497_3940876	23.08.2023 15:33	220
Эстетика	https://vk.com/wall-6126497_3940877	23.08.2023 15:34	220
Эстетика	https://vk.com/wall-6126497_3940878	23.08.2023 15:34	220
Смешные_цены	https://vk.com/wall-6126497_3940927	23.08.2023 17:50	220
Эстетика	https://vk.com/wall-6126497_3941061	23.08.2023 22:49	220
Смешные_цены	https://vk.com/wall-6126497_3941306	24.08.2023 15:02	220
Эстетика	https://vk.com/wall-6126497_3941309	24.08.2023 15:09	220
Виталий_Владимирович	https://vk.com/wall-6126497_3941508	24.08.2023 20:11	220
Елена_Николаева	https://vk.com/wall-6126497_3941677	25.08.2023 10:43	500
Смешные_цены	https://vk.com/wall-6126497_3941854	25.08.2023 16:40	220
Эстетика	https://vk.com/wall-6126497_3942144	26.08.2023 11:31	220
Елена_Николаева	https://vk.com/wall-6126497_3942247	26.08.2023 13:59	500
Смешные_цены	https://vk.com/wall-6126497_3942774	27.08.2023 14:15	220
Виталий_Владимирович	https://vk.com/wall-6126497_3942835	27.08.2023 16:23	220
Виталий_Владимирович	https://vk.com/wall-6126497_3943061	28.08.2023 09:08	220
Центр_Здоровая_Семья	https://vk.com/wall-6126497_3943073	28.08.2023 09:49	220
Центр_Здоровая_Семья	https://vk.com/wall-6126497_3943074	28.08.2023 09:49	220
Окна_двери_потолки_2	https://vk.com/wall-6126497_3943674	29.08.2023 12:00	220
Эстетика	https://vk.com/wall-6126497_3943766	29.08.2023 14:25	220
Эстетика	https://vk.com/wall-6126497_3943767	29.08.2023 14:25	220
Виталий_Владимирович	https://vk.com/wall-6126497_3943860	29.08.2023 16:11	220
Виталий_Владимирович	https://vk.com/wall-6126497_3944288	30.08.2023 12:17	220
Окна_двери_потолки_2	https://vk.com/wall-6126497_3944320	30.08.2023 13:00	220
ФиС_окна_двери_потолки	https://vk.com/wall-6126497_3944460	30.08.2023 16:01	500
Эстетика_волос_Заполярный	https://vk.com/wall-6126497_3944611	30.08.2023 20:25	100
Эстетика	https://vk.com/wall-6126497_3944640	30.08.2023 21:12	220
Эстетика	https://vk.com/wall-6126497_3944641	30.08.2023 21:12	220
Виталий_Владимирович	https://vk.com/wall-6126497_3944778	31.08.2023 10:03	220
Центр_Здоровая_Семья	https://vk.com/wall-6126497_3944900	31.08.2023 13:49	220
Эстетика	https://vk.com/wall-6126497_3945122	31.08.2023 21:05	220
Эстетика	https://vk.com/wall-6126497_3945123	31.08.2023 21:05	220