title	url	date	cost
Мир_обуви_и_одежды	https://vk.com/wall-6126497_3929460	01.08.2023 12:00	500
89217095675_куплю_золото	https://vk.com/wall-6126497_3929498	01.08.2023 13:00	220
Салон_для_ресниц	https://vk.com/wall-6126497_3929522	01.08.2023 14:02	100
Маникюр_и_педикюр_Заполярный	https://vk.com/wall-6126497_3929651	01.08.2023 18:06	100
Грузоперевозки_Заполярный_89211608887	https://vk.com/wall-6126497_3929737	01.08.2023 21:00	220
Магнит_Косметик	https://vk.com/wall-6126497_3929961	02.08.2023 13:01	500
Маникюр_и_педикюр_Заполярный	https://vk.com/wall-6126497_3930149	02.08.2023 19:06	100
Мир_обуви_и_одежды	https://vk.com/wall-6126497_3930364	03.08.2023 12:00	500
89217095675_куплю_золото	https://vk.com/wall-6126497_3930403	03.08.2023 13:00	220
Салон_для_ресниц	https://vk.com/wall-6126497_3930428	03.08.2023 14:00	100
Маникюр_и_педикюр_Заполярный	https://vk.com/wall-6126497_3930560	03.08.2023 19:07	100
Мир_обуви_и_одежды	https://vk.com/wall-6126497_3930976	04.08.2023 19:00	500
Маникюр_и_педикюр_Заполярный	https://vk.com/wall-6126497_3930979	04.08.2023 19:07	100
Грузоперевозки_Заполярный_89211608887	https://vk.com/wall-6126497_3931020	04.08.2023 21:00	220
Берлога	https://vk.com/wall-6126497_3931217	05.08.2023 12:50	500
89217095675_куплю_золото	https://vk.com/wall-6126497_3931228	05.08.2023 13:00	220
Салон_для_ресниц	https://vk.com/wall-6126497_3931264	05.08.2023 14:00	100
Икра_морских_ежей	https://vk.com/wall-6126497_3931619	06.08.2023 11:14	500
Попугайчики_89882335611	https://vk.com/wall-6126497_3931629	06.08.2023 11:35	500
89892335611	https://vk.com/wall-6126497_3931640	06.08.2023 11:55	220
Икра_морских_ежей	https://vk.com/wall-6126497_3931858	06.08.2023 19:00	500
Светлана_Тетерина	https://vk.com/wall-6126497_3932056	07.08.2023 08:25	500
89113470910_свежая_семга	https://vk.com/wall-6126497_3932065	07.08.2023 09:13	220
Салон_для_ресниц	https://vk.com/wall-6126497_3932177	07.08.2023 14:00	100
Мобильные_аксесссуары	https://vk.com/wall-6126497_3932178	07.08.2023 14:05	500
89113470910_свежая_семга	https://vk.com/wall-6126497_3932194	07.08.2023 14:54	220
89113470910_свежая_семга	https://vk.com/wall-6126497_3932478	08.08.2023 09:14	220
89217095675_куплю_золото	https://vk.com/wall-6126497_3932581	08.08.2023 13:00	220
89211738253_морские_прогулки	https://vk.com/wall-6126497_3932776	08.08.2023 20:18	500
Лазерная_эпиляция_в_Никеле	https://vk.com/wall-6126497_3932783	08.08.2023 20:30	500
Грузоперевозки_Заполярный_89211608887	https://vk.com/wall-6126497_3932798	08.08.2023 21:00	220
89211738253_морские_прогулки	https://vk.com/wall-6126497_3933013	09.08.2023 12:29	500
Шаверма_Заполярный	https://vk.com/wall-6126497_3933289	10.08.2023 01:33	500
89113470910_свежая_семга	https://vk.com/wall-6126497_3933330	10.08.2023 09:00	220
89217095675_куплю_золото	https://vk.com/wall-6126497_3933451	10.08.2023 13:02	220
89113470910_свежая_семга	https://vk.com/wall-6126497_3933553	10.08.2023 16:00	220
89113470910_свежая_семга	https://vk.com/wall-6126497_3933806	11.08.2023 09:13	220
Маникюр_и_педикюр_Заполярный	https://vk.com/wall-6126497_3934015	11.08.2023 16:20	100
89113470910_свежая_семга	https://vk.com/wall-6126497_3934063	11.08.2023 17:32	220
Грузоперевозки_Заполярный_89211608887	https://vk.com/wall-6126497_3934180	11.08.2023 21:00	220
Магазин_одежды_4_сезона	https://vk.com/wall-6126497_3934396	12.08.2023 10:48	220
Ekaterina_Krupchak	https://vk.com/wall-6126497_3934444	12.08.2023 12:04	500
89217095675_куплю_золото	https://vk.com/wall-6126497_3934481	12.08.2023 13:00	220
Магазин_одежды_4_сезона	https://vk.com/wall-6126497_3934693	12.08.2023 20:00	220
Ekaterina_Krupchak	https://vk.com/wall-6126497_3934899	13.08.2023 12:03	500
89892335611	https://vk.com/wall-6126497_3934962	13.08.2023 13:53	220
89892335611	https://vk.com/wall-6126497_3934995	13.08.2023 14:52	220
89113470910_свежая_семга	https://vk.com/wall-6126497_3935006	13.08.2023 15:00	220
Маникюр_и_педикюр_Заполярный	https://vk.com/wall-6126497_3935046	13.08.2023 16:20	100
Магазин_одежды_4_сезона	https://vk.com/wall-6126497_3935167	13.08.2023 20:00	220
89892335611	https://vk.com/wall-6126497_3935558	14.08.2023 14:04	220
Магазин_одежды_4_сезона	https://vk.com/wall-6126497_3935829	14.08.2023 20:00	220
89217095675_куплю_золото	https://vk.com/wall-6126497_3936178	15.08.2023 13:00	220
89113470910_свежая_семга	https://vk.com/wall-6126497_3936180	15.08.2023 13:00	220
89113470910_свежая_семга	https://vk.com/wall-6126497_3936283	15.08.2023 15:41	220
Маникюр_и_педикюр_Заполярный	https://vk.com/wall-6126497_3936294	15.08.2023 16:20	100
89892335611	https://vk.com/wall-6126497_3936330	15.08.2023 17:50	220
Магазин_одежды_4_сезона	https://vk.com/wall-6126497_3936393	15.08.2023 20:00	220
Грузоперевозки_Заполярный_89211608887	https://vk.com/wall-6126497_3936443	15.08.2023 21:00	220
89113470910_свежая_семга	https://vk.com/wall-6126497_3936746	16.08.2023 14:26	220
Магазин_одежды_4_сезона	https://vk.com/wall-6126497_3936943	16.08.2023 20:00	220
89217095675_куплю_золото	https://vk.com/wall-6126497_3937236	17.08.2023 13:00	220
Маникюр_и_педикюр_Заполярный	https://vk.com/wall-6126497_3937366	17.08.2023 16:20	100
Магазин_одежды_4_сезона	https://vk.com/wall-6126497_3937492	17.08.2023 20:00	220
Магазин_одежды_4_сезона	https://vk.com/wall-6126497_3938012	18.08.2023 20:00	220
Грузоперевозки_Заполярный_89211608887	https://vk.com/wall-6126497_3938041	18.08.2023 21:00	220
Step_by_Step	https://vk.com/wall-6126497_3938075	18.08.2023 21:47	500
89217095675_куплю_золото	https://vk.com/wall-6126497_3938324	19.08.2023 13:00	220
89113470910_свежая_семга	https://vk.com/wall-6126497_3938329	19.08.2023 13:05	220
Магазин_одежды_4_сезона	https://vk.com/wall-6126497_3938573	19.08.2023 20:00	220
Магазин_одежды_4_сезона	https://vk.com/wall-6126497_3939197	20.08.2023 20:00	220
89217095675_куплю_золото	https://vk.com/wall-6126497_3940261	22.08.2023 13:00	220
Магазин_одежды_4_сезона	https://vk.com/wall-6126497_3940533	22.08.2023 20:30	220
Грузоперевозки_Заполярный_89211608887	https://vk.com/wall-6126497_3940549	22.08.2023 20:55	220
89892335611	https://vk.com/wall-6126497_3940960	23.08.2023 18:50	220
Магазин_одежды_4_сезона	https://vk.com/wall-6126497_3941023	23.08.2023 21:00	220
89217095675_куплю_золото	https://vk.com/wall-6126497_3941245	24.08.2023 13:00	220
Артем_тату_мастер	https://vk.com/wall-6126497_3941419	24.08.2023 18:00	500
89892335611	https://vk.com/wall-6126497_3941423	24.08.2023 18:03	220
89212758312_вакансия	https://vk.com/wall-6126497_3941428	24.08.2023 18:08	500
Магазин_одежды_4_сезона	https://vk.com/wall-6126497_3941513	24.08.2023 20:30	220
Маникюр_и_педикюр_Заполярный	https://vk.com/wall-6126497_3941904	25.08.2023 18:32	100
Магазин_одежды_4_сезона	https://vk.com/wall-6126497_3941956	25.08.2023 21:00	220
89892335611	https://vk.com/wall-6126497_3942347	26.08.2023 16:52	220
Магазин_одежды_4_сезона	https://vk.com/wall-6126497_3942455	26.08.2023 20:00	220
Камилия_Аланова	https://vk.com/wall-6126497_3942686	27.08.2023 12:01	500
Маникюр_и_педикюр_Заполярный	https://vk.com/wall-6126497_3942935	27.08.2023 19:34	100
Магазин_одежды_4_сезона	https://vk.com/wall-6126497_3942958	27.08.2023 20:30	220
89113470910_свежая_семга	https://vk.com/wall-6126497_3943059	28.08.2023 09:01	220
Изделия_из_гипса	https://vk.com/wall-6126497_3943131	28.08.2023 12:00	500
Магазин_одежды_4_сезона	https://vk.com/wall-6126497_3943400	28.08.2023 20:00	220
Gromoff	https://vk.com/wall-6126497_3943596	29.08.2023 09:30	500
Маникюр_и_педикюр_Заполярный	https://vk.com/wall-6126497_3943986	29.08.2023 19:35	100
Магазин_одежды_4_сезона	https://vk.com/wall-6126497_3944018	29.08.2023 20:30	220
Брови_ресницы_Заполярный	https://vk.com/wall-6126497_3944085	29.08.2023 22:00	100
Брови_ресницы_Заполярный	https://vk.com/wall-6126497_3944193	30.08.2023 09:05	100
89113470910_свежая_семга	https://vk.com/wall-6126497_3944227	30.08.2023 10:18	220
Брови_ресницы_Заполярный	https://vk.com/wall-6126497_3944378	30.08.2023 14:05	100
Брови_ресницы_Заполярный	https://vk.com/wall-6126497_3944556	30.08.2023 19:05	100
Магазин_одежды_4_сезона	https://vk.com/wall-6126497_3944591	30.08.2023 20:00	220
Изделия_из_гипса	https://vk.com/wall-6126497_3944847	31.08.2023 12:00	500
Петруха_Аверьянов	https://vk.com/wall-6126497_3945018	31.08.2023 17:19	500
Медтехника_и_ортопедия_Ортолаб	https://vk.com/wall-6126497_3945071	31.08.2023 19:02	500