title	start-date	start-time	end-date	end-time	hours	cost
Борыгин	02.08.2023	17:00	02.08.2023	20:00	3	300
Искра	03.08.2023	13:00	03.08.2023	23:45	10	1000
Борыгин	04.08.2023	12:00	04.08.2023	19:00	7	700
Нахалова	05.08.2023	13:00	05.08.2023	14:00	1	100
Борыгин	05.08.2023	16:00	05.08.2023	20:00	4	400
Борыгин	06.08.2023	16:00	06.08.2023	20:00	4	400
Тетерина	07.08.2023	09:00	07.08.2023	17:00	8	800
Борыгин	07.08.2023	17:00	07.08.2023	20:00	3	300
Борыгин	08.08.2023	16:00	08.08.2023	20:00	4	400
Борыгин	09.08.2023	16:00	09.08.2023	20:00	4	400
Милонкова	10.08.2023	00:00	10.08.2023	23:45	23	2300
Милонкова	11.08.2023	00:00	11.08.2023	23:45	23	2300
Пых	12.08.2023	10:00	12.08.2023	14:00	4	400
Пых	12.08.2023	16:00	12.08.2023	22:00	6	600
Пых	13.08.2023	10:00	13.08.2023	22:00	12	1200
Максим Юрич	14.08.2023	16:00	14.08.2023	21:00	5	500
Гасанов	15.08.2023	14:00	15.08.2023	22:00	8	800
Гасанов	16.08.2023	14:00	16.08.2023	20:00	6	600
Максим Юрич	17.08.2023	10:00	17.08.2023	14:00	4	400
Гасанов	17.08.2023	14:00	17.08.2023	19:00	5	500
Гасанов	18.08.2023	14:00	18.08.2023	22:00	8	800
Гасанов	19.08.2023	14:00	19.08.2023	20:00	6	600
Хохлова	20.08.2023	12:00	20.08.2023	14:00	2	200
Максим Юрич	20.08.2023	14:00	20.08.2023	19:00	5	500
Хохлова	20.08.2023	19:00	20.08.2023	21:00	2	200
Максим Юрич	21.08.2023	16:00	21.08.2023	21:00	5	500
Максим Юрич	22.08.2023	16:00	22.08.2023	21:00	5	500
Пушкарев	23.08.2023	14:00	23.08.2023	16:00	2	200
Максим Юрич	23.08.2023	16:00	23.08.2023	21:00	5	500
Пушкарев	23.08.2023	21:00	23.08.2023	22:00	1	100
Максим Юрич	24.08.2023	12:00	24.08.2023	16:00	4	400
Пушкарев	24.08.2023	16:00	24.08.2023	18:00	2	200
Ципилев	24.08.2023	19:00	24.08.2023	23:45	4	400
Максим Юрич	25.08.2023	15:00	25.08.2023	19:00	4	400
Ципилев	26.08.2023	18:00	26.08.2023	21:00	3	300
Хохлова	27.08.2023	10:00	28.08.2023	14:00	28	400
Максим Юрич	27.08.2023	14:00	27.08.2023	18:00	4	400
Хохлова	27.08.2023	18:00	27.08.2023	21:00	3	300
Максим Юрич	28.08.2023	14:00	28.08.2023	18:00	4	400
Хохлова	28.08.2023	18:00	28.08.2023	21:00	3	300
Максим Юрич	29.08.2023	15:00	29.08.2023	19:00	4	400
Максим Юрич	30.08.2023	15:00	30.08.2023	19:00	4	400
Максим Юрич	31.08.2023	12:00	31.08.2023	17:00	5	500