title	start-date	start-time	end-date	end-time	hours	cost
	06.02.2021	12:00	06.02.2021	17:00	5	420
	06.02.2021	21:00	06.02.2021	22:00	1	120
	13.02.2021	00:00	13.02.2021	17:00	17	1280
	13.02.2021	23:00	13.02.2021	23:45	0	0
	14.02.2021	12:00	14.02.2021	15:00	3	260
	14.02.2021	15:00	14.02.2021	17:00	2	160
	15.02.2021	00:00	15.02.2021	12:00	12	860
	18.02.2021	20:00	18.02.2021	23:45	3	360
	21.02.2021	09:00	21.02.2021	10:00	1	80
	21.02.2021	14:00	21.02.2021	15:00	1	80
	21.02.2021	18:00	21.02.2021	22:00	4	480
	26.02.2021	09:00	26.02.2021	10:00	1	80
	26.02.2021	16:00	26.02.2021	17:00	1	80
	26.02.2021	22:00	26.02.2021	23:45	1	120
	28.02.2021	00:00	28.02.2021	13:00	13	960