title	url	date	cost
Магазины "Окраина Вкуснее" это широкий выбор колбас, деликатесов и полуфабрикато	https://vk.com/wall-6126497_3259295	01.02.2021 14:00	298
	https://vk.com/wall-6126497_3259304	01.02.2021 14:05	199
Помощь в оформлении Техосмотра(ТО/ДК), полиса ОСАГО и восстановление КБМ онлайн,	https://vk.com/wall-6126497_3259325	01.02.2021 14:46	500
https://vk.com/realtour51 г.Заполярный, ул. Космонавтов д.2 оф.21	https://vk.com/wall-6126497_3259331	01.02.2021 14:50	200
Заполярный и км❣️ Обаятельный Мишка Тедди🧸 и его очаровательная подружка, предла	https://vk.com/wall-6126497_3259334	01.02.2021 14:53	500
	https://vk.com/wall-6126497_3259542	01.02.2021 18:26	500
Ремонт мобильных телефонов📱  ✅ Планшетов  💻 ноутбуков  📺 ЖК- телевизоров    http	https://vk.com/wall-6126497_3259545	01.02.2021 18:30	199
Качественно-не значит ДОРОГО⤵  [club197976551|@brow_bashkatova]   МЕЧТАЕШЬ О ИДЕ	https://vk.com/wall-6126497_3259574	01.02.2021 19:05	199
	https://vk.com/wall-6126497_3259670	01.02.2021 20:51	500
❗С 10 февраля 2021 г. ожидается значительный рост цен на весь ассортимент салоно	https://vk.com/wall-6126497_3260082	02.02.2021 12:55	200
	https://vk.com/wall-6126497_3260131	02.02.2021 14:01	199
В салоне красоты по адресу г. Заполчрный ул. Юбилейная 14 сдаются кабинеты и мес	https://vk.com/wall-6126497_3260246	02.02.2021 16:30	199
	https://vk.com/wall-6126497_3260316	02.02.2021 18:32	298
	https://vk.com/wall-6126497_3260387	02.02.2021 20:00	199
РАСПРОДАЖА ОСНОВАНИЙ ПОД МАТРАС  ОТ ASKONA! ОСНОВАНИЕ ВСЕГО 4990 РУБ.!  ■ Размер	https://vk.com/wall-6126497_3260749	03.02.2021 12:15	200
	https://vk.com/wall-6126497_3260837	03.02.2021 14:00	199
	https://vk.com/wall-6126497_3260847	03.02.2021 14:08	199
Приглашаем за покупками 🌺  👍🏻Подписывайтесь на нашу страничку 😉https://vk.com/id	https://vk.com/wall-6126497_3261090	03.02.2021 18:30	500
Ремонт мобильных телефонов📱  ✅ Планшетов  💻 ноутбуков  📺 ЖК- телевизоров    http	https://vk.com/wall-6126497_3261117	03.02.2021 19:00	199
	https://vk.com/wall-6126497_3261142	03.02.2021 19:25	500
	https://vk.com/wall-6126497_3261668	04.02.2021 13:39	199
	https://vk.com/wall-6126497_3261690	04.02.2021 14:00	199
В салоне красоты по адресу г. Заполярный, ул. Юбилейная 14,  сдаются кабинеты и 	https://vk.com/wall-6126497_3261821	04.02.2021 16:00	199
	https://vk.com/wall-6126497_3261884	04.02.2021 17:40	500
	https://vk.com/wall-6126497_3261961	04.02.2021 19:16	500
	https://vk.com/wall-6126497_3262471	05.02.2021 14:00	199
	https://vk.com/wall-6126497_3262614	05.02.2021 16:31	199
	https://vk.com/wall-6126497_3262690	05.02.2021 17:54	199
	https://vk.com/wall-6126497_3262697	05.02.2021 18:00	298
Ремонт мобильных телефонов📱  ✅ Планшетов  💻 ноутбуков  📺 ЖК- телевизоров    http	https://vk.com/wall-6126497_3262803	05.02.2021 20:00	199
	https://vk.com/wall-6126497_3263366	06.02.2021 14:03	199
"Много Мебели" радует выгодными ценами и подарками! Мы приглашаем вас за покупка	https://vk.com/wall-6126497_3263395	06.02.2021 14:26	500
В салоне красоты по адресу г. Заполярный, ул. Юбилейная 14,  сдаются кабинеты и 	https://vk.com/wall-6126497_3263588	06.02.2021 17:30	199
Приглашаем за покупками🌺  Добавляйтесь в друзья , наличие видно только друзьям 😉	https://vk.com/wall-6126497_3263861	07.02.2021 00:01	500
Магазины "Окраина Вкуснее" это широкий выбор колбас, деликатесов и полуфабрикато	https://vk.com/wall-6126497_3264135	07.02.2021 13:00	298
	https://vk.com/wall-6126497_3264196	07.02.2021 14:01	199
	https://vk.com/wall-6126497_3265050	08.02.2021 14:01	199
Дорогие девушки, я сертифицированный мастер по педикюру,каждая девушка хочет быт	https://vk.com/wall-6126497_3265135	08.02.2021 15:34	500
В салоне красоты по адресу г. Заполярный, ул. Юбилейная 14,  сдаются кабинеты и 	https://vk.com/wall-6126497_3265209	08.02.2021 16:30	199
На старт, внимание...предложение на кровать и матрас Askona начинает действовать	https://vk.com/wall-6126497_3265394	08.02.2021 19:25	200
Ремонт мобильных телефонов📱  ✅ Планшетов  💻 ноутбуков  📺 ЖК- телевизоров    http	https://vk.com/wall-6126497_3265404	08.02.2021 19:30	199
	https://vk.com/wall-6126497_3265435	08.02.2021 20:00	199
	https://vk.com/wall-6126497_3265982	09.02.2021 14:00	199
	https://vk.com/wall-6126497_3266245	09.02.2021 19:00	500
	https://vk.com/wall-6126497_3266911	10.02.2021 14:00	199
В салоне красоты по адресу г. Заполярный, ул. Юбилейная 14,  сдаются кабинеты и 	https://vk.com/wall-6126497_3267097	10.02.2021 17:00	199
	https://vk.com/wall-6126497_3267140	10.02.2021 17:47	199
	https://vk.com/wall-6126497_3267151	10.02.2021 18:00	199
❓Какой массаж нужен вашему ребёнку? Для чего вообще необходимо делать детям масс	https://vk.com/wall-6126497_3267413	11.02.2021 00:00	500
Требуются модели на классическое наращивание ресниц-500р. Для отработки скорости	https://vk.com/wall-6126497_3267527	11.02.2021 08:49	100
	https://vk.com/wall-6126497_3267673	11.02.2021 12:18	199
	https://vk.com/wall-6126497_3267829	11.02.2021 14:44	199
	https://vk.com/wall-6126497_3268088	11.02.2021 19:27	500
В магазине  «Альт» поступление товара: - Подарочные полотенца на 23 февраля - Му	https://vk.com/wall-6126497_3268118	11.02.2021 20:00	199
Заполярный и км❣️ Обаятельный Мишка Тедди🧸 и его очаровательная подружка, предла	https://vk.com/wall-6126497_3268195	11.02.2021 20:50	500
Магазины "Окраина Вкуснее" это широкий выбор колбас, деликатесов и полуфабрикато	https://vk.com/wall-6126497_3268650	12.02.2021 13:00	298
	https://vk.com/wall-6126497_3268725	12.02.2021 14:00	199
В салоне красоты по адресу г. Заполярный, ул. Юбилейная 14,  сдаются кабинеты и 	https://vk.com/wall-6126497_3268893	12.02.2021 16:30	199
	https://vk.com/wall-6126497_3268921	12.02.2021 17:00	199
В магазине  «Альт» поступление товара: - Подарочные полотенца на 23 февраля - Му	https://vk.com/wall-6126497_3269130	12.02.2021 20:00	199
	https://vk.com/wall-6126497_3269138	12.02.2021 20:06	500
	https://vk.com/wall-6126497_3269727	13.02.2021 13:26	199
	https://vk.com/wall-6126497_3269777	13.02.2021 14:02	199
	https://vk.com/wall-6126497_3269878	13.02.2021 15:29	500
	https://vk.com/wall-6126497_3269889	13.02.2021 15:35	199
	https://vk.com/wall-6126497_3269952	13.02.2021 16:20	300
Ремонт мобильных телефонов📱  ✅ Планшетов  💻 ноутбуков  📺 ЖК- телевизоров    http	https://vk.com/wall-6126497_3270155	13.02.2021 19:30	199
	https://vk.com/wall-6126497_3270358	13.02.2021 23:21	300
	https://vk.com/wall-6126497_3270751	14.02.2021 14:02	199
Сегодня ТОТ САМЫЙ день! День всех влюблённых. День сердечек и Амуров ❤️⁣⁣⠀ ⁣⁣⠀ А	https://vk.com/wall-6126497_3270887	14.02.2021 16:06	200
	https://vk.com/wall-6126497_3270932	14.02.2021 16:53	199
	https://vk.com/wall-6126497_3270936	14.02.2021 17:00	300
🔧Сборка мебели и услуги "Мастер на час" в Заполярном.    Мы можем сделать 👍   Сб	https://vk.com/wall-6126497_3271149	14.02.2021 20:00	200
	https://vk.com/wall-6126497_3271598	15.02.2021 12:00	199
Ремонт мобильных телефонов📱  ✅ Планшетов  💻 ноутбуков  📺 ЖК- телевизоров    http	https://vk.com/wall-6126497_3271875	15.02.2021 17:00	199
	https://vk.com/wall-6126497_3271986	15.02.2021 19:02	199
Мастерская"Leather Studio 2020" предлагает услуги по ремонту салона и сидений ав	https://vk.com/wall-6126497_3272061	15.02.2021 20:30	500
В наличии есть различные аксессуары - запчасти для iPhone - Android, защитные ст	https://vk.com/wall-6126497_3272077	15.02.2021 20:46	500
Магазины "Окраина Вкуснее" это широкий выбор колбас, деликатесов и полуфабрикато	https://vk.com/wall-6126497_3272441	16.02.2021 13:00	298
	https://vk.com/wall-6126497_3272487	16.02.2021 14:00	199
	https://vk.com/wall-6126497_3273177	17.02.2021 11:16	300
	https://vk.com/wall-6126497_3273318	17.02.2021 14:00	199
Дорогие участники, Хочу пригласить вас в группу " Шторы и домашний текстиль по р	https://vk.com/wall-6126497_3273416	17.02.2021 15:43	500
	https://vk.com/wall-6126497_3273476	17.02.2021 17:00	199
Дорогие друзья!  Приглашаю вас в нашу группу https://vk.com/club200555735. ✔️Огр	https://vk.com/wall-6126497_3273576	17.02.2021 19:05	100
https://vk.com/imperatrica_murmansk	https://vk.com/wall-6126497_3273653	17.02.2021 20:40	500
	https://vk.com/wall-6126497_3274087	18.02.2021 14:00	199
‼Ищем сотрудника на должность " Операционист сектора кассовых операций" в города	https://vk.com/wall-6126497_3274172	18.02.2021 15:36	298
Ремонт мобильных телефонов📱  ✅ Планшетов  💻 ноутбуков  📺 ЖК- телевизоров    http	https://vk.com/wall-6126497_3274212	18.02.2021 16:30	199
Дорогие друзья!  Приглашаем Вас в нашу группу https://vk.com/klerbs Футболки,худ	https://vk.com/wall-6126497_3274255	18.02.2021 17:30	100
	https://vk.com/wall-6126497_3274293	18.02.2021 18:00	298
В магазине  «Альт» поступление товара: - Подарочные полотенца на 23 февраля - Ни	https://vk.com/wall-6126497_3274384	18.02.2021 20:00	199
	https://vk.com/wall-6126497_3274385	18.02.2021 20:00	199
Ремонт? Автомобиль? Отпуск?  Вы можете себе это позволить!  Успейте подать заявк	https://vk.com/wall-6126497_3275248	19.02.2021 18:35	298
Здравствуйте 🌼 Меня зовут Марина, я дипломированный косметолог с МЕДИЦИНСКИМ обр	https://vk.com/wall-6126497_3275296	19.02.2021 19:14	500
В магазине  «Альт» поступление товара: - Подарочные полотенца на 23 февраля - Ни	https://vk.com/wall-6126497_3275342	19.02.2021 20:00	199
https://vk.com/realtour51	https://vk.com/wall-6126497_3275686	20.02.2021 12:03	200
Ремонт мобильных телефонов📱  ✅ Планшетов  💻 ноутбуков  📺 ЖК- телевизоров    http	https://vk.com/wall-6126497_3275971	20.02.2021 17:30	199
Заполярный!Экспpeсc поздрaвление с помoщью рoстовой куклы Мишка Тедди!🧸Хотите уд	https://vk.com/wall-6126497_3276091	20.02.2021 20:22	500
Помощь в оформлении Техосмотра(ТО/ДК), полиса ОСАГО и восстановление КБМ онлайн,	https://vk.com/wall-6126497_3276499	21.02.2021 12:00	500
🔧Сборка мебели и услуги "Мастер на час" в Заполярном.    Мы можем сделать 👍   Сб	https://vk.com/wall-6126497_3277056	21.02.2021 21:00	200
	https://vk.com/wall-6126497_3277487	22.02.2021 13:00	199
Дорогие наши покупатели!💞 ❗Рады вам сообщить, что с 1 марта мы будем работать по	https://vk.com/wall-6126497_3278112	22.02.2021 22:18	500
Ремонт? Автомобиль? Отпуск?  Вы можете себе это позволить!  Успейте подать заявк	https://vk.com/wall-6126497_3278583	23.02.2021 16:00	298
В магазине  «Альт» скидка 50% на всю ЗИМНЮЮ обувь!!!  Ждём Вас по адресу: г.Запо	https://vk.com/wall-6126497_3279544	24.02.2021 20:00	199
	https://vk.com/wall-6126497_3280184	25.02.2021 15:53	199
В магазине «Альт» скидка 50% на всю ЗИМНЮЮ обувь!!!    Ждём Вас по адресу: г.Зап	https://vk.com/wall-6126497_3280359	25.02.2021 20:00	199
Ремонт? Автомобиль? Отпуск?  Вы можете себе это позволить!  Успейте подать заявк	https://vk.com/wall-6126497_3281060	26.02.2021 17:10	298
	https://vk.com/wall-6126497_3281233	26.02.2021 20:24	298
Заполярный!Экспpeсc поздрaвление с помoщью рoстовой куклы Мишка Тедди!🧸Хотите уд	https://vk.com/wall-6126497_3281235	26.02.2021 20:25	500
	https://vk.com/wall-6126497_3281370	26.02.2021 23:09	300
	https://vk.com/wall-6126497_3281778	27.02.2021 15:00	199
Внимание 📣📣📣 В магазин «Карат» требуется продавец-консультант !!!!! По всем вопр	https://vk.com/wall-6126497_3282061	27.02.2021 19:29	500
	https://vk.com/wall-6126497_3282707	28.02.2021 16:14	199
https://vk.com/consultant51 Рады приветствовать вас! Представляем полезную групп	https://vk.com/wall-6126497_3282719	28.02.2021 16:21	500
	https://vk.com/wall-6126497_3282736	28.02.2021 16:37	199