title	url	date	cost
Лазерная_эпиляция_в_Никеле	https://vk.com/wall-6126497_4070962	01.06.2024 10:10	500
Александра_Карипова	https://vk.com/wall-6126497_4071142	01.06.2024 16:46	100
Лазерная_эпиляция_в_Никеле	https://vk.com/wall-6126497_4071371	02.06.2024 12:00	500
Александра_Карипова	https://vk.com/wall-6126497_4071534	02.06.2024 16:00	100
Лазерная_эпиляция_в_Никеле	https://vk.com/wall-6126497_4071751	03.06.2024 10:15	500
89217095675_куплю_золото	https://vk.com/wall-6126497_4071782	03.06.2024 12:00	220
Александра_Карипова	https://vk.com/wall-6126497_4071881	03.06.2024 16:00	100
Берлога	https://vk.com/wall-6126497_4072184	04.06.2024 11:58	500
Эстетика	https://vk.com/wall-6126497_4072649	05.06.2024 14:13	220
Александра_Карипова	https://vk.com/wall-6126497_4072721	05.06.2024 17:00	100
Мастерская_Бобер-мастер	https://vk.com/wall-6126497_4072753	05.06.2024 18:42	500
Александра_Карипова	https://vk.com/wall-6126497_4073058	06.06.2024 17:05	100
89217095675_куплю_золото	https://vk.com/wall-6126497_4073367	07.06.2024 14:05	220
Александра_Карипова	https://vk.com/wall-6126497_4073447	07.06.2024 17:00	100
Мир_обуви_и_одежды	https://vk.com/wall-6126497_4073513	07.06.2024 20:00	500
Эстетика	https://vk.com/wall-6126497_4073570	07.06.2024 22:59	220
Эстетика	https://vk.com/wall-6126497_4073679	08.06.2024 11:15	220
Мастерская_Бобер-мастер	https://vk.com/wall-6126497_4073752	08.06.2024 14:30	500
Маникюр_и_педикюр_Заполярный	https://vk.com/wall-6126497_4073835	08.06.2024 18:00	100
Педикюр_от_Ирины	https://vk.com/wall-6126497_4073937	08.06.2024 23:10	500
Эстетика	https://vk.com/wall-6126497_4074017	09.06.2024 11:15	220
Эстетика	https://vk.com/wall-6126497_4074018	09.06.2024 11:18	220
Магия_SPA	https://vk.com/wall-6126497_4074026	09.06.2024 11:38	220
Эстетика	https://vk.com/wall-6126497_4074398	10.06.2024 10:05	220
Эстетика	https://vk.com/wall-6126497_4074727	11.06.2024 11:11	220
Магия_SPA	https://vk.com/wall-6126497_4074991	11.06.2024 23:40	220
89217095675_куплю_золото	https://vk.com/wall-6126497_4075092	12.06.2024 12:04	220
Магия_рук	https://vk.com/wall-6126497_4075152	12.06.2024 14:00	500
Магия_SPA	https://vk.com/wall-6126497_4075506	13.06.2024 13:07	220
Эстетика	https://vk.com/wall-6126497_4075589	13.06.2024 17:05	220
Эстетика	https://vk.com/wall-6126497_4075592	13.06.2024 17:09	220
Евгения_Мокроусова	https://vk.com/wall-6126497_4076063	14.06.2024 23:12	500
Эстетика	https://vk.com/wall-6126497_4076151	15.06.2024 10:00	220
Магия_SPA	https://vk.com/wall-6126497_4076185	15.06.2024 11:20	220
89217095675_куплю_золото	https://vk.com/wall-6126497_4076210	15.06.2024 12:01	220
Магазин_Штольня	https://vk.com/wall-6126497_4076254	15.06.2024 13:49	500
Магазин_Штольня	https://vk.com/wall-6126497_4076394	15.06.2024 20:32	500
89892335611	https://vk.com/wall-6126497_4076599	16.06.2024 16:03	330
Магия_SPA	https://vk.com/wall-6126497_4076860	17.06.2024 10:55	220
89217095675_куплю_золото	https://vk.com/wall-6126497_4076885	17.06.2024 12:01	220
89384131690_свежая_семга	https://vk.com/wall-6126497_4076948	17.06.2024 15:14	100
89384131690_свежая_семга	https://vk.com/wall-6126497_4077283	18.06.2024 13:01	100
89217095675_куплю_золото	https://vk.com/wall-6126497_4077572	19.06.2024 12:01	220
Магия_SPA	https://vk.com/wall-6126497_4077601	19.06.2024 13:20	220
89217095675_куплю_золото	https://vk.com/wall-6126497_4078233	21.06.2024 12:02	220
89384131690_свежая_семга	https://vk.com/wall-6126497_4078321	21.06.2024 16:17	100
89892335611	https://vk.com/wall-6126497_4078358	21.06.2024 17:30	330
Магия_SPA	https://vk.com/wall-6126497_4078366	21.06.2024 17:34	220
Обувь_51	https://vk.com/wall-6126497_4078473	22.06.2024 00:07	500
Магия_SPA	https://vk.com/wall-6126497_4078846	23.06.2024 10:05	220
89892335611	https://vk.com/wall-6126497_4079082	23.06.2024 23:05	330
89217095675_куплю_золото	https://vk.com/wall-6126497_4079173	24.06.2024 12:01	220
89384131690_свежая_семга	https://vk.com/wall-6126497_4079222	24.06.2024 14:15	100
89384131690_свежая_семга	https://vk.com/wall-6126497_4079289	24.06.2024 17:19	100
Мастерская_Бобер-мастер	https://vk.com/wall-6126497_4079381	24.06.2024 21:28	500
Педикюр_от_Ирины	https://vk.com/wall-6126497_4079398	24.06.2024 23:04	500
89384131690_свежая_семга	https://vk.com/wall-6126497_4079477	25.06.2024 10:50	100
Магия_SPA	https://vk.com/wall-6126497_4079577	25.06.2024 15:25	220
89217095675_куплю_золото	https://vk.com/wall-6126497_4079828	26.06.2024 12:01	220
Улыбка_Радуги	https://vk.com/wall-6126497_4079848	26.06.2024 12:59	500
89384131690_свежая_семга	https://vk.com/wall-6126497_4079893	26.06.2024 14:39	100
89217095675_куплю_золото	https://vk.com/wall-6126497_4080544	28.06.2024 12:01	220
89384131690_свежая_семга	https://vk.com/wall-6126497_4080567	28.06.2024 12:24	100
Маникюр_и_педикюр_Заполярный	https://vk.com/wall-6126497_4080776	28.06.2024 19:30	100
Артем_тату_мастер	https://vk.com/wall-6126497_4081037	29.06.2024 14:59	500
89892335611	https://vk.com/wall-6126497_4081054	29.06.2024 15:36	330
Маникюр_и_педикюр_Заполярный	https://vk.com/wall-6126497_4081429	30.06.2024 19:30	100