title	start-date	start-time	end-date	end-time	hours	cost
Екатерина екатерина	02.12.2020	10:00	02.12.2020	13:00	3	280
Нилова	02.12.2020	15:00	02.12.2020	17:00	2	160
Нилова	02.12.2020	17:00	02.12.2020	19:00	2	240
Костин	02.12.2020	19:00	02.12.2020	20:00	1	120
Шитова	02.12.2020	20:00	02.12.2020	23:45	3	360
Екатерина екатерина	04.12.2020	10:00	04.12.2020	13:00	3	280
Нилова	04.12.2020	17:00	04.12.2020	22:00	5	600
Екатерина екатерина	06.12.2020	13:00	06.12.2020	16:00	3	240
Нилова	06.12.2020	16:00	06.12.2020	19:00	3	320
Костин	06.12.2020	19:00	06.12.2020	20:00	1	120
Нилова	06.12.2020	20:00	06.12.2020	23:45	3	360
Костин	08.12.2020	19:00	08.12.2020	20:00	1	120
Нилова	10.12.2020	16:00	10.12.2020	19:00	3	320
Костин	10.12.2020	19:00	10.12.2020	20:00	1	120
Нилова	10.12.2020	20:00	10.12.2020	23:45	3	360
Татьяна Трофименко	12.12.2020	15:00	12.12.2020	17:00	2	160
Костин	12.12.2020	19:00	12.12.2020	20:00	1	120
Акулич	13.12.2020	10:00	13.12.2020	11:00	1	80
Акулич	13.12.2020	18:00	13.12.2020	19:00	1	120
Шитова	14.12.2020	00:00	14.12.2020	19:00	19	1520
Костин	14.12.2020	19:00	14.12.2020	20:00	1	120
Нилова	14.12.2020	20:00	14.12.2020	23:45	3	360
Милонкова	15.12.2020	23:00	15.12.2020	23:45	0	0
Акулич	16.12.2020	14:00	16.12.2020	16:00	2	160
Любава Княжева	16.12.2020	16:00	16.12.2020	19:00	3	320
Костин	16.12.2020	19:00	16.12.2020	20:00	1	120
Шевченко	18.12.2020	09:00	18.12.2020	10:00	1	80
Екатерина Екатерина	18.12.2020	10:00	18.12.2020	13:00	3	280
Калинин	18.12.2020	13:00	18.12.2020	14:00	1	80
Милонкова	18.12.2020	14:00	18.12.2020	15:00	1	80
Нилова	18.12.2020	15:00	18.12.2020	19:00	4	400
Костин	18.12.2020	19:00	18.12.2020	20:00	1	120
Нилова	18.12.2020	20:00	18.12.2020	23:45	3	360
Екатерина Екатерина	19.12.2020	11:00	19.12.2020	13:00	2	200
Шевченко	20.12.2020	20:00	20.12.2020	21:00	1	120
Калинин	22.12.2020	18:00	22.12.2020	19:00	1	120
Костин	22.12.2020	19:00	22.12.2020	20:00	1	120
Шитова	22.12.2020	20:00	22.12.2020	23:45	3	360
Екатерина Екатерина	24.12.2020	10:00	24.12.2020	13:00	3	280
Шевченко	24.12.2020	20:00	24.12.2020	21:00	1	120
Татьяна Трофименко	25.12.2020	13:00	25.12.2020	15:00	2	160
Костин	26.12.2020	19:00	26.12.2020	20:00	1	120
Татьяна Трофименко	26.12.2020	20:00	26.12.2020	22:00	2	240
Татьяна Трофименко	27.12.2020	17:00	27.12.2020	19:00	2	240
Шевченко	28.12.2020	17:00	28.12.2020	19:00	2	240
Костин	28.12.2020	19:00	28.12.2020	20:00	1	120
Екатерина Екатерина	29.12.2020	10:00	29.12.2020	11:00	1	80
Трофименко	29.12.2020	21:00	29.12.2020	23:00	2	240
Шитова	30.12.2020	00:00	30.12.2020	19:00	19	1520
Костин	30.12.2020	19:00	30.12.2020	20:00	1	120