title	url	date	cost
	https://vk.com/wall-6126497_3197713	01.12.2020 14:00	100
Доброго времени суток! Приглашаю в сообщество по совместным закупкам  "У пчёлки"	https://vk.com/wall-6126497_3197843	01.12.2020 16:11	500
В преддверии Нового Года,  приглашаю Вас,  милые девушки, на классическое наращи	https://vk.com/wall-6126497_3197883	01.12.2020 17:00	298
Спешим сообщить ГОРЯЧУЮ НОВОСТЬ!!!  В Салоне Красоты Гвардейский24а https://vk.c	https://vk.com/wall-6126497_3197915	01.12.2020 17:30	500
Нужны модели на наращивание ресниц https://vk.com/id427449488 Ламинирование ресн	https://vk.com/wall-6126497_3198011	01.12.2020 19:11	100
Милые девушки                    Я сертифицированный мастер по перманентному мак	https://vk.com/wall-6126497_3198063	01.12.2020 19:55	500
Ремонт мобильных телефонов📱 ✅ Планшетов 💻 ноутбуков 📺 ЖК- телевизоров  https://v	https://vk.com/wall-6126497_3198586	02.12.2020 13:00	500
	https://vk.com/wall-6126497_3198648	02.12.2020 14:00	100
Сбережения в ПЕРВОМ МУРМАНСКОМ специально ДЛЯ ПЕНСИОНЕРОВ.  Успейте оформить дог	https://vk.com/wall-6126497_3198844	02.12.2020 18:00	500
	https://vk.com/wall-6126497_3199645	03.12.2020 14:00	100
Услуги автосервиса и сход-развал. Качественно и недорого! ➡Сход-Развал Заполярны	https://vk.com/wall-6126497_3199913	03.12.2020 18:30	199
Компания "Мир дверей» предлагает Вам выгодно приобрести и установить в Печенгско	https://vk.com/wall-6126497_3200782	04.12.2020 18:11	298
Кто желает провести фотосессию или в будущем планирует запечатлить мероприятие н	https://vk.com/wall-6126497_3200804	04.12.2020 18:31	500
Здравствуйте, приглашаю за выгодными покупками🛍, есть доставка с примеркой по ра	https://vk.com/wall-6126497_3201061	04.12.2020 22:43	100
#маникюр 💅 #наращиваниересниц #реснички #брови #бровинашевсе #нижнеелуостари htt	https://vk.com/wall-6126497_3201899	05.12.2020 19:30	500
В предверии Нового Года, приглашаю Вас, милые девушки, на классическое наращиван	https://vk.com/wall-6126497_3202454	06.12.2020 12:00	298
	https://vk.com/wall-6126497_3202923	06.12.2020 18:00	100
Компания "Мир дверей» предлагает Вам выгодно приобрести и установить в Печенгско	https://vk.com/wall-6126497_3203049	06.12.2020 19:49	298
Услуги автосервиса и сход-развал. Качественно и недорого! ➡Сход-Развал Заполярны	https://vk.com/wall-6126497_3203823	07.12.2020 17:30	199
	https://vk.com/wall-6126497_3204461	08.12.2020 12:05	100
	https://vk.com/wall-6126497_3204638	08.12.2020 14:38	100
	https://vk.com/wall-6126497_3204684	08.12.2020 15:05	100
Приглашаем Вас в наш магазин!!!💥💥 У нас много идей для подарков 🎁🎉 Магазин " АНТ	https://vk.com/wall-6126497_3204966	08.12.2020 20:24	200
	https://vk.com/wall-6126497_3205575	09.12.2020 14:00	100
	https://vk.com/wall-6126497_3205622	09.12.2020 15:00	100
Услуги автосервиса и сход-развал. Качественно и недорого! ➡Сход-Развал Заполярны	https://vk.com/wall-6126497_3205854	09.12.2020 18:00	199
https://vk.com/imperatrica_murmansk	https://vk.com/wall-6126497_3206003	09.12.2020 20:17	500
ОКРАИНА ВКУСНЕЕ открылась на Мира, 13!    В четверг, 10 декабря в Заполярном сос	https://vk.com/wall-6126497_3206470	10.12.2020 12:10	200
	https://vk.com/wall-6126497_3206504	10.12.2020 12:55	100
	https://vk.com/wall-6126497_3206543	10.12.2020 13:26	100
Заполярный и км❣️ Обаятельный Мишка Тедди🧸 и его очаровательная подружка, предла	https://vk.com/wall-6126497_3206617	10.12.2020 14:26	199
Компания "Мир дверей» предлагает Вам выгодно приобрести и установить в Печенгско	https://vk.com/wall-6126497_3207057	10.12.2020 20:30	298
Дорогие девушки В преддверии этих сказочных, чудесных Новогодних праздников и ко	https://vk.com/wall-6126497_3207229	10.12.2020 22:36	500
В преддверии Нового Года, приглашаю Вас, милые девушки, на классическое наращива	https://vk.com/wall-6126497_3207748	11.12.2020 14:00	298
	https://vk.com/wall-6126497_3207822	11.12.2020 15:00	100
Услуги автосервиса и сход-развал. Качественно и недорого! ➡Сход-Развал Заполярны	https://vk.com/wall-6126497_3207943	11.12.2020 17:00	199
	https://vk.com/wall-6126497_3208129	11.12.2020 19:23	100
В магазине  «Альт» поступление товара: - Праздничные платья!  - Утеплённые костю	https://vk.com/wall-6126497_3208232	11.12.2020 20:30	200
Здравствуйте, уважаемые мамы деток дошкольного возраста, если вы хотели бы получ	https://vk.com/wall-6126497_3208466	12.12.2020 01:30	500
	https://vk.com/wall-6126497_3208686	12.12.2020 11:55	100
Заполярный и км❣️ Обаятельный Мишка Тедди🧸 и его очаровательная подружка, предла	https://vk.com/wall-6126497_3209027	12.12.2020 16:46	199
	https://vk.com/wall-6126497_3209691	13.12.2020 10:57	100
	https://vk.com/wall-6126497_3209930	13.12.2020 14:00	100
Никель-Заполярный. Предлагаем услуги по ремонту принтеров. +79211513677 https://	https://vk.com/wall-6126497_3209991	13.12.2020 14:38	100
Услуги автосервиса и сход-развал. Качественно и недорого! ➡Сход-Развал Заполярны	https://vk.com/wall-6126497_3210238	13.12.2020 18:00	199
Услуги автосервиса и сход-развал. Качественно и недорого! ➡Сход-Развал Заполярны	https://vk.com/wall-6126497_3210305	13.12.2020 19:00	199
🔧Сборка мебели и услуги "Мастер на час" в Заполярном.    Мы можем сделать 👍   Сб	https://vk.com/wall-6126497_3210369	13.12.2020 20:00	200
❗️❗️❗️❗️❗️❗️❗️❗️❗️❗️❗️ Встречайте С завтрашнего дня по будням  с 10:00 до 17:00 	https://vk.com/wall-6126497_3210383	13.12.2020 20:16	500
Гpузoпeрeвозки по гoроду Заполярному,a так жe по Муpмaнcкой oблacти и ЗATO. Пере	https://vk.com/wall-6126497_3210739	14.12.2020 09:23	500
Помощь в оформлении Техосмотра(ТО/ДК), полиса ОСАГО и восстановление КБМ онлайн,	https://vk.com/wall-6126497_3210969	14.12.2020 14:06	500
	https://vk.com/wall-6126497_3211059	14.12.2020 15:17	100
	https://vk.com/wall-6126497_3211175	14.12.2020 17:00	100
Здравствуй, красотка! Совсем скоро главный праздник - Новый год! 🎄 Пора задумать	https://vk.com/wall-6126497_3211349	14.12.2020 20:01	298
В магазине  «Альт» поступление товара: - Праздничные платья!  - Утеплённые костю	https://vk.com/wall-6126497_3211355	14.12.2020 20:05	200
🚘  Пассажирские перевозки https://vk.com/avtonazakaz51.            🚚  Грузовые п	https://vk.com/wall-6126497_3211556	14.12.2020 23:00	500
	https://vk.com/wall-6126497_3211910	15.12.2020 12:00	100
	https://vk.com/wall-6126497_3211911	15.12.2020 12:01	100
💥Скидка на Молочную Окраину - 27%!  https://vk.cc/ayew1N   📆15-16 декабря  ☝🏻В а	https://vk.com/wall-6126497_3212027	15.12.2020 14:00	200
Заполярный и км❣️ Обаятельный Мишка Тедди🧸 и его очаровательная подружка, предла	https://vk.com/wall-6126497_3212135	15.12.2020 15:30	199
Никель-Заполярный. Предлагаем услуги по ремонту принтеров. +79211513677 https://	https://vk.com/wall-6126497_3212349	15.12.2020 19:31	100
В магазине  «Альт» поступление товара: - Праздничные платья!  - Утеплённые костю	https://vk.com/wall-6126497_3212457	15.12.2020 21:00	200
🎁ПОДАРКИ, которые не хочется передаривать 💫  На фото лишь маленькая часть того ч	https://vk.com/wall-6126497_3212520	15.12.2020 21:44	200
	https://vk.com/wall-6126497_3212776	16.12.2020 09:51	100
В преддверии Нового Года, приглашаю Вас, милые девушки, на классическое наращива	https://vk.com/wall-6126497_3213098	16.12.2020 15:00	298
	https://vk.com/wall-6126497_3213122	16.12.2020 15:17	100
	https://vk.com/wall-6126497_3213399	16.12.2020 20:00	100
	https://vk.com/wall-6126497_3213748	17.12.2020 09:00	100
	https://vk.com/wall-6126497_3213787	17.12.2020 10:04	100
Предлагаю услуги: 1.Маникюр 2.Покрытие гель лак  3.Наращивание Никель  https://v	https://vk.com/wall-6126497_3214095	17.12.2020 15:23	100
Услуги автосервиса и сход-развал. Качественно и недорого! ➡Сход-Развал Заполярны	https://vk.com/wall-6126497_3214199	17.12.2020 17:00	199
Заполярный и км❣️ Обаятельный Мишка Тедди🧸 и его очаровательная подружка, предла	https://vk.com/wall-6126497_3214267	17.12.2020 18:23	199
Предлагаю вашему вниманию  одежду и обувь из Скандинавии. Только оригинал! Новая	https://vk.com/wall-6126497_3214392	17.12.2020 19:50	200
☃️❄Магазин "Антошка"❄☃️ поздравляет всех с наступающими праздниками! 🎉🎉🎉🎆   В че	https://vk.com/wall-6126497_3214465	17.12.2020 20:25	200
☃️❄Магазин "Антошка"❄☃️ поздравляет всех с наступающими праздниками! 🎉🎉🎉🎆   В че	https://vk.com/wall-6126497_3214912	18.12.2020 11:56	200
Новогодняя фотосессия 1300р/1 час. Готовые фото в течение 3 дней. https://vk.com	https://vk.com/wall-6126497_3215413	18.12.2020 19:25	100
Дорогие девушки   В преддверии этих сказочных, чудесных Новогодних праздников и 	https://vk.com/wall-6126497_3216678	19.12.2020 22:15	500
Заполярный и км❣️ Обаятельный Мишка Тедди🧸 и его очаровательная подружка, предла	https://vk.com/wall-6126497_3217398	20.12.2020 16:40	199
🌸У нас свежая поставка срезанных цветов, привезли много красоты😍 Также в наличие	https://vk.com/wall-6126497_3218587	21.12.2020 19:38	199
Наборчики для самостоятельного пошива трикотажной куколки рост 28-30см в наличии	https://vk.com/wall-6126497_3218610	21.12.2020 20:04	200
	https://vk.com/wall-6126497_3219146	22.12.2020 11:00	100
	https://vk.com/wall-6126497_3219314	22.12.2020 14:00	100
🎄Готовимся к новому году! Скидки -25%! 🌲  https://vk.cc/bWmyYE    📅 23-25 декабр	https://vk.com/wall-6126497_3220477	23.12.2020 13:30	200
Заполярный и км❣️ Обаятельный Мишка Тедди🧸 и его очаровательная подружка, предла	https://vk.com/wall-6126497_3220491	23.12.2020 13:43	199
	https://vk.com/wall-6126497_3220509	23.12.2020 14:00	100
❤️В наличии большое количество разделочных  досок ❤️ более 15 видов, с новогодне	https://vk.com/wall-6126497_3220652	23.12.2020 16:17	500
⚡КАЧЕСТВЕННАЯ установка межкомнатных дверей в Печенгском районе!⚡ ✔ Выезд на зам	https://vk.com/wall-6126497_3220863	23.12.2020 19:17	298
	https://vk.com/wall-6126497_3221500	24.12.2020 12:40	100
	https://vk.com/wall-6126497_3221601	24.12.2020 14:01	100
Ремонт мобильных телефонов📱 ✅ Планшетов 💻 ноутбуков 📺 ЖК- телевизоров  https://v	https://vk.com/wall-6126497_3221652	24.12.2020 14:45	500
В наличии есть различные аксессуары - запчасти для iPhone - Android защитные стё	https://vk.com/wall-6126497_3221692	24.12.2020 15:12	500
Магазин BRUSNIKA🎅🏻Скидки 💥 -30% от цены на весь ассортимент🎁🥳 а на обувь 50%🔥 ( 	https://vk.com/wall-6126497_3222165	24.12.2020 22:11	200
Футбольная форма и атрибутика ⚽️ Бесплатная доставка 🚛 Огромный выбор спортивной	https://vk.com/wall-6126497_3222261	25.12.2020 00:01	500
	https://vk.com/wall-6126497_3222792	25.12.2020 15:00	100
Уважаемые покупатели ! В магазине Московсая Яармарка проходят Новогодние Скидки 	https://vk.com/wall-6126497_3223064	25.12.2020 17:45	199
	https://vk.com/wall-6126497_3223474	25.12.2020 23:00	100
Уважаемые покупатели ! В магазине Московсая Яармарка проходят Новогодние Скидки 	https://vk.com/wall-6126497_3223922	26.12.2020 13:14	199
	https://vk.com/wall-6126497_3224064	26.12.2020 15:02	100
Никель-Заполярный. Предлагаем услуги по ремонту принтеров. +79211513677 https://	https://vk.com/wall-6126497_3224328	26.12.2020 17:56	100
	https://vk.com/wall-6126497_3224388	26.12.2020 19:05	100
Уважаемые покупатели ! В магазине Московсая Яармарка проходят Новогодние Скидки 	https://vk.com/wall-6126497_3225039	27.12.2020 12:00	199
Заполярный и км❣️ Обаятельный Мишка Тедди🧸 и его очаровательная подружка, предла	https://vk.com/wall-6126497_3225044	27.12.2020 12:04	199
	https://vk.com/wall-6126497_3225263	27.12.2020 15:00	100
Приглашаю всех желающих в беседу «Секреты красоты by Орифлейм» Выгодные предложе	https://vk.com/wall-6126497_3226174	28.12.2020 11:08	500
Уважаемые покупатели ! В магазине Московсая Яармарка проходят Новогодние Скидки 	https://vk.com/wall-6126497_3226211	28.12.2020 12:00	199
	https://vk.com/wall-6126497_3226360	28.12.2020 15:01	100
Здравствуйте  29.12.2020г (доставка Никель) г. Заполярный (каждый день) Продаём 	https://vk.com/wall-6126497_3226460	28.12.2020 16:35	500
	https://vk.com/wall-6126497_3227241	29.12.2020 11:01	100
Уважаемые покупатели ! В магазине Московсая Яармарка проходят Новогодние Скидки 	https://vk.com/wall-6126497_3227310	29.12.2020 12:00	199
Уважаемые покупатели ! В магазине Московсая Яармарка проходят Новогодние Скидки 	https://vk.com/wall-6126497_3228347	30.12.2020 12:00	199
	https://vk.com/wall-6126497_3228505	30.12.2020 14:49	100
	https://vk.com/wall-6126497_3228512	30.12.2020 15:01	100
Уважаемые покупатели ! В магазине Московсая Яармарка проходят Новогодние Скидки 	https://vk.com/wall-6126497_3229603	31.12.2020 12:00	199
	https://vk.com/wall-6126497_3229773	31.12.2020 15:00	100
	https://vk.com/wall-6126497_3230100	31.12.2020 23:20	100