title	url	date	cost
	https://vk.com/wall-6126497_3311012	01.04.2021 13:57	199
Ремонт мобильных телефонов📱  ✅ Планшетов  💻 ноутбуков  📺 ЖК- телевизоров    http	https://vk.com/wall-6126497_3311216	01.04.2021 17:30	199
🔊ВНИМАНИЕ! Заполярный! Крытый рынок! Уважаемые жители и гости Печенгского района	https://vk.com/wall-6126497_3311272	01.04.2021 18:35	199
	https://vk.com/wall-6126497_3311290	01.04.2021 19:07	300
В магазине  «Альт» поступление товара: - Костюмы и комбинезоны детские! - Весенн	https://vk.com/wall-6126497_3311333	01.04.2021 20:05	200
	https://vk.com/wall-6126497_3311734	02.04.2021 12:03	199
	https://vk.com/wall-6126497_3311845	02.04.2021 14:01	199
🔊ВНИМАНИЕ! Заполярный! Крытый рынок! Уважаемые жители и гости Печенгского района	https://vk.com/wall-6126497_3311987	02.04.2021 17:00	199
В салоне красоты сдаются в аренду места для парикмахеров! Обращаться по телефону	https://vk.com/wall-6126497_3312075	02.04.2021 18:30	199
В магазине  «Альт» поступление товара: - Костюмы и комбинезоны детские! - Весенн	https://vk.com/wall-6126497_3312183	02.04.2021 20:00	200
«Наши люди на такси 🚖  в булочную не ездят!»  Хорошо те времена уже прошли😅 и се	https://vk.com/wall-6126497_3312328	02.04.2021 23:00	200
	https://vk.com/wall-6126497_3312885	03.04.2021 15:22	298
	https://vk.com/wall-6126497_3312934	03.04.2021 16:06	199
🌸Салон красоты Гвардейский24а🌸 https://vk.com/gvardeyskiy24a — это профессиональ	https://vk.com/wall-6126497_3312957	03.04.2021 16:30	298
🔊ВНИМАНИЕ! Заполярный! Крытый рынок! Уважаемые жители и гости Печенгского района	https://vk.com/wall-6126497_3313040	03.04.2021 17:30	199
	https://vk.com/wall-6126497_3313685	04.04.2021 13:00	199
🔊ВНИМАНИЕ! Заполярный! Крытый рынок! Уважаемые жители и гости Печенгского района	https://vk.com/wall-6126497_3313934	04.04.2021 17:30	199
Ремонт мобильных телефонов📱  ✅ Планшетов  💻 ноутбуков  📺 ЖК- телевизоров    http	https://vk.com/wall-6126497_3313974	04.04.2021 18:00	199
В салоне красоты сдаются в аренду места для парикмахеров! Обращаться по телефону	https://vk.com/wall-6126497_3313991	04.04.2021 18:30	199
В наличии есть различные аксессуары - запчасти для iPhone - Android защитные стё	https://vk.com/wall-6126497_3313996	04.04.2021 18:32	500
	https://vk.com/wall-6126497_3314027	04.04.2021 19:01	300
Добро пожаловать в "Ni-Строй"! 👋 Мы с радостью поможем Вам с ремонтом, и сделаем	https://vk.com/wall-6126497_3314043	04.04.2021 19:16	298
	https://vk.com/wall-6126497_3314481	05.04.2021 13:00	199
🔊ВНИМАНИЕ! Заполярный! Крытый рынок! Уважаемые жители и гости Печенгского района	https://vk.com/wall-6126497_3314858	05.04.2021 19:30	199
Готовьтесь к весне вместе с Антошкой! ☀   В ожидании солнца и зелени мы добавляе	https://vk.com/wall-6126497_3315336	06.04.2021 12:29	200
	https://vk.com/wall-6126497_3315441	06.04.2021 14:00	199
🔊ВНИМАНИЕ! Заполярный! Крытый рынок! Уважаемые жители и гости Печенгского района	https://vk.com/wall-6126497_3315637	06.04.2021 17:30	199
	https://vk.com/wall-6126497_3315682	06.04.2021 18:16	298
	https://vk.com/wall-6126497_3316192	07.04.2021 13:40	199
К вашему празднику, мероприятию, корпоративу или просто так, приготовлю для вас 	https://vk.com/wall-6126497_3316356	07.04.2021 16:00	500
	https://vk.com/wall-6126497_3316373	07.04.2021 16:27	298
🌸Салон красоты Гвардейский24а🌸 https://vk.com/gvardeyskiy24a — это профессиональ	https://vk.com/wall-6126497_3316376	07.04.2021 16:30	298
Ремонт мобильных телефонов📱  ✅ Планшетов  💻 ноутбуков  📺 ЖК- телевизоров    http	https://vk.com/wall-6126497_3316444	07.04.2021 18:00	199
	https://vk.com/wall-6126497_3316445	07.04.2021 18:00	500
	https://vk.com/wall-6126497_3316503	07.04.2021 19:14	500
	https://vk.com/wall-6126497_3317019	08.04.2021 14:00	199
Добро пожаловать в "Ni-Строй"! 👋 Мы с радостью поможем Вам с ремонтом, и сделаем	https://vk.com/wall-6126497_3317347	08.04.2021 21:23	298
	https://vk.com/wall-6126497_3317809	09.04.2021 14:00	199
🔊ВНИМАНИЕ! Заполярный! Крытый рынок! Уважаемые жители и гости Печенгского района	https://vk.com/wall-6126497_3318154	09.04.2021 21:03	199
	https://vk.com/wall-6126497_3318233	09.04.2021 22:40	500
	https://vk.com/wall-6126497_3318748	10.04.2021 14:00	199
Ремонт мобильных телефонов📱  ✅ Планшетов  💻 ноутбуков  📺 ЖК- телевизоров    http	https://vk.com/wall-6126497_3319085	10.04.2021 18:30	199
	https://vk.com/wall-6126497_3319774	11.04.2021 14:01	199
Дорогие родители г.Заполярного!  Если ваши дети всегда мечтали научиться играть 	https://vk.com/wall-6126497_3320153	11.04.2021 19:10	500
🔧Сборка мебели и услуги "Мастер на час" в Заполярном.    Мы можем сделать 👍   Сб	https://vk.com/wall-6126497_3320240	11.04.2021 21:00	200
	https://vk.com/wall-6126497_3320921	12.04.2021 13:59	199
	https://vk.com/wall-6126497_3321012	12.04.2021 15:34	199
🌸Салон красоты Гвардейский24а🌸 https://vk.com/gvardeyskiy24a — это профессиональ	https://vk.com/wall-6126497_3321105	12.04.2021 17:30	298
Добро пожаловать в "Ni-Строй"! 👋 Мы с радостью поможем Вам с ремонтом, и сделаем	https://vk.com/wall-6126497_3321218	12.04.2021 19:57	298
«Наши люди на такси 🚖  в булочную не ездят!»  Хорошо те времена уже прошли😅 и се	https://vk.com/wall-6126497_3321423	12.04.2021 23:00	200
	https://vk.com/wall-6126497_3321851	13.04.2021 13:07	199
	https://vk.com/wall-6126497_3321853	13.04.2021 13:07	199
Добро пожаловать в "Ni-Строй"! 👋 Мы с радостью поможем Вам с ремонтом, и сделаем	https://vk.com/wall-6126497_3322189	13.04.2021 17:52	298
Ремонт мобильных телефонов📱  ✅ Планшетов  💻 ноутбуков  📺 ЖК- телевизоров    http	https://vk.com/wall-6126497_3322296	13.04.2021 19:30	199
https://vk.com/id56251679	https://vk.com/wall-6126497_3322833	14.04.2021 12:44	500
	https://vk.com/wall-6126497_3322967	14.04.2021 14:00	199
	https://vk.com/wall-6126497_3322968	14.04.2021 14:00	199
СНИЖЕНИЕ ЦЕН НА ПОДУШКИ TECHNOLOGY📢  ⠀  🔥Alpha Technology —анатомическая подушка	https://vk.com/wall-6126497_3323254	14.04.2021 17:57	200
💥Колбасимся! Скидка -25% на варено-копченые колбасы!  https://vk.cc/c0Ucp0    📆1	https://vk.com/wall-6126497_3323902	15.04.2021 15:00	200
	https://vk.com/wall-6126497_3324444	16.04.2021 09:00	300
	https://vk.com/wall-6126497_3324953	16.04.2021 18:27	298
Заполярный. Дополнительный набор деток  2- 11 класс для подтягивания знаний в ан	https://vk.com/wall-6126497_3325131	16.04.2021 21:14	500
«Наши люди на такси 🚖  в булочную не ездят!»  Хорошо те времена уже прошли😅 и се	https://vk.com/wall-6126497_3327137	18.04.2021 23:00	200
	https://vk.com/wall-6126497_3327842	19.04.2021 18:57	199
	https://vk.com/wall-6126497_3328384	20.04.2021 12:00	199
Заполярный. Дополнительный набор деток  2- 11 класс для подтягивания знаний в ан	https://vk.com/wall-6126497_3328653	20.04.2021 17:33	500
Заполярный! Экспpeсc поздрaвление с помoщью рoстовой куклы Мишка Тедди!🧸Хотите у	https://vk.com/wall-6126497_3328809	20.04.2021 20:37	500
Дорогие женщины!!!  22,23 и 24 апреля (четверг, пятница и суббота) в ДК г.Заполя	https://vk.com/wall-6126497_3329164	21.04.2021 10:00	200
Дорогие женщины 🌺 Продолжаю набирать группу «Йони Йога» ‼️Эти занятия точно для 	https://vk.com/wall-6126497_3329441	21.04.2021 15:16	500
Дорогие женщины!!!  22,23 и 24 апреля (четверг, пятница и суббота) в ДК г.Заполя	https://vk.com/wall-6126497_3329484	21.04.2021 16:00	200
Дорогие женщины!!!  22,23 и 24 апреля (четверг, пятница и суббота) в ДК г.Заполя	https://vk.com/wall-6126497_3329906	22.04.2021 08:00	200
🌸Салон красоты Гвардейский24а🌸 https://vk.com/gvardeyskiy24a — это профессиональ	https://vk.com/wall-6126497_3330379	22.04.2021 16:30	298
	https://vk.com/wall-6126497_3330474	22.04.2021 17:41	300
РЕСТАВРАЦИЯ ВАНН ЖИДКИМ АКРИЛОМ!!! Качество! Гарантия! Материал практически без 	https://vk.com/wall-6126497_3330482	22.04.2021 17:51	200
СНИЖЕНИЕ ЦЕН НА ПОДУШКИ TECHNOLOGY📢  ⠀  🔥Alpha Technology —анатомическая подушка	https://vk.com/wall-6126497_3330511	22.04.2021 18:13	200
Наращивание ресниц.  Ламинирование ресниц.   Заполярный https://vk.com/id4274494	https://vk.com/wall-6126497_3330526	22.04.2021 18:29	100
Ремонт мобильных телефонов📱  ✅ Планшетов  💻 ноутбуков  📺 ЖК- телевизоров    http	https://vk.com/wall-6126497_3330590	22.04.2021 19:30	199
	https://vk.com/wall-6126497_3330675	22.04.2021 21:27	500
🎉День рождения интернет-магазина! Скидки до -25%!🎉  https://vk.cc/c1cI3K    📆23-	https://vk.com/wall-6126497_3331227	23.04.2021 15:00	200
Заполярный      В салоне красоты сдаются в аренду места для парикмахеров!  Обращ	https://vk.com/wall-6126497_3331456	23.04.2021 19:40	199
	https://vk.com/wall-6126497_3332130	24.04.2021 16:03	500
https://vk.com/imperatrica_murmansk	https://vk.com/wall-6126497_3332150	24.04.2021 16:30	500
Заполярный      В салоне красоты сдаются в аренду места для парикмахеров!  Обращ	https://vk.com/wall-6126497_3332961	25.04.2021 16:30	199
Ремонт мобильных телефонов📱  ✅ Планшетов  💻 ноутбуков  📺 ЖК- телевизоров    http	https://vk.com/wall-6126497_3332973	25.04.2021 17:00	199
🔧Сборка мебели и услуги "Мастер на час" в Заполярном.    Мы можем сделать 👍   Сб	https://vk.com/wall-6126497_3333113	25.04.2021 20:05	200
Пассажирские перевозки https://vk.com/avtonazakaz51   Грузовые перевозки https:/	https://vk.com/wall-6126497_3333198	25.04.2021 23:00	200
💫💥 Ювелирный  магазин "ЗОДИАК" отмечает юбилей 🎉🎉 🎆Нам исполняется 25 лет🎆 ‼С 26	https://vk.com/wall-6126497_3333401	26.04.2021 12:00	298
	https://vk.com/wall-6126497_3333516	26.04.2021 14:01	199
🌸Салон красоты Гвардейский24а🌸 https://vk.com/gvardeyskiy24a — это профессиональ	https://vk.com/wall-6126497_3333594	26.04.2021 15:30	298
В магазине  «Альт» поступление товара: - Ветровки детские! - Весенняя обувь и кр	https://vk.com/wall-6126497_3333807	26.04.2021 20:00	200
💫💥 Ювелирный  магазин "ЗОДИАК" отмечает юбилей 🎉🎉 🎆Нам исполняется 25 лет🎆 ‼С 26	https://vk.com/wall-6126497_3334226	27.04.2021 12:00	298
	https://vk.com/wall-6126497_3334265	27.04.2021 12:38	300
	https://vk.com/wall-6126497_3334344	27.04.2021 14:05	199
Заполярный      В салоне красоты сдаются в аренду места для парикмахеров!  Обращ	https://vk.com/wall-6126497_3334551	27.04.2021 17:30	199
В магазине  «Альт» поступление товара: - Ветровки детские! - Весенняя обувь и кр	https://vk.com/wall-6126497_3334709	27.04.2021 20:05	200
Заполярный!Экспpeсc поздрaвление с помoщью рoстовой куклы Мишка Тедди!🧸Хотите уд	https://vk.com/wall-6126497_3334798	27.04.2021 21:50	500
💫💥 Ювелирный  магазин "ЗОДИАК" отмечает юбилей 🎉🎉 🎆Нам исполняется 25 лет🎆 ‼С 26	https://vk.com/wall-6126497_3335237	28.04.2021 13:30	298
💥Предпасхальная распродажа! Скидки* до -25%!  https://vk.cc/c1mFXJ    📆28-30 апр	https://vk.com/wall-6126497_3335269	28.04.2021 14:00	200
	https://vk.com/wall-6126497_3335271	28.04.2021 14:00	199
Ремонт мобильных телефонов📱  ✅ Планшетов  💻 ноутбуков  📺 ЖК- телевизоров    http	https://vk.com/wall-6126497_3335398	28.04.2021 16:30	199
💫💥 Ювелирный  магазин "ЗОДИАК" отмечает юбилей 🎉🎉 🎆Нам исполняется 25 лет🎆 ‼С 26	https://vk.com/wall-6126497_3336160	29.04.2021 13:00	298
	https://vk.com/wall-6126497_3336285	29.04.2021 15:18	199
Заполярный      В салоне красоты сдаются в аренду места для парикмахеров!  Обращ	https://vk.com/wall-6126497_3336401	29.04.2021 18:00	199
	https://vk.com/wall-6126497_3336584	29.04.2021 21:01	300
	https://vk.com/wall-6126497_3336777	30.04.2021 10:00	300
💫💥 Ювелирный  магазин "ЗОДИАК" отмечает юбилей 🎉🎉 🎆Нам исполняется 25 лет🎆 ‼С 26	https://vk.com/wall-6126497_3336872	30.04.2021 12:00	298
	https://vk.com/wall-6126497_3336955	30.04.2021 14:01	199