title	start-date	start-time	end-date	end-time	hours	cost
	11.07.2020	09:00	11.07.2020	11:00	2	160
	20.07.2020	15:00	20.07.2020	20:00	5	520
	20.07.2020	21:00	20.07.2020	23:45	2	240
	21.07.2020	12:00	21.07.2020	16:00	4	340
	22.07.2020	14:00	22.07.2020	17:00	3	240
	24.07.2020	21:00	24.07.2020	23:45	2	240
	25.07.2020	16:00	25.07.2020	22:00	6	680