title	url	date	cost
Наращивание_ресниц_Валентина_Крель	https://vk.com/wall-6126497_4021946	01.02.2024 13:33	100
Прокат_товаров_в_Заполярном	https://vk.com/wall-6126497_4022335	02.02.2024 12:16	500
Антошка	https://vk.com/wall-6126497_4022366	02.02.2024 13:41	220
Автомагия	https://vk.com/wall-6126497_4022411	02.02.2024 15:35	220
Антошка	https://vk.com/wall-6126497_4022470	02.02.2024 17:51	220
LineHair	https://vk.com/wall-6126497_4022535	02.02.2024 20:34	500
Автомагия	https://vk.com/wall-6126497_4022718	03.02.2024 11:17	220
89210354705	https://vk.com/wall-6126497_4022765	03.02.2024 13:01	100
Пых_пых	https://vk.com/wall-6126497_4022798	03.02.2024 13:47	220
Антошка	https://vk.com/wall-6126497_4022834	03.02.2024 15:15	220
Антошка	https://vk.com/wall-6126497_4023309	04.02.2024 16:07	220
Антошка	https://vk.com/wall-6126497_4023477	04.02.2024 22:28	220
Риелстройсервис	https://vk.com/wall-6126497_4023629	05.02.2024 12:44	500
Автомагия	https://vk.com/wall-6126497_4023705	05.02.2024 14:45	220
Code_la_Dance	https://vk.com/wall-6126497_4023706	05.02.2024 14:45	220
Автомагия	https://vk.com/wall-6126497_4023814	05.02.2024 18:13	220
Автомагия	https://vk.com/wall-6126497_4024116	06.02.2024 14:32	220
Code_la_Dance	https://vk.com/wall-6126497_4024117	06.02.2024 14:32	220
ПМОВК	https://vk.com/wall-6126497_4024218	06.02.2024 18:00	500
Игорь_Тишкин_ремонт_мобильных_телефонов	https://vk.com/wall-6126497_4024266	06.02.2024 19:39	500
Анаконда_Пронкина	https://vk.com/wall-6126497_4024275	06.02.2024 20:00	500
Пых_пых	https://vk.com/wall-6126497_4024583	07.02.2024 13:47	220
89652017101_покупка_авто	https://vk.com/wall-6126497_4024642	07.02.2024 16:24	500
Автомагия	https://vk.com/wall-6126497_4024668	07.02.2024 17:38	220
Code_la_Dance	https://vk.com/wall-6126497_4024669	07.02.2024 17:39	220
ЮК	https://vk.com/wall-6126497_4024683	07.02.2024 18:00	500
Nail_Fox	https://vk.com/wall-6126497_4024695	07.02.2024 18:30	100
Машина_на_заказ	https://vk.com/wall-6126497_4024734	07.02.2024 19:52	500
Семейное_кафе_Морошка	https://vk.com/wall-6126497_4024901	08.02.2024 10:00	500
Автомагия	https://vk.com/wall-6126497_4024904	08.02.2024 10:07	220
Code_la_Dance	https://vk.com/wall-6126497_4024905	08.02.2024 10:07	220
Услуги_автосервиса_и_сход_развал	https://vk.com/wall-6126497_4024963	08.02.2024 12:30	220
Риелтор_Ульяна	https://vk.com/wall-6126497_4025139	08.02.2024 18:01	500
Антошка	https://vk.com/wall-6126497_4025142	08.02.2024 18:05	220
Персей	https://vk.com/wall-6126497_4025182	08.02.2024 19:30	500
Автомагия	https://vk.com/wall-6126497_4025395	09.02.2024 11:55	220
Антошка	https://vk.com/wall-6126497_4025501	09.02.2024 15:30	220
Антошка	https://vk.com/wall-6126497_4025577	09.02.2024 18:19	220
Code_la_Dance	https://vk.com/wall-6126497_4025873	10.02.2024 13:04	220
Семейное_кафе_Морошка	https://vk.com/wall-6126497_4026109	10.02.2024 19:44	500
Жижло	https://vk.com/wall-6126497_4026229	11.02.2024 10:35	500
Услуги_автосервиса_и_сход_развал	https://vk.com/wall-6126497_4026285	11.02.2024 13:00	220
ЮК	https://vk.com/wall-6126497_4026434	11.02.2024 18:02	500
IriS	https://vk.com/wall-6126497_4026501	11.02.2024 20:51	500
Пых_пых	https://vk.com/wall-6126497_4026631	12.02.2024 09:53	220
Пых_пых	https://vk.com/wall-6126497_4026662	12.02.2024 11:13	220
Дым_Дымыч	https://vk.com/wall-6126497_4026811	12.02.2024 16:24	500
89652017101_покупка_авто	https://vk.com/wall-6126497_4026846	12.02.2024 17:27	500
IriS	https://vk.com/wall-6126497_4026937	12.02.2024 20:39	500
Планета	https://vk.com/wall-6126497_4026959	12.02.2024 21:55	220
Автомагия	https://vk.com/wall-6126497_4027082	13.02.2024 11:40	220
Планета	https://vk.com/wall-6126497_4027095	13.02.2024 12:00	220
Константин_Фирсов	https://vk.com/wall-6126497_4027213	13.02.2024 16:00	220
Прокат_товаров_в_Заполярном	https://vk.com/wall-6126497_4027221	13.02.2024 16:27	500
Риелтор_Ульяна	https://vk.com/wall-6126497_4027223	13.02.2024 16:30	500
IriS	https://vk.com/wall-6126497_4027233	13.02.2024 16:41	500
Антошка	https://vk.com/wall-6126497_4027253	13.02.2024 17:21	220
ПМОВК	https://vk.com/wall-6126497_4027272	13.02.2024 18:00	500
МАУ_Информцентр	https://vk.com/wall-6126497_4027286	13.02.2024 18:30	330
Сова	https://vk.com/wall-6126497_4027370	13.02.2024 21:49	500
Автомагия	https://vk.com/wall-6126497_4027497	14.02.2024 11:57	220
Code_la_Dance	https://vk.com/wall-6126497_4027498	14.02.2024 11:57	220
МАУ_Информцентр	https://vk.com/wall-6126497_4027517	14.02.2024 13:00	330
Услуги_автосервиса_и_сход_развал	https://vk.com/wall-6126497_4027533	14.02.2024 13:30	220
Nail_Fox	https://vk.com/wall-6126497_4027640	14.02.2024 18:00	100
Модельная_школа_для_детей_и_подростков	https://vk.com/wall-6126497_4027650	14.02.2024 18:29	500
Планета	https://vk.com/wall-6126497_4027688	14.02.2024 20:00	220
Игорь_Тишкин_ремонт_мобильных_телефонов	https://vk.com/wall-6126497_4027700	14.02.2024 20:22	500
Планета	https://vk.com/wall-6126497_4027799	15.02.2024 10:00	220
МАУ_Информцентр	https://vk.com/wall-6126497_4028019	15.02.2024 17:30	330
Пых_пых	https://vk.com/wall-6126497_4028312	16.02.2024 11:50	220
Антошка	https://vk.com/wall-6126497_4028313	16.02.2024 11:53	220
МедLike	https://vk.com/wall-6126497_4028454	16.02.2024 16:29	500
МАУ_Информцентр	https://vk.com/wall-6126497_4028457	16.02.2024 16:30	330
Константин_Фирсов	https://vk.com/wall-6126497_4028469	16.02.2024 17:10	220
Askona_Заполярный	https://vk.com/wall-6126497_4028521	16.02.2024 19:42	500
Планета	https://vk.com/wall-6126497_4028547	16.02.2024 21:00	220
Планета	https://vk.com/wall-6126497_4028699	17.02.2024 13:00	220
Антошка	https://vk.com/wall-6126497_4028720	17.02.2024 13:59	220
Услуги_автосервиса_и_сход_развал	https://vk.com/wall-6126497_4028721	17.02.2024 14:00	220
89210342544	https://vk.com/wall-6126497_4029137	18.02.2024 15:16	500
Планета	https://vk.com/wall-6126497_4029286	18.02.2024 20:00	220
Автомагия	https://vk.com/wall-6126497_4029454	19.02.2024 11:59	220
Планета	https://vk.com/wall-6126497_4029455	19.02.2024 12:00	220
Константин_Фирсов	https://vk.com/wall-6126497_4029497	19.02.2024 13:00	220
Пых_пых	https://vk.com/wall-6126497_4029502	19.02.2024 13:09	220
Антошка	https://vk.com/wall-6126497_4029891	20.02.2024 13:16	220
Услуги_автосервиса_и_сход_развал	https://vk.com/wall-6126497_4029935	20.02.2024 14:30	220
ПМОВК	https://vk.com/wall-6126497_4030025	20.02.2024 18:30	500
Планета	https://vk.com/wall-6126497_4030061	20.02.2024 20:00	220
Планета	https://vk.com/wall-6126497_4030304	21.02.2024 13:00	220
Антошка	https://vk.com/wall-6126497_4030436	21.02.2024 17:38	220
Nail_Fox	https://vk.com/wall-6126497_4030469	21.02.2024 19:00	100
ProfMaster	https://vk.com/wall-6126497_4030495	21.02.2024 19:50	500
Code_la_Dance	https://vk.com/wall-6126497_4030629	22.02.2024 08:03	220
Пых_пых	https://vk.com/wall-6126497_4030761	22.02.2024 13:58	220
Антошка	https://vk.com/wall-6126497_4030779	22.02.2024 14:41	220
Константин_Фирсов	https://vk.com/wall-6126497_4030791	22.02.2024 15:00	220
Антошка	https://vk.com/wall-6126497_4031078	23.02.2024 11:01	220
Антошка	https://vk.com/wall-6126497_4031079	23.02.2024 11:01	220
Наталья_Шибецкая	https://vk.com/wall-6126497_4031110	23.02.2024 12:25	100
Услуги_автосервиса_и_сход_развал	https://vk.com/wall-6126497_4031181	23.02.2024 15:00	220
Автомагия	https://vk.com/wall-6126497_4031477	24.02.2024 12:45	220
Пых_пых	https://vk.com/wall-6126497_4031901	25.02.2024 13:03	220
Константин_Фирсов	https://vk.com/wall-6126497_4032068	25.02.2024 18:00	220
Услуги_автосервиса_и_сход_развал	https://vk.com/wall-6126497_4032446	26.02.2024 15:30	220
89210354705	https://vk.com/wall-6126497_4032841	27.02.2024 12:00	100
Автомагия	https://vk.com/wall-6126497_4032846	27.02.2024 12:05	220
Игорь_Тишкин_ремонт_мобильных_телефонов	https://vk.com/wall-6126497_4033097	27.02.2024 20:34	500
Риелтор_Ульяна	https://vk.com/wall-6126497_4033115	27.02.2024 21:28	500
Афрокудри_Наталья_Беляева	https://vk.com/wall-6126497_4033198	28.02.2024 09:39	500
Константин_Фирсов	https://vk.com/wall-6126497_4033279	28.02.2024 14:00	220
Пых_пых	https://vk.com/wall-6126497_4033280	28.02.2024 14:01	220
Nail_Fox	https://vk.com/wall-6126497_4033379	28.02.2024 18:30	100
Автомагия	https://vk.com/wall-6126497_4033406	28.02.2024 19:12	220
Магазин_4_сезона	https://vk.com/wall-6126497_4033432	28.02.2024 20:00	500
Машина_на_заказ	https://vk.com/wall-6126497_4033526	28.02.2024 23:16	500
Автомагия	https://vk.com/wall-6126497_4033675	29.02.2024 13:32	220
Code_la_Dance	https://vk.com/wall-6126497_4033716	29.02.2024 14:45	220
Услуги_автосервиса_и_сход_развал	https://vk.com/wall-6126497_4033750	29.02.2024 16:00	220
Модельная_школа_для_детей_и_подростков	https://vk.com/wall-6126497_4033762	29.02.2024 16:18	500
Сова	https://vk.com/wall-6126497_4033846	29.02.2024 19:00	500
Магазин_4_сезона	https://vk.com/wall-6126497_4033876	29.02.2024 20:01	500