title	start-date	start-time	end-date	end-time	hours	cost
Нилова	02.05.2021	20:00	02.05.2021	23:45	3	360
Костин	03.05.2021	19:00	03.05.2021	20:00	1	120
Нилова	03.05.2021	20:00	03.05.2021	23:45	3	360
Катя Ковалёва-Любимова	06.05.2021	13:00	06.05.2021	15:00	2	160
Нилова	06.05.2021	20:00	06.05.2021	23:45	3	360
Катя Ковалёва-Любимова	07.05.2021	13:00	07.05.2021	15:00	2	160
Костин	07.05.2021	19:00	07.05.2021	20:00	1	120
Нилова	07.05.2021	20:00	07.05.2021	23:45	3	360
Шевченко	08.05.2021	14:00	08.05.2021	16:00	2	160
Костин	09.05.2021	19:00	09.05.2021	20:00	1	120
Нилова	09.05.2021	20:00	09.05.2021	23:45	3	360
Екатерина Екатерина	11.05.2021	10:00	11.05.2021	12:00	2	180
Костин	11.05.2021	19:00	11.05.2021	20:00	1	120
Костин	13.05.2021	18:00	13.05.2021	19:00	1	120
Екатерина Екатерина	15.05.2021	12:00	15.05.2021	14:00	2	180
Костин	15.05.2021	19:00	15.05.2021	20:00	1	120
Нилова	15.05.2021	20:00	15.05.2021	23:45	3	360
Шевченко	17.05.2021	12:00	17.05.2021	14:00	2	180
Костин	19.05.2021	18:00	19.05.2021	19:00	1	120
Екатерина Екатерина	19.05.2021	19:00	19.05.2021	21:00	2	240
Костин	23.05.2021	19:00	23.05.2021	20:00	1	120
Екатерина Екатерина	23.05.2021	20:00	23.05.2021	21:00	1	120
Нилова	23.05.2021	21:00	23.05.2021	23:45	2	240
Костин	25.05.2021	19:00	25.05.2021	20:00	1	120
Нилова	25.05.2021	22:00	25.05.2021	23:45	1	120
Екатерина Екатерина	27.05.2021	10:00	27.05.2021	12:00	2	180
Костин	27.05.2021	19:00	27.05.2021	20:00	1	120
Костин	29.05.2021	19:00	29.05.2021	20:00	1	120
Нилова	29.05.2021	20:00	29.05.2021	22:00	2	240
Нилова	29.05.2021	23:00	29.05.2021	23:45	0	0
Астахов	30.05.2021	00:00	30.05.2021	09:00	9	600
Шитова	31.05.2021	10:00	31.05.2021	17:00	7	600
Костин	31.05.2021	19:00	31.05.2021	20:00	1	120