title	start-date	start-time	end-date	end-time	hours	cost
Костин	01.11.2018	17:00	01.11.2018	18:00	1	100
Левин	01.11.2018	20:00	01.11.2018	22:00	2	200
Резников #pkg	01.11.2018	22:00	01.11.2018	23:59	1	0
страхование #aff	02.11.2018	00:00	02.11.2018	12:00	12	0
сова #pkg	02.11.2018	15:00	02.11.2018	22:00	7	0
Левин	02.11.2018	22:00	02.11.2018	23:59	1	100
Силка #night	03.11.2018	00:00	03.11.2018	12:00	12	600
Костин	03.11.2018	12:00	03.11.2018	13:00	1	100
Мушникова	03.11.2018	13:00	03.11.2018	15:00	2	200
сова #pkg	03.11.2018	15:00	03.11.2018	22:00	7	0
Резников #pkg	03.11.2018	22:00	03.11.2018	23:59	1	0
Мушникова	04.11.2018	12:00	04.11.2018	15:00	3	300
Озон #aff	04.11.2018	15:00	04.11.2018	18:00	3	0
Левин	04.11.2018	20:00	04.11.2018	23:59	3	300
МТС	05.11.2018	16:00	05.11.2018	18:00	2	200
Костин	05.11.2018	18:00	05.11.2018	20:00	2	200
Шурина	05.11.2018	20:00	05.11.2018	22:00	2	200
BodyFire	05.11.2018	22:00	05.11.2018	23:59	1	100
СушиВок	06.11.2018	15:00	06.11.2018	18:00	3	300
Левин	06.11.2018	20:00	06.11.2018	23:59	3	300
Жирнова	07.11.2018	16:00	07.11.2018	17:00	1	100
BodyFire	07.11.2018	17:00	07.11.2018	19:00	2	200
Костин	07.11.2018	19:00	07.11.2018	20:00	1	100
BodyFire	07.11.2018	20:00	07.11.2018	22:00	2	200
Резников #pkg	07.11.2018	22:00	07.11.2018	23:59	1	0
СушиВок	08.11.2018	15:00	08.11.2018	18:00	3	300
Левин	08.11.2018	23:00	08.11.2018	23:59	0	0
BodyFire	09.11.2018	12:00	09.11.2018	14:00	2	200
Жирнова	09.11.2018	14:00	09.11.2018	15:00	1	100
сова #pkg	09.11.2018	15:00	09.11.2018	22:00	7	0
Резников #pkg	09.11.2018	22:00	09.11.2018	23:59	1	0
Жирнова	10.11.2018	11:00	10.11.2018	12:00	1	100
Костин	10.11.2018	12:00	10.11.2018	13:00	1	100
сова #pkg	10.11.2018	15:00	10.11.2018	22:00	7	0
Левин	10.11.2018	22:00	10.11.2018	23:59	1	100
марухина	11.11.2018	00:00	11.11.2018	12:00	12	1200
эконом	11.11.2018	12:00	11.11.2018	14:00	2	200
bodyfire	11.11.2018	14:00	11.11.2018	17:00	3	300
Костин	11.11.2018	17:00	11.11.2018	19:00	2	200
Шурина	11.11.2018	20:00	11.11.2018	22:00	2	200
Резников #pkg	11.11.2018	22:00	11.11.2018	23:59	1	0
Озон #aff	12.11.2018	00:00	12.11.2018	12:00	12	0
эконом	12.11.2018	13:00	12.11.2018	16:00	3	300
недвижимость	12.11.2018	16:00	12.11.2018	17:00	1	100
Шубина	12.11.2018	17:00	12.11.2018	18:00	1	100
Костин	12.11.2018	18:00	12.11.2018	19:00	1	100
лукьянов 7	12.11.2018	19:00	12.11.2018	20:00	1	100
Левин	12.11.2018	20:00	12.11.2018	23:59	3	300
Авиа #aff	13.11.2018	00:00	13.11.2018	09:00	9	0
Пинешко	13.11.2018	09:00	13.11.2018	13:00	4	400
эконом	13.11.2018	13:00	13.11.2018	15:00	2	200
Пинешко	13.11.2018	15:00	13.11.2018	20:00	5	500
Шурина	13.11.2018	20:00	13.11.2018	22:00	2	200
Резников #pkg	13.11.2018	22:00	13.11.2018	23:59	1	0
Силка	14.11.2018	00:00	14.11.2018	10:00	10	1000
СушиВок	14.11.2018	10:00	14.11.2018	12:00	2	200
Авдеев	14.11.2018	12:00	14.11.2018	16:00	4	400
СушиВок	14.11.2018	16:00	14.11.2018	18:00	2	200
Костин	14.11.2018	19:00	14.11.2018	20:00	1	100
Левин	14.11.2018	20:00	14.11.2018	23:59	3	300
Силка	15.11.2018	00:00	15.11.2018	10:00	10	1000
страхование #aff	15.11.2018	10:00	15.11.2018	14:00	4	0
иван сантехника	15.11.2018	15:00	15.11.2018	19:00	4	400
Костин	15.11.2018	19:00	15.11.2018	20:00	1	100
Авдеев	15.11.2018	20:00	15.11.2018	22:00	2	200
Резников #pkg	15.11.2018	22:00	15.11.2018	23:59	1	0
сова #pkg	16.11.2018	15:00	16.11.2018	22:00	7	0
Левин	16.11.2018	22:00	16.11.2018	23:59	1	100
иван сантехника	17.11.2018	00:00	17.11.2018	12:00	12	1200
реутова	17.11.2018	12:00	17.11.2018	13:00	1	100
шубина	17.11.2018	13:00	17.11.2018	14:00	1	100
костин	17.11.2018	14:00	17.11.2018	15:00	1	100
сова #pkg	17.11.2018	15:00	17.11.2018	22:00	7	0
Резников #pkg	17.11.2018	22:00	17.11.2018	23:59	1	0
воробьева #night	18.11.2018	00:00	18.11.2018	12:00	12	600
Воробьева	18.11.2018	12:00	18.11.2018	18:00	6	600
пинешко	18.11.2018	18:00	18.11.2018	20:00	2	200
Левин	18.11.2018	20:00	18.11.2018	23:59	3	300
lash	19.11.2018	00:00	19.11.2018	12:00	12	1200
воробьева	19.11.2018	12:00	19.11.2018	19:00	7	700
Костин	19.11.2018	19:00	19.11.2018	20:00	1	100
Шурина	19.11.2018	20:00	19.11.2018	22:00	2	200
Резников #pkg	19.11.2018	22:00	19.11.2018	23:59	1	0
ремслужба #pkg	20.11.2018	00:00	20.11.2018	10:00	10	0
сушивок	20.11.2018	10:00	20.11.2018	12:00	2	200
иван сантехника	20.11.2018	12:00	20.11.2018	16:00	4	400
сушивок	20.11.2018	16:00	20.11.2018	18:00	2	200
лукьянов 7	20.11.2018	18:00	20.11.2018	20:00	2	200
Левин	20.11.2018	20:00	20.11.2018	23:59	3	300
страхование #aff	21.11.2018	00:00	21.11.2018	05:00	5	0
ремслужба #pkg	21.11.2018	05:00	21.11.2018	10:00	5	0
воробьева	21.11.2018	10:00	21.11.2018	17:00	7	700
шубина	21.11.2018	17:00	21.11.2018	19:00	2	200
Костин	21.11.2018	19:00	21.11.2018	20:00	1	100
Шурина	21.11.2018	20:00	21.11.2018	22:00	2	200
Резников #pkg	21.11.2018	22:00	21.11.2018	23:59	1	0
Шаурма #night	22.11.2018	00:00	22.11.2018	10:00	10	600
ремслужба #pkg	22.11.2018	10:00	22.11.2018	14:00	4	0
воробьева	22.11.2018	14:00	22.11.2018	17:00	3	300
эконом	22.11.2018	17:00	22.11.2018	20:00	3	300
Левин	22.11.2018	20:00	22.11.2018	23:59	3	300
васютинский	23.11.2018	00:00	23.11.2018	01:00	1	100
страхование #aff	23.11.2018	01:00	23.11.2018	08:00	7	0
ваасютинский	23.11.2018	08:00	23.11.2018	10:00	2	200
ремслужба #pkg	23.11.2018	10:00	23.11.2018	11:00	1	0
эконом	23.11.2018	11:00	23.11.2018	14:00	3	300
костин	23.11.2018	14:00	23.11.2018	15:00	1	100
сова #pkg	23.11.2018	15:00	23.11.2018	22:00	7	0
Резников #pkg	23.11.2018	22:00	23.11.2018	23:59	1	0
иван сантехника	24.11.2018	12:00	24.11.2018	15:00	3	300
сова #pkg	24.11.2018	15:00	24.11.2018	22:00	7	0
Левин	24.11.2018	22:00	24.11.2018	23:59	1	100
ремслужба #pkg	25.11.2018	00:00	25.11.2018	12:00	12	0
Никитина	25.11.2018	12:00	25.11.2018	14:00	2	200
Авдеев	25.11.2018	14:00	25.11.2018	18:00	4	400
Костин	25.11.2018	18:00	25.11.2018	20:00	2	200
Шурина	25.11.2018	20:00	25.11.2018	22:00	2	200
Резников #pkg	25.11.2018	22:00	25.11.2018	23:59	1	0
ремслужба #pkg	26.11.2018	16:00	26.11.2018	20:00	4	0
Левин	26.11.2018	20:00	26.11.2018	23:59	3	300
Страхование #aff	27.11.2018	00:00	27.11.2018	10:00	10	0
СушиВок	27.11.2018	10:00	27.11.2018	12:00	2	200
Недвижимость	27.11.2018	12:00	27.11.2018	14:00	2	200
ремслужба #pkg	27.11.2018	14:00	27.11.2018	16:00	2	0
СушиВок	27.11.2018	16:00	27.11.2018	18:00	2	200
Авдеев	27.11.2018	18:00	27.11.2018	19:00	1	100
Костин	27.11.2018	19:00	27.11.2018	20:00	1	100
Шурина	27.11.2018	20:00	27.11.2018	22:00	2	200
Резников #pkg	27.11.2018	22:00	27.11.2018	23:59	1	0
воробей шаверма	28.11.2018	16:00	28.11.2018	19:00	3	300
Костин	28.11.2018	19:00	28.11.2018	20:00	1	100
Левин	28.11.2018	20:00	28.11.2018	23:59	3	300
ремслужба #pkg	29.11.2018	00:00	29.11.2018	19:00	19	0
Костин	29.11.2018	19:00	29.11.2018	20:00	1	100
Шурина	29.11.2018	20:00	29.11.2018	22:00	2	200
Резников #pkg	29.11.2018	22:00	29.11.2018	23:59	1	0
иванова #night	30.11.2018	00:00	30.11.2018	09:00	9	600
сова #pkg	30.11.2018	15:00	30.11.2018	22:00	7	0
Левин	30.11.2018	22:00	30.11.2018	23:59	1	100