title	url	date	cost	comment
РАСПРОДАЖА женской осенней обуви СКИДКИ от 30 до 50 %    В отделах «Мир обуви»  	https://vk.com/wall-6126497_2330815	01.11.2018 12:00	200	
[club93476327|Салон связи «МТС» в г. Заполярный] (тот, что на Крупской 9,ближе к	https://vk.com/wall-6126497_2331114	01.11.2018 15:11	200	
	https://vk.com/wall-6126497_2331174	01.11.2018 15:56	300	
Ухоженные руки являются неотъемлемой частью образа женщины и не секрет, что ваш 	https://vk.com/wall-6126497_2331506	01.11.2018 19:53	200	
В этой группе вы можете заказать опытных и аккуратных грузчиков!  Тут помогут с 	https://vk.com/wall-6126497_2331528	01.11.2018 20:02	200	
	https://vk.com/wall-6126497_2331582	01.11.2018 20:34	0	
🎨 Кому нарисовать портрет?? 🎨 Акварель и карандаш ✏ на бумаге, масло на холсте 🖼	https://vk.com/wall-6126497_2331624	01.11.2018 21:00	200	
	https://vk.com/wall-6126497_2331654	01.11.2018 21:32	200	
РАСПРОДАЖА женской осенней обуви СКИДКИ от 30 до 50 %    В отделах «Мир обуви»  	https://vk.com/wall-6126497_2332195	02.11.2018 12:00	200	
	https://vk.com/wall-6126497_2332203	02.11.2018 12:07	0	
	https://vk.com/wall-6126497_2332215	02.11.2018 12:19	180	
	https://vk.com/wall-6126497_2332952	02.11.2018 20:28	0	
	https://vk.com/wall-6126497_2333075	02.11.2018 22:04	0	
Уважаемые жители города Заполярный! Представляю вашему вниманию очаровательные и	https://vk.com/wall-6126497_2333151	02.11.2018 23:17	200	
Ломбард.  Дадим деньги в долг под залог (низкий процент📉) 💰  Также купим золото 	https://vk.com/wall-6126497_2333540	03.11.2018 11:00	0	
РАСПРОДАЖА женской осенней обуви СКИДКИ от 30 до 50 %    В отделах «Мир обуви»  	https://vk.com/wall-6126497_2333617	03.11.2018 12:00	200	
В Магазине "Альт" новое поступление товара. Цены умеренные. Мы будем рады видеть	https://vk.com/wall-6126497_2333692	03.11.2018 12:39	200	
НОВОЕ ПОСТУПЛЕНИЕ спиц addi (Германия), шарфов и палантинов в магазине «ТЕКСТИЛЬ	https://vk.com/wall-6126497_2333787	03.11.2018 13:30	200	
Всем привет✋ Милые дамы!!!Приглашаю вас на  🔹Наращивание ногтей гелем 🔹Маникюр с	https://vk.com/wall-6126497_2333847	03.11.2018 14:00	200	
Уважаемые жители города Заполярный!  Представляю вашему вниманию очаровательные 	https://vk.com/wall-6126497_2333965	03.11.2018 15:00	200	
Осуществляется набор в группу йоги «Здоровый позвоночник»    Все комплексы в это	https://vk.com/wall-6126497_2334019	03.11.2018 15:30	200	
	https://vk.com/wall-6126497_2334105	03.11.2018 16:24	0	
	https://vk.com/wall-6126497_2334111	03.11.2018 16:29	200	
Внимание жителей г.Заполярный!  В магазине «ЭКОНОМ»! Скидка 50% на осеннюю женск	https://vk.com/wall-6126497_2334145	03.11.2018 17:00	200	
Заполярный ,Никель, километры!МЁД разнотравье(цветочный) двух сортов.любые объём	https://vk.com/wall-6126497_2334259	03.11.2018 18:03	200	
	https://vk.com/wall-6126497_2334394	03.11.2018 19:40	200	
В Магазине "Альт" новое поступление товара. Цены умеренные. Мы будем рады видеть	https://vk.com/wall-6126497_2334613	03.11.2018 22:00	200	
	https://vk.com/wall-6126497_2334651	03.11.2018 22:20	300	
	https://vk.com/wall-6126497_2334936	04.11.2018 10:00	0	
📢📢📢 5 ноября г. Никель в ДК ул. Октябрьская д.1 -📢📢📢📢 6 Ноября г. Заполярный в Д	https://vk.com/wall-6126497_2334974	04.11.2018 10:40	200	
ВСЁ ПО КАРМАНУ (город Киров)  5 ноября с 10.00 до 18.00  ДК «Октябрь», г. Заполя	https://vk.com/wall-6126497_2335000	04.11.2018 11:08	200	
РАСПРОДАЖА женской осенней обуви СКИДКИ от 30 до 50 %    В отделах «Мир обуви»  	https://vk.com/wall-6126497_2335096	04.11.2018 12:00	200	
Уважаемые жители города Заполярный!  Представляю вашему вниманию очаровательные 	https://vk.com/wall-6126497_2335230	04.11.2018 13:00	200	
	https://vk.com/wall-6126497_2335317	04.11.2018 13:45	200	
	https://vk.com/wall-6126497_2335590	04.11.2018 16:30	200	
	https://vk.com/wall-6126497_2335902	04.11.2018 19:30	200	
📢📢📢 5 ноября г. Никель в ДК ул. Октябрьская д.1 -📢📢📢📢 6 Ноября г. Заполярный в Д	https://vk.com/wall-6126497_2336071	04.11.2018 21:30	200	
	https://vk.com/wall-6126497_2336117	04.11.2018 22:00	300	
ВСЁ ПО КАРМАНУ (город Киров)  5 ноября с 10.00 до 18.00  ДК «Октябрь», г. Заполя	https://vk.com/wall-6126497_2336126	04.11.2018 22:05	200	
📢📢📢 5 ноября г. Никель в ДК ул. Октябрьская д.1 -📢📢📢📢 6 Ноября г. Заполярный в Д	https://vk.com/wall-6126497_2336376	05.11.2018 08:00	200	
ВСЁ ПО КАРМАНУ (город Киров)  5 ноября с 10.00 до 18.00  ДК «Октябрь», г. Заполя	https://vk.com/wall-6126497_2336419	05.11.2018 10:00	200	
Никель. В магазине одежды на рынке "Дружба" поступление зимних курток, детской о	https://vk.com/wall-6126497_2336656	05.11.2018 13:00	200	клиента обслуживают несколько модераторов: Дмитрий Дубов, Валерий Фатхуллин
	https://vk.com/wall-6126497_2336854	05.11.2018 14:41	0	
Полное избавление от волос в нежелательных местах – это одна из самых актуальных	https://vk.com/wall-6126497_2336928	05.11.2018 15:20	200	
Планируете переезд или нужно просто перевезти груз? Просто откройте меню и закаж	https://vk.com/wall-6126497_2336980	05.11.2018 15:54	0	
Уважаемые жители города Заполярный!  Представляю вашему вниманию очаровательные 	https://vk.com/wall-6126497_2336993	05.11.2018 16:00	200	
🔧Сборка мебели и услуги "Мастер на час" в Заполярном.  Мы можем сделать 👍  Сборк	https://vk.com/wall-6126497_2337037	05.11.2018 16:30	200	
Привет, меня зовут Ольга Шурина 🌷   Я сертифицированный мастер шугаринга в Запол	https://vk.com/wall-6126497_2337417	05.11.2018 20:27	200	
ВСЁ ПО КАРМАНУ (город Киров)  5 ноября с 10.00 до 18.00  ДК «Октябрь», г. Заполя	https://vk.com/wall-6126497_2337559	05.11.2018 22:00	200	
ВСЁ ПО КАРМАНУ (город Киров)  5 ноября с 10.00 до 18.00  ДК «Октябрь», г. Заполя	https://vk.com/wall-6126497_2337880	06.11.2018 10:00	200	
Полное избавление от волос в нежелательных местах – это одна из самых актуальных	https://vk.com/wall-6126497_2338016	06.11.2018 12:00	200	
📢Уважаемые жители Печенгского района!!!  🎉🎉 Спешите организовать свой отдых!!!🎉🎉	https://vk.com/wall-6126497_2338194	06.11.2018 13:52	200	
Уважаемые жители города Заполярный!  Представляю вашему вниманию очаровательные 	https://vk.com/wall-6126497_2338365	06.11.2018 16:00	200	
Приглашаем за покупками в отдел бытовых товаров магазина «ТЕКСТИЛЬ». г. Заполярн	https://vk.com/wall-6126497_2338434	06.11.2018 16:43	200	
[club162224412|«СПУТНИК» — Транспортная компания из Мурманска.]  Конкуренция в т	https://vk.com/wall-6126497_2338648	06.11.2018 19:46	0	
Милые девушки! ⠀😘    В нашей студии вы можете сделать депиляцию полимерным воско	https://vk.com/wall-6126497_2338779	06.11.2018 21:19	200	
Внимание красавицы из Никеля‼😉  Ищу моделей на Классическое наращивание ресниц..	https://vk.com/wall-6126497_2338809	06.11.2018 21:38	200	
Ты-счастливый обладатель Шевроле? Хочешь радовать себя и машину чаще,а экономить	https://vk.com/wall-6126497_2338880	06.11.2018 22:28	200	
УВАЖАЕМЫЕ ПОКУПАТЕЛИ!  🔹Приглашаем Вас в магазин "Центр медтехники" (г.Заполярны	https://vk.com/wall-6126497_2339129	07.11.2018 08:00	200	
Всем привет✋ Милые дамы!!!Приглашаю вас на  🔹Наращивание ногтей гелем 🔹Маникюр с	https://vk.com/wall-6126497_2339452	07.11.2018 13:30	200	
	https://vk.com/wall-6126497_2340114	07.11.2018 21:55	300	
	https://vk.com/wall-6126497_2340526	08.11.2018 12:14	0	
🌸🌸🌸 Дорогие Дамы🌸🌸🌸  Приглашаю посетить парикмахерскую студию EvgeniyaStudio в г	https://vk.com/wall-6126497_2340586	08.11.2018 12:56	200	
	https://vk.com/wall-6126497_2340624	08.11.2018 13:30	200	
Приглашаю в группу [club171300320|Цум «Виктория»] Цум «Виктория»,все предоставле	https://vk.com/wall-6126497_2340655	08.11.2018 14:00	200	
МАГАЗИН «МЕБЕЛЬ ПЛЮС»  г . Заполярный  Космонавтов 2а.  с 10.00 - 19.00 ч.  В НА	https://vk.com/wall-6126497_2340843	08.11.2018 16:48	200	
	https://vk.com/wall-6126497_2340987	08.11.2018 19:00	200	
[club162224412| «СПУТНИК» — Транспортная компания из Мурманска. ] Конкуренция в 	https://vk.com/wall-6126497_2341148	08.11.2018 21:17	0	
	https://vk.com/wall-6126497_2341606	09.11.2018 09:34	0	
	https://vk.com/wall-6126497_2341696	09.11.2018 10:46	150	
	https://vk.com/wall-6126497_2342316	09.11.2018 19:11	0	
[club162224412|«СПУТНИК» — Транспортная компания из Мурманска. ] Конкуренция в т	https://vk.com/wall-6126497_2342524	09.11.2018 21:17	0	
	https://vk.com/wall-6126497_2342590	09.11.2018 21:50	200	
Ломбард.  Дадим деньги в долг под залог (низкий процент📉) 💰  Также купим золото 	https://vk.com/wall-6126497_2342606	09.11.2018 22:00	0	
	https://vk.com/wall-6126497_2342638	09.11.2018 22:20	200	
Здравствуйте дорогие девушки! Я являюсь мастером маникюра! Прошла профессиональн	https://vk.com/wall-6126497_2342666	09.11.2018 22:43	200	клиента обслуживают несколько модераторов: Дмитрий Дубов, Елена Ушакова
	https://vk.com/wall-6126497_2343151	10.11.2018 12:02	0	
Встречай праздники вместе с "Быстрый заём" 🎉🎄  📌Оформи заём с 10 ноября по 31 де	https://vk.com/wall-6126497_2343218	10.11.2018 12:46	200	
Полное избавление от волос в нежелательных местах – это одна из самых актуальных	https://vk.com/wall-6126497_2343324	10.11.2018 14:00	200	
[club93476327|Салон связи «МТС» в г. Заполярный] (тот, что на Крупской 9,ближе к	https://vk.com/wall-6126497_2343421	10.11.2018 15:00	200	
Вы планируете переехать, но все еще не знаете куда именно? Путаетесь в предложен	https://vk.com/wall-6126497_2343481	10.11.2018 15:35	200	
[club162224412|«СПУТНИК» — Транспортная компания из Мурманска.]  Конкуренция в т	https://vk.com/wall-6126497_2343523	10.11.2018 16:00	0	
Все виды сантехнических работ.  Быстро, качественно, недорого.  Гарантия, качест	https://vk.com/wall-6126497_2343778	10.11.2018 19:00	200	
Приглашаем за покупками в отдел бытовых товаров магазина «ТЕКСТИЛЬ». г. Заполярн	https://vk.com/wall-6126497_2343858	10.11.2018 20:00	200	
Ребята, теперь в Заполярном есть возможность приобрести продукцию NL internation	https://vk.com/wall-6126497_2343917	10.11.2018 20:34	200	
Здравствуйте меня зовут Ольга,я сертифицированный мастер бровист.  🔥Хочу предлож	https://vk.com/wall-6126497_2344158	11.11.2018 00:00	200	
	https://vk.com/wall-6126497_2344532	11.11.2018 11:59	0	
‼️Внимание жителей г.Заполярный!‼️  В магазине «ЭКОНОМ»! Скидка 50% на осеннюю о	https://vk.com/wall-6126497_2344535	11.11.2018 12:01	200	
	https://vk.com/wall-6126497_2344760	11.11.2018 14:07	200	
Заполярный.Котята Манчкин готовы для резерва. Два братика,порода "МАНЧКИН"(корот	https://vk.com/wall-6126497_2344808	11.11.2018 14:37	200	
💥 СЕВЕРНАЯ ЛАВКА💥 https://vk.com/club84353722  💥 НОВАЯ ЗИМНИЙ ТОВАР 💥  Санки, сн	https://vk.com/wall-6126497_2344941	11.11.2018 15:43	200	
[club142021239|ВСЕ ВИДЫ РЕМОНТНЫХ И САНТЕХНИЧЕСКИХ РАБОТ] ✅Укладка керамической 	https://vk.com/wall-6126497_2345185	11.11.2018 18:45	200	
Все виды сантехнических работ.  Быстро, качественно, недорого.  Гарантия, качест	https://vk.com/wall-6126497_2345208	11.11.2018 19:00	200	
Ты-счастливый обладатель Шевроле? Хочешь радовать себя и машину чаще,а экономить	https://vk.com/wall-6126497_2345298	11.11.2018 20:13	200	
💥 СЕВЕРНАЯ ЛАВКА💥 https://vk.com/club84353722  💥 НОВАЯ ЗИМНИЙ ТОВАР 💥  Санки, сн	https://vk.com/wall-6126497_2345318	11.11.2018 20:25	200	
[club162224412|«СПУТНИК» — Транспортная компания из Мурманска.] Конкуренция  в т	https://vk.com/wall-6126497_2345366	11.11.2018 21:14	0	
	https://vk.com/wall-6126497_2345644	12.11.2018 08:35	200	клиента обслуживают несколько модераторов: Дмитрий Дубов, Елена Ушакова
	https://vk.com/wall-6126497_2345683	12.11.2018 09:26	200	
В магазине "НЕПОСЕДА" поступление товара!  В наличии: искусственные елки, елочны	https://vk.com/wall-6126497_2345720	12.11.2018 10:00	200	
	https://vk.com/wall-6126497_2345765	12.11.2018 10:42	0	
[club75264217|Производство мебели на заказ в г.Заполярный ПРО100 МЕБЕЛЬ.] У НАС 	https://vk.com/wall-6126497_2346263	12.11.2018 16:25	200	
Что подарить?? Вечная проблема… Особенно в Печенгском районе! 😏А хотелось бы, чт	https://vk.com/wall-6126497_2346405	12.11.2018 18:23	200	
	https://vk.com/wall-6126497_2346473	12.11.2018 19:12	300	
	https://vk.com/wall-6126497_2346528	12.11.2018 19:38	300	
В Магазине "Альт" распродажа платьев, скидка 30%. Мы будем рады видеть Вас в наш	https://vk.com/wall-6126497_2346651	12.11.2018 21:11	200	
[club162224412| «СПУТНИК» — Транспортная компания из Мурманска. ]Конкуренция в т	https://vk.com/wall-6126497_2346949	13.11.2018 07:17	0	
Ты-счастливый обладатель Шевроле? Хочешь радовать себя и машину чаще,а экономить	https://vk.com/wall-6126497_2346969	13.11.2018 08:00	200	
🎀Милые девушки Печенгского р-на!🙏❤Приглашаю Вас в группу женской одежды «Виктори	https://vk.com/wall-6126497_2347034	13.11.2018 09:07	200	
В Магазине "Альт" распродажа платьев, скидка 30%. Мы будем рады видеть Вас в наш	https://vk.com/wall-6126497_2347087	13.11.2018 10:10	200	
Встречай праздники вместе с "Быстрый заём" 🎉🎄  📌Оформи заём с 10 ноября по 31 де	https://vk.com/wall-6126497_2347285	13.11.2018 12:55	200	
Предоставляю услуги массажа и шугаринга.  ✔Детский массаж.  ✔Массаж при плоскост	https://vk.com/wall-6126497_2347655	13.11.2018 17:06	200	
	https://vk.com/wall-6126497_2347795	13.11.2018 18:22	0	
	https://vk.com/wall-6126497_2347971	13.11.2018 20:01	200	клиента обслуживают несколько модераторов: Дмитрий Дубов, Елена Ушакова
Вы планируете переехать, но все еще не знаете куда именно? Путаетесь в предложен	https://vk.com/wall-6126497_2348012	13.11.2018 20:25	200	
Полное избавление от волос в нежелательных местах – это одна из самых актуальных	https://vk.com/wall-6126497_2348109	13.11.2018 21:14	200	
Внимание красавицы‼️😉 Ищу моделей..  Классическое наращивание ресниц - 800 На 2Д	https://vk.com/wall-6126497_2348135	13.11.2018 21:30	200	
	https://vk.com/wall-6126497_2348664	14.11.2018 09:56	0	
💕Милые девушки Заполярного и Печенгского р-на!🎀Приглашаю Вас,ко мне  на Наращива	https://vk.com/wall-6126497_2348752	14.11.2018 11:23	200	
Дорогие женщины!!!  16 и 17 ноября (пятница и суббота) в ДК г.Заполярного  состо	https://vk.com/wall-6126497_2348803	14.11.2018 12:03	200	
В магазине "НЕПОСЕДА" поступление товара!  В наличии: искусственные елки, елочны	https://vk.com/wall-6126497_2349004	14.11.2018 14:30	200	
📢Уважаемые жители Печенгского района!!! 🎉🎉 Спешите организовать свой отдых!!!🎉🎉 	https://vk.com/wall-6126497_2349151	14.11.2018 16:05	200	
[club162224412|«СПУТНИК» — Транспортная компания из Мурманска. ] Конкуренция в т	https://vk.com/wall-6126497_2349340	14.11.2018 18:24	0	
🔧Сборка мебели и услуги "Мастер на час" в Заполярном.  Мы можем сделать 👍  Сборк	https://vk.com/wall-6126497_2349461	14.11.2018 19:51	200	
🔥ХОТИТЕ НАТЯЖНОЙ ПОТОЛОК?  НУЖНА КОМПАНИЯ С ОПЫТОМ, ДОГОВОРОМ И ГАРАНТИЕЙ?🤔    Н	https://vk.com/wall-6126497_2349487	14.11.2018 20:00	200	
💥 СЕВЕРНАЯ ЛАВКА💥 https://vk.com/club84353722  💥 ГИРЛЯНДА -СВЕТОДИОДНЫЙ ЗАНАВЕС 	https://vk.com/wall-6126497_2349541	14.11.2018 20:30	200	
[club142021239|ВСЕ ВИДЫ РЕМОНТНЫХ И САНТЕХНИЧЕСКИХ РАБОТ] ✅Укладка керамической 	https://vk.com/wall-6126497_2349600	14.11.2018 21:09	200	
	https://vk.com/wall-6126497_2349632	14.11.2018 21:30	200	клиента обслуживают несколько модераторов: Дмитрий Дубов, Елена Ушакова
Ломбард.  Дадим деньги в долг под залог (низкий процент📉) 💰  Также купим золото 	https://vk.com/wall-6126497_2350045	15.11.2018 08:00	0	
https://vk.com/id80665566 Требуются модели на микроблэйдинг бровей в технике нап	https://vk.com/wall-6126497_2350235	15.11.2018 11:32	200	
Ты-счастливый обладатель Шевроле? Хочешь радовать себя и машину чаще,а экономить	https://vk.com/wall-6126497_2350280	15.11.2018 12:00	200	
Милые дамы, дорогие девушки❗️❗️❗️ Никель‼️ 😉🌷 Я сертифицированный мастер!!! Пред	https://vk.com/wall-6126497_2350879	15.11.2018 20:02	200	
	https://vk.com/wall-6126497_2351365	16.11.2018 08:28	0	
	https://vk.com/wall-6126497_2351397	16.11.2018 09:10	300	
Дорогие женщины!!!  16 и 17 ноября (пятница и суббота) в ДК г.Заполярного состои	https://vk.com/wall-6126497_2351531	16.11.2018 11:31	200	
	https://vk.com/wall-6126497_2351651	16.11.2018 12:49	150	
Встречай праздники вместе с "Быстрый заём" 🎉🎄  📌Оформи заём с 10 ноября по 31 де	https://vk.com/wall-6126497_2351720	16.11.2018 13:30	200	
	https://vk.com/wall-6126497_2351871	16.11.2018 14:58	0	
Полное избавление от волос в нежелательных местах – это одна из самых актуальных	https://vk.com/wall-6126497_2352081	16.11.2018 17:30	200	
[club129860849|ТераБайт_51 ! Компьютерный сервис!]  ✔Ремонт и апгрейд вашего ПК 	https://vk.com/wall-6126497_2352218	16.11.2018 19:38	150	
	https://vk.com/wall-6126497_2352301	16.11.2018 20:29	0	
[club162224412|ТК СПУТНИК- своя, мурманская Транспортная Компания]  Именно мы - 	https://vk.com/wall-6126497_2352357	16.11.2018 21:07	0	
Вы планируете переехать, но все еще не знаете куда именно? Путаетесь в предложен	https://vk.com/wall-6126497_2352434	16.11.2018 22:00	200	
	https://vk.com/wall-6126497_2352763	17.11.2018 09:48	200	клиента обслуживают несколько модераторов: Дмитрий Дубов, Елена Ушакова
	https://vk.com/wall-6126497_2352788	17.11.2018 10:05	200	клиента обслуживают несколько модераторов: Дмитрий Дубов, Елена Ушакова
	https://vk.com/wall-6126497_2352817	17.11.2018 10:27	0	
[club129860849|ТераБайт_51 ! Компьютерный сервис!]  ✔Ремонт и апгрейд вашего ПК 	https://vk.com/wall-6126497_2352848	17.11.2018 11:00	150	
	https://vk.com/wall-6126497_2352897	17.11.2018 11:30	300	
	https://vk.com/wall-6126497_2352971	17.11.2018 12:30	300	
	https://vk.com/wall-6126497_2353214	17.11.2018 14:58	0	
[club162224412|ТК СПУТНИК- своя, мурманская Транспортная Компания]  Именно мы - 	https://vk.com/wall-6126497_2353331	17.11.2018 16:00	0	
Продам котят донского сфинкса мальчики (браш) 89508939908.никель https://vk.com/	https://vk.com/wall-6126497_2353665	17.11.2018 19:52	100	
	https://vk.com/wall-6126497_2353670	17.11.2018 19:56	0	
	https://vk.com/wall-6126497_2354097	18.11.2018 10:01	0	
📢Приглашаем всех на Народную Ярмарку! 📢  🎪В Никеле 19,20,21 ноября (около рынка 	https://vk.com/wall-6126497_2354104	18.11.2018 10:19	200	
[club129860849|ТераБайт_51 ! Компьютерный сервис!]  ✔Ремонт и апгрейд вашего ПК 	https://vk.com/wall-6126497_2354197	18.11.2018 12:00	150	
Встречай праздники вместе с "Быстрый заём" 🎉🎄  📌Оформи заём с 10 ноября по 31 де	https://vk.com/wall-6126497_2354289	18.11.2018 13:00	200	
[club162224412|ТК СПУТНИК- своя, мурманская Транспортная Компания]  Именно мы - 	https://vk.com/wall-6126497_2354568	18.11.2018 16:00	0	
Требуются модели на микроблэйдинг бровей в технике напыления #FlaxTap  без старо	https://vk.com/wall-6126497_2354803	18.11.2018 18:51	200	
Милые дамы! Начинающий сертифицированный мастер приглашает Вас на классическое н	https://vk.com/wall-6126497_2355038	18.11.2018 21:35	200	
Полное избавление от волос в нежелательных местах – это одна из самых актуальных	https://vk.com/wall-6126497_2355128	18.11.2018 22:25	200	
	https://vk.com/wall-6126497_2355501	19.11.2018 11:38	150	
Всем привет✋ Милые дамы!!!Приглашаю вас на  🔹Наращивание ногтей гелем 🔹Маникюр с	https://vk.com/wall-6126497_2355609	19.11.2018 13:05	200	
Массаж:  ~ Лечебный;  ~ Классический:  - массаж спины,  -шейно-воротниковой зоны	https://vk.com/wall-6126497_2355911	19.11.2018 16:58	200	
[club129860849|ТераБайт_51 ! Компьютерный сервис!]  ✔Ремонт и апгрейд вашего ПК 	https://vk.com/wall-6126497_2355917	19.11.2018 17:00	150	
[club162224412|СПУТНИК—наша,Мурманская транспортная компания.] Именно мы - спутн	https://vk.com/wall-6126497_2355991	19.11.2018 18:04	0	
Здравствуйте дорогие девушки! Я являюсь мастером маниКюра! Прошла профессиональн	https://vk.com/wall-6126497_2356022	19.11.2018 18:25	200	клиента обслуживают несколько модераторов: Дмитрий Дубов, Елена Ушакова
Ты-счастливый обладатель Шевроле?  Хочешь радовать себя и машину чаще,а экономит	https://vk.com/wall-6126497_2356088	19.11.2018 19:30	200	
📌Друзья📌- к вашему вниманию!!!  В нашей группе "Машина на заказ "-теперь 2-водит	https://vk.com/wall-6126497_2356172	19.11.2018 20:30	200	
Ломбард.  Дадим деньги в долг под залог (низкий процент📉) 💰  Также купим золото 	https://vk.com/wall-6126497_2356550	20.11.2018 09:00	0	
	https://vk.com/wall-6126497_2356733	20.11.2018 11:53	0	
	https://vk.com/wall-6126497_2356770	20.11.2018 12:20	300	
Встречай праздники вместе с "Быстрый заём" 🎉🎄  📌Оформи заём с 10 ноября по 31 де	https://vk.com/wall-6126497_2356815	20.11.2018 13:00	200	
Вы — мастер ногтевого сервиса?  Тогда вы точно знаете, как важны в работе качест	https://vk.com/wall-6126497_2356816	20.11.2018 13:00	200	
Уважаемые жители Печенгского района!  А у нас уже началась ЧеРнАя ПяТнИцА🖤 В офи	https://vk.com/wall-6126497_2356857	20.11.2018 13:30	200	
Полное избавление от волос в нежелательных местах – это одна из самых актуальных	https://vk.com/wall-6126497_2356935	20.11.2018 14:29	200	
Вы — мастер ногтевого сервиса?  Тогда вы точно знаете, как важны в работе качест	https://vk.com/wall-6126497_2356937	20.11.2018 14:30	200	
	https://vk.com/wall-6126497_2356971	20.11.2018 15:00	200	
🔥ХОТИТЕ НАТЯЖНОЙ ПОТОЛОК?  НУЖНА КОМПАНИЯ С ОПЫТОМ, ДОГОВОРОМ И ГАРАНТИЕЙ?🤔    Н	https://vk.com/wall-6126497_2357260	20.11.2018 18:15	200	
[club129860849|ТераБайт_51 ! Компьютерный сервис!]  ✔Ремонт и апгрейд вашего ПК 	https://vk.com/wall-6126497_2357374	20.11.2018 20:00	150	
Устанавливаем домофоны.Берем на техническое обслуживание домофоны : 15-20 кварти	https://vk.com/wall-6126497_2357869	21.11.2018 10:39	200	
	https://vk.com/wall-6126497_2357963	21.11.2018 11:58	0	
	https://vk.com/wall-6126497_2358366	21.11.2018 17:10	300	
Друзья, всего 4 дня осталось до Дня матери! Кто еще не придумал 🎁 сюрпризов, ско	https://vk.com/wall-6126497_2358593	21.11.2018 20:24	200	
Рады приветствовать вас в кафе, «Шаверма»!  Мы находимся напротив стоматологии (	https://vk.com/wall-6126497_2358647	21.11.2018 20:56	200	
[club76423768|Все для современной мамы]  писать👉[id18566107|Анна Козлова]  ⚫⚫⚫ЧЁ	https://vk.com/wall-6126497_2359212	22.11.2018 11:00	200	
❗В Магазине «Алёнушка» (Заполярный,Ленина,7) самая честная «Черная Неделя»!❗ Лик	https://vk.com/wall-6126497_2359271	22.11.2018 11:46	200	
Встречай праздники вместе с "Быстрый заём" 🎉🎄  📌Оформи заём с 10 ноября по 31 де	https://vk.com/wall-6126497_2359350	22.11.2018 13:00	200	
📢Уважаемые жители Печенгского района!!!  🎉🎉 Спешите организовать свой отдых!!!🎉🎉	https://vk.com/wall-6126497_2359402	22.11.2018 13:45	200	
Полное избавление от волос в нежелательных местах – это одна из самых актуальных	https://vk.com/wall-6126497_2359581	22.11.2018 16:00	200	
	https://vk.com/wall-6126497_2359623	22.11.2018 16:30	300	
‼Внимание жителей г.Заполярный!‼  В магазине «ЭКОНОМ»! Скидка 50% на осеннюю обу	https://vk.com/wall-6126497_2359683	22.11.2018 17:09	200	
[club162224412|Транспортная Компания «СПУТНИК»] осуществляет любые виды грузопер	https://vk.com/wall-6126497_2359753	22.11.2018 18:00	0	
Уважаемые жители и гости г. Заполярный. Приглашаем посетить интересную выставку-	https://vk.com/wall-6126497_2359904	22.11.2018 20:00	200	
Девочки - красавицы🥰💃🏻 на пороге сумасшедший предпраздничный декабрь☝фотосессии 	https://vk.com/wall-6126497_2359959	22.11.2018 20:30	200	
	https://vk.com/wall-6126497_2360170	22.11.2018 22:12	150	
В НАЛИЧИИ🎉🎉 Куклы ручной работы - станут запоминающимся подарком на любой случай	https://vk.com/wall-6126497_2360272	22.11.2018 23:14	200	
Здравствуйте меня зовут Ольга,я сертифицированный мастер бровист,а так же ламини	https://vk.com/wall-6126497_2360318	22.11.2018 23:42	200	
	https://vk.com/wall-6126497_2360821	23.11.2018 12:21	0	
	https://vk.com/wall-6126497_2361087	23.11.2018 15:00	150	
	https://vk.com/wall-6126497_2361137	23.11.2018 15:30	300	
❗В Магазине «Алёнушка» (Заполярный,Ленина,7) самая честная «Черная Неделя»!❗  Ли	https://vk.com/wall-6126497_2361187	23.11.2018 16:00	200	
[club162224412|Транспортная Компания «СПУТНИК»] осуществляет любые виды грузопер	https://vk.com/wall-6126497_2361344	23.11.2018 18:00	0	
Уважаемые жители и гости г. Заполярный. Приглашаем посетить интересную выставку-	https://vk.com/wall-6126497_2361464	23.11.2018 19:30	200	
	https://vk.com/wall-6126497_2361545	23.11.2018 20:19	0	
🎄Девушки, скоро Новый Год—самое время задуматься о подарках для себя и своих бли	https://vk.com/wall-6126497_2361766	23.11.2018 22:31	200	
✨ВСТУПАЙТЕ В НАШУ ГРУППУ СОВМЕСТНЫХ ПОКУПОК✨  👉 [club76882678|СП "БУДЬ С НАМИ В 	https://vk.com/wall-6126497_2361804	23.11.2018 22:55	200	
Принимаю заказы на добычу вкусного и полезного деликатеса - морского гребешка. П	https://vk.com/wall-6126497_2362117	24.11.2018 10:45	200	
	https://vk.com/wall-6126497_2362135	24.11.2018 11:00	0	
❗В Магазине «Алёнушка» (Заполярный,Ленина,7) самая честная «Черная Неделя»!❗  Ли	https://vk.com/wall-6126497_2362207	24.11.2018 12:00	200	
Всем привет✋ Милые дамы!!!Приглашаю вас на  🔹Наращивание ногтей гелем 🔹Маникюр с	https://vk.com/wall-6126497_2362290	24.11.2018 12:58	200	
Встречай праздники вместе с "Быстрый заём" 🎉🎄  📌Оформи заём с 10 ноября по 31 де	https://vk.com/wall-6126497_2362292	24.11.2018 13:00	200	
[club162224412|Транспортная Компания «СПУТНИК»] осуществляет любые виды грузопер	https://vk.com/wall-6126497_2362539	24.11.2018 16:00	0	
Продам УНТЫ. натуральный мех ( в нутри) - овчина, натуральная кожа и замш. Женск	https://vk.com/wall-6126497_2362706	24.11.2018 18:00	200	
Уважаемые жители и гости г. Заполярный. Приглашаем посетить интересную выставку-	https://vk.com/wall-6126497_2362890	24.11.2018 20:00	200	
	https://vk.com/wall-6126497_2363486	25.11.2018 11:00	0	
❗В Магазине «Алёнушка» (Заполярный,Ленина,7) самая честная «Черная Неделя»!❗  Ли	https://vk.com/wall-6126497_2363579	25.11.2018 12:00	200	
Ломбард.  Дадим деньги в долг под залог (низкий процент📉) 💰  Также купим золото 	https://vk.com/wall-6126497_2363752	25.11.2018 14:00	0	
	https://vk.com/wall-6126497_2364010	25.11.2018 16:00	0	
Хорошая новость!!!  В Заполярный приехал Мануальный терапевт (костоправ) - масса	https://vk.com/wall-6126497_2364058	25.11.2018 16:35	180	
Отдам в добрые  руки, преданных  замечательных малышей 🐶 Мама не породистая , но	https://vk.com/wall-6126497_2364485	25.11.2018 20:20	200	
	https://vk.com/wall-6126497_2365131	26.11.2018 10:12	200	клиента обслуживают несколько модераторов: Дмитрий Дубов, Елена Ушакова
❗В Магазине «Алёнушка» (Заполярный,Ленина,7) самая честная «Черная Неделя»!❗  Ли	https://vk.com/wall-6126497_2365242	26.11.2018 12:00	200	
Встречай праздники вместе с "Быстрый заём" 🎉🎄  📌Оформи заём с 10 ноября по 31 де	https://vk.com/wall-6126497_2365318	26.11.2018 13:00	200	
	https://vk.com/wall-6126497_2365339	26.11.2018 13:20	0	
	https://vk.com/wall-6126497_2365534	26.11.2018 15:19	300	
Милые дамы! Сертифицированный мастер приглашает Вас на классическое наращивание 	https://vk.com/wall-6126497_2365727	26.11.2018 17:56	200	
	https://vk.com/wall-6126497_2365923	26.11.2018 20:00	200	
[club162224412|СПУТНИК]— Транспортная Компания из Мурманска, работает по всей Ро	https://vk.com/wall-6126497_2366034	26.11.2018 21:00	0	
	https://vk.com/wall-6126497_2366095	26.11.2018 21:52	300	
Всем привет✋ Милые дамы!!!Приглашаю вас на  🔹Наращивание ногтей гелем 🔹Маникюр с	https://vk.com/wall-6126497_2366190	26.11.2018 22:54	200	
Ломбард.  Дадим деньги в долг под залог (низкий процент📉) 💰  Также купим золото 	https://vk.com/wall-6126497_2366928	27.11.2018 15:00	0	
Уважаемые жители Печенгского района!  Для вашего удобства примем заявки на подкл	https://vk.com/wall-6126497_2367043	27.11.2018 16:24	200	
❗В Магазине «Алёнушка» (Заполярный,Ленина,7) еще 2 дня распродажи! Ликвидационна	https://vk.com/wall-6126497_2367139	27.11.2018 17:30	200	
	https://vk.com/wall-6126497_2367369	27.11.2018 20:13	300	
Рады приветствовать вас в кафе, «Шаверма»!  Мы находимся напротив стоматологии (	https://vk.com/wall-6126497_2367533	27.11.2018 22:07	200	
Большие скидки  в магазине «Смешные цены» с 28.11 по 05.12  (Никель,Спортивная,1	https://vk.com/wall-6126497_2367622	27.11.2018 22:57	200	
Большие скидки  в магазине «Московская Ярмарка» с 28.11 по 05.12  (Заполярный,Ле	https://vk.com/wall-6126497_2367659	27.11.2018 23:30	200	
	https://vk.com/wall-6126497_2367954	28.11.2018 10:32	0	
В отделах  «Мир обуви» г. Заполярный крытый рынок и п. Никель, Победы 13  🔥🔥🔥🔥🔥М	https://vk.com/wall-6126497_2367995	28.11.2018 11:30	200	
❗В Магазине «Алёнушка» (Заполярный,Ленина,7) последний день скидок! Ликвидационн	https://vk.com/wall-6126497_2368027	28.11.2018 12:00	200	
	https://vk.com/wall-6126497_2368182	28.11.2018 14:09	150	
Устанавливаем домофоны.Берем на техническое обслуживание домофоны : 15-20 кварти	https://vk.com/wall-6126497_2368201	28.11.2018 14:28	200	
	https://vk.com/wall-6126497_2368221	28.11.2018 14:48	300	
Большие скидки в магазине «Смешные цены» с 28.11 по 05.12 (Никель,Спортивная,12)	https://vk.com/wall-6126497_2368253	28.11.2018 15:15	200	
Большие скидки  в магазине «Московская Ярмарка» с 28.11 по 05.12  (Заполярный,Ле	https://vk.com/wall-6126497_2368295	28.11.2018 15:50	200	
Одежда,обувь,продукты питания и многое другое из Норвегии на заказ. Сыр,масло из	https://vk.com/wall-6126497_2368450	28.11.2018 17:40	200	
[club162224412|СПУТНИК] — Транспортная Компания из Мурманска, работает по всей Р	https://vk.com/wall-6126497_2368490	28.11.2018 18:10	0	
Девочки - красавицы🥰💃🏻 на пороге сумасшедший предпраздничный декабрь☝фотосессии 	https://vk.com/wall-6126497_2368789	28.11.2018 21:00	200	
УВАЖАЕМЫЕ ПОКУПАТЕЛИ!  🔹Приглашаем Вас в магазин "Центр медтехники" (г.Заполярны	https://vk.com/wall-6126497_2368879	28.11.2018 21:30	200	
Не знаете что подарить мужчине? Ведь мужчины совершенно разные: молодые, зрелые,	https://vk.com/wall-6126497_2368924	28.11.2018 21:50	200	
[club142021239|ВСЕ ВИДЫ РЕМОНТНЫХ И САНТЕХНИЧЕСКИХ РАБОТ]  Окна. Двери. Натяжные	https://vk.com/wall-6126497_2368973	28.11.2018 22:22	200	
	https://vk.com/wall-6126497_2369333	29.11.2018 10:45	150	
В отделах  «Мир обуви» г. Заполярный крытый рынок и п. Никель, Победы 13  🔥🔥🔥🔥🔥М	https://vk.com/wall-6126497_2369410	29.11.2018 12:00	200	
Большие скидки в магазине «Смешные цены» с 28.11 по 05.12 (Никель,Спортивная,12)	https://vk.com/wall-6126497_2369480	29.11.2018 13:01	200	
Большие скидки  в магазине «Московская Ярмарка» с 28.11 по 05.12  (Заполярный,Ле	https://vk.com/wall-6126497_2369521	29.11.2018 13:30	200	
Рады приветствовать вас в кафе, «Шаверма»!  Мы находимся напротив стоматологии (	https://vk.com/wall-6126497_2369603	29.11.2018 14:30	200	
В магазине «Непоседа» (Заполярный) новое поступление товара: искусственные ёлки,	https://vk.com/wall-6126497_2369781	29.11.2018 16:43	200	
[club162224412|СПУТНИК] — Транспортная Компания из Мурманска, работает по всей Р	https://vk.com/wall-6126497_2369890	29.11.2018 18:00	0	
Ресторан "Север+" приглашает!  Всегда сытно, вкусно и по карману накормим Вас бл	https://vk.com/wall-6126497_2369931	29.11.2018 18:20	200	
	https://vk.com/wall-6126497_2370022	29.11.2018 19:23	300	
Все виды ремонтных и сантехнических работ:  Окна. Двери. Натяжные потолки.  Натя	https://vk.com/wall-6126497_2370159	29.11.2018 20:58	200	
Появились новые малыши ручной работы🌸 Это оригинальный и эксклюзивный подарком к	https://vk.com/wall-6126497_2370539	30.11.2018 08:30	200	
	https://vk.com/wall-6126497_2370740	30.11.2018 11:22	150	
В отделах  «Мир обуви» г. Заполярный крытый рынок и п. Никель, Победы 13  🔥🔥🔥🔥🔥М	https://vk.com/wall-6126497_2370806	30.11.2018 12:00	200	
	https://vk.com/wall-6126497_2370855	30.11.2018 12:30	0	
Большие скидки в магазине «Смешные цены» с 28.11 по 05.12 (Никель,Спортивная,12)	https://vk.com/wall-6126497_2370909	30.11.2018 13:01	200	
Большие скидки  в магазине «Московская Ярмарка» с 28.11 по 05.12  (Заполярный,Ле	https://vk.com/wall-6126497_2370983	30.11.2018 14:00	200	
	https://vk.com/wall-6126497_2371017	30.11.2018 14:25	300	
Всем привет✋ Милые дамы!!!Приглашаю вас на  🔹Наращивание ногтей гелем 🔹Маникюр с	https://vk.com/wall-6126497_2371071	30.11.2018 15:00	200	
[club162224412|СПУТНИК] — Транспортная Компания из Мурманска, работает по всей Р	https://vk.com/wall-6126497_2371261	30.11.2018 18:00	0	
	https://vk.com/wall-6126497_2371494	30.11.2018 21:02	0	
💥 СЕВЕРНАЯ ЛАВКА💥 https://vk.com/club84353722  💥 НОВОГОДНИЕ КОСТЮМЫ ДЛЯ ДЕТЕЙ И 	https://vk.com/wall-6126497_2371509	30.11.2018 21:08	200	
Всем привет✋ Милые дамы!!!Приглашаю вас на  🔹Наращивание ногтей гелем 🔹Маникюр с	https://vk.com/wall-6126497_2371542	30.11.2018 21:39	200	
[club142021239|ВСЕ ВИДЫ РЕМОНТНЫХ И САНТЕХНИЧЕСКИХ РАБОТ]  Окна. Двери. Натяжные	https://vk.com/wall-6126497_2371566	30.11.2018 22:08	200	