title	start-date	start-time	end-date	end-time	hours	cost
	13.09.2022	20:00	13.09.2022	23:45	3	360
	15.09.2022	18:00	15.09.2022	23:45	5	600
	16.09.2022	23:00	16.09.2022	23:45	0	0
	17.09.2022	23:00	17.09.2022	23:45	0	0
	19.09.2022	19:00	19.09.2022	23:45	4	480
	21.09.2022	17:00	21.09.2022	23:45	6	720
	22.09.2022	17:00	22.09.2022	23:45	6	720
	23.09.2022	17:00	23.09.2022	20:00	3	360