title	start-date	start-time	end-date	end-time	hours	cost
Капитошка	01.10.2018	15:00	01.10.2018	17:00	2	108
Иголкина	01.10.2018	17:00	01.10.2018	18:00	1	54
Левин	01.10.2018	20:00	01.10.2018	23:59	3	162
суши вок	02.10.2018	10:00	02.10.2018	17:00	7	378
Озон #aff	02.10.2018	17:00	02.10.2018	20:00	3	0
Иголкина	02.10.2018	20:00	02.10.2018	21:00	1	54
здоровая семья	02.10.2018	21:00	02.10.2018	22:00	1	54
Резников #pkg	02.10.2018	22:00	02.10.2018	23:59	1	0
Герасименко	03.10.2018	16:00	03.10.2018	17:00	1	54
Капитошка	03.10.2018	17:00	03.10.2018	19:00	2	108
Иголкина	03.10.2018	19:00	03.10.2018	20:00	1	54
Левин	03.10.2018	20:00	03.10.2018	23:59	3	162
Иголкина	04.10.2018	13:00	04.10.2018	14:00	1	54
гребнева	04.10.2018	14:00	04.10.2018	18:00	4	216
JAM #pkg	04.10.2018	18:00	04.10.2018	22:00	4	0
Резников #pkg	04.10.2018	22:00	04.10.2018	23:59	1	0
здоровая семья #night	05.10.2018	00:00	05.10.2018	12:00	12	648
Мушникова	05.10.2018	13:00	05.10.2018	14:00	1	54
Силкин	05.10.2018	14:00	05.10.2018	15:00	1	54
сова #pkg	05.10.2018	15:00	05.10.2018	22:00	7	0
JAM #pkg	06.10.2018	11:00	06.10.2018	15:00	4	0
сова #pkg	06.10.2018	15:00	06.10.2018	22:00	7	0
Резников #pkg	06.10.2018	22:00	06.10.2018	23:59	1	0
астахов #night-	07.10.2018	02:00	07.10.2018	11:00	9	486
Мушникова	07.10.2018	11:00	07.10.2018	12:00	1	54
Герасименко	07.10.2018	12:00	07.10.2018	13:00	1	54
Капитошка	07.10.2018	13:00	07.10.2018	16:00	3	162
Иголкина	07.10.2018	16:00	07.10.2018	17:00	1	54
Озон #aff	07.10.2018	17:00	07.10.2018	20:00	3	0
Левин	07.10.2018	20:00	07.10.2018	23:59	3	162
Суши Wok	08.10.2018	12:00	08.10.2018	14:00	2	108
Мушникова	08.10.2018	14:00	08.10.2018	15:00	1	54
Костин	08.10.2018	15:00	08.10.2018	16:00	1	54
Суши WOK	08.10.2018	16:00	08.10.2018	19:00	3	162
пушкарев	08.10.2018	19:00	08.10.2018	22:00	3	162
Резников #pkg	08.10.2018	22:00	08.10.2018	23:59	1	0
Шурина	09.10.2018	00:00	09.10.2018	01:00	1	54
Астахов	09.10.2018	11:00	09.10.2018	12:00	1	54
гран-при	09.10.2018	12:00	09.10.2018	14:00	2	108
Мушникова	09.10.2018	14:00	09.10.2018	15:00	1	54
Гран-при	09.10.2018	15:00	09.10.2018	17:00	2	108
Зейкан	09.10.2018	17:00	09.10.2018	20:00	3	162
Левин	09.10.2018	20:00	09.10.2018	23:59	3	162
Шурина	10.10.2018	00:00	10.10.2018	01:00	1	54
Мушникова	10.10.2018	12:00	10.10.2018	13:00	1	54
эконом	10.10.2018	13:00	10.10.2018	16:00	3	162
Капитошка	10.10.2018	17:00	10.10.2018	19:00	2	108
Резников #pkg	10.10.2018	22:00	10.10.2018	23:59	1	0
эконом	11.10.2018	11:00	11.10.2018	13:00	2	108
Мушникова	11.10.2018	15:00	11.10.2018	16:00	1	54
Герасименко	11.10.2018	16:00	11.10.2018	17:00	1	54
Костин	11.10.2018	17:00	11.10.2018	18:00	1	54
Smedsen	11.10.2018	18:00	11.10.2018	20:00	2	108
Левин	11.10.2018	20:00	11.10.2018	23:59	3	162
здоровая семья #night	12.10.2018	00:00	12.10.2018	12:00	12	648
Мушникова	12.10.2018	12:00	12.10.2018	13:00	1	54
Костин	12.10.2018	13:00	12.10.2018	15:00	2	108
сова #pkg	12.10.2018	15:00	12.10.2018	22:00	7	0
Резников #pkg	12.10.2018	22:00	12.10.2018	23:59	1	0
Шурина	13.10.2018	00:00	13.10.2018	01:00	1	54
Мушникова	13.10.2018	10:00	13.10.2018	11:00	1	54
сова #pkg	13.10.2018	15:00	13.10.2018	22:00	7	0
Олейник	13.10.2018	22:00	13.10.2018	23:59	1	54
Шурина	14.10.2018	00:00	14.10.2018	01:00	1	54
Страхование #aff	14.10.2018	01:00	14.10.2018	10:00	9	0
воробьева	14.10.2018	12:00	14.10.2018	14:00	2	108
Мушникова	14.10.2018	14:00	14.10.2018	15:00	1	54
Воробьева	14.10.2018	15:00	14.10.2018	17:00	2	108
Зейкан	14.10.2018	17:00	14.10.2018	20:00	3	162
здоровая семья	14.10.2018	20:00	14.10.2018	22:00	2	108
Резников #pkg	14.10.2018	22:00	14.10.2018	23:59	1	0
Воробьева #night	15.10.2018	00:00	15.10.2018	12:00	12	648
Воробьева	15.10.2018	12:00	15.10.2018	13:00	1	54
Мушникова	15.10.2018	13:00	15.10.2018	14:00	1	54
Воробьева	15.10.2018	15:00	15.10.2018	18:00	3	162
Герасименко	15.10.2018	18:00	15.10.2018	19:00	1	54
воробьева	15.10.2018	19:00	15.10.2018	20:00	1	54
Левин	15.10.2018	20:00	15.10.2018	23:59	3	162
Воробьева #day-	16.10.2018	00:00	16.10.2018	18:00	18	972
Костин	16.10.2018	18:00	16.10.2018	20:00	2	108
шурина	16.10.2018	20:00	16.10.2018	22:00	2	108
Резников #pkg	16.10.2018	22:00	16.10.2018	23:59	1	0
Ярмарка #night	17.10.2018	00:00	17.10.2018	12:00	12	648
Ярмарка	17.10.2018	12:00	17.10.2018	17:00	5	270
Страхование #aff	17.10.2018	17:00	17.10.2018	20:00	3	0
Левин	17.10.2018	20:00	17.10.2018	23:59	3	162
Шурина	18.10.2018	00:00	18.10.2018	01:00	1	54
страхование #aff	18.10.2018	01:00	18.10.2018	09:00	8	0
Дерюшкина	18.10.2018	09:00	18.10.2018	12:00	3	162
Алексеевна	18.10.2018	14:00	18.10.2018	20:00	6	324
шурина	18.10.2018	20:00	18.10.2018	22:00	2	108
Резников #pkg	18.10.2018	22:00	18.10.2018	23:59	1	0
Займы #aff	19.10.2018	00:00	19.10.2018	12:00	12	0
Махач	19.10.2018	12:00	19.10.2018	14:00	2	108
Герасименко	19.10.2018	14:00	19.10.2018	15:00	1	54
сова #pkg	19.10.2018	15:00	19.10.2018	22:00	7	0
Олейник	19.10.2018	22:00	19.10.2018	23:55	1	54
Осаго #aff	20.10.2018	00:00	20.10.2018	11:00	11	0
JAM #pkg	20.10.2018	11:00	20.10.2018	12:00	1	0
Костин	20.10.2018	12:00	20.10.2018	14:00	2	108
JAM #pkg	20.10.2018	14:00	20.10.2018	15:00	1	0
сова #pkg	20.10.2018	15:00	20.10.2018	22:00	7	0
Резников #pkg	20.10.2018	22:00	20.10.2018	23:59	1	0
Шурина	21.10.2018	00:00	21.10.2018	01:00	1	54
Jam2 #pkg	21.10.2018	01:00	21.10.2018	12:00	11	0
Мтс	21.10.2018	12:00	21.10.2018	13:00	1	54
Эконом	21.10.2018	13:00	21.10.2018	15:00	2	108
здоровая семья	21.10.2018	15:00	21.10.2018	20:00	5	270
Левин	21.10.2018	20:00	21.10.2018	23:59	3	162
лукоил #aff	22.10.2018	01:00	22.10.2018	10:00	9	0
мед	22.10.2018	12:00	22.10.2018	15:00	3	162
Герасименко	22.10.2018	18:00	22.10.2018	19:00	1	54
Костин	22.10.2018	19:00	22.10.2018	20:00	1	54
Резников #pkg	22.10.2018	22:00	22.10.2018	23:59	1	0
Шурина	23.10.2018	00:00	23.10.2018	01:00	1	54
Астахов	23.10.2018	07:00	23.10.2018	09:00	2	108
мтс	23.10.2018	12:00	23.10.2018	16:00	4	216
Астахов	23.10.2018	19:00	23.10.2018	20:00	1	54
Левин	23.10.2018	20:00	23.10.2018	23:59	3	162
окна	24.10.2018	00:00	24.10.2018	12:00	12	648
Герасименко	24.10.2018	17:00	24.10.2018	18:00	1	54
моргунова	24.10.2018	18:00	24.10.2018	20:00	2	108
Шурина	24.10.2018	20:00	24.10.2018	22:00	2	108
Резников #pkg	24.10.2018	22:00	24.10.2018	23:59	1	0
мтс	25.10.2018	12:00	25.10.2018	16:00	4	216
Иванова бонус #bonus	25.10.2018	16:00	25.10.2018	19:00	3	0
Костин	25.10.2018	19:00	25.10.2018	20:00	1	54
Левин	25.10.2018	20:00	25.10.2018	23:59	3	162
страхование #aff	26.10.2018	00:00	26.10.2018	10:00	10	0
мтс	26.10.2018	10:00	26.10.2018	14:00	4	216
Костин	26.10.2018	14:00	26.10.2018	15:00	1	54
сова #pkg	26.10.2018	15:00	26.10.2018	22:00	7	0
Резников #pkg	26.10.2018	22:00	26.10.2018	23:59	1	0
здоровая семья	27.10.2018	00:00	27.10.2018	15:00	15	810
сова #pkg	27.10.2018	15:00	27.10.2018	22:00	7	0
авдеев	27.10.2018	22:00	27.10.2018	23:59	1	54
моргунова	28.10.2018	12:00	28.10.2018	18:00	6	324
Герасименко	28.10.2018	18:00	28.10.2018	19:00	1	54
Костин	28.10.2018	19:00	28.10.2018	20:00	1	54
шурина	28.10.2018	20:00	28.10.2018	22:00	2	108
Резников #pkg	28.10.2018	22:00	28.10.2018	23:59	1	0
мтс	29.10.2018	12:00	29.10.2018	16:00	4	216
стехин	29.10.2018	16:00	29.10.2018	19:00	3	162
МТС	29.10.2018	19:00	29.10.2018	20:00	1	54
Левин	29.10.2018	20:00	29.10.2018	23:59	3	162
страхование #aff	30.10.2018	00:00	30.10.2018	10:00	10	0
Дмитрович	30.10.2018	19:00	30.10.2018	20:00	1	54
МТС	30.10.2018	20:00	30.10.2018	22:00	2	108
Резников #pkg	30.10.2018	22:00	30.10.2018	23:59	1	0
Эконом	31.10.2018	18:00	31.10.2018	20:00	2	108
Левин	31.10.2018	20:00	31.10.2018	23:59	3	162