title	url	date	cost	comment
	https://vk.com/wall-6126497_2286736	01.10.2018 12:58	0	
	https://vk.com/wall-6126497_2286881	01.10.2018 14:20	300	
Огромный выбор шин в наличии и на заказ в магазине «АВТОМАГиЯ». Шиномонтаж в под	https://vk.com/wall-6126497_2287169	01.10.2018 17:18	200	клиента обслуживают несколько модераторов: Дмитрий Дубов, Елена Ушакова
	https://vk.com/wall-6126497_2287265	01.10.2018 18:04	0	
🔧Сборка мебели и услуги "Мастер на час" в Заполярном.  Мы можем сделать 👍 Сборка	https://vk.com/wall-6126497_2287294	01.10.2018 18:20	200	
	https://vk.com/wall-6126497_2287847	02.10.2018 08:00	180	
	https://vk.com/wall-6126497_2288707	02.10.2018 18:24	0	
	https://vk.com/wall-6126497_2288780	02.10.2018 19:00	200	
Милые дамы, дорогие девушки❗️❗️❗️ Никель‼️ Я сертифицированный мастер по  🍂Колла	https://vk.com/wall-6126497_2288842	02.10.2018 19:43	200	
Поздравь любимого учителя с праздником оригинальным магнитом ручной работы. Все 	https://vk.com/wall-6126497_2289049	02.10.2018 21:35	200	
	https://vk.com/wall-6126497_2289690	03.10.2018 12:45	180	
	https://vk.com/wall-6126497_2291342	04.10.2018 14:47	0	
	https://vk.com/wall-6126497_2291713	04.10.2018 18:23	0	
В магазинах «Мир обуви» г.Заполярный, крытый рынок и п.Никель, ул. Победы, 13  ❄	https://vk.com/wall-6126497_2292521	05.10.2018 12:00	200	
🌸🌸🌸 Дорогие Дамы🌸🌸🌸  Приглашаю посетить парикмахерскую студию EvgeniyaStudio в г	https://vk.com/wall-6126497_2292767	05.10.2018 14:56	200	
В субботу 6 числа снова еду в Заполярный ремонтировать домофоны. Все, кому звони	https://vk.com/wall-6126497_2292828	05.10.2018 15:35	200	
Милые девушки 🌸 я сертифицированный мастер ногтевого сервиса💅 приглашаю вас к се	https://vk.com/wall-6126497_2292941	05.10.2018 16:57	200	
Принимаю заказы на изготовление Киндер упаковки.  [club113414870|Big Kinder_51] 	https://vk.com/wall-6126497_2293079	05.10.2018 18:16	200	
Предоставляю услуги массажа и шугаринга.  ✔Детский массаж.  ✔Массаж при плоскост	https://vk.com/wall-6126497_2293207	05.10.2018 19:38	200	
	https://vk.com/wall-6126497_2293220	05.10.2018 19:54	0	
❓Вы давно думали о покупке недвижимости в местах потеплее и поближе к "цивилизац	https://vk.com/wall-6126497_2293226	05.10.2018 20:00	200	
	https://vk.com/wall-6126497_2293909	06.10.2018 10:59	0	
В магазинах «Мир обуви» г.Заполярный, крытый рынок и п.Никель, ул. Победы, 13  ❄	https://vk.com/wall-6126497_2294149	06.10.2018 13:14	200	
!!!Дорогие девушки!!!  Каждая из нас хочет быть красивой и неповторимой)) Как вс	https://vk.com/wall-6126497_2294460	06.10.2018 16:48	200	
⚜Перманентный макияж в технике «пудровое напыление»  ⚜Лазерное удаление татуажа/	https://vk.com/wall-6126497_2294491	06.10.2018 17:00	200	клиента обслуживают несколько модераторов: Дмитрий Дубов, Елена Ушакова
🔧Сборка мебели и услуги "Мастер на час" в Заполярном.  Мы можем сделать 👍  Сборк	https://vk.com/wall-6126497_2294572	06.10.2018 17:55	200	
	https://vk.com/wall-6126497_2294599	06.10.2018 18:09	200	
Развлекательный Центр "СОВА" представляет! Совсем скоро бой года: Боец , победит	https://vk.com/wall-6126497_2294926	06.10.2018 22:19	0	
	https://vk.com/wall-6126497_2295129	07.10.2018 01:35	150	
	https://vk.com/wall-6126497_2295327	07.10.2018 09:00	0	
В магазинах «Мир обуви» г.Заполярный, крытый рынок и п.Никель, ул. Победы, 13  ❄	https://vk.com/wall-6126497_2295533	07.10.2018 12:00	200	
❗БУДУЩЕЕ ЗА АнтиСП❗    ❤МЫ ДОКАЗАЛИ, ЧТО РАБОТАТЬ БЕЗ ПРОЦЕНТОВ ОРГАНИЗАТОРУ ЭТО	https://vk.com/wall-6126497_2295898	07.10.2018 15:06	200	
Продам УНТЫ. натуральный мех ( в нутри) - овчина, натуральная кожа и замш. Женск	https://vk.com/wall-6126497_2295985	07.10.2018 15:59	200	
	https://vk.com/wall-6126497_2296043	07.10.2018 16:30	0	
В магазинах «Мир обуви» г.Заполярный, крытый рынок и п.Никель, ул. Победы, 13  ❄	https://vk.com/wall-6126497_2297041	08.10.2018 12:00	200	
Уважаемые жители Печенгского района!    Для вашего удобства примем заявки на под	https://vk.com/wall-6126497_2297092	08.10.2018 12:30	200	
	https://vk.com/wall-6126497_2297270	08.10.2018 14:44	0	
В магазине Брусника до конца недели скидки на весь ассортимент 20%🤩  Приходите к	https://vk.com/wall-6126497_2297308	08.10.2018 15:04	200	
	https://vk.com/wall-6126497_2297556	08.10.2018 18:00	0	
	https://vk.com/wall-6126497_2297651	08.10.2018 19:04	300	
Заполярный ,Никель, километры!  Предлагаю МЁД разнотравье(цветочный) двух сортов	https://vk.com/wall-6126497_2297766	08.10.2018 20:18	200	
🎨Портреты по фотографиям маслом на холсте🎨 Это хорошая идея для уникального пода	https://vk.com/wall-6126497_2297810	08.10.2018 20:50	200	
Ребята, теперь в Заполярном есть возможность приобрести продукцию NL internation	https://vk.com/wall-6126497_2297880	08.10.2018 21:31	200	
	https://vk.com/wall-6126497_2298064	09.10.2018 00:09	200	
	https://vk.com/wall-6126497_2298132	09.10.2018 08:00	180	
Оказываю следующие услуги в г. Заполярный: Установка домофонной трубки - 1950 р.	https://vk.com/wall-6126497_2298274	09.10.2018 10:40	200	
	https://vk.com/wall-6126497_2298294	09.10.2018 11:00	0	
В магазинах «Мир обуви» г.Заполярный, крытый рынок и п.Никель, ул. Победы, 13  ❄	https://vk.com/wall-6126497_2298388	09.10.2018 12:00	200	
	https://vk.com/wall-6126497_2298518	09.10.2018 13:13	150	
	https://vk.com/wall-6126497_2298926	09.10.2018 18:00	0	
🔥ХОТИТЕ НАТЯЖНОЙ ПОТОЛОК?  НУЖНА КОМПАНИЯ С ОПЫТОМ, ДОГОВОРОМ И ГАРАНТИЕЙ?🤔    Н	https://vk.com/wall-6126497_2299131	09.10.2018 20:00	200	
🏡13 и 14 октября в ДК "Октябрь" (г. Заполярный) с 11 до 17 пройдет день открытых	https://vk.com/wall-6126497_2299177	09.10.2018 20:37	200	
В магазинах «Мир обуви» г.Заполярный, крытый рынок и п.Никель, ул. Победы, 13  ❄	https://vk.com/wall-6126497_2299937	10.10.2018 12:00	200	
	https://vk.com/wall-6126497_2300022	10.10.2018 12:45	180	
Внимание жителей г.Заполярный!    В магазине «ЭКОНОМ»!  Новый завоз товара! Всту	https://vk.com/wall-6126497_2300171	10.10.2018 13:56	200	
	https://vk.com/wall-6126497_2300570	10.10.2018 18:00	0	
МАГАЗИН « МЕБЕЛЬ ПЛЮС»  г. ЗАПОЛЯРНЫЙ  КОСМОНАВТОВ 2а.  с 10.00 - 19.00 ч.  - БО	https://vk.com/wall-6126497_2300578	10.10.2018 18:04	200	
Оказываю следующие услуги в г. Заполярный:  Установка домофонной трубки - 1950 р	https://vk.com/wall-6126497_2300723	10.10.2018 19:30	200	
В магазине Брусника до конца недели скидки на весь ассортимент 20%🤩! Приходите к	https://vk.com/wall-6126497_2300962	10.10.2018 21:56	200	
Оказываю следующие услуги в г. Заполярный:  Установка домофонной трубки - 1950 р	https://vk.com/wall-6126497_2301407	11.10.2018 10:30	200	
	https://vk.com/wall-6126497_2301416	11.10.2018 10:33	0	
В магазинах «Мир обуви» г.Заполярный, крытый рынок и п.Никель, ул. Победы, 13  ❄	https://vk.com/wall-6126497_2301523	11.10.2018 12:00	200	
Здравствуйте милые девушки)😊Предоставляю услуги бровиста .  Ухоженные яркие бров	https://vk.com/wall-6126497_2301597	11.10.2018 13:10	200	
📢Уважаемые жители Печенгского района!!! 🎉🎉 Спешите организовать свой отдых!!!🎉🎉 	https://vk.com/wall-6126497_2301723	11.10.2018 14:36	200	
🌸🌸🌸Малина - товары по вкусным ценам 🌸🌸🌸 👉https://vk.com/malina51rus 😔 Устали иск	https://vk.com/wall-6126497_2301781	11.10.2018 15:04	200	
В магазине Брусника до конца недели скидки на весь ассортимент 20%🤩!  Приходите 	https://vk.com/wall-6126497_2301863	11.10.2018 16:00	200	
	https://vk.com/wall-6126497_2301940	11.10.2018 16:42	300	
	https://vk.com/wall-6126497_2302027	11.10.2018 18:00	0	
✨ВСТУПАЙТЕ В НАШУ ГРУППУ СОВМЕСТНЫХ ПОКУПОК✨  👉 [club76882678|СП "БУДЬ С НАМИ В 	https://vk.com/wall-6126497_2302142	11.10.2018 19:19	200	
Доброго времени суток!!!  Уважаемые, пчёлки ногтевой красоты!!!💅💅💅  мастера мани	https://vk.com/wall-6126497_2302319	11.10.2018 20:54	200	
Расширяемся, друзья!🏠💐  _________________________  12 октября, 13:00 🕐  Приглаша	https://vk.com/wall-6126497_2302533	11.10.2018 22:45	200	
💥 СЕВЕРНАЯ ЛАВКА💥 https://vk.com/club84353722  💥 НОВАЯ ДЕТСКАЯ ОДЕЖДА от 220 руб	https://vk.com/wall-6126497_2302769	12.10.2018 08:00	200	
Расширяемся, друзья!🏠💐  _________________________  12 октября, 13:00 🕐  Приглаша	https://vk.com/wall-6126497_2302814	12.10.2018 09:00	200	
В магазинах «Мир обуви» г.Заполярный, крытый рынок и п.Никель, ул. Победы, 13  ❄	https://vk.com/wall-6126497_2303084	12.10.2018 12:00	200	
НОВОЕ ПОСТУПЛЕНИЕ КОСТЮМНО-ПЛАТЕЛЬНЫХ ТКАНЕЙ И ПРЯЖИ в магазине «ТЕКСТИЛЬ». Запо	https://vk.com/wall-6126497_2303275	12.10.2018 13:47	200	
Оказываю следующие услуги в г. Заполярный:  Установка домофонной трубки - 1950 р	https://vk.com/wall-6126497_2303433	12.10.2018 15:30	200	
	https://vk.com/wall-6126497_2303619	12.10.2018 17:00	300	
	https://vk.com/wall-6126497_2303708	12.10.2018 18:00	0	
	https://vk.com/wall-6126497_2303725	12.10.2018 18:12	0	
Уже в эту субботу,13 октября- МЕГАСТРИПТИЗ в «СОВЕ» Приходи, СОВА ждет каждого!	https://vk.com/wall-6126497_2303981	12.10.2018 21:23	0	
Вы уже планируете переехать, но все еще не знаете куда именно? Путаетесь в предл	https://vk.com/wall-6126497_2304008	12.10.2018 21:35	200	
Расширяемся, друзья!🏠💐  _________________________   Приглашаем всех посетить све	https://vk.com/wall-6126497_2304435	13.10.2018 10:55	200	
В магазинах «Мир обуви» г.Заполярный, крытый рынок и п.Никель, ул. Победы, 13  ❄	https://vk.com/wall-6126497_2304507	13.10.2018 12:00	200	
	https://vk.com/wall-6126497_2304942	13.10.2018 16:30	0	
Уже сегодня,13 октября МЕГАСТРИПТИЗ в «СОВЕ»  Приходи, СОВА ждет каждого!	https://vk.com/wall-6126497_2305220	13.10.2018 19:19	0	
🎀Милые девушки Заполярного и Печенгского р-на!🎀Приглашаю Вас,ко мне  на Наращива	https://vk.com/wall-6126497_2305266	13.10.2018 19:52	200	
	https://vk.com/wall-6126497_2305807	14.10.2018 11:03	0	
📢с 16 по 21 Октября всех приглашают на Народную Ярмарку! 📢  Вот что там можно бу	https://vk.com/wall-6126497_2305887	14.10.2018 11:55	200	
В магазинах «Мир обуви» г.Заполярный, крытый рынок и п.Никель, ул. Победы, 13  ❄	https://vk.com/wall-6126497_2305894	14.10.2018 12:00	200	
	https://vk.com/wall-6126497_2306353	14.10.2018 16:30	0	
Приглашаю всех желающих на занятия в группе классической йоги, по авторской мето	https://vk.com/wall-6126497_2306473	14.10.2018 18:10	200	
[club129860849|ТераБайт_51 ! Компьютерный сервис!]  ✔Ремонт и апгрейд вашего ПК 	https://vk.com/wall-6126497_2306720	14.10.2018 21:20	150	
Дорогие женщины!!!  17 и 18 октября (среда и четверг) в ДК Заполярного состоится	https://vk.com/wall-6126497_2307085	15.10.2018 08:57	200	
	https://vk.com/wall-6126497_2307277	15.10.2018 11:38	0	
В магазинах «Мир обуви» г.Заполярный, крытый рынок и п.Никель, ул. Победы, 13  ❄	https://vk.com/wall-6126497_2307305	15.10.2018 12:00	200	
[club129860849|ТераБайт_51 ! Компьютерный сервис!]  ✔Ремонт и апгрейд вашего ПК 	https://vk.com/wall-6126497_2307743	15.10.2018 17:00	150	
	https://vk.com/wall-6126497_2307863	15.10.2018 18:30	0	
	https://vk.com/wall-6126497_2308433	16.10.2018 08:00	180	
	https://vk.com/wall-6126497_2308669	16.10.2018 12:02	300	
	https://vk.com/wall-6126497_2308988	16.10.2018 14:50	200	
ЗАЙДИ, ПОСМОТРИ, ВЫБЕРИ!  Только 18 октября в Дворце Культуры Восход  (ул. Октяб	https://vk.com/wall-6126497_2309244	16.10.2018 17:30	200	клиента обслуживают несколько модераторов: Дмитрий Дубов, Елена Ушакова
	https://vk.com/wall-6126497_2309331	16.10.2018 18:30	0	
Прокалываю уши пистолетом и детям и взрослым. Серьги стерильные! Не окисляются, 	https://vk.com/wall-6126497_2309377	16.10.2018 19:10	200	
[club129860849|ТераБайт_51 ! Компьютерный сервис!]  ✔Ремонт и апгрейд вашего ПК 	https://vk.com/wall-6126497_2309399	16.10.2018 19:30	150	
🎀Милые девушки Заполярного и Печенгского р-на!🎀Приглашаю Вас,ко мне https://vk.c	https://vk.com/wall-6126497_2309659	16.10.2018 22:13	200	
[club129860849|ТераБайт_51 ! Компьютерный сервис!]  ✔Ремонт и апгрейд вашего ПК 	https://vk.com/wall-6126497_2310031	17.10.2018 10:00	150	
	https://vk.com/wall-6126497_2310241	17.10.2018 12:45	180	
	https://vk.com/wall-6126497_2310392	17.10.2018 14:52	0	
🔧Сборка мебели и услуги "Мастер на час" в Заполярном.  Мы можем сделать 👍  Сборк	https://vk.com/wall-6126497_2310461	17.10.2018 15:36	200	
ЗАЙДИ, ПОСМОТРИ, ВЫБЕРИ!  Только 18 октября в Дворце Культуры Восход  (ул. Октяб	https://vk.com/wall-6126497_2310485	17.10.2018 16:00	200	клиента обслуживают несколько модераторов: Дмитрий Дубов, Елена Ушакова
ВНИМАНИЕ❗❗❗ФИНАЛЬНАЯ РАСПРОДАЖА!!!С 19.10 по 21.10  Скидки на всё 7⃣0⃣%,бижутери	https://vk.com/wall-6126497_2310516	17.10.2018 16:30	200	
Оказываю следующие услуги в г. Заполярный:  Установка домофонной трубки - 1950 р	https://vk.com/wall-6126497_2310566	17.10.2018 17:00	200	
	https://vk.com/wall-6126497_2310681	17.10.2018 18:30	0	
	https://vk.com/wall-6126497_2311230	18.10.2018 01:31	200	
	https://vk.com/wall-6126497_2311523	18.10.2018 11:26	150	
[club129860849|ТераБайт_51 ! Компьютерный сервис!]  ✔Ремонт и апгрейд вашего ПК 	https://vk.com/wall-6126497_2311941	18.10.2018 16:30	150	
	https://vk.com/wall-6126497_2312005	18.10.2018 17:13	0	
	https://vk.com/wall-6126497_2312083	18.10.2018 18:30	0	
Милые дамы❗❗❗  Предлагаем вашему вниманию следующие услуги:  ⭐ комбинированный м	https://vk.com/wall-6126497_2312260	18.10.2018 20:30	200	
	https://vk.com/wall-6126497_2312278	18.10.2018 20:41	200	
	https://vk.com/wall-6126497_2313026	19.10.2018 12:38	150	
Друзья! Приглашаем вас в [club172494836|новую группу РЦ «СОВА» в г.Заполярный!] 	https://vk.com/wall-6126497_2313265	19.10.2018 15:26	0	
Оказываю следующие услуги в г. Заполярный:  Установка домофонной трубки - 1950 р	https://vk.com/wall-6126497_2313357	19.10.2018 16:30	200	
⚜Перманентный макияж в технике «пудровое напыление»  ⚜Лазерное удаление татуажа/	https://vk.com/wall-6126497_2313391	19.10.2018 17:00	200	клиента обслуживают несколько модераторов: Дмитрий Дубов, Елена Ушакова
УВАЖАЕМЫЕ ПОКУПАТЕЛИ!  В магазине ❤Центр Медтехники Вас ждет скидка 15% 20-го ок	https://vk.com/wall-6126497_2313422	19.10.2018 17:30	200	
[club129860849|ТераБайт_51 ! Компьютерный сервис!]  ✔Ремонт и апгрейд вашего ПК 	https://vk.com/wall-6126497_2313459	19.10.2018 18:00	150	
	https://vk.com/wall-6126497_2313507	19.10.2018 18:30	0	
	https://vk.com/wall-6126497_2313883	19.10.2018 22:00	300	
Добро пожаловать в нашу группу https://vk.com/nebutik51 и магазин:Никель Гвардей	https://vk.com/wall-6126497_2314126	20.10.2018 01:35	200	клиента обслуживают несколько модераторов: Дмитрий Дубов, Елена Ушакова
	https://vk.com/wall-6126497_2314425	20.10.2018 10:10	0	
Внимание жителей г.Заполярный!  В магазине «ЭКОНОМ»! Скидка 5 % на всё до 31.10.	https://vk.com/wall-6126497_2314586	20.10.2018 12:18	200	
[club129860849|ТераБайт_51 ! Компьютерный сервис!]  ✔Ремонт и апгрейд вашего ПК 	https://vk.com/wall-6126497_2314855	20.10.2018 15:30	150	
	https://vk.com/wall-6126497_2314962	20.10.2018 16:30	0	
	https://vk.com/wall-6126497_2315104	20.10.2018 18:15	0	
Если вы раздумывайте куда пойти в субботу вечером в Заполярном- не думайте. Прих	https://vk.com/wall-6126497_2315274	20.10.2018 20:30	0	
Молодое и процветающее заведение #theLoft51 в г.Заполярный возьмет к себе в кома	https://vk.com/wall-6126497_2315366	20.10.2018 21:00	200	
[club129860849|ТераБайт_51 ! Компьютерный сервис!]  ✔Ремонт и апгрейд вашего ПК 	https://vk.com/wall-6126497_2316084	21.10.2018 14:00	150	
	https://vk.com/wall-6126497_2316104	21.10.2018 14:16	0	
Вы подготовились к зимнему сезону? А мы готовы! [club111465808|Рыболовный магази	https://vk.com/wall-6126497_2316268	21.10.2018 15:52	200	
	https://vk.com/wall-6126497_2316355	21.10.2018 16:30	0	
	https://vk.com/wall-6126497_2317405	22.10.2018 12:25	0	
[club129860849|ТераБайт_51 ! Компьютерный сервис!]  ✔Ремонт и апгрейд вашего ПК 	https://vk.com/wall-6126497_2317724	22.10.2018 17:00	150	
	https://vk.com/wall-6126497_2317786	22.10.2018 18:00	0	
	https://vk.com/wall-6126497_2317819	22.10.2018 18:30	300	клиента обслуживают несколько модераторов: Дмитрий Дубов, Елена Ушакова
	https://vk.com/wall-6126497_2318308	23.10.2018 06:20	150	
	https://vk.com/wall-6126497_2318328	23.10.2018 08:00	180	
	https://vk.com/wall-6126497_2318475	23.10.2018 11:00	0	
Всем привет!😊  Приглашаю вас на моделирование ногтей гелем,маникюр с покрытием г	https://vk.com/wall-6126497_2318684	23.10.2018 13:43	200	
	https://vk.com/wall-6126497_2318838	23.10.2018 15:47	180	
	https://vk.com/wall-6126497_2319028	23.10.2018 18:00	0	
	https://vk.com/wall-6126497_2319122	23.10.2018 18:58	150	
🔧Сборка мебели и услуги "Мастер на час" в Заполярном.  Мы можем сделать 👍  Сборк	https://vk.com/wall-6126497_2319253	23.10.2018 20:35	200	
[club152791206|"ТРИКОТАЖ ИЗ ИВАНОВО"]  Рада приветствовать Вас в моей группе!!! 	https://vk.com/wall-6126497_2319289	23.10.2018 21:00	200	
	https://vk.com/wall-6126497_2319547	24.10.2018 02:36	300	клиента обслуживают несколько модераторов: Дмитрий Дубов, Елена Ушакова
	https://vk.com/wall-6126497_2319743	24.10.2018 10:15	200	
	https://vk.com/wall-6126497_2319951	24.10.2018 12:45	180	
	https://vk.com/wall-6126497_2320359	24.10.2018 18:00	0	
	https://vk.com/wall-6126497_2320606	24.10.2018 20:54	0	
📢Уважаемые жители Печенгского района!!!  🎉🎉 Спешите организовать свой отдых!!!🎉🎉	https://vk.com/wall-6126497_2321427	25.10.2018 14:53	200	
	https://vk.com/wall-6126497_2321676	25.10.2018 18:00	0	
В магазине «Брусника» большой выбор платьев, кофт, футболок и джинс. В ассортиме	https://vk.com/wall-6126497_2321792	25.10.2018 19:27	200	
	https://vk.com/wall-6126497_2321795	25.10.2018 19:30	0	
Уважаемые жители Печенгского района!    Для вашего удобства примем заявки на под	https://vk.com/wall-6126497_2322719	26.10.2018 14:12	200	
	https://vk.com/wall-6126497_2322740	26.10.2018 14:23	300	
	https://vk.com/wall-6126497_2322779	26.10.2018 15:01	0	
	https://vk.com/wall-6126497_2322860	26.10.2018 16:02	150	
	https://vk.com/wall-6126497_2322944	26.10.2018 17:19	0	
	https://vk.com/wall-6126497_2323003	26.10.2018 18:00	0	
Подписывайся на [club95086819|Уютное Заполярье] и будь в курсе событий, происход	https://vk.com/wall-6126497_2323082	26.10.2018 19:00	200	
	https://vk.com/wall-6126497_2323199	26.10.2018 20:25	0	
Ломбард.  Дадим деньги в долг под залог (низкий процент📉) 💰  Также купим золото 	https://vk.com/wall-6126497_2323474	27.10.2018 00:33	0	
	https://vk.com/wall-6126497_2323888	27.10.2018 12:30	0	
	https://vk.com/wall-6126497_2324291	27.10.2018 16:30	0	
Милые девушки!  Для тех кто устал ежедневно рисовать свои бровки, приглашаю на п	https://vk.com/wall-6126497_2324375	27.10.2018 17:30	200	
Подписывайся на [club95086819|Уютное Заполярье] и будь в курсе событий, происход	https://vk.com/wall-6126497_2324423	27.10.2018 17:59	200	
	https://vk.com/wall-6126497_2324513	27.10.2018 18:49	300	клиента обслуживают несколько модераторов: Дмитрий Дубов, Елена Ушакова
[club111465808|Рыболовный магазин "Удачный клёв" Заполярный] готов предоставить 	https://vk.com/wall-6126497_2324724	27.10.2018 20:55	200	
❗️БУДУЩЕЕ ЗА АнтиСП❗️  ❤️МЫ ДОКАЗАЛИ, ЧТО РАБОТАТЬ БЕЗ ПРОЦЕНТОВ ОРГАНИЗАТОРУ ЭТ	https://vk.com/wall-6126497_2324780	27.10.2018 21:30	200	
	https://vk.com/wall-6126497_2324912	27.10.2018 23:09	0	
	https://vk.com/wall-6126497_2324987	28.10.2018 00:08	0	
	https://vk.com/wall-6126497_2325020	28.10.2018 00:41	0	
	https://vk.com/wall-6126497_2325192	28.10.2018 10:00	0	
Ломбард.  Дадим деньги в долг под залог (низкий процент📉) 💰  Также купим золото 	https://vk.com/wall-6126497_2325510	28.10.2018 14:00	0	
Продам УНТЫ. натуральный мех ( в нутри) - овчина, натуральная кожа и замш. Женск	https://vk.com/wall-6126497_2325536	28.10.2018 14:30	200	
	https://vk.com/wall-6126497_2325733	28.10.2018 16:30	0	
Перманентный макияж межресничного пространства :  • Сделает глаза более выразите	https://vk.com/wall-6126497_2325750	28.10.2018 16:39	200	
В магазине [id507978342|«Брусника»] поступление женских свитеров, водолазок, зим	https://vk.com/wall-6126497_2326005	28.10.2018 19:08	200	
РАСПРОДАЖА женской осенней обуви СКИДКИ от 30 до 50 %    В отделах «Мир обуви»  	https://vk.com/wall-6126497_2326970	29.10.2018 14:11	200	
Делаю заказы на крылышки,курицу,скумбрию горячего копчения.При заказе от 3кг.ски	https://vk.com/wall-6126497_2327057	29.10.2018 15:00	200	
Все виды сантехнических работ.  Быстро, качественно, недорого.  Гарантия, качест	https://vk.com/wall-6126497_2327290	29.10.2018 17:49	200	
	https://vk.com/wall-6126497_2327303	29.10.2018 18:00	0	
	https://vk.com/wall-6126497_2327308	29.10.2018 18:08	300	
	https://vk.com/wall-6126497_2327911	30.10.2018 08:00	180	
РАСПРОДАЖА женской осенней обуви СКИДКИ от 30 до 50 %    В отделах «Мир обуви»  	https://vk.com/wall-6126497_2328156	30.10.2018 12:00	200	
📢Уважаемые жители Печенгского района!!!  🎉🎉 Спешите организовать свой отдых!!!🎉🎉	https://vk.com/wall-6126497_2328323	30.10.2018 14:06	200	
	https://vk.com/wall-6126497_2328351	30.10.2018 14:26	0	
	https://vk.com/wall-6126497_2328691	30.10.2018 18:00	0	
Всем привет✋ Милые дамы!!!Приглашаю вас на  🔹Наращивание ногтей гелем 🔹Маникюр с	https://vk.com/wall-6126497_2328859	30.10.2018 19:42	200	
РАСПРОДАЖА женской осенней обуви СКИДКИ от 30 до 50 %    В отделах «Мир обуви»  	https://vk.com/wall-6126497_2329517	31.10.2018 12:00	200	
	https://vk.com/wall-6126497_2329585	31.10.2018 12:45	180	
	https://vk.com/wall-6126497_2329768	31.10.2018 15:03	300	
МАГАЗИН «МЕБЕЛЬ ПЛЮС»  с 10.00 - 19.00 ч.  г. Заполярный.  ул.Космонавтов 2а.  п	https://vk.com/wall-6126497_2330018	31.10.2018 17:57	200	
	https://vk.com/wall-6126497_2330055	31.10.2018 18:30	0	
Задумались о ремонте🤔,но надоели скучные обои?Решили изменить что то в своём инт	https://vk.com/wall-6126497_2330231	31.10.2018 20:47	200	
🎨 Кому нарисовать портрет?? 🎨 Акварель и карандаш ✏ на бумаге, масло на холсте 🖼	https://vk.com/wall-6126497_2330250	31.10.2018 21:01	200	