title	url	date	cost
Никель.Сертифицированный мастер.Керапластика,Ботокс,Кератиновое выпрямление.Сост	https://vk.com/wall-6126497_3283290	01.03.2021 11:31	100
Приглашаем в гости  Наш адрес ➡Мурманская область. 🔴г.Заполярный, Строительная у	https://vk.com/wall-6126497_3283331	01.03.2021 12:22	500
	https://vk.com/wall-6126497_3283406	01.03.2021 13:30	150
Заполярный . Готовы к продаже котята британской короткошерстной породы . Дата ро	https://vk.com/wall-6126497_3283638	01.03.2021 17:15	199
Заполярный и Печенгский район.🏘🏘🏘  Куплю золото в любом виде и количестве💍💍💍  От	https://vk.com/wall-6126497_3283735	01.03.2021 19:02	199
3 и 4 марта есть место на проект "Масленица" для малышей)  мальчики до 2 лет) де	https://vk.com/wall-6126497_3283757	01.03.2021 19:27	500
ЗАЙМЫ выдаются только военнослужащим по контрату и офицерам служащим в г. Заполя	https://vk.com/wall-6126497_3283792	01.03.2021 20:02	199
💐 ПОЛЕЗНЫЕ ПОДАРКИ НА 8 МАРТА! 💐    Международный женский день – отличный повод 	https://vk.com/wall-6126497_3284139	02.03.2021 11:09	500
	https://vk.com/wall-6126497_3284303	02.03.2021 13:00	199
	https://vk.com/wall-6126497_3284645	02.03.2021 18:01	500
	https://vk.com/wall-6126497_3284648	02.03.2021 18:02	298
	https://vk.com/wall-6126497_3284666	02.03.2021 18:29	150
	https://vk.com/wall-6126497_3284701	02.03.2021 19:01	199
ЗАЙМЫ выдаются только военнослужащим по контрату и офицерам служащим в г. Заполя	https://vk.com/wall-6126497_3284757	02.03.2021 20:02	199
	https://vk.com/wall-6126497_3284834	02.03.2021 21:35	150
	https://vk.com/wall-6126497_3284931	02.03.2021 23:51	500
	https://vk.com/wall-6126497_3285253	03.03.2021 13:30	150
	https://vk.com/wall-6126497_3285356	03.03.2021 15:21	150
	https://vk.com/wall-6126497_3285384	03.03.2021 15:53	199
💞Дорогие мужчины!😊  💥Совсем скоро праздник у родных и близких вам женщин!👍🏻  🎁Се	https://vk.com/wall-6126497_3285517	03.03.2021 18:43	200
Заполярный и Печенгский район.🏘🏘🏘  Куплю золото в любом виде и количестве💍💍💍  От	https://vk.com/wall-6126497_3285541	03.03.2021 19:02	199
ЗАЙМЫ выдаются только военнослужащим по контрату и офицерам служащим в г. Заполя	https://vk.com/wall-6126497_3285602	03.03.2021 20:02	199
🔔Уважаемые жители и гости Печенгского района! Снова напоминаем о себе!🔔  В предд	https://vk.com/wall-6126497_3286377	04.03.2021 14:00	199
Могу принять ещё 1 заказ на букет светильник к 8 марта🤗  Пишите в группу:  https	https://vk.com/wall-6126497_3286621	04.03.2021 17:43	100
	https://vk.com/wall-6126497_3286644	04.03.2021 18:02	298
	https://vk.com/wall-6126497_3286678	04.03.2021 18:29	150
Принимаем заказы на домашние пельмени. В л/с  https://vk.com/id632006935	https://vk.com/wall-6126497_3286726	04.03.2021 19:20	100
🔔Уважаемые жители и гости Печенгского района! Снова напоминаем о себе!🔔  В предд	https://vk.com/wall-6126497_3286732	04.03.2021 19:30	199
	https://vk.com/wall-6126497_3286741	04.03.2021 19:35	199
🔔Уважаемые жители и гости Печенгского района! Снова напоминаем о себе!🔔  В предд	https://vk.com/wall-6126497_3287269	05.03.2021 13:00	199
	https://vk.com/wall-6126497_3287287	05.03.2021 13:18	199
	https://vk.com/wall-6126497_3287299	05.03.2021 13:30	150
	https://vk.com/wall-6126497_3287474	05.03.2021 17:00	199
	https://vk.com/wall-6126497_3287507	05.03.2021 18:01	199
Заполярный и Печенгский район.🏘🏘🏘  Куплю золото в любом виде и количестве💍💍💍  От	https://vk.com/wall-6126497_3287544	05.03.2021 19:02	199
Никель.Сертифицированный мастер.Керапластика,Ботокс,Кератиновое выпрямление.Сост	https://vk.com/wall-6126497_3287559	05.03.2021 19:28	100
🔔Уважаемые жители и гости Печенгского района! Снова напоминаем о себе!🔔  В предд	https://vk.com/wall-6126497_3287561	05.03.2021 19:30	199
	https://vk.com/wall-6126497_3287586	05.03.2021 20:01	199
График работы кафе " У мангала" на 5,6,7,8 марта:  с 12:00 до 02:00  Бесплатная 	https://vk.com/wall-6126497_3287597	05.03.2021 20:05	500
Каждая девушка мечтает увидеть своего мужчину с букетом цветов, а 8 марта она жд	https://vk.com/wall-6126497_3287834	06.03.2021 08:07	500
	https://vk.com/wall-6126497_3287902	06.03.2021 10:10	199
🔔Уважаемые жители и гости Печенгского района! Снова напоминаем о себе!🔔  В предд	https://vk.com/wall-6126497_3288033	06.03.2021 12:30	199
График работы кафе " У мангала" на 5,6,7,8 марта:  с 12:00 до 02:00  Бесплатная 	https://vk.com/wall-6126497_3288088	06.03.2021 13:05	500
	https://vk.com/wall-6126497_3288278	06.03.2021 15:30	150
	https://vk.com/wall-6126497_3288280	06.03.2021 15:30	150
Приближается прекрасный праздник 8 марта! 🌸😊  В сети магазинов "Центр Медтехники	https://vk.com/wall-6126497_3288394	06.03.2021 17:33	200
	https://vk.com/wall-6126497_3288417	06.03.2021 18:02	298
	https://vk.com/wall-6126497_3288449	06.03.2021 18:29	150
Заполярный. Приглашаю девушек на шугаринг/восковую депиляцию. По очень приятным 	https://vk.com/wall-6126497_3288535	06.03.2021 19:55	100
	https://vk.com/wall-6126497_3288538	06.03.2021 20:01	199
🔔Уважаемые жители и гости Печенгского района! Снова напоминаем о себе!🔔  В предд	https://vk.com/wall-6126497_3288541	06.03.2021 20:05	199
Заполярный🌷Ищу моделей на наращивание и ламинирование ресниц,оформление бровей. 	https://vk.com/wall-6126497_3288624	06.03.2021 22:05	100
Заполярный. Приглашаю девушек на шугаринг/восковую депиляцию. По очень приятным 	https://vk.com/wall-6126497_3288964	07.03.2021 12:01	100
🔔Уважаемые жители и гости Печенгского района! Снова напоминаем о себе!🔔  В предд	https://vk.com/wall-6126497_3289001	07.03.2021 12:30	199
	https://vk.com/wall-6126497_3289061	07.03.2021 13:30	150
Заполярный🌷Ищу моделей на наращивание и ламинирование ресниц,оформление бровей. 	https://vk.com/wall-6126497_3289108	07.03.2021 14:03	100
Никель.Сертифицированный мастер.Керапластика,Ботокс,Кератиновое выпрямление.Сост	https://vk.com/wall-6126497_3289416	07.03.2021 18:52	100
Заполярный и Печенгский район.🏘🏘🏘  Куплю золото в любом виде и количестве💍💍💍  От	https://vk.com/wall-6126497_3289422	07.03.2021 19:02	199
🔔Уважаемые жители и гости Печенгского района! Снова напоминаем о себе!🔔  В предд	https://vk.com/wall-6126497_3289448	07.03.2021 19:30	199
🔔Уважаемые жители и гости Печенгского района! Снова напоминаем о себе!🔔  В предд	https://vk.com/wall-6126497_3289811	08.03.2021 10:00	199
	https://vk.com/wall-6126497_3289875	08.03.2021 12:03	199
🔔Уважаемые жители и гости Печенгского района! Снова напоминаем о себе!🔔  В предд	https://vk.com/wall-6126497_3289990	08.03.2021 15:00	199
	https://vk.com/wall-6126497_3290116	08.03.2021 18:02	298
	https://vk.com/wall-6126497_3290153	08.03.2021 18:29	150
	https://vk.com/wall-6126497_3290650	09.03.2021 13:30	150
	https://vk.com/wall-6126497_3290835	09.03.2021 17:01	199
Заполярный🌷Ищу моделей на наращивание и ламинирование ресниц,оформление бровей. 	https://vk.com/wall-6126497_3290842	09.03.2021 17:09	100
Заполярный и Печенгский район.🏘🏘🏘  Куплю золото в любом виде и количестве💍💍💍  От	https://vk.com/wall-6126497_3290938	09.03.2021 19:02	199
Деньги до зарплаты и не только. Никель, Заполярный! В лс!!!  https://vk.com/id49	https://vk.com/wall-6126497_3291299	10.03.2021 10:59	100
10 , 11, 12 и 14 марта еще есть места на детский проект "Масленица"❤  https://vk	https://vk.com/wall-6126497_3291550	10.03.2021 15:49	500
	https://vk.com/wall-6126497_3291630	10.03.2021 16:51	298
	https://vk.com/wall-6126497_3291659	10.03.2021 17:33	199
	https://vk.com/wall-6126497_3291660	10.03.2021 17:34	199
	https://vk.com/wall-6126497_3291702	10.03.2021 18:02	298
	https://vk.com/wall-6126497_3291914	10.03.2021 22:34	199
	https://vk.com/wall-6126497_3292571	11.03.2021 18:38	199
	https://vk.com/wall-6126497_3292572	11.03.2021 18:38	199
	https://vk.com/wall-6126497_3292573	11.03.2021 18:38	199
Заполярный и Печенгский район.🏘🏘🏘  Куплю золото в любом виде и количестве💍💍💍  От	https://vk.com/wall-6126497_3292598	11.03.2021 19:02	199
	https://vk.com/wall-6126497_3293647	12.03.2021 18:04	199
	https://vk.com/wall-6126497_3293751	12.03.2021 19:53	199
	https://vk.com/wall-6126497_3293890	12.03.2021 22:12	150
🥳ВНИМАНИЕ! РАСПРОДАЖА! 👍   ☝️В магазине "Центр Медтехники" СКИДКА на ДЕЗСРЕДСТВА	https://vk.com/wall-6126497_3294153	13.03.2021 10:39	200
	https://vk.com/wall-6126497_3294299	13.03.2021 12:56	199
	https://vk.com/wall-6126497_3294324	13.03.2021 13:30	150
	https://vk.com/wall-6126497_3294370	13.03.2021 14:08	199
	https://vk.com/wall-6126497_3294605	13.03.2021 18:03	199
	https://vk.com/wall-6126497_3294680	13.03.2021 20:01	500
Заполярный. Дорогие девушки! Меня зовут Анжелика и я начинающий мастер ногтевого	https://vk.com/wall-6126497_3295204	14.03.2021 14:31	500
	https://vk.com/wall-6126497_3295483	14.03.2021 18:30	150
	https://vk.com/wall-6126497_3295968	15.03.2021 13:30	150
LPG массаж:    🌹красивое, подтянутое тело  🌹плавные линии фигуры  🌹уменьшение це	https://vk.com/wall-6126497_3296071	15.03.2021 14:58	199
	https://vk.com/wall-6126497_3296233	15.03.2021 18:02	199
Займы наличными до 200 000 руб., до 24 месяцев  Без комиссий и страховок. Никель	https://vk.com/wall-6126497_3296716	16.03.2021 10:58	100
Никель.Сертифицированный мастер.Керапластика,Ботокс,Кератиновое выпрямление.Сост	https://vk.com/wall-6126497_3297038	16.03.2021 16:25	100
	https://vk.com/wall-6126497_3297127	16.03.2021 18:30	150
Заполярный и Печенгский район.🏘🏘🏘  Куплю золото в любом виде и количестве💍💍💍  От	https://vk.com/wall-6126497_3297207	16.03.2021 19:41	199
	https://vk.com/wall-6126497_3297758	17.03.2021 13:30	150
Заполярный  Предлагаю услуги парикмахера с выездом на дом  Женские,мужские,детск	https://vk.com/wall-6126497_3297976	17.03.2021 17:17	100
ХОТИТЕ НАТЯЖНОЙ ПОТОЛОК? ОКНА? ДВЕРИ?  НУЖНА КОМПАНИЯ С ОПЫТОМ, ДОГОВОРОМ И ГАРА	https://vk.com/wall-6126497_3298557	18.03.2021 11:40	200
Нужна машина для перевозки грузов? Нас рекомендуют друзьям. https://vk.com/club2	https://vk.com/wall-6126497_3298581	18.03.2021 12:00	100
	https://vk.com/wall-6126497_3298771	18.03.2021 15:00	150
	https://vk.com/wall-6126497_3298773	18.03.2021 15:00	199
	https://vk.com/wall-6126497_3298992	18.03.2021 18:30	150
Заполярный и Печенгский район.🏘🏘🏘  Куплю золото в любом виде и количестве💍💍💍  От	https://vk.com/wall-6126497_3299032	18.03.2021 19:05	199
Автосервис.  Заполярный.  89212863207 Иван.  https://vk.com/zepautoservis	https://vk.com/wall-6126497_3299056	18.03.2021 19:30	298
	https://vk.com/wall-6126497_3299520	19.03.2021 12:01	500
	https://vk.com/wall-6126497_3299599	19.03.2021 13:30	150
Принимаем сбережения под 7,6 %, от 11 000 до 500 000 руб. Никель, Заполярный. На	https://vk.com/wall-6126497_3299744	19.03.2021 15:30	100
Автосервис.  Заполярный.  89212863207 Иван.  https://vk.com/zepautoservis	https://vk.com/wall-6126497_3299958	19.03.2021 19:30	298
Ищете необычный подарок? Посмотрите на наши яркие, красивые букеты-светильники😉 	https://vk.com/wall-6126497_3299963	19.03.2021 19:37	500
ЗАЙМЫ выдаются только военнослужащим по контрату и офицерам служащим в г. Заполя	https://vk.com/wall-6126497_3299997	19.03.2021 20:00	199
	https://vk.com/wall-6126497_3300791	20.03.2021 18:30	150
Заполярный и Печенгский район.🏘🏘🏘  Куплю золото в любом виде и количестве💍💍💍  От	https://vk.com/wall-6126497_3300814	20.03.2021 19:05	199
Автосервис.  Заполярный.  89212863207 Иван.  https://vk.com/zepautoservis	https://vk.com/wall-6126497_3300832	20.03.2021 19:30	298
💫Дорогие друзья! Приглашаем Вас вступить в группу магазина "Центр Медтехники" ht	https://vk.com/wall-6126497_3300834	20.03.2021 19:37	200
ЗАЙМЫ выдаются только военнослужащим по контрату и офицерам служащим в г. Заполя	https://vk.com/wall-6126497_3300853	20.03.2021 20:00	199
	https://vk.com/wall-6126497_3301197	21.03.2021 12:01	150
	https://vk.com/wall-6126497_3301198	21.03.2021 12:01	150
	https://vk.com/wall-6126497_3301254	21.03.2021 13:30	150
Добрый вечер💫 Меня зовут Виктория. Я создаю свечи из вощины и пчелиного воска 🕯️	https://vk.com/wall-6126497_3301313	21.03.2021 14:19	500
ХОТИТЕ НАТЯЖНОЙ ПОТОЛОК? ОКНА? ДВЕРИ?  НУЖНА КОМПАНИЯ С ОПЫТОМ, ДОГОВОРОМ И ГАРА	https://vk.com/wall-6126497_3301401	21.03.2021 16:00	200
Автосервис.  Заполярный.  89212863207 Иван.  https://vk.com/zepautoservis	https://vk.com/wall-6126497_3301599	21.03.2021 19:30	298
ЗАЙМЫ выдаются только военнослужащим по контрату и офицерам служащим в г. Заполя	https://vk.com/wall-6126497_3301620	21.03.2021 20:00	199
	https://vk.com/wall-6126497_3302265	22.03.2021 18:30	150
	https://vk.com/wall-6126497_3302292	22.03.2021 18:58	199
Заполярный и Печенгский район.🏘🏘🏘  Куплю золото в любом виде и количестве💍💍💍  От	https://vk.com/wall-6126497_3302296	22.03.2021 19:05	199
Автосервис.  Заполярный.  89212863207 Иван.  https://vk.com/zepautoservis	https://vk.com/wall-6126497_3302313	22.03.2021 19:30	298
ЗАЙМЫ выдаются только военнослужащим по контрату и офицерам служащим в г. Заполя	https://vk.com/wall-6126497_3302352	22.03.2021 20:00	199
	https://vk.com/wall-6126497_3302643	23.03.2021 10:48	500
	https://vk.com/wall-6126497_3302767	23.03.2021 13:30	150
	https://vk.com/wall-6126497_3303027	23.03.2021 17:55	199
ЗАЙМЫ выдаются только военнослужащим по контрату и офицерам служащим в г. Заполя	https://vk.com/wall-6126497_3303132	23.03.2021 20:00	199
Займы на любые нужды от 2000 до 200 000 рублей. Никель, Заполярный. Вопросы в лс	https://vk.com/wall-6126497_3303399	24.03.2021 10:29	100
ХОТИТЕ НАТЯЖНОЙ ПОТОЛОК? ОКНА? ДВЕРИ?  НУЖНА КОМПАНИЯ С ОПЫТОМ, ДОГОВОРОМ И ГАРА	https://vk.com/wall-6126497_3303733	24.03.2021 17:00	200
	https://vk.com/wall-6126497_3303798	24.03.2021 18:30	150
Заполярный и Печенгский район.🏘🏘🏘  Куплю золото в любом виде и количестве💍💍💍  От	https://vk.com/wall-6126497_3303839	24.03.2021 19:05	199
ЗАЙМЫ выдаются только военнослужащим по контрату и офицерам служащим в г. Заполя	https://vk.com/wall-6126497_3303925	24.03.2021 20:00	199
	https://vk.com/wall-6126497_3304532	25.03.2021 13:30	150
Заполярный. Приглашаю девушек на шугаринг/восковую депиляцию. По очень приятным 	https://vk.com/wall-6126497_3304609	25.03.2021 15:00	100
ЗАЙМЫ выдаются только военнослужащим по контрату и офицерам служащим в г. Заполя	https://vk.com/wall-6126497_3304858	25.03.2021 20:00	199
	https://vk.com/wall-6126497_3304859	25.03.2021 20:01	199
📢📢📢Вы ждали? Мы открылись!  https://vk.com/blinsevera  🥞🥞🥞Горячие блинчики с раз	https://vk.com/wall-6126497_3304860	25.03.2021 20:01	500
	https://vk.com/wall-6126497_3304868	25.03.2021 20:12	199
	https://vk.com/wall-6126497_3305641	26.03.2021 18:30	150
Заполярный и Печенгский район.🏘🏘🏘  Куплю золото в любом виде и количестве💍💍💍  От	https://vk.com/wall-6126497_3305674	26.03.2021 19:05	199
ЗАЙМЫ выдаются только военнослужащим по контрату и офицерам служащим в г. Заполя	https://vk.com/wall-6126497_3305730	26.03.2021 20:00	199
	https://vk.com/wall-6126497_3306209	27.03.2021 12:02	199
	https://vk.com/wall-6126497_3306313	27.03.2021 13:30	150
BARBER  https://vk.com/id30341597 Стрижки от 300р . Заполярный  Никель	https://vk.com/wall-6126497_3306359	27.03.2021 14:27	100
ХОТИТЕ НАТЯЖНОЙ ПОТОЛОК? ОКНА? ДВЕРИ?  НУЖНА КОМПАНИЯ С ОПЫТОМ, ДОГОВОРОМ И ГАРА	https://vk.com/wall-6126497_3306509	27.03.2021 17:00	200
ЗАЙМЫ выдаются только военнослужащим по контрату и офицерам служащим в г. Заполя	https://vk.com/wall-6126497_3306669	27.03.2021 20:00	199
	https://vk.com/wall-6126497_3307399	28.03.2021 16:37	150
	https://vk.com/wall-6126497_3307400	28.03.2021 16:37	150
	https://vk.com/wall-6126497_3307523	28.03.2021 18:30	150
Заполярный и Печенгский район.🏘🏘🏘  Куплю золото в любом виде и количестве💍💍💍  От	https://vk.com/wall-6126497_3307558	28.03.2021 19:05	199
ЗАЙМЫ выдаются только военнослужащим по контрату и офицерам служащим в г. Заполя	https://vk.com/wall-6126497_3307624	28.03.2021 20:00	199
	https://vk.com/wall-6126497_3307996	29.03.2021 10:31	199
	https://vk.com/wall-6126497_3307997	29.03.2021 10:31	199
	https://vk.com/wall-6126497_3308168	29.03.2021 13:30	150
	https://vk.com/wall-6126497_3308527	29.03.2021 20:01	500
	https://vk.com/wall-6126497_3308529	29.03.2021 20:05	199
	https://vk.com/wall-6126497_3309203	30.03.2021 18:19	199
	https://vk.com/wall-6126497_3309209	30.03.2021 18:30	150
Заполярный и Печенгский район.🏘🏘🏘  Куплю золото в любом виде и количестве💍💍💍  От	https://vk.com/wall-6126497_3309244	30.03.2021 19:05	199
	https://vk.com/wall-6126497_3310062	31.03.2021 13:30	150
Успей оформить карту до 19.00 31.03.21 и получи 10%на остаток.Для новых клиентов	https://vk.com/wall-6126497_3310188	31.03.2021 15:25	500
ХОТИТЕ НАТЯЖНОЙ ПОТОЛОК? ОКНА? ДВЕРИ?  НУЖНА КОМПАНИЯ С ОПЫТОМ, ДОГОВОРОМ И ГАРА	https://vk.com/wall-6126497_3310287	31.03.2021 17:00	200
УРА! Магазинам Медтехники и ортопедии ORTOLAB исполнилось 10 лет! 🎉🥳    Медтехни	https://vk.com/wall-6126497_3310415	31.03.2021 19:01	500
	https://vk.com/wall-6126497_3310511	31.03.2021 20:00	199
	https://vk.com/wall-6126497_3310513	31.03.2021 20:02	500