title	start-date	start-time	end-date	end-time	hours	cost
Сумки мурадова	02.02.2022	20:30	02.02.2022	23:30	3	360
Мурадова	06.02.2022	17:00	06.02.2022	19:00	2	240
Никитина Ульяна	09.02.2022	14:00	09.02.2022	17:00	3	240
Малахова	10.02.2022	12:00	10.02.2022	23:45	11	1140
Баймизан	11.02.2022	00:00	11.02.2022	17:00	17	1280
Смирнова	11.02.2022	17:00	11.02.2022	22:00	5	600
Смирнова	12.02.2022	17:00	12.02.2022	22:00	5	600
Смирнова	13.02.2022	17:00	13.02.2022	22:00	5	600
Махач гокгозов	15.02.2022	16:00	15.02.2022	18:00	2	200
Ципилев	15.02.2022	18:00	15.02.2022	21:00	3	360
Махач гокгозов	15.02.2022	21:00	15.02.2022	23:00	2	240
Махач гокгозов	16.02.2022	12:00	16.02.2022	17:00	5	420
Рябков	16.02.2022	19:00	16.02.2022	23:45	4	480
Махач гокгозов	19.02.2022	15:00	19.02.2022	21:00	6	640
Никитина	19.02.2022	21:00	19.02.2022	23:45	2	240
Хурзадай	20.02.2022	20:00	20.02.2022	23:00	3	360
Шапошникова	26.02.2022	16:00	26.02.2022	22:00	6	680
Евсеев	27.02.2022	18:00	27.02.2022	23:45	5	600