title	url	date	cost
	https://vk.com/wall-6126497_2905954	01.03.2020 11:54	500
	https://vk.com/wall-6126497_2906042	01.03.2020 13:14	500
Готовимся к 8 марта 🌺   ⭐ В наличии в Никеле коробочки конфет "Птичье молоко", "	https://vk.com/wall-6126497_2906102	01.03.2020 13:57	500
Продаются попугайчики: волнистые, кореллы, неразлучник (банановый, неразлучник Ф	https://vk.com/wall-6126497_2906127	01.03.2020 14:21	298
СКИДКИ с 24.02 по 08.03 на все зимние куртки и на всю обувь -50% наличными, -40%	https://vk.com/wall-6126497_2906293	01.03.2020 16:52	200
Дорогие мои девочки ❤ Давайте поднимать себе настроение после зимы ❄  Будем гото	https://vk.com/wall-6126497_2906300	01.03.2020 16:59	200
	https://vk.com/wall-6126497_2906304	01.03.2020 17:06	199
Тюльпаны по 80 руб. Заполярный, бесплатная доставка до квартиры в течение часа. 	https://vk.com/wall-6126497_2906314	01.03.2020 17:13	199
Уважаемые покупатели!!! В [club78441601|магазине "Егоза"] на весь ассортимент од	https://vk.com/wall-6126497_2906374	01.03.2020 17:50	200
‼Пошив и ремонт одежды‼ https://vk.com/bypogodina А так же изготовление:  💜Силик	https://vk.com/wall-6126497_2906390	01.03.2020 18:07	200
В магазине Русская красавица поступление ОБУВИ и ПОСТЕЛЬНОГО БЕЛЬЯ. Заполярный, 	https://vk.com/wall-6126497_2906440	01.03.2020 18:38	100
💥⚡❗ХИМЧИСТКА ❗⚡💥  Мы делаем КАЧЕСТВЕННУЮ ХИМЧИСТКУ мягкой мебели, кожаной мебели	https://vk.com/wall-6126497_2906525	01.03.2020 20:00	200
[club165258295|💥💥МАГАЗИН "СЕВЕР"💥💥 ] ✅ Большое поступление аксессуаров для волос	https://vk.com/wall-6126497_2906536	01.03.2020 20:10	199
Делаю маникюр качественно, не дорого, вся информация в группе: https://vk.com/ma	https://vk.com/wall-6126497_2906551	01.03.2020 20:15	100
Тюльпаны по 80 руб. Заполярный, бесплатная доставка до квартиры в течение часа. 	https://vk.com/wall-6126497_2906617	01.03.2020 21:10	199
Тюльпаны по 80 руб. Заполярный, бесплатная доставка до квартиры в течение часа. 	https://vk.com/wall-6126497_2906831	02.03.2020 08:05	199
Тюльпаны по 80 руб. Заполярный, бесплатная доставка до квартиры в течение часа. 	https://vk.com/wall-6126497_2907007	02.03.2020 12:15	199
🎁🎁⚡⚡Добрый ДЕНЬ!! Магазин [club151301909|"Оптика"] поздравляет милых дам с празд	https://vk.com/wall-6126497_2907184	02.03.2020 15:05	200
Тюльпаны по 80 руб. Заполярный, бесплатная доставка до квартиры в течение часа. 	https://vk.com/wall-6126497_2907275	02.03.2020 16:15	199
Тюльпаны по 80 руб. Заполярный, бесплатная доставка до квартиры в течение часа. 	https://vk.com/wall-6126497_2907522	02.03.2020 20:15	199
Акция! До 15 марта! Скидка 50 % при приобретении сертификата на курс массажа (10	https://vk.com/wall-6126497_2907572	02.03.2020 21:03	199
Тюльпаны по 80 руб. Заполярный, бесплатная доставка до квартиры в течение часа. 	https://vk.com/wall-6126497_2907867	03.03.2020 11:02	199
‘’🌈УЛЫБКА РАДУГИ 🌈‘’  Юбилейная д. 18 А Спешит поздравить Вас с началом весны. Т	https://vk.com/wall-6126497_2908103	03.03.2020 15:49	500
Тюльпаны по 80 руб. Заполярный, бесплатная доставка до квартиры в течение часа. 	https://vk.com/wall-6126497_2908116	03.03.2020 16:05	199
Уважаемые покупатели!!! В [club78441601|магазине "Егоза"] на весь ассортимент од	https://vk.com/wall-6126497_2908194	03.03.2020 17:50	200
	https://vk.com/wall-6126497_2908206	03.03.2020 18:12	298
Тюльпаны по 80 руб. Заполярный, бесплатная доставка до квартиры в течение часа. 	https://vk.com/wall-6126497_2908322	03.03.2020 20:05	199
	https://vk.com/wall-6126497_2908339	03.03.2020 20:13	199
Принимаю заказы на изготовление домашнего зефира Печенга https://vk.com/zefirok5	https://vk.com/wall-6126497_2908391	03.03.2020 21:07	500
Тюльпаны по 80 руб. Заполярный, бесплатная доставка до квартиры в течение часа. 	https://vk.com/wall-6126497_2908684	04.03.2020 10:35	199
💫ProfMaster💫 профессиональная косметика,материалы для индустрии красоты в городе	https://vk.com/wall-6126497_2908821	04.03.2020 13:55	500
Тюльпаны по 80 руб. Заполярный, бесплатная доставка до квартиры в течение часа. 	https://vk.com/wall-6126497_2909039	04.03.2020 18:20	199
Новые запчасти любых марок авто на заказ (оригинал/не оригинал), а также масла, 	https://vk.com/wall-6126497_2909044	04.03.2020 18:27	200
	https://vk.com/wall-6126497_2909109	04.03.2020 19:46	500
[club165258295|💥💥МАГАЗИН "СЕВЕР"💥💥 ] ✅ Большое поступление аксессуаров для волос	https://vk.com/wall-6126497_2909122	04.03.2020 20:00	199
	https://vk.com/wall-6126497_2909123	04.03.2020 20:00	300
Тюльпаны по 80 руб. Заполярный, бесплатная доставка до квартиры в течение часа. 	https://vk.com/wall-6126497_2909147	04.03.2020 20:19	199
Тюльпаны по 80 руб. Заполярный, бесплатная доставка до квартиры в течение часа. 	https://vk.com/wall-6126497_2909402	05.03.2020 08:00	199
💡Приглашаем вас посетить магазин одежды "Альбатрос". Предлагаем вам 👗платья, 👘ко	https://vk.com/wall-6126497_2909494	05.03.2020 10:00	199
Девушки, предлагаю услуги: маникюр, укрепление ногтей, покрытие гель-лак. Нижнее	https://vk.com/wall-6126497_2909684	05.03.2020 13:48	100
Тюльпаны по 80 руб. Заполярный, бесплатная доставка до квартиры в течение часа. 	https://vk.com/wall-6126497_2909746	05.03.2020 15:00	199
Уважаемые покупатели!!! В [club78441601|магазине "Егоза"] на весь ассортимент од	https://vk.com/wall-6126497_2909886	05.03.2020 17:50	200
	https://vk.com/wall-6126497_2909897	05.03.2020 18:04	100
Тюльпаны по 80 руб. Заполярный, бесплатная доставка до квартиры в течение часа. 	https://vk.com/wall-6126497_2909974	05.03.2020 20:00	199
Тюльпаны по 80 руб. Заполярный, бесплатная доставка до квартиры в течение часа. 	https://vk.com/wall-6126497_2910200	06.03.2020 08:00	199
💡Приглашаем вас посетить магазин одежды "Альбатрос". Предлагаем вам 👗платья, 👘ко	https://vk.com/wall-6126497_2910268	06.03.2020 10:00	199
В магазин ,,Эконом класс,, в Заполярном на ул. Ленина 24 поступление нового това	https://vk.com/wall-6126497_2910306	06.03.2020 10:50	199
Дорогие друзья, совсем скоро наступит любимый весенний праздник —Международный Ж	https://vk.com/wall-6126497_2910482	06.03.2020 14:11	199
Тюльпаны по 80 руб. Заполярный, бесплатная доставка до квартиры в течение часа. 	https://vk.com/wall-6126497_2910537	06.03.2020 15:00	199
Дорогие современные принцессы - сильные, смелые и, конечно, прекрасные. С праздн	https://vk.com/wall-6126497_2910556	06.03.2020 15:15	200
С наступающим Праздником Весны, милые девушки!💐  Будьте всегда такими нежными, я	https://vk.com/wall-6126497_2910557	06.03.2020 15:15	200
Уважаемые жители Печенгского района! В нашем сообществе отсутствуют забавные "ви	https://vk.com/wall-6126497_2910594	06.03.2020 15:46	200
	https://vk.com/wall-6126497_2910600	06.03.2020 15:52	199
	https://vk.com/wall-6126497_2910653	06.03.2020 16:37	300
	https://vk.com/wall-6126497_2910733	06.03.2020 18:02	100
Дорогие друзья, совсем скоро наступит любимый весенний праздник —Международный Ж	https://vk.com/wall-6126497_2910746	06.03.2020 18:10	199
Тюльпаны по 80 руб. Заполярный, бесплатная доставка до квартиры в течение часа. 	https://vk.com/wall-6126497_2910839	06.03.2020 20:10	199
Никель. Требуется опытный парикмахер. Условия работы индивидуальны (аренда или %	https://vk.com/wall-6126497_2910880	06.03.2020 21:04	199
💡Приглашаем вас посетить магазин одежды "Альбатрос". Предлагаем вам 👗платья, 👘ко	https://vk.com/wall-6126497_2910922	06.03.2020 21:55	199
Тюльпаны по 80 руб. Заполярный, бесплатная доставка до квартиры в течение часа. 	https://vk.com/wall-6126497_2911077	07.03.2020 08:00	199
💡Приглашаем вас посетить магазин одежды "Альбатрос". Предлагаем вам 👗платья, 👘ко	https://vk.com/wall-6126497_2911158	07.03.2020 10:00	199
Настала пора менять старые окна на качественные и современные! 💯  Компания,Макст	https://vk.com/wall-6126497_2911172	07.03.2020 10:13	200
СКИДКИ  на весь товар -50% наличиными, -40% по карте с 7 по 8 марта. Московская 	https://vk.com/wall-6126497_2911189	07.03.2020 10:29	200
	https://vk.com/wall-6126497_2911193	07.03.2020 10:34	300
	https://vk.com/wall-6126497_2911387	07.03.2020 13:24	500
Дорогие друзья, совсем скоро наступит любимый весенний праздник —Международный Ж	https://vk.com/wall-6126497_2911424	07.03.2020 14:00	199
Куплю золото-лом дорого от 1200 за грамм ! Никель ! Возможен выезд по печенгском	https://vk.com/wall-6126497_2911491	07.03.2020 15:00	100
Тюльпаны по 80 руб. Заполярный, бесплатная доставка до квартиры в течение часа. 	https://vk.com/wall-6126497_2911502	07.03.2020 15:10	199
Дорогие современные принцессы - сильные, смелые и, конечно, прекрасные. С праздн	https://vk.com/wall-6126497_2911529	07.03.2020 15:43	200
В магазине "СМЕШНЫЕ ЦЕНЫ" и "ПЛАНЕТА ОДЕЖДА ОБУВЬ" с 07.03 по 17.03 скидка 50% с	https://vk.com/wall-6126497_2911590	07.03.2020 16:38	199
Продается ежик Австралийский (белобрюхий), абсолютно ручной, уживается с любыми 	https://vk.com/wall-6126497_2911603	07.03.2020 16:56	298
[club165258295|💥💥МАГАЗИН "СЕВЕР"💥💥 ] ✅ Большое поступление аксессуаров для волос	https://vk.com/wall-6126497_2911781	07.03.2020 20:00	199
Тюльпаны по 80 руб. Заполярный, бесплатная доставка до квартиры в течение часа. 	https://vk.com/wall-6126497_2911793	07.03.2020 20:10	199
	https://vk.com/wall-6126497_2911933	07.03.2020 22:59	500
	https://vk.com/wall-6126497_2911959	07.03.2020 23:55	500
Тюльпаны по 80 руб. Заполярный, бесплатная доставка до квартиры в течение часа. 	https://vk.com/wall-6126497_2912059	08.03.2020 08:00	199
В магазин ,,Эконом класс,, в Заполярном на ул. Ленина 24 поступление нового това	https://vk.com/wall-6126497_2912102	08.03.2020 09:50	199
СКИДКИ на весь товар -50% наличиными, -40% по карте с 7 по 8 марта. Московская Я	https://vk.com/wall-6126497_2912106	08.03.2020 10:00	200
Тюльпаны по 80 руб. Заполярный, бесплатная доставка до квартиры в течение часа. 	https://vk.com/wall-6126497_2912205	08.03.2020 12:00	199
Привет всем, приглашаем в группу [club153782658|товары со Скандинавии]. По всем 	https://vk.com/wall-6126497_2912214	08.03.2020 12:10	200
Тюльпаны по 80 руб. Заполярный, бесплатная доставка до квартиры в течение часа. 	https://vk.com/wall-6126497_2912274	08.03.2020 13:07	199
Дорогие друзья, совсем скоро наступит любимый весенний праздник —Международный Ж	https://vk.com/wall-6126497_2912323	08.03.2020 14:00	199
Дорогие современные принцессы - сильные, смелые и, конечно, прекрасные. С праздн	https://vk.com/wall-6126497_2912388	08.03.2020 15:20	200
В магазине "СМЕШНЫЕ ЦЕНЫ" и "ПЛАНЕТА ОДЕЖДА ОБУВЬ" с 07.03 по 17.03 скидка 50% с	https://vk.com/wall-6126497_2912532	08.03.2020 19:00	199
Тюльпаны по 80 руб. Заполярный, бесплатная доставка до квартиры в течение часа. 	https://vk.com/wall-6126497_2912585	08.03.2020 20:10	199
В магазине "СМЕШНЫЕ ЦЕНЫ" и "ПЛАНЕТА ОДЕЖДА ОБУВЬ" с 07.03 по 17.03 скидка 50% с	https://vk.com/wall-6126497_2912914	09.03.2020 11:00	199
	https://vk.com/wall-6126497_2913470	09.03.2020 19:59	298
Предлагаю услуги педикюра https://vk.com/club183498474  - Классический с примене	https://vk.com/wall-6126497_2913513	09.03.2020 21:00	100
	https://vk.com/wall-6126497_2913858	10.03.2020 11:55	298
В магазин ,,Эконом класс,, в Заполярном на ул. Ленина 24 поступление нового това	https://vk.com/wall-6126497_2913860	10.03.2020 11:56	199
	https://vk.com/wall-6126497_2913983	10.03.2020 14:00	199
РАСПРОДАЖА детской одежды, женского и мужского белья из Европы.Скидки до 50% Н.Л	https://vk.com/wall-6126497_2914122	10.03.2020 16:18	100
📢 ПРЕДСТОИТ ПЕРЕЕЗД В ДРУГОЙ ГОРОД? ВАЖНАЯ ИНФОРМАЦИЯ ДЛЯ ВАС!   Планируя такое 	https://vk.com/wall-6126497_2914310	10.03.2020 19:00	200
В магазине "СМЕШНЫЕ ЦЕНЫ" и "ПЛАНЕТА ОДЕЖДА ОБУВЬ" с 07.03 по 17.03 скидка 50% с	https://vk.com/wall-6126497_2914323	10.03.2020 19:10	199
‼‼Магазин [club165258295|"Север"]‼‼ 💥💥 Большое поступление декоративной косметик	https://vk.com/wall-6126497_2914381	10.03.2020 20:00	199
Никель. Требуется опытный парикмахер. Условия работы индивидуальны (аренда или %	https://vk.com/wall-6126497_2914430	10.03.2020 21:04	199
🤯⚒Хотите начать ремонт и не знаете с чего начать?⚒🤯  📌 Сделайте 1-ый шаг , устан	https://vk.com/wall-6126497_2914518	10.03.2020 23:10	199
В магазине "СМЕШНЫЕ ЦЕНЫ" и "ПЛАНЕТА ОДЕЖДА ОБУВЬ" с 07.03 по 17.03 скидка 50% с	https://vk.com/wall-6126497_2914722	11.03.2020 11:00	199
В магазин,, Эконом класс,, в Заполярном на ул. Ленина 24 поступление нового това	https://vk.com/wall-6126497_2914898	11.03.2020 14:03	199
Вы хотите заказать ремонт квартиры и ищете мастеров, которые быстро и профессион	https://vk.com/wall-6126497_2915233	11.03.2020 20:22	199
Приглашаем на Народную Ярмарку ! 12 и 13 марта в ДК "Восход" п. Никель. В ассорт	https://vk.com/wall-6126497_2915268	11.03.2020 21:08	199
Уважаемые жители Печенгского р-на!!!  С 13 по 20 марта ОБВАЛ ЦЕН В [club18057406	https://vk.com/wall-6126497_2915275	11.03.2020 21:19	298
💡Приглашаем вас посетить магазин одежды "Альбатрос". Предлагаем вам 👗платья, 👘ко	https://vk.com/wall-6126497_2915536	12.03.2020 10:37	199
	https://vk.com/wall-6126497_2915640	12.03.2020 12:35	500
Приглашаем на Народную Ярмарку ! 12 и 13 марта в ДК "Восход" п. Никель. В ассорт	https://vk.com/wall-6126497_2915699	12.03.2020 13:41	199
В магазине "СМЕШНЫЕ ЦЕНЫ" и "ПЛАНЕТА ОДЕЖДА ОБУВЬ" с 07.03 по 17.03 скидка 50% с	https://vk.com/wall-6126497_2916045	12.03.2020 19:00	199
Уважаемые жители Печенгского р-на!!!  С 13 по 20 марта ОБВАЛ ЦЕН В [club18057406	https://vk.com/wall-6126497_2916058	12.03.2020 19:10	298
Приглашаем на Народную Ярмарку ! 12 и 13 марта в ДК "Восход" п. Никель. В ассорт	https://vk.com/wall-6126497_2916114	12.03.2020 19:59	199
‼‼Магазин [club165258295|"Север"]‼‼ 💥💥 Большое поступление декоративной косметик	https://vk.com/wall-6126497_2916123	12.03.2020 20:05	199
Делаю маникюр качественно, не дорого, вся информация в группе: https://vk.com/ma	https://vk.com/wall-6126497_2916130	12.03.2020 20:10	100
💡Приглашаем вас посетить магазин одежды "Альбатрос". Предлагаем вам 👗платья, 👘ко	https://vk.com/wall-6126497_2916545	13.03.2020 10:00	199
🌴Откройте все преимущества свежей обжарки🌴☕ Пополнение ассортимента свежего моло	https://vk.com/wall-6126497_2916546	13.03.2020 10:01	200
В магазине "СМЕШНЫЕ ЦЕНЫ" и "ПЛАНЕТА ОДЕЖДА ОБУВЬ" с 07.03 по 17.03 скидка 50% с	https://vk.com/wall-6126497_2916616	13.03.2020 11:00	199
Приглашаем на Народную Ярмарку ! 13 и 14 марта в ДК "Восход" п. Никель. В ассорт	https://vk.com/wall-6126497_2916652	13.03.2020 11:28	199
АКЦИЯ *новый мастер* (стоимость услуг актуальна до 1 мая). Никель. Запись по тел	https://vk.com/wall-6126497_2916691	13.03.2020 12:03	100
Сертифицированный специалист по прокалыванию ушей, хрящика, носа и т.д. Спутник,	https://vk.com/wall-6126497_2916721	13.03.2020 12:34	100
Приглашаем на Народную Ярмарку ! 13 и 14 марта в ДК "Восход" п. Никель. В ассорт	https://vk.com/wall-6126497_2916875	13.03.2020 14:22	199
🌴Откройте все преимущества свежей обжарки🌴☕ Пополнение ассортимента свежего моло	https://vk.com/wall-6126497_2916988	13.03.2020 16:00	200
	https://vk.com/wall-6126497_2916991	13.03.2020 16:02	199
В маг. РУССКАЯ КРАСАВИЦА поступление обуви Новосибирской фабрики, сезон весна. Р	https://vk.com/wall-6126497_2917099	13.03.2020 17:29	500
	https://vk.com/wall-6126497_2917154	13.03.2020 18:10	298
🔍Нужно распечатать фото?  Добро пожаловать в группу https://vk.com/club170609490	https://vk.com/wall-6126497_2917163	13.03.2020 18:15	500
Уважаемые жители Печенгского р-на!!!  С 13 по 20 марта ОБВАЛ ЦЕН В [club18057406	https://vk.com/wall-6126497_2917216	13.03.2020 19:00	298
Приглашаем на Народную Ярмарку ! 14 марта в ДК "Восход" п. Никель. В ассортимент	https://vk.com/wall-6126497_2917342	13.03.2020 20:08	199
В магазин,, Эконом класс,, в Заполярном на ул. Ленина 24 поступление нового това	https://vk.com/wall-6126497_2917387	13.03.2020 20:39	199
	https://vk.com/wall-6126497_2917473	13.03.2020 21:30	100
🤯⚒Хотите начать ремонт и не знаете с чего начать?⚒🤯  📌 Сделайте 1-ый шаг , устан	https://vk.com/wall-6126497_2917485	13.03.2020 21:39	199
Приглашаем на Народную Ярмарку ! 13 и 14 марта в ДК "Восход" п. Никель. В ассорт	https://vk.com/wall-6126497_2917581	13.03.2020 23:05	199
Вы хотите заказать ремонт квартиры и ищете мастеров, которые быстро и профессион	https://vk.com/wall-6126497_2918040	14.03.2020 12:34	199
Куплю золото-лом дорого от 1200 за грамм ! Никель ! Возможен выезд по печенгском	https://vk.com/wall-6126497_2918202	14.03.2020 15:00	100
В магазине "СМЕШНЫЕ ЦЕНЫ" и "ПЛАНЕТА ОДЕЖДА ОБУВЬ" с 07.03 по 17.03 скидка 50% с	https://vk.com/wall-6126497_2918429	14.03.2020 19:00	199
Уважаемые жители Печенгского р-на!!!  С 13 по 20 марта ОБВАЛ ЦЕН В [club18057406	https://vk.com/wall-6126497_2918441	14.03.2020 19:10	298
🔍Нужно распечатать фото?  Добро пожаловать в группу https://vk.com/club170609490	https://vk.com/wall-6126497_2918461	14.03.2020 19:38	500
Акция! До 20 марта! Скидка 50% при приобретении сертификата на курс массажа (10 	https://vk.com/wall-6126497_2918557	14.03.2020 21:04	199
В магазине "СМЕШНЫЕ ЦЕНЫ" и "ПЛАНЕТА ОДЕЖДА ОБУВЬ" с 07.03 по 17.03 скидка 50% с	https://vk.com/wall-6126497_2918947	15.03.2020 11:00	199
Девушки, предлагаю услуги: маникюр, укрепление ногтей, покрытие гель-лак. Нижнее	https://vk.com/wall-6126497_2919434	15.03.2020 17:24	100
Уважаемые жители Печенгского р-на!!!  С 13 по 20 марта ОБВАЛ ЦЕН В [club18057406	https://vk.com/wall-6126497_2919521	15.03.2020 19:00	298
‼‼Магазин [club165258295|"Север"]‼‼ 💥💥 Большое поступление декоративной косметик	https://vk.com/wall-6126497_2919585	15.03.2020 20:00	199
	https://vk.com/wall-6126497_2919732	15.03.2020 22:22	300
Никель. Сауна Заречье!  Цены:  Будние дни - 1000 час.  Пятница, суббота, воскрес	https://vk.com/wall-6126497_2920033	16.03.2020 12:03	500
В магазине "СМЕШНЫЕ ЦЕНЫ" и "ПЛАНЕТА ОДЕЖДА ОБУВЬ" с 07.03 по 17.03 скидка 50% с	https://vk.com/wall-6126497_2920576	16.03.2020 19:00	199
Продается ежик Австралийский (белобрюхий), абсолютно ручной, уживается с любыми 	https://vk.com/wall-6126497_2921564	17.03.2020 17:44	298
⚜Магазин [club141245224|Helix] приветствует наших постоянных и новых клиентов⚜ В	https://vk.com/wall-6126497_2921579	17.03.2020 18:02	200
Девушки, предлагаю услуги: маникюр, укрепление ногтей, покрытие гель-лак. Нижнее	https://vk.com/wall-6126497_2921586	17.03.2020 18:10	100
	https://vk.com/wall-6126497_2921697	17.03.2020 20:05	199
	https://vk.com/wall-6126497_2922288	18.03.2020 12:49	199
Милые дамы! Шугаринг супер сладкие цены, наращивание ресниц. Химчиска мебели. ЗА	https://vk.com/wall-6126497_2922489	18.03.2020 16:05	500
ВЫ ПРОСИЛИ, МЫ СДЕЛАЛИ! 🌸  Приглашаем вас на ФОТОДЕНЬ, 29 марта, в г.Заполярный!	https://vk.com/wall-6126497_2922507	18.03.2020 16:18	500
Федеральная служба переездов "Домовоз" предлагает всем категориям граждан свои п	https://vk.com/wall-6126497_2922674	18.03.2020 19:00	200
Спешим порадовать сказочной неделей скидок💥💥💥 Скидки от 5% до 30%🔥🔥🔥 ждём Вас в 	https://vk.com/wall-6126497_2923426	19.03.2020 13:43	298
	https://vk.com/wall-6126497_2923469	19.03.2020 14:30	199
В магазин ,,Эконом класс,, в Заполярном на ул. Ленина 24 поступление нового това	https://vk.com/wall-6126497_2923490	19.03.2020 14:53	199
Предлагаю ремонт и обслуживание компьютеров в Печенге.  - подбор, установка и за	https://vk.com/wall-6126497_2923693	19.03.2020 17:17	500
В группе [club190927849|"Детская Одежда"] в наличии https://vk.com/club190927849	https://vk.com/wall-6126497_2923852	19.03.2020 19:50	100
💥⚡❗ХИМЧИСТКА ❗⚡💥  Мы делаем КАЧЕСТВЕННУЮ ХИМЧИСТКУ мягкой мебели, кожаной мебели	https://vk.com/wall-6126497_2923860	19.03.2020 20:00	200
	https://vk.com/wall-6126497_2924036	19.03.2020 23:21	100
В группе "Детская Одежда" в наличии https://vk.com/club190927849 до конца марта 	https://vk.com/wall-6126497_2924278	20.03.2020 11:00	100
	https://vk.com/wall-6126497_2924450	20.03.2020 13:39	199
	https://vk.com/wall-6126497_2924586	20.03.2020 15:36	199
От питомника Galaxymur остались две очаровательные леопардовые бенгальские малыш	https://vk.com/wall-6126497_2924805	20.03.2020 19:00	200
Никель. Требуется опытный парикмахер. Условия работы индивидуальны (аренда или %	https://vk.com/wall-6126497_2924948	20.03.2020 21:05	199
В магазин ,,Эконом класс,, в Заполярном на ул. Ленина 24 поступление нового това	https://vk.com/wall-6126497_2925338	21.03.2020 11:13	199
	https://vk.com/wall-6126497_2925473	21.03.2020 13:04	298
Милые дамы! Шугаринг по супер сладким ценам, наращивание ресниц. Химчиска мебели	https://vk.com/wall-6126497_2925549	21.03.2020 14:00	500
Магазин Русская красавица делает распродажу зимнего товара. Скидки от 10 до 50%.	https://vk.com/wall-6126497_2925558	21.03.2020 14:09	298
В магазине [id507978342|Брусника] АКЦИЯ! При покупке вещей на сумму от 2-х тысяч	https://vk.com/wall-6126497_2925731	21.03.2020 16:42	200
‼‼Магазин [club165258295|"Север"]‼‼ 💥💥 Большое поступление декоративной косметик	https://vk.com/wall-6126497_2925959	21.03.2020 20:00	199
	https://vk.com/wall-6126497_2925960	21.03.2020 20:02	199
Уважаемые жители Печенгского района!!! Рады сообщить Вам новость, что в нашем ма	https://vk.com/wall-6126497_2926129	21.03.2020 23:30	200
Продается ежик Австралийский (белобрюхий), абсолютно ручной, уживается с любыми 	https://vk.com/wall-6126497_2926375	22.03.2020 11:18	298
Куплю золото-лом дорого от 1250 за грамм ! Никель ! Возможен выезд по Печенгском	https://vk.com/wall-6126497_2926553	22.03.2020 14:07	100
В группе "Детская Одежда" https://vk.com/club190927849 Вы можете приобрести трик	https://vk.com/wall-6126497_2926806	22.03.2020 18:24	100
Продается ежик Австралийский (белобрюхий), абсолютно ручной, уживается с любыми 	https://vk.com/wall-6126497_2926957	22.03.2020 20:10	298
Уважаемые жители Печенгского района!!! Рады сообщить Вам новость, что в нашем ма	https://vk.com/wall-6126497_2927172	22.03.2020 23:35	200
Сертифицированный специалист по прокалыванию ушей, хрящика, носа и т.д. Спутник,	https://vk.com/wall-6126497_2927523	23.03.2020 13:00	100
	https://vk.com/wall-6126497_2927632	23.03.2020 14:24	199
Заполярный, Спутник Ликвидация товара из наличия продукции Oriflame https://vk.c	https://vk.com/wall-6126497_2927647	23.03.2020 14:32	100
Куплю золото-лом дорого от 1250 за грамм ! Никель ! Возможен выезд по Печенгском	https://vk.com/wall-6126497_2928921	24.03.2020 14:50	199
	https://vk.com/wall-6126497_2929035	24.03.2020 15:59	199
В магазин ,,Эконом класс,, в Заполярном на ул. Ленина 24 поступление нового това	https://vk.com/wall-6126497_2929790	25.03.2020 08:50	199
	https://vk.com/wall-6126497_2930009	25.03.2020 12:10	199
В магазине "Русская красавица" распродажа товара! Скидки от 10 до 50%. Приглашае	https://vk.com/wall-6126497_2930094	25.03.2020 13:10	298
Никель. Сауна Заречье!  Цены:  Будние дни - 1000 час.  Пятница, суббота, воскрес	https://vk.com/wall-6126497_2930230	25.03.2020 14:51	500
Милые дамы! Шугаринг по супер сладким ценам, наращивание ресниц. Химчиска мебели	https://vk.com/wall-6126497_2930381	25.03.2020 17:28	500
В связи с закрытием магазина детской одежды "Егоза" с 26 марта действует большая	https://vk.com/wall-6126497_2930421	25.03.2020 18:25	200
🤯⚒Хотите начать ремонт и не знаете с чего начать?⚒🤯  📌 Сделайте 1-ый шаг , устан	https://vk.com/wall-6126497_2930446	25.03.2020 19:00	199
https://vk.com/windowsdoc51 🏢Пластиковые окна являются технологичным инновационн	https://vk.com/wall-6126497_2930451	25.03.2020 19:09	298
	https://vk.com/wall-6126497_2930457	25.03.2020 19:13	199
Парикмахерская  "Персей"    Все виды парикмахерских услуг:    * Женская стрижки,	https://vk.com/wall-6126497_2930477	25.03.2020 19:30	200
	https://vk.com/wall-6126497_2930503	25.03.2020 20:06	298
Никель. Требуется опытный парикмахер. Условия работы индивидуальны (аренда или %	https://vk.com/wall-6126497_2930557	25.03.2020 21:00	199
Вы хотите заказать ремонт квартиры и ищете мастеров, которые быстро и профессион	https://vk.com/wall-6126497_2930566	25.03.2020 21:10	199
Собираю заказ на Сбалансированное питание Energy diet в банках , Французское про	https://vk.com/wall-6126497_2930958	26.03.2020 11:17	200
https://vk.com/windowsdoc51 🏢Пластиковые окна являются технологичным инновационн	https://vk.com/wall-6126497_2931010	26.03.2020 12:30	298
Предлагаю ремонт и обслуживание компьютеров в Печенге.  - подбор, установка и за	https://vk.com/wall-6126497_2931141	26.03.2020 14:30	500
В магазине [id507978342| Брусника] АКЦИЯ! При покупке вещей на сумму от 2-х тыся	https://vk.com/wall-6126497_2931278	26.03.2020 17:11	200
EvgeniyaStudio в г. Заполярный:  - окрашивания волос любой сложности;  - кератин	https://vk.com/wall-6126497_2931315	26.03.2020 18:02	200
🇷🇺 ОСОБЕННОСТИ ПЕРЕЕЗДОВ ВОЕННОСЛУЖАЩИХ 🇷🇺   Вряд ли в нашей стране найдутся сем	https://vk.com/wall-6126497_2931379	26.03.2020 19:00	200
💥⚡❗ХИМЧИСТКА ❗⚡💥  Мы делаем КАЧЕСТВЕННУЮ ХИМЧИСТКУ мягкой мебели, кожаной мебели	https://vk.com/wall-6126497_2931436	26.03.2020 20:00	200
Милые дамы, не тратьте своё время на бритьё, есть много других приятных дел на ч	https://vk.com/wall-6126497_2931514	26.03.2020 21:03	199
Контроль качества продукции и сервиса, а также безопасность и здоровье наших кли	https://vk.com/wall-6126497_2931887	27.03.2020 10:30	199
	https://vk.com/wall-6126497_2931894	27.03.2020 10:34	199
Контроль качества продукции и сервиса, а также безопасность и здоровье наших кли	https://vk.com/wall-6126497_2932155	27.03.2020 14:00	199
В магазин Русская красавица поступили резиновые сапоги и детские летние костюмы.	https://vk.com/wall-6126497_2932191	27.03.2020 14:19	100
	https://vk.com/wall-6126497_2932441	27.03.2020 17:03	199
В связи с закрытием магазина детской одежды "Егоза" с 26 марта действует большая	https://vk.com/wall-6126497_2932495	27.03.2020 18:00	200
Контроль качества продукции и сервиса, а также безопасность и здоровье наших кли	https://vk.com/wall-6126497_2932509	27.03.2020 18:05	199
	https://vk.com/wall-6126497_2932585	27.03.2020 19:05	100
	https://vk.com/wall-6126497_2932698	27.03.2020 20:20	199
🔧Ремонт окон ПВХ🔧 https://vk.com/windowsdoc51 Если ваше окно внезапно вышло из с	https://vk.com/wall-6126497_2932733	27.03.2020 20:44	298
Идёт огромный спрос на продукцию NL. Санитайзеры-антисептики , биодрон, сбаланси	https://vk.com/wall-6126497_2932781	27.03.2020 21:15	200
Куплю золото-лом дорого от 1250 за грамм ! Никель ! Возможен выезд по Печенгском	https://vk.com/wall-6126497_2933445	28.03.2020 13:00	199
В магазин ,,Эконом класс,, в Заполярном на ул. Ленина 24 поступление нового това	https://vk.com/wall-6126497_2933454	28.03.2020 13:06	199
Контроль качества продукции и сервиса, а также безопасность и здоровье наших кли	https://vk.com/wall-6126497_2933527	28.03.2020 14:00	199
	https://vk.com/wall-6126497_2933690	28.03.2020 15:52	199
Ремонт квартир Кафельная плитка Потолочная плитка Поклейка обоев Подвесные потол	https://vk.com/wall-6126497_2933707	28.03.2020 16:00	200
	https://vk.com/wall-6126497_2933713	28.03.2020 16:04	199
💫ProfMaster💫 профессиональная косметика,материалы для индустрии красоты в городе	https://vk.com/wall-6126497_2933993	28.03.2020 19:55	500
🔧Ремонт окон ПВХ🔧 https://vk.com/windowsdoc51 Если ваше окно внезапно вышло из с	https://vk.com/wall-6126497_2934024	28.03.2020 20:30	298
Заполярный. Мастера с большим опытом работы сделают вам ремонт: быстро и качеств	https://vk.com/wall-6126497_2934467	29.03.2020 10:26	100
	https://vk.com/wall-6126497_2934595	29.03.2020 12:00	300
🤯⚒Хотите начать ремонт и не знаете с чего начать?⚒🤯  📌 Сделайте 1-ый шаг , устан	https://vk.com/wall-6126497_2934662	29.03.2020 12:43	199
Контроль качества продукции и сервиса, а также безопасность и здоровье наших кли	https://vk.com/wall-6126497_2934771	29.03.2020 14:00	199
🔧Ремонт окон ПВХ🔧 https://vk.com/windowsdoc51 Если ваше окно внезапно вышло из с	https://vk.com/wall-6126497_2934832	29.03.2020 15:00	298
	https://vk.com/wall-6126497_2934863	29.03.2020 15:20	500
	https://vk.com/wall-6126497_2934896	29.03.2020 15:46	199
	https://vk.com/wall-6126497_2935189	29.03.2020 19:01	199
Принимаю заказ на Биодрон -мощный противовирусный продукт !💫 Комплекс гуминовых 	https://vk.com/wall-6126497_2935416	29.03.2020 21:42	200
Вы хотите заказать ремонт квартиры и ищете мастеров, которые быстро и профессион	https://vk.com/wall-6126497_2935447	29.03.2020 22:00	199
Настала пора менять старые окна на качественные и современные! 💯  Компания,Макст	https://vk.com/wall-6126497_2935475	29.03.2020 22:45	200
	https://vk.com/wall-6126497_2935733	30.03.2020 11:00	500
	https://vk.com/wall-6126497_2935819	30.03.2020 12:21	100
🤯⚒Хотите начать ремонт и не знаете с чего начать?⚒🤯  📌 Сделайте 1-ый шаг , устан	https://vk.com/wall-6126497_2935896	30.03.2020 13:25	199
	https://vk.com/wall-6126497_2936012	30.03.2020 15:20	199
	https://vk.com/wall-6126497_2936101	30.03.2020 16:59	199
	https://vk.com/wall-6126497_2936253	30.03.2020 19:40	199
	https://vk.com/wall-6126497_2936712	31.03.2020 12:10	199
Куплю золото-лом дорого от 1250 за грамм ! Никель ! Возможен выезд по Печенгском	https://vk.com/wall-6126497_2936917	31.03.2020 15:00	199
	https://vk.com/wall-6126497_2937034	31.03.2020 16:16	100
	https://vk.com/wall-6126497_2937231	31.03.2020 18:45	199
	https://vk.com/wall-6126497_2937260	31.03.2020 19:02	199
Настала пора менять старые окна на качественные и современные! 💯  Компания,Макст	https://vk.com/wall-6126497_2937321	31.03.2020 20:00	200
Девочки 🌷🎈🌹 Я зову Вас в свой марафон по похудению 💃 С помощью сбалансированного	https://vk.com/wall-6126497_2937605	31.03.2020 23:12	200