title	start-date	start-time	end-date	end-time	hours	cost
	03.03.2020	18:00	03.03.2020	19:00	1	120
	03.03.2020	19:00	03.03.2020	20:00	1	120
	07.03.2020	18:00	07.03.2020	19:00	1	120
	07.03.2020	19:00	07.03.2020	20:00	1	120
	11.03.2020	18:00	11.03.2020	19:00	1	120
	11.03.2020	19:00	11.03.2020	20:00	1	120
	15.03.2020	18:00	15.03.2020	19:00	1	120
	15.03.2020	19:00	15.03.2020	20:00	1	120