title	url	date	cost
Парикмахер-универсал г. Заполярный. Стаж работы более 12лет❗❗❗❗❗❗❗❗❗ 💓Стрижки му	https://vk.com/wall-6126497_2905967	01.03.2020 12:00	500
Магазин [club184280787|«Карат»] поздравляет всех девушек с наступающим празднико	https://vk.com/wall-6126497_2906497	01.03.2020 19:25	500
	https://vk.com/wall-6126497_2906503	01.03.2020 19:31	199
🔧Сборка мебели и услуги "Мастер на час" в Заполярном.  Мы можем сделать 👍 Сборка	https://vk.com/wall-6126497_2906532	01.03.2020 20:05	200
	https://vk.com/wall-6126497_2907492	02.03.2020 19:30	199
Парикмахер-универсал г. Заполярный. Стаж работы более 12лет❗❗❗❗❗❗❗❗❗ 💓Стрижки му	https://vk.com/wall-6126497_2907866	03.03.2020 11:00	500
💥💥❗️❗️❗️МАГАЗИН «ПЫХ-ПЫХ» ❗️❗️❗️💥💥 🔥ОБЪЯВЛЯЕМ ТРЕЙД-ИН🔥 🌟Принеси старую чашу, ка	https://vk.com/wall-6126497_2907902	03.03.2020 11:55	199
	https://vk.com/wall-6126497_2908001	03.03.2020 14:14	199
💥💥💥 Друзья!!!💥💥💥 В преддверии женского праздника 🌷🌷🌷в магазине "АНТОШКА " акция!	https://vk.com/wall-6126497_2908214	03.03.2020 18:20	200
	https://vk.com/wall-6126497_2908222	03.03.2020 18:30	500
	https://vk.com/wall-6126497_2908254	03.03.2020 19:10	199
05.03.2020 г.   с 10.00 Г. Заполярный ( рядом с маг. Пятёрочка по ул. Юбилейная)	https://vk.com/wall-6126497_2908266	03.03.2020 19:24	500
	https://vk.com/wall-6126497_2908504	03.03.2020 23:55	300
Уважаемые жители Печенгского района!!! 🎉🎉 Спешите организовать свой весенний отд	https://vk.com/wall-6126497_2908862	04.03.2020 14:48	200
Тормозит ноутбук? Компьютер? Обращайся в сообщения этой  группы , там тебе обяза	https://vk.com/wall-6126497_2908932	04.03.2020 16:20	300
В магазине  «Альт» поступление товара! В наличии платья, блузки, толстовки и мно	https://vk.com/wall-6126497_2909128	04.03.2020 20:05	199
	https://vk.com/wall-6126497_2909216	04.03.2020 21:13	199
	https://vk.com/wall-6126497_2909236	04.03.2020 21:30	199
Девочки,мальчики заходите в группу, в наличии бижутерия на подарочки по очень пр	https://vk.com/wall-6126497_2909462	05.03.2020 09:31	100
г.Заполярный. Продаём самые вкусные сухофрукты,орехи и сладости.Доставим на дом 	https://vk.com/wall-6126497_2909577	05.03.2020 11:29	500
Мужчины, все на кухню! Скидки 5-8 марта!    Самый красивый и нежный весенний пра	https://vk.com/wall-6126497_2909670	05.03.2020 13:30	200
ЮВЕЛИРНЫЙ магазин "ЗОДИАК "Поздравляет  С праздником Весны Милых  Дам Заполярья 	https://vk.com/wall-6126497_2909776	05.03.2020 15:30	298
МЫ ОТКРЫЛИСЬ!!!    г. Заполярный   Приходите в гости к енотикам!    Стоимость по	https://vk.com/wall-6126497_2910315	06.03.2020 11:00	199
💥💥💥ЮВЕЛИРНЫЙ магазин💥💥💥                 "ЗОДИАК " Поздравляет  С праздником Весн	https://vk.com/wall-6126497_2910501	06.03.2020 14:30	298
Магазин " АНТОШКА"                     🌸Поздравляем от души 👩‍👧‍👧прекрасных мамо	https://vk.com/wall-6126497_2910646	06.03.2020 16:35	200
Дорогие  красавицы, я начинающий мастер, для отработки скорости и навыка приглаш	https://vk.com/wall-6126497_2910731	06.03.2020 18:00	298
Массаж на дому детям!г.Заполярный Мед.образование,опыт более 5ти лет https://vk.	https://vk.com/wall-6126497_2910751	06.03.2020 18:14	100
	https://vk.com/wall-6126497_2910758	06.03.2020 18:19	199
Добрый день, Милые девушки!!! Я сертифированный мастер по ресничкам!!! Приглашаю	https://vk.com/wall-6126497_2910793	06.03.2020 19:00	100
	https://vk.com/wall-6126497_2910799	06.03.2020 19:08	500
В магазине  «Альт» поступление товара! В наличии платья, блузки, толстовки и мно	https://vk.com/wall-6126497_2910832	06.03.2020 20:00	199
	https://vk.com/wall-6126497_2910833	06.03.2020 20:00	199
МЫ ОТКРЫЛИСЬ!!!    г. Заполярный   Приходите в гости к енотикам!    Стоимость по	https://vk.com/wall-6126497_2911221	07.03.2020 11:00	199
💥💥💥ЮВЕЛИРНЫЙ магазин💥💥💥                 "ЗОДИАК " Поздравляет  С праздником Весн	https://vk.com/wall-6126497_2911297	07.03.2020 12:00	298
	https://vk.com/wall-6126497_2911464	07.03.2020 14:27	300
💥💥💥ЮВЕЛИРНЫЙ магазин💥💥💥                 "ЗОДИАК " Поздравляет  С праздником Весн	https://vk.com/wall-6126497_2911712	07.03.2020 19:00	298
	https://vk.com/wall-6126497_2911782	07.03.2020 20:00	199
	https://vk.com/wall-6126497_2911879	07.03.2020 22:00	199
💥💥💥ЮВЕЛИРНЫЙ магазин💥💥💥                 "ЗОДИАК " Поздравляет  С праздником Весн	https://vk.com/wall-6126497_2912143	08.03.2020 11:00	298
МЫ ОТКРЫЛИСЬ!!!    г. Заполярный   Приходите в гости к енотикам!    Стоимость по	https://vk.com/wall-6126497_2912172	08.03.2020 11:30	199
Самые искренние пожелания и много-  много взаимной любви нашим милым мамам ,доче	https://vk.com/wall-6126497_2912330	08.03.2020 14:05	200
	https://vk.com/wall-6126497_2912415	08.03.2020 15:53	199
📢📢📢Сюрпирз! Конкурс репостов!  Сегодня 8 марта🌸 проводится стартовый розыгрыш пр	https://vk.com/wall-6126497_2912448	08.03.2020 16:55	500
	https://vk.com/wall-6126497_2912623	08.03.2020 21:15	199
МЫ ОТКРЫЛИСЬ!!!    г. Заполярный   Приходите в гости к енотикам!    Стоимость по	https://vk.com/wall-6126497_2912921	09.03.2020 11:05	199
	https://vk.com/wall-6126497_2913351	09.03.2020 17:34	199
	https://vk.com/wall-6126497_2913438	09.03.2020 19:18	500
Продажа рыбной продукции (форель охлаждённая, стейки, икра красная зернистая): 1	https://vk.com/wall-6126497_2913442	09.03.2020 19:24	500
В магазине  «Альт» поступление товара! В наличии платья, блузки, толстовки и мно	https://vk.com/wall-6126497_2913471	09.03.2020 20:00	199
	https://vk.com/wall-6126497_2913495	09.03.2020 20:37	100
МЫ ОТКРЫЛИСЬ!!!    г. Заполярный   Приходите в гости к енотикам!    Стоимость по	https://vk.com/wall-6126497_2913821	10.03.2020 11:00	199
Дорогие  красавицы, я начинающий мастер, для отработки скорости и навыка приглаш	https://vk.com/wall-6126497_2914264	10.03.2020 18:00	298
	https://vk.com/wall-6126497_2914296	10.03.2020 18:45	199
Всегда мечтала об идеальных прямых и блестящих волосах?Экономить время по утрам 	https://vk.com/wall-6126497_2914373	10.03.2020 19:49	500
МЫ ОТКРЫЛИСЬ!!!    г. Заполярный   Приходите в гости к енотикам!    Стоимость по	https://vk.com/wall-6126497_2914736	11.03.2020 11:10	199
	https://vk.com/wall-6126497_2914754	11.03.2020 11:32	500
г.Заполярный. (Завтра 12.03.2020г доставка на Никель)  Продаём самые вкусные сух	https://vk.com/wall-6126497_2915020	11.03.2020 16:11	500
	https://vk.com/wall-6126497_2915130	11.03.2020 18:28	199
	https://vk.com/wall-6126497_2915157	11.03.2020 19:01	199
РЕСТАВРАЦИЯ ВАНН ЖИДКИМ АКРИЛОМ!!! От 4500р. Материал практически без запаха!!! 	https://vk.com/wall-6126497_2915160	11.03.2020 19:06	200
Заполярный/Спутник  Аппаратный/комбинированный маникюр+покрытие гель-лак=1000р💅 	https://vk.com/wall-6126497_2915466	12.03.2020 08:55	500
	https://vk.com/wall-6126497_2915969	12.03.2020 17:39	500
	https://vk.com/wall-6126497_2916047	12.03.2020 19:00	199
В магазине  «Альт» поступление товара! В наличии платья, блузки, толстовки и мно	https://vk.com/wall-6126497_2916115	12.03.2020 20:00	199
🔧Сборка мебели и услуги "Мастер на час" в Заполярном.  Мы можем сделать 👍 Сборка	https://vk.com/wall-6126497_2916171	12.03.2020 21:00	200
МЫ ОТКРЫЛИСЬ!!!    г. Заполярный   Приходите в гости к енотикам!    Стоимость по	https://vk.com/wall-6126497_2916656	13.03.2020 11:30	199
🌸Классическое и объемное наращивание ресниц (2D, 3D). Город Заполярный! https://	https://vk.com/wall-6126497_2916712	13.03.2020 12:30	100
Сосиски -24%! 13-14 марта!    89 оригинальных блюд мы можем приготовить из наших	https://vk.com/wall-6126497_2916731	13.03.2020 12:40	200
	https://vk.com/wall-6126497_2916828	13.03.2020 13:56	500
Никель  Шиномонтаж   Проспект Гвардейский 37а (бывшая территория ДРСУ)  с 10:00 	https://vk.com/wall-6126497_2916899	13.03.2020 14:39	100
Дорогие  красавицы, я начинающий мастер, для отработки скорости и навыка приглаш	https://vk.com/wall-6126497_2917137	13.03.2020 18:00	298
	https://vk.com/wall-6126497_2918136	14.03.2020 14:00	199
	https://vk.com/wall-6126497_2918326	14.03.2020 17:17	199
	https://vk.com/wall-6126497_2918481	14.03.2020 20:00	199
Милые дамы, дорогие девушки!!!  Ухоженные руки и ноги, стали неотъемлемой частью	https://vk.com/wall-6126497_2918689	14.03.2020 23:03	500
МЫ ОТКРЫЛИСЬ!!!    г. Заполярный   Приходите в гости к енотикам!    Стоимость по	https://vk.com/wall-6126497_2918966	15.03.2020 11:10	199
	https://vk.com/wall-6126497_2919235	15.03.2020 14:30	199
💥💥❗️❗️❗️МАГАЗИН «ПЫХ-ПЫХ» ❗️❗️❗️💥💥 🔥У нас большое поступление🔥 ✅Чаши, колбы, шла	https://vk.com/wall-6126497_2919363	15.03.2020 16:14	199
	https://vk.com/wall-6126497_2919555	15.03.2020 19:30	500
г. Заполярный Продаём самые вкусные сухофрукты,орехи и сладости.Доставим на дом 	https://vk.com/wall-6126497_2919960	16.03.2020 10:36	500
16 марта в интернет-магазине ОКРАИНА ВСЕМ и НАВСЕГДА СКИДКА 20%!    Совершите за	https://vk.com/wall-6126497_2920029	16.03.2020 12:00	200
💥💥❗❗❗МАГАЗИН «ПЫХ-ПЫХ» ❗❗❗💥💥  🔥У нас большое поступление🔥  ✅Чаши, колбы, шланги,	https://vk.com/wall-6126497_2920243	16.03.2020 15:00	199
	https://vk.com/wall-6126497_2920394	16.03.2020 17:00	500
	https://vk.com/wall-6126497_2920664	16.03.2020 20:02	199
МЫ ОТКРЫЛИСЬ!!!    г. Заполярный   Приходите в гости к енотикам!    Стоимость по	https://vk.com/wall-6126497_2921164	17.03.2020 11:00	199
💥💥❗❗❗МАГАЗИН «ПЫХ-ПЫХ» ❗❗❗💥💥  🔥У нас большое поступление🔥  ✅Чаши, колбы, шланги,	https://vk.com/wall-6126497_2921291	17.03.2020 13:00	199
✨✨✨Приглашаем всех жителей Печенгского района в Салон красоты «Гламур»✨✨✨ ✅Мы на	https://vk.com/wall-6126497_2921696	17.03.2020 20:04	298
	https://vk.com/wall-6126497_2921700	17.03.2020 20:06	199
Ремонт? Автомобиль? Отпуск?  Вы можете себе это позволить!  Успейте подать заявк	https://vk.com/wall-6126497_2921714	17.03.2020 20:30	298
Сырокопченая колбаса -25%! 18-20 марта.    Настоящие сырокопченые колбасы – прод	https://vk.com/wall-6126497_2922253	18.03.2020 12:10	200
💥💥❗❗❗МАГАЗИН «ПЫХ-ПЫХ» ❗❗❗💥💥  🔥У нас большое поступление🔥  ✅Чаши, колбы, шланги,	https://vk.com/wall-6126497_2922371	18.03.2020 14:00	199
	https://vk.com/wall-6126497_2922561	18.03.2020 17:00	500
	https://vk.com/wall-6126497_2922704	18.03.2020 19:33	199
	https://vk.com/wall-6126497_2923079	19.03.2020 07:33	199
МЫ ОТКРЫЛИСЬ!!!    г. Заполярный   Приходите в гости к енотикам!    Стоимость по	https://vk.com/wall-6126497_2923254	19.03.2020 11:00	199
💥💥❗❗❗МАГАЗИН «ПЫХ-ПЫХ» ❗❗❗💥💥  🔥У нас большое поступление🔥  ✅Чаши, колбы, шланги,	https://vk.com/wall-6126497_2923411	19.03.2020 13:30	199
✨✨✨Приглашаем всех жителей Печенгского района в Салон красоты «Гламур»✨✨✨ ✅Мы на	https://vk.com/wall-6126497_2923505	19.03.2020 15:00	298
Дорогие  красавицы, я начинающий мастер, для отработки скорости и навыка приглаш	https://vk.com/wall-6126497_2923740	19.03.2020 18:00	298
💥💥❗❗❗МАГАЗИН «ПЫХ-ПЫХ» ❗❗❗💥💥  🔥У нас большое поступление🔥  ✅Чаши, колбы, шланги,	https://vk.com/wall-6126497_2924515	20.03.2020 14:30	199
	https://vk.com/wall-6126497_2924714	20.03.2020 17:26	199
Сбережения в ПЕРВОМ МУРМАНСКОМ специально ДЛЯ ПЕНСИОНЕРОВ.  Успейте оформить дог	https://vk.com/wall-6126497_2924719	20.03.2020 17:30	298
✨✨✨Приглашаем всех жителей Печенгского района в Салон красоты «Гламур»✨✨✨ ✅Мы на	https://vk.com/wall-6126497_2925506	21.03.2020 13:30	298
💥💥❗❗❗МАГАЗИН «ПЫХ-ПЫХ» ❗❗❗💥💥  🔥У нас большое поступление🔥  ✅Чаши, колбы, шланги,	https://vk.com/wall-6126497_2925584	21.03.2020 14:30	199
Студия красоты [id564352689|BIGUDI] приглашает вас на 💇🏻‍♂ стрижки детские, женс	https://vk.com/wall-6126497_2925790	21.03.2020 17:30	500
Милые дамы, дорогие девушки!!!    Ухоженные руки и ноги, стали неотъемлемой част	https://vk.com/wall-6126497_2926110	21.03.2020 23:02	500
💥💥❗❗❗МАГАЗИН «ПЫХ-ПЫХ» ❗❗❗💥💥  🔥У нас большое поступление🔥  ✅Чаши, колбы, шланги,	https://vk.com/wall-6126497_2926546	22.03.2020 14:00	199
	https://vk.com/wall-6126497_2926876	22.03.2020 19:15	199
🔧Сборка мебели и услуги "Мастер на час" в Заполярном.  Мы можем сделать 👍 Сборка	https://vk.com/wall-6126497_2926948	22.03.2020 20:00	200
	https://vk.com/wall-6126497_2927049	22.03.2020 21:53	199
Милые дамы, дорогие девушки!!!    Ухоженные руки и ноги, стали неотъемлемой част	https://vk.com/wall-6126497_2927135	22.03.2020 22:58	500
	https://vk.com/wall-6126497_2927138	22.03.2020 23:01	199
💥 СЕВЕРНАЯ ЛАВКА💥 https://vk.com/club84353722  💥ТОВАРЫ ДЛЯ РАССАДЫ💥  В НАЛИЧИИ с	https://vk.com/wall-6126497_2927627	23.03.2020 14:20	100
💥💥❗❗❗МАГАЗИН «ПЫХ-ПЫХ» ❗❗❗💥💥  🔥У нас большое поступление🔥  ✅Чаши, колбы, шланги,	https://vk.com/wall-6126497_2927687	23.03.2020 15:00	199
Хотите купить или поменять автомобиль?  С первым мурманским - все просто!  Покуп	https://vk.com/wall-6126497_2927769	23.03.2020 16:15	298
✨✨✨Приглашаем всех жителей Печенгского района в Салон красоты «Гламур»✨✨✨ ✅Мы на	https://vk.com/wall-6126497_2927949	23.03.2020 19:00	298
	https://vk.com/wall-6126497_2928667	24.03.2020 11:30	199
Любимые Варёные колбасы -25%! Всего 3 дня!    Варёную колбасу можно по праву счи	https://vk.com/wall-6126497_2928754	24.03.2020 12:30	200
💥💥❗❗❗МАГАЗИН «ПЫХ-ПЫХ» ❗❗❗💥💥  🔥У нас большое поступление🔥  ✅Чаши, колбы, шланги,	https://vk.com/wall-6126497_2928939	24.03.2020 15:00	199
В магазине «Альт» поступление товара! - Резиновые сапоги детские и женские! - Же	https://vk.com/wall-6126497_2929407	24.03.2020 20:00	199
✨✨✨Приглашаем всех жителей Печенгского района в Салон красоты «Гламур»✨✨✨ ✅Мы на	https://vk.com/wall-6126497_2930041	25.03.2020 12:30	298
	https://vk.com/wall-6126497_2930357	25.03.2020 17:02	199
В магазине  «Альт» поступление товара! - Резиновые сапоги детские и женские! - Ж	https://vk.com/wall-6126497_2930499	25.03.2020 20:00	199
Студия красоты [id564352689|BIGUDI] приглашает вас на 💇🏻‍♂ стрижки детские, женс	https://vk.com/wall-6126497_2931233	26.03.2020 16:15	500
Дорогие  красавицы, я начинающий мастер, для отработки скорости и навыка приглаш	https://vk.com/wall-6126497_2931311	26.03.2020 18:00	298
В магазине  «Альт» поступление товара! - Резиновые сапоги детские и женские! - Ж	https://vk.com/wall-6126497_2931440	26.03.2020 20:05	199
г. Заполярный, кафе "Встреча" с 27.03.2020 года закрыто для посещения. Кафе рабо	https://vk.com/wall-6126497_2932253	27.03.2020 15:03	500
	https://vk.com/wall-6126497_2933995	28.03.2020 19:55	199
💥 СЕВЕРНАЯ ЛАВКА💥 https://vk.com/club84353722  💥ПОСТЕЛЬНОЕ БЕЛЬЕ для ДЕТЕЙ и ВЗР	https://vk.com/wall-6126497_2934636	29.03.2020 12:33	100
	https://vk.com/wall-6126497_2934690	29.03.2020 13:00	199
Сбережения в ПЕРВОМ МУРМАНСКОМ специально ДЛЯ ПЕНСИОНЕРОВ.  Успейте оформить дог	https://vk.com/wall-6126497_2934791	29.03.2020 14:15	298
	https://vk.com/wall-6126497_2934833	29.03.2020 15:00	199
	https://vk.com/wall-6126497_2935016	29.03.2020 17:00	199
	https://vk.com/wall-6126497_2936216	30.03.2020 19:03	500
н.Луостари предлагаю услуги маникюра и педикюра с покрытием, так же окрашивание 	https://vk.com/wall-6126497_2937188	31.03.2020 18:16	100