title	url	date	cost
Работа_Улыбка_Радуги_2	https://vk.com/wall-6126497_3901307	01.06.2023 00:22	220
Работа_Улыбка_Радуги_2	https://vk.com/wall-6126497_3901407	01.06.2023 12:00	220
89217095675	https://vk.com/wall-6126497_3901453	01.06.2023 13:00	220
Работа_Улыбка_Радуги_2	https://vk.com/wall-6126497_3901467	01.06.2023 13:24	220
Салон_для_ресниц	https://vk.com/wall-6126497_3901486	01.06.2023 14:00	100
Работа_Улыбка_Радуги_2	https://vk.com/wall-6126497_3901575	01.06.2023 17:16	100
Работа_Улыбка_Радуги_2	https://vk.com/wall-6126497_3901605	01.06.2023 18:30	220
Работа_Улыбка_Радуги_2	https://vk.com/wall-6126497_3901647	01.06.2023 20:00	220
Александра_Карипова	https://vk.com/wall-6126497_3901938	02.06.2023 15:12	100
Работа_Улыбка_Радуги_2	https://vk.com/wall-6126497_3902046	02.06.2023 19:00	220
Работа_Улыбка_Радуги_2	https://vk.com/wall-6126497_3902317	03.06.2023 12:00	220
89217095675	https://vk.com/wall-6126497_3902354	03.06.2023 13:00	220
Салон_для_ресниц	https://vk.com/wall-6126497_3902403	03.06.2023 14:00	100
Александра_Карипова	https://vk.com/wall-6126497_3902405	03.06.2023 14:03	100
Дрм_Уюта	https://vk.com/wall-6126497_3902688	04.06.2023 07:13	500
Александра_Карипова	https://vk.com/wall-6126497_3902859	04.06.2023 14:00	100
Брови_ресницы_Заполярный	https://vk.com/wall-6126497_3902883	04.06.2023 15:02	100
Брови_ресницы_Заполярный	https://vk.com/wall-6126497_3902949	04.06.2023 17:00	100
Брови_ресницы_Заполярный	https://vk.com/wall-6126497_3903032	04.06.2023 20:05	100
Работа_Улыбка_Радуги_2	https://vk.com/wall-6126497_3903050	04.06.2023 20:48	100
Работа_Улыбка_Радуги_2	https://vk.com/wall-6126497_3903089	04.06.2023 22:23	100
Работа_Улыбка_Радуги_2	https://vk.com/wall-6126497_3903217	05.06.2023 12:00	220
Брови_ресницы_Заполярный	https://vk.com/wall-6126497_3903218	05.06.2023 12:01	100
Салон_для_ресниц	https://vk.com/wall-6126497_3903285	05.06.2023 14:00	100
Брови_ресницы_Заполярный	https://vk.com/wall-6126497_3903345	05.06.2023 16:03	100
Окна_балконы_жалюзи	https://vk.com/wall-6126497_3903435	05.06.2023 19:00	220
Брови_ресницы_Заполярный	https://vk.com/wall-6126497_3903437	05.06.2023 19:03	100
Работа_Улыбка_Радуги_2	https://vk.com/wall-6126497_3903725	06.06.2023 11:43	100
89217095675	https://vk.com/wall-6126497_3903781	06.06.2023 13:00	220
Окна_балконы_жалюзи	https://vk.com/wall-6126497_3903999	06.06.2023 19:00	220
Работа_Улыбка_Радуги_2	https://vk.com/wall-6126497_3904178	07.06.2023 10:13	100
Салон_для_ресниц	https://vk.com/wall-6126497_3904286	07.06.2023 14:00	100
Работа_Улыбка_Радуги_2	https://vk.com/wall-6126497_3904321	07.06.2023 15:27	220
Окна_балконы_жалюзи	https://vk.com/wall-6126497_3904415	07.06.2023 19:00	220
89217095675	https://vk.com/wall-6126497_3904681	08.06.2023 13:00	220
Работа_Улыбка_Радуги_2	https://vk.com/wall-6126497_3904718	08.06.2023 14:11	220
Берлога	https://vk.com/wall-6126497_3904803	08.06.2023 16:51	500
Окна_балконы_жалюзи	https://vk.com/wall-6126497_3904876	08.06.2023 19:00	220
Магазин_одежды_4_сезона	https://vk.com/wall-6126497_3904938	08.06.2023 20:30	220
Работа_Улыбка_Радуги_2	https://vk.com/wall-6126497_3905103	09.06.2023 10:15	220
Окна_балконы_жалюзи	https://vk.com/wall-6126497_3905472	09.06.2023 19:00	220
Магазин_одежды_4_сезона	https://vk.com/wall-6126497_3905512	09.06.2023 20:30	220
Работа_Улыбка_Радуги_2	https://vk.com/wall-6126497_3905520	09.06.2023 20:58	220
Работа_Улыбка_Радуги_2	https://vk.com/wall-6126497_3905585	09.06.2023 22:37	100
Работа_Улыбка_Радуги_2	https://vk.com/wall-6126497_3905746	10.06.2023 11:48	220
89217095675	https://vk.com/wall-6126497_3905776	10.06.2023 13:00	220
Работа_Улыбка_Радуги_2	https://vk.com/wall-6126497_3905802	10.06.2023 14:00	220
Работа_Улыбка_Радуги_2	https://vk.com/wall-6126497_3905915	10.06.2023 18:00	100
Окна_балконы_жалюзи	https://vk.com/wall-6126497_3905932	10.06.2023 19:00	220
Магазин_одежды_4_сезона	https://vk.com/wall-6126497_3905971	10.06.2023 20:30	220
Работа_Улыбка_Радуги_2	https://vk.com/wall-6126497_3905997	10.06.2023 21:21	100
Салон_для_ресниц	https://vk.com/wall-6126497_3906204	11.06.2023 14:00	100
Работа_Улыбка_Радуги_2	https://vk.com/wall-6126497_3906234	11.06.2023 14:41	220
Работа_Улыбка_Радуги_2	https://vk.com/wall-6126497_3906314	11.06.2023 18:00	100
Работа_Улыбка_Радуги_2	https://vk.com/wall-6126497_3906321	11.06.2023 18:26	100
Окна_балконы_жалюзи	https://vk.com/wall-6126497_3906333	11.06.2023 19:00	220
Магазин_одежды_4_сезона	https://vk.com/wall-6126497_3906382	11.06.2023 20:30	220
Окна_балконы_жалюзи	https://vk.com/wall-6126497_3906798	12.06.2023 19:00	220
Магазин_одежды_4_сезона	https://vk.com/wall-6126497_3906837	12.06.2023 20:30	220
Работа_Улыбка_Радуги_2	https://vk.com/wall-6126497_3907030	13.06.2023 12:25	220
89217095675	https://vk.com/wall-6126497_3907052	13.06.2023 13:00	220
Работа_Улыбка_Радуги_2	https://vk.com/wall-6126497_3907067	13.06.2023 13:30	220
Салон_для_ресниц	https://vk.com/wall-6126497_3907082	13.06.2023 14:00	100
Работа_Улыбка_Радуги_2	https://vk.com/wall-6126497_3907118	13.06.2023 15:14	220
Работа_Улыбка_Радуги_2	https://vk.com/wall-6126497_3907127	13.06.2023 15:36	220
Окна_балконы_жалюзи	https://vk.com/wall-6126497_3907228	13.06.2023 19:00	220
Работа_Улыбка_Радуги_2	https://vk.com/wall-6126497_3907229	13.06.2023 19:01	220
Магазин_одежды_4_сезона	https://vk.com/wall-6126497_3907263	13.06.2023 20:30	220
Работа_Улыбка_Радуги_2	https://vk.com/wall-6126497_3907569	14.06.2023 15:10	100
Работа_Улыбка_Радуги_2	https://vk.com/wall-6126497_3907672	14.06.2023 18:10	220
Окна_балконы_жалюзи	https://vk.com/wall-6126497_3907699	14.06.2023 19:00	220
Чешские_духи	https://vk.com/wall-6126497_3907727	14.06.2023 19:56	500
Магазин_одежды_4_сезона	https://vk.com/wall-6126497_3907742	14.06.2023 20:30	220
89217095675	https://vk.com/wall-6126497_3907988	15.06.2023 13:00	220
Салон_для_ресниц	https://vk.com/wall-6126497_3908023	15.06.2023 14:00	100
Работа_Улыбка_Радуги_2	https://vk.com/wall-6126497_3908087	15.06.2023 16:10	100
Работа_Улыбка_Радуги_2	https://vk.com/wall-6126497_3908185	15.06.2023 20:00	220
Магазин_одежды_4_сезона	https://vk.com/wall-6126497_3908194	15.06.2023 20:30	220
Дрм_Уюта	https://vk.com/wall-6126497_3908408	16.06.2023 12:10	500
Дрм_Уюта	https://vk.com/wall-6126497_3908409	16.06.2023 12:10	500
Работа_Улыбка_Радуги_2	https://vk.com/wall-6126497_3908535	16.06.2023 17:10	100
Работа_Улыбка_Радуги_2	https://vk.com/wall-6126497_3908559	16.06.2023 17:52	220
Магазин_одежды_4_сезона	https://vk.com/wall-6126497_3908606	16.06.2023 20:30	220
Обувь_51	https://vk.com/wall-6126497_3908653	16.06.2023 22:00	500
Магазин_Штольня	https://vk.com/wall-6126497_3908838	17.06.2023 12:02	500
Салон_для_ресниц	https://vk.com/wall-6126497_3908912	17.06.2023 14:00	100
Работа_Улыбка_Радуги_2	https://vk.com/wall-6126497_3908913	17.06.2023 14:01	220
Работа_Улыбка_Радуги_2	https://vk.com/wall-6126497_3909035	17.06.2023 18:10	100
Работа_Улыбка_Радуги_2	https://vk.com/wall-6126497_3909088	17.06.2023 20:00	220
Магазин_одежды_4_сезона	https://vk.com/wall-6126497_3909107	17.06.2023 20:30	220
Работа_Улыбка_Радуги_2	https://vk.com/wall-6126497_3909287	18.06.2023 11:27	100
Работа_Улыбка_Радуги_2	https://vk.com/wall-6126497_3909408	18.06.2023 15:20	100
89217095675	https://vk.com/wall-6126497_3909424	18.06.2023 15:45	220
Работа_Улыбка_Радуги_2	https://vk.com/wall-6126497_3909444	18.06.2023 16:31	220
Работа_Улыбка_Радуги_2	https://vk.com/wall-6126497_3909464	18.06.2023 17:10	100
Работа_Улыбка_Радуги_2	https://vk.com/wall-6126497_3909809	19.06.2023 12:28	100
Салон_для_ресниц	https://vk.com/wall-6126497_3909859	19.06.2023 14:00	100
Работа_Улыбка_Радуги_2	https://vk.com/wall-6126497_3909918	19.06.2023 15:55	100
Работа_Улыбка_Радуги_2	https://vk.com/wall-6126497_3909925	19.06.2023 16:10	100
Работа_Улыбка_Радуги_2	https://vk.com/wall-6126497_3909982	19.06.2023 17:30	220
Работа_Улыбка_Радуги_2	https://vk.com/wall-6126497_3910046	19.06.2023 20:00	220
Работа_Улыбка_Радуги_2	https://vk.com/wall-6126497_3910078	19.06.2023 21:21	220
Работа_Улыбка_Радуги_2	https://vk.com/wall-6126497_3910280	20.06.2023 12:17	220
Работа_Улыбка_Радуги_2	https://vk.com/wall-6126497_3910307	20.06.2023 12:44	100
89217095675	https://vk.com/wall-6126497_3910313	20.06.2023 13:00	220
Работа_Улыбка_Радуги_2	https://vk.com/wall-6126497_3910386	20.06.2023 15:10	100
Работа_Улыбка_Радуги_2	https://vk.com/wall-6126497_3910405	20.06.2023 15:44	220
Работа_Улыбка_Радуги_2	https://vk.com/wall-6126497_3910858	21.06.2023 16:10	100
Работа_Улыбка_Радуги_2	https://vk.com/wall-6126497_3910924	21.06.2023 19:31	220
Работа_Улыбка_Радуги_2	https://vk.com/wall-6126497_3910937	21.06.2023 20:00	220
Работа_Улыбка_Радуги_2	https://vk.com/wall-6126497_3911169	22.06.2023 12:00	220
89217095675	https://vk.com/wall-6126497_3911189	22.06.2023 13:00	220
Работа_Улыбка_Радуги_2	https://vk.com/wall-6126497_3911290	22.06.2023 17:10	100
Работа_Улыбка_Радуги_2	https://vk.com/wall-6126497_3911428	22.06.2023 22:33	220
Магазин_Штольня	https://vk.com/wall-6126497_3911458	22.06.2023 23:57	500
Работа_Улыбка_Радуги_2	https://vk.com/wall-6126497_3911636	23.06.2023 13:19	220
Работа_Улыбка_Радуги_2	https://vk.com/wall-6126497_3911709	23.06.2023 16:10	100
Магазин_Штольня	https://vk.com/wall-6126497_3911718	23.06.2023 16:21	500
Работа_Улыбка_Радуги_2	https://vk.com/wall-6126497_3911762	23.06.2023 18:10	100
Работа_Улыбка_Радуги_2	https://vk.com/wall-6126497_3911825	23.06.2023 20:01	220
Работа_Улыбка_Радуги_2	https://vk.com/wall-6126497_3911845	23.06.2023 21:33	220
89217095675	https://vk.com/wall-6126497_3912038	24.06.2023 13:00	220
Работа_Улыбка_Радуги_2	https://vk.com/wall-6126497_3912137	24.06.2023 17:10	100
Работа_Улыбка_Радуги_2	https://vk.com/wall-6126497_3912139	24.06.2023 17:17	100
Работа_Улыбка_Радуги_2	https://vk.com/wall-6126497_3912140	24.06.2023 17:18	220
Работа_Улыбка_Радуги_2	https://vk.com/wall-6126497_3912153	24.06.2023 18:00	220
Работа_Улыбка_Радуги_2	https://vk.com/wall-6126497_3912197	24.06.2023 20:15	220
Работа_Улыбка_Радуги_2	https://vk.com/wall-6126497_3912385	25.06.2023 12:42	100
Работа_Улыбка_Радуги_2	https://vk.com/wall-6126497_3912456	25.06.2023 14:48	220
Работа_Улыбка_Радуги_2	https://vk.com/wall-6126497_3912496	25.06.2023 16:10	100
Работа_Улыбка_Радуги_2	https://vk.com/wall-6126497_3912591	25.06.2023 19:30	220
Никель_поговорим_по_соседски	https://vk.com/wall-6126497_3912617	25.06.2023 20:27	500
Плюшки_Ватрушки	https://vk.com/wall-6126497_3912704	25.06.2023 23:58	500
Работа_Улыбка_Радуги_2	https://vk.com/wall-6126497_3912935	26.06.2023 15:10	100
Работа_Улыбка_Радуги_2	https://vk.com/wall-6126497_3913003	26.06.2023 18:00	220
Работа_Улыбка_Радуги_2	https://vk.com/wall-6126497_3913097	26.06.2023 20:15	220
89217095675	https://vk.com/wall-6126497_3913417	27.06.2023 14:42	220
Работа_Улыбка_Радуги_2	https://vk.com/wall-6126497_3913457	27.06.2023 16:10	100
Работа_Улыбка_Радуги_2	https://vk.com/wall-6126497_3913476	27.06.2023 16:40	220
Работа_Улыбка_Радуги_2	https://vk.com/wall-6126497_3913534	27.06.2023 18:24	220
Работа_Улыбка_Радуги_2	https://vk.com/wall-6126497_3913620	27.06.2023 20:41	220
Работа_Улыбка_Радуги_2	https://vk.com/wall-6126497_3913891	28.06.2023 14:45	220
Работа_Улыбка_Радуги_2	https://vk.com/wall-6126497_3913965	28.06.2023 17:10	100
Работа_Улыбка_Радуги_2	https://vk.com/wall-6126497_3913984	28.06.2023 18:00	220
Работа_Улыбка_Радуги_2	https://vk.com/wall-6126497_3914033	28.06.2023 20:14	220
Александра_Карипова	https://vk.com/wall-6126497_3914045	28.06.2023 20:37	100
89892335611	https://vk.com/wall-6126497_3914053	28.06.2023 21:03	500
Работа_Улыбка_Радуги_2	https://vk.com/wall-6126497_3914088	28.06.2023 22:33	220
Работа_Улыбка_Радуги_2	https://vk.com/wall-6126497_3914266	29.06.2023 12:30	100
89217095675	https://vk.com/wall-6126497_3914295	29.06.2023 13:00	220
Работа_Улыбка_Радуги_2	https://vk.com/wall-6126497_3914438	29.06.2023 18:10	100
Александра_Карипова	https://vk.com/wall-6126497_3914456	29.06.2023 19:00	100
Работа_Улыбка_Радуги_2	https://vk.com/wall-6126497_3914863	30.06.2023 17:10	100
Работа_Улыбка_Радуги_2	https://vk.com/wall-6126497_3914913	30.06.2023 19:00	100
Александра_Карипова	https://vk.com/wall-6126497_3914915	30.06.2023 19:03	100
Работа_Улыбка_Радуги_2	https://vk.com/wall-6126497_3914942	30.06.2023 20:15	220
Just_Fun	https://vk.com/wall-6126497_3915006	30.06.2023 23:48	500