title	url	date	cost
Пекарня [club192648767|"Дары востока" г. Заполярный] осуществляет доставку шашлы	https://vk.com/wall-6126497_2937881	01.04.2020 10:02	199
ХОТИТЕ НАТЯЖНОЙ ПОТОЛОК?  НУЖНА КОМПАНИЯ С ОПЫТОМ, ДОГОВОРОМ И ГАРАНТИЕЙ?  Наша 	https://vk.com/wall-6126497_2938144	01.04.2020 13:05	199
	https://vk.com/wall-6126497_2938212	01.04.2020 13:46	199
	https://vk.com/wall-6126497_2939626	02.04.2020 13:45	199
Пекарня [club192648767|Пекарня "Дары востока" г. Заполярный] осуществляет достав	https://vk.com/wall-6126497_2939976	02.04.2020 17:48	199
Ломбард.  Дадим деньги в долг под залог (низкий процент📉) 💰  Также купим золото 	https://vk.com/wall-6126497_2940521	02.04.2020 22:03	199
Пекарня [club192648767|Пекарня "Дары востока" г. Заполярный] осуществляет достав	https://vk.com/wall-6126497_2940950	03.04.2020 09:40	199
	https://vk.com/wall-6126497_2941411	03.04.2020 13:44	199
https://vk.com/magazinnikel в Магазине скидки и акции каждый день!Скидка на зимн	https://vk.com/wall-6126497_2941513	03.04.2020 14:44	100
Свежие разливные напитки! Новое поступление! Также имеются в продаже сыро-вялено	https://vk.com/wall-6126497_2941950	03.04.2020 19:25	199
Пекарня [club192648767|Пекарня "Дары востока" г. Заполярный] осуществляет достав	https://vk.com/wall-6126497_2942833	04.04.2020 09:36	199
	https://vk.com/wall-6126497_2942995	04.04.2020 10:45	199
ХОТИТЕ НАТЯЖНОЙ ПОТОЛОК?  НУЖНА КОМПАНИЯ С ОПЫТОМ, ДОГОВОРОМ И ГАРАНТИЕЙ?  Наша 	https://vk.com/wall-6126497_2943290	04.04.2020 13:24	199
	https://vk.com/wall-6126497_2943328	04.04.2020 13:43	199
	https://vk.com/wall-6126497_2944365	05.04.2020 09:20	199
Пекарня [club192648767|Пекарня "Дары востока" г. Заполярный] осуществляет достав	https://vk.com/wall-6126497_2944377	05.04.2020 09:32	199
	https://vk.com/wall-6126497_2944563	05.04.2020 11:35	199
ХОТИТЕ НАТЯЖНОЙ ПОТОЛОК?  НУЖНА КОМПАНИЯ С ОПЫТОМ, ДОГОВОРОМ И ГАРАНТИЕЙ?  Наша 	https://vk.com/wall-6126497_2944711	05.04.2020 13:05	199
	https://vk.com/wall-6126497_2944766	05.04.2020 13:42	199
🌍Сеть магазинов "Центр Медтехники" поздравляет с Всемирным днем Здоровья❗  🍀Мы ж	https://vk.com/wall-6126497_2945068	05.04.2020 17:30	200
Ломбард.  Дадим деньги в долг под залог (низкий процент📉) 💰  Также купим золото 	https://vk.com/wall-6126497_2945196	05.04.2020 19:00	199
	https://vk.com/wall-6126497_2945712	06.04.2020 11:23	199
	https://vk.com/wall-6126497_2945883	06.04.2020 13:41	199
Заполярный!!! Открылся новый автосервис по адресу:бывший ДРСУ.Виды услуг:ремонт 	https://vk.com/wall-6126497_2945917	06.04.2020 14:00	199
	https://vk.com/wall-6126497_2945998	06.04.2020 14:45	298
	https://vk.com/wall-6126497_2947206	07.04.2020 14:03	500
	https://vk.com/wall-6126497_2947524	07.04.2020 18:49	100
Свежие разливные напитки! Новое поступление! Также имеются в продаже сыро-вялено	https://vk.com/wall-6126497_2947576	07.04.2020 19:25	199
	https://vk.com/wall-6126497_2947582	07.04.2020 19:28	199
https://vk.com/magazinnikel в Магазине скидки и акции каждый день!Скидка на зимн	https://vk.com/wall-6126497_2947651	07.04.2020 20:28	100
	https://vk.com/wall-6126497_2947965	08.04.2020 09:54	199
	https://vk.com/wall-6126497_2949045	09.04.2020 12:03	199
	https://vk.com/wall-6126497_2949594	09.04.2020 20:01	298
	https://vk.com/wall-6126497_2950017	10.04.2020 09:59	199
В связи с карантином кафе-бар "У мангала" осуществляет БЕСПЛАТНУЮ доставку горяч	https://vk.com/wall-6126497_2950234	10.04.2020 12:55	199
Заполярный!!! Открылся новый автосервис по адресу:бывший ДРСУ.Виды услуг:ремонт 	https://vk.com/wall-6126497_2950381	10.04.2020 14:05	199
В связи с карантином кафе-бар "У мангала" осуществляет БЕСПЛАТНУЮ доставку горяч	https://vk.com/wall-6126497_2950682	10.04.2020 18:59	199
Ломбард.  Дадим деньги в долг под залог (низкий процент📉) 💰  Также купим золото 	https://vk.com/wall-6126497_2950687	10.04.2020 19:02	199
Свежие разливные напитки! Новое поступление! Также имеются в продаже сыро-вялено	https://vk.com/wall-6126497_2950718	10.04.2020 19:25	199
Уважаемые жители района 👪  В сентябре в Заполярном будет открытие Семейного досу	https://vk.com/wall-6126497_2950895	10.04.2020 22:02	500
	https://vk.com/wall-6126497_2951229	11.04.2020 08:59	199
В связи с карантином кафе-бар "У мангала" осуществляет БЕСПЛАТНУЮ доставку горяч	https://vk.com/wall-6126497_2951553	11.04.2020 12:59	199
ХОТИТЕ НАТЯЖНОЙ ПОТОЛОК?  НУЖНА КОМПАНИЯ С ОПЫТОМ, ДОГОВОРОМ И ГАРАНТИЕЙ?  Наша 	https://vk.com/wall-6126497_2951563	11.04.2020 13:05	199
Заполярный!!! Открылся новый автосервис по адресу:бывший ДРСУ.Виды услуг:ремонт 	https://vk.com/wall-6126497_2951640	11.04.2020 14:00	199
В связи с карантином кафе-бар "У мангала" осуществляет БЕСПЛАТНУЮ доставку горяч	https://vk.com/wall-6126497_2952039	11.04.2020 18:59	199
ХОТИТЕ НАТЯЖНОЙ ПОТОЛОК?  НУЖНА КОМПАНИЯ С ОПЫТОМ, ДОГОВОРОМ И ГАРАНТИЕЙ?  Наша 	https://vk.com/wall-6126497_2952710	12.04.2020 13:05	199
Салон много мебели работает удалённо!Напиши консультанту https://vk.com/id145954	https://vk.com/wall-6126497_2952777	12.04.2020 13:58	199
В связи с карантином кафе-бар "У мангала" осуществляет БЕСПЛАТНУЮ доставку горяч	https://vk.com/wall-6126497_2952854	12.04.2020 14:59	199
	https://vk.com/wall-6126497_2952859	12.04.2020 15:02	199
Ломбард.  Дадим деньги в долг под залог (низкий процент📉) 💰  Также купим золото 	https://vk.com/wall-6126497_2953128	12.04.2020 19:02	199
https://vk.com/club194155963  Присоединяйтесь к новой группе Много Мебели в Запо	https://vk.com/wall-6126497_2953718	13.04.2020 12:46	100
Заполярный!!! Открылся новый автосервис по адресу:бывший ДРСУ.Виды услуг:ремонт 	https://vk.com/wall-6126497_2953805	13.04.2020 14:00	199
	https://vk.com/wall-6126497_2954142	13.04.2020 20:00	199
	https://vk.com/wall-6126497_2954572	14.04.2020 09:01	199
https://vk.com/club194155963  Присоединяйтесь к новой группе Много Мебели в Запо	https://vk.com/wall-6126497_2954753	14.04.2020 12:33	100
Ломбард.  Дадим деньги в долг под залог (низкий процент📉) 💰  Также купим золото 	https://vk.com/wall-6126497_2955259	14.04.2020 19:02	199
Свежие разливные напитки! Новое поступление! Также имеются в продаже сыро-вялено	https://vk.com/wall-6126497_2955294	14.04.2020 19:25	199
	https://vk.com/wall-6126497_2955722	15.04.2020 09:01	199
ХОТИТЕ НАТЯЖНОЙ ПОТОЛОК?  НУЖНА КОМПАНИЯ С ОПЫТОМ, ДОГОВОРОМ И ГАРАНТИЕЙ?  Наша 	https://vk.com/wall-6126497_2955962	15.04.2020 13:05	199
	https://vk.com/wall-6126497_2956736	16.04.2020 09:22	199
https://vk.com/club194155963  Присоединяйтесь к новой группе Много Мебели в Запо	https://vk.com/wall-6126497_2956888	16.04.2020 12:05	100
📌Движение с комфортом ❗  🍀Акция в сети магазинов «Центр Медтехники» ❗  📌С 15 по 	https://vk.com/wall-6126497_2957044	16.04.2020 14:41	200
Ломбард.  Дадим деньги в долг под залог (низкий процент📉) 💰  Также купим золото 	https://vk.com/wall-6126497_2957306	16.04.2020 19:02	199
В связи с карантином кафе-бар "У мангала" осуществляет БЕСПЛАТНУЮ доставку горяч	https://vk.com/wall-6126497_2957910	17.04.2020 11:59	199
https://vk.com/club194155963  Присоединяйтесь к новой группе Много Мебели в Запо	https://vk.com/wall-6126497_2957919	17.04.2020 12:02	100
	https://vk.com/wall-6126497_2958026	17.04.2020 13:33	199
Заполярный!!! Открылся новый автосервис по адресу:бывший ДРСУ.Виды услуг:ремонт 	https://vk.com/wall-6126497_2958071	17.04.2020 14:00	199
В связи с карантином кафе-бар "У мангала" осуществляет БЕСПЛАТНУЮ доставку горяч	https://vk.com/wall-6126497_2958278	17.04.2020 16:59	199
Свежие разливные напитки! Новое поступление! Также имеются в продаже сыро-вялено	https://vk.com/wall-6126497_2958425	17.04.2020 19:25	199
В связи с карантином кафе-бар "У мангала" осуществляет БЕСПЛАТНУЮ доставку горяч	https://vk.com/wall-6126497_2958949	18.04.2020 11:59	199
https://vk.com/club194155963  Присоединяйтесь к новой группе Много Мебели в Запо	https://vk.com/wall-6126497_2958952	18.04.2020 12:02	100
ХОТИТЕ НАТЯЖНОЙ ПОТОЛОК?  НУЖНА КОМПАНИЯ С ОПЫТОМ, ДОГОВОРОМ И ГАРАНТИЕЙ?  Наша 	https://vk.com/wall-6126497_2959062	18.04.2020 13:05	199
	https://vk.com/wall-6126497_2959090	18.04.2020 13:18	199
Заполярный!!! Открылся новый автосервис по адресу:бывший ДРСУ.Виды услуг:ремонт 	https://vk.com/wall-6126497_2959158	18.04.2020 14:00	199
В связи с карантином кафе-бар "У мангала" осуществляет БЕСПЛАТНУЮ доставку горяч	https://vk.com/wall-6126497_2959352	18.04.2020 16:59	199
Ломбард.  Дадим деньги в долг под залог (низкий процент📉) 💰  Также купим золото 	https://vk.com/wall-6126497_2959477	18.04.2020 19:02	199
	https://vk.com/wall-6126497_2959518	18.04.2020 19:39	500
	https://vk.com/wall-6126497_2959841	19.04.2020 10:19	199
ХОТИТЕ НАТЯЖНОЙ ПОТОЛОК?  НУЖНА КОМПАНИЯ С ОПЫТОМ, ДОГОВОРОМ И ГАРАНТИЕЙ?  Наша 	https://vk.com/wall-6126497_2960006	19.04.2020 13:05	199
В связи с карантином кафе-бар "У мангала" осуществляет БЕСПЛАТНУЮ доставку горяч	https://vk.com/wall-6126497_2960075	19.04.2020 13:59	199
	https://vk.com/wall-6126497_2960907	20.04.2020 10:47	199
Если вы не едете в магазин, то магазин едет к вам!!!😎  Огромный ассортимент 👫дет	https://vk.com/wall-6126497_2960988	20.04.2020 12:22	298
Заполярный!!! Открылся новый автосервис по адресу:бывший ДРСУ.Виды услуг:ремонт 	https://vk.com/wall-6126497_2961111	20.04.2020 14:00	199
https://vk.com/club194155963  Присоединяйтесь к новой группе Много Мебели в Запо	https://vk.com/wall-6126497_2961223	20.04.2020 15:20	100
Ломбард.  Дадим деньги в долг под залог (низкий процент📉) 💰  Также купим золото 	https://vk.com/wall-6126497_2961468	20.04.2020 19:02	199
	https://vk.com/wall-6126497_2961996	21.04.2020 10:09	199
❗Уважаемые друзья❗ Сегодня мы для вас подготовили РАСПРОДАЖУ🔥 на товары компании	https://vk.com/wall-6126497_2962071	21.04.2020 11:20	500
Если вы не едете в магазин, то магазин едет к вам!!!😎  Огромный ассортимент 👫дет	https://vk.com/wall-6126497_2962114	21.04.2020 11:58	298
Свежие разливные напитки! Новое поступление! Также имеются в продаже сыро-вялено	https://vk.com/wall-6126497_2962570	21.04.2020 19:25	199
	https://vk.com/wall-6126497_2963006	22.04.2020 09:15	199
Ломбард.  Дадим деньги в долг под залог (низкий процент📉) 💰  Также купим золото 	https://vk.com/wall-6126497_2963839	22.04.2020 19:02	199
	https://vk.com/wall-6126497_2964303	23.04.2020 09:53	199
Если вы не едете в магазин, то магазин едет к вам!!!😎  Огромный ассортимент 👫дет	https://vk.com/wall-6126497_2964537	23.04.2020 12:43	298
	https://vk.com/wall-6126497_2965150	23.04.2020 20:00	298
🌺Уважаемые покупатели ❗  ✔В магазине "Центр Медтехники" имеются в продаже :  ↪ Д	https://vk.com/wall-6126497_2965190	23.04.2020 20:38	200
	https://vk.com/wall-6126497_2965483	24.04.2020 08:50	199
Заполярный!!! Открылся новый автосервис по адресу:бывший ДРСУ.Виды услуг:ремонт 	https://vk.com/wall-6126497_2965837	24.04.2020 14:00	199
Ломбард.  Дадим деньги в долг под залог (низкий процент📉) 💰  Также купим золото 	https://vk.com/wall-6126497_2966189	24.04.2020 19:02	199
Свежие разливные напитки! Новое поступление!  ❗На время карантина мы работаем в 	https://vk.com/wall-6126497_2966202	24.04.2020 19:10	199
	https://vk.com/wall-6126497_2966772	25.04.2020 10:32	199
ХОТИТЕ НАТЯЖНОЙ ПОТОЛОК?  НУЖНА КОМПАНИЯ С ОПЫТОМ, ДОГОВОРОМ И ГАРАНТИЕЙ?  Наша 	https://vk.com/wall-6126497_2966952	25.04.2020 13:05	199
Заполярный!!! Открылся новый автосервис по адресу:бывший ДРСУ.Виды услуг:ремонт 	https://vk.com/wall-6126497_2967024	25.04.2020 14:00	199
	https://vk.com/wall-6126497_2967976	26.04.2020 12:05	199
📣С 16 апреля в павильоне №40 крытого рынка в г.Заполярный стартует беспрецедентн	https://vk.com/wall-6126497_2968041	26.04.2020 12:59	500
ХОТИТЕ НАТЯЖНОЙ ПОТОЛОК?  НУЖНА КОМПАНИЯ С ОПЫТОМ, ДОГОВОРОМ И ГАРАНТИЕЙ?  Наша 	https://vk.com/wall-6126497_2968048	26.04.2020 13:05	199
Ломбард.  Дадим деньги в долг под залог (низкий процент📉) 💰  Также купим золото 	https://vk.com/wall-6126497_2968441	26.04.2020 19:02	199
	https://vk.com/wall-6126497_2968804	27.04.2020 09:03	199
Если вы не едете в магазин, то магазин едет к вам!!!😎  Огромный ассортимент 👫дет	https://vk.com/wall-6126497_2968955	27.04.2020 12:00	298
📣С 16 апреля в павильоне №40 крытого рынка в г.Заполярный стартует беспрецедентн	https://vk.com/wall-6126497_2969055	27.04.2020 13:36	500
Заполярный!!! Открылся новый автосервис по адресу:бывший ДРСУ.Виды услуг:ремонт 	https://vk.com/wall-6126497_2969084	27.04.2020 14:00	199
Уважаемые покупатели ❗  ✔В магазине "Центр Медтехники" имеются в продаже :  ↪ Об	https://vk.com/wall-6126497_2969254	27.04.2020 16:35	200
	https://vk.com/wall-6126497_2969581	27.04.2020 21:05	500
	https://vk.com/wall-6126497_2969896	28.04.2020 09:59	199
Ломбард.  Дадим деньги в долг под залог (низкий процент📉) 💰  Также купим золото 	https://vk.com/wall-6126497_2970527	28.04.2020 19:02	199
Свежие разливные напитки! Новое поступление!  ❗На время карантина мы работаем в 	https://vk.com/wall-6126497_2970536	28.04.2020 19:10	199
	https://vk.com/wall-6126497_2971403	29.04.2020 14:31	199
Зоомагазин Четыре лапы переходит в режим ОНЛАЙН, заказы принимаем в группе! http	https://vk.com/wall-6126497_2971406	29.04.2020 14:36	100
	https://vk.com/wall-6126497_2972149	30.04.2020 09:22	199
https://vk.com/club194155963  Присоединяйтесь к новой группе Много Мебели в Запо	https://vk.com/wall-6126497_2972317	30.04.2020 12:00	100
📣С 16 апреля в павильоне №40 крытого рынка в г.Заполярный стартует беспрецедентн	https://vk.com/wall-6126497_2972418	30.04.2020 13:02	500
Ломбард.  Дадим деньги в долг под залог (низкий процент📉) 💰  Также купим золото 	https://vk.com/wall-6126497_2972924	30.04.2020 19:02	199