title	start-date	start-time	end-date	end-time	hours	cost
	04.01.2021	00:00	04.01.2021	23:45	23	2000
	10.01.2021	20:00	10.01.2021	23:45	3	360
	11.01.2021	00:00	11.01.2021	09:00	9	600
	12.01.2021	16:00	12.01.2021	21:00	5	560
	16.01.2021	21:00	16.01.2021	23:00	2	240
	23.01.2021	00:00	23.01.2021	09:00	9	600
	24.01.2021	20:00	24.01.2021	21:00	1	120
	30.01.2021	00:00	30.01.2021	13:00	13	960
	30.01.2021	20:00	30.01.2021	23:45	3	360