title	url	date	cost
https://vk.com/shine_ekaterina	https://vk.com/wall-6126497_3230375	01.01.2021 15:13	500
	https://vk.com/wall-6126497_3232300	03.01.2021 15:08	500
В магазине  «Альт» весь январь (с 4.01 по 31.01) скидка 20% на ВЕСЬ ассортимент.	https://vk.com/wall-6126497_3232577	03.01.2021 20:00	199
Салон [id564352689|Бигуди] ведёт дополнительный набор мастеров 🤩 Мы приглашаем м	https://vk.com/wall-6126497_3233278	04.01.2021 16:20	500
Дорогие участники, Хочу пригласить вас в группу "Домашние товары"  https://vk.co	https://vk.com/wall-6126497_3234411	05.01.2021 19:37	100
В магазине  «Альт» весь январь (с 4.01 по 31.01) скидка 20% на ВЕСЬ ассортимент.	https://vk.com/wall-6126497_3234433	05.01.2021 20:00	199
	https://vk.com/wall-6126497_3235014	06.01.2021 15:41	500
В магазин "Мобильных аксессуаров" требуется Продавец-консультант Основные требов	https://vk.com/wall-6126497_3235616	07.01.2021 14:07	500
В магазине  «Альт» весь январь (с 4.01 по 31.01) скидка 20% на ВЕСЬ ассортимент.	https://vk.com/wall-6126497_3235966	07.01.2021 20:00	199
Заполярный и км❣️ Обаятельный Мишка Тедди🧸 и его очаровательная подружка, предла	https://vk.com/wall-6126497_3236662	08.01.2021 14:43	500
🔧Сборка мебели и услуги "Мастер на час" в Заполярном.    Мы можем сделать 👍   Сб	https://vk.com/wall-6126497_3236981	08.01.2021 20:00	200
В магазине «Альт» весь январь (с 4.01 по 31.01) скидка 20% на ВЕСЬ ассортимент. 	https://vk.com/wall-6126497_3238168	09.01.2021 20:00	199
	https://vk.com/wall-6126497_3238169	09.01.2021 20:00	298
	https://vk.com/wall-6126497_3239251	10.01.2021 21:00	298
	https://vk.com/wall-6126497_3239618	11.01.2021 11:07	298
	https://vk.com/wall-6126497_3240066	11.01.2021 19:00	298
В магазине «Альт» весь январь (с 4.01 по 31.01) скидка 20% на ВЕСЬ ассортимент. 	https://vk.com/wall-6126497_3240125	11.01.2021 20:00	199
В чем наша фишка ?  ✔Только у нас открытая кухня. Мы готовим при Вас, поэтому на	https://vk.com/wall-6126497_3240260	11.01.2021 21:44	500
	https://vk.com/wall-6126497_3240563	12.01.2021 11:00	298
ДОРОГИЕ ЖИТЕЛИ ПЕЧЕНГСКОГО РАЙОНА😉🌶 В Октябре 2021 года в городе Заполярный буде	https://vk.com/wall-6126497_3241053	12.01.2021 20:45	500
В магазине «Альт» весь январь (с 4.01 по 31.01) скидка 20% на ВЕСЬ ассортимент. 	https://vk.com/wall-6126497_3241860	13.01.2021 20:00	199
Заполярный и км❣️ Обаятельный Мишка Тедди🧸 и его очаровательная подружка, предла	https://vk.com/wall-6126497_3241922	13.01.2021 21:35	500
Милые девушки Меня зовут Флюза Я сертифицированный мастер по перманентному макия	https://vk.com/wall-6126497_3242565	14.01.2021 18:55	500
https://vk.com/imperatrica_murmansk	https://vk.com/wall-6126497_3242591	14.01.2021 19:28	500
В магазине «Альт» весь январь (с 4.01 по 31.01) скидка 20% на ВЕСЬ ассортимент. 	https://vk.com/wall-6126497_3243589	15.01.2021 20:00	199
	https://vk.com/wall-6126497_3244848	17.01.2021 14:00	199
В магазине «Альт» весь январь (с 4.01 по 31.01) скидка 20% на ВЕСЬ ассортимент. 	https://vk.com/wall-6126497_3245190	17.01.2021 20:00	199
🔧Сборка мебели и услуги "Мастер на час" в Заполярном.    Мы можем сделать 👍   Сб	https://vk.com/wall-6126497_3245194	17.01.2021 20:05	200
	https://vk.com/wall-6126497_3245820	18.01.2021 14:00	199
Ремонт мобильных телефонов📱  ✅ Планшетов  💻 ноутбуков  📺 ЖК- телевизоров    http	https://vk.com/wall-6126497_3246179	18.01.2021 20:00	199
	https://vk.com/wall-6126497_3246704	19.01.2021 14:00	199
В магазине «Альт» весь январь (с 4.01 по 31.01) скидка 20% на ВЕСЬ ассортимент. 	https://vk.com/wall-6126497_3246996	19.01.2021 20:00	199
	https://vk.com/wall-6126497_3247499	20.01.2021 13:53	500
	https://vk.com/wall-6126497_3247506	20.01.2021 14:00	199
Стенка Прага в подарок 🎁   Условия акции:  ✔️ Закажите: ➕ Диван Атланта / Атлант	https://vk.com/wall-6126497_3247661	20.01.2021 16:25	500
Ремонт мобильных телефонов📱  ✅ Планшетов  💻 ноутбуков  📺 ЖК- телевизоров    http	https://vk.com/wall-6126497_3247817	20.01.2021 19:30	199
💥💥💥Побалуйте себя и своих любимых наивкуснейшими сладостями 🍰🍩 💥💥💥Кондитерские и	https://vk.com/wall-6126497_3247899	20.01.2021 21:00	500
	https://vk.com/wall-6126497_3248370	21.01.2021 14:01	199
В магазине «Альт» весь январь (с 4.01 по 31.01) скидка 20% на ВЕСЬ ассортимент. 	https://vk.com/wall-6126497_3248712	21.01.2021 20:00	199
	https://vk.com/wall-6126497_3249335	22.01.2021 13:12	199
	https://vk.com/wall-6126497_3249577	22.01.2021 16:42	500
	https://vk.com/wall-6126497_3249812	22.01.2021 19:53	500
Кому то лень готовить😏, у кого то нет времени😩, а кто то просто не умеет😔 или не	https://vk.com/wall-6126497_3249855	22.01.2021 20:18	500
	https://vk.com/wall-6126497_3250530	23.01.2021 14:33	199
В магазине  «Альт» весь январь (с 4.01 по 31.01) скидка 20% на ВЕСЬ ассортимент.	https://vk.com/wall-6126497_3250854	23.01.2021 20:00	199
Ремонт мобильных телефонов📱  ✅ Планшетов  💻 ноутбуков  📺 ЖК- телевизоров    http	https://vk.com/wall-6126497_3250862	23.01.2021 20:10	199
	https://vk.com/wall-6126497_3251539	24.01.2021 14:13	199
Доброго времени суток! Приглашаю в сообщество по СОВМЕСТНЫМ ЗАКУПКАМ   "У пчёлки	https://vk.com/wall-6126497_3251749	24.01.2021 17:10	500
Помощь в оформлении Техосмотра(ТО/ДК), полиса ОСАГО и восстановление КБМ онлайн,	https://vk.com/wall-6126497_3251753	24.01.2021 17:17	500
🔧Сборка мебели и услуги "Мастер на час" в Заполярном.    Мы можем сделать 👍   Сб	https://vk.com/wall-6126497_3251867	24.01.2021 20:00	200
	https://vk.com/wall-6126497_3251894	24.01.2021 20:21	500
	https://vk.com/wall-6126497_3252523	25.01.2021 14:01	199
Ремонт мобильных телефонов📱  ✅ Планшетов  💻 ноутбуков  📺 ЖК- телевизоров    http	https://vk.com/wall-6126497_3252817	25.01.2021 19:30	199
В магазине  «Альт» весь январь (с 4.01 по 31.01) скидка 20% на ВЕСЬ ассортимент.	https://vk.com/wall-6126497_3252855	25.01.2021 20:00	199
В салоне красоты по адресу г. Заполчрный ул. Юбилейная 14 сдаются кабинеты и мес	https://vk.com/wall-6126497_3252895	25.01.2021 20:30	298
	https://vk.com/wall-6126497_3253303	26.01.2021 11:49	500
	https://vk.com/wall-6126497_3253429	26.01.2021 14:02	199
https://vk.com/realtour51  г.Заполярный, ул. Космонавтов д.2 оф.21	https://vk.com/wall-6126497_3253582	26.01.2021 16:57	200
Дорогие родители!  Если ваши дети всегда мечтали научиться играть на гитаре, а м	https://vk.com/wall-6126497_3254312	27.01.2021 13:49	500
В салоне красоты по адресу г. Заполчрный ул. Юбилейная 14 сдаются кабинеты и мес	https://vk.com/wall-6126497_3254647	27.01.2021 18:30	298
🎯ПРИГЛАШАЮ В МАРАФОН ПО ПОХУДЕНИЮ   2 февраля стартует марафон похудения Smart C	https://vk.com/wall-6126497_3254749	27.01.2021 19:42	200
В магазине  «Альт» весь январь (с 4.01 по 31.01) скидка 20% на ВЕСЬ ассортимент.	https://vk.com/wall-6126497_3254763	27.01.2021 20:00	199
ДОБРЫЙ ВЕЧЕР, ДРУЗЬЯ !!!  В наличии: Печень трески банка 0,5 570₽ Форель морская	https://vk.com/wall-6126497_3254862	27.01.2021 21:18	500
Ремонт мобильных телефонов📱  ✅ Планшетов  💻 ноутбуков  📺 ЖК- телевизоров    http	https://vk.com/wall-6126497_3255719	28.01.2021 20:00	199
https://vk.com/imperatrica_murmansk	https://vk.com/wall-6126497_3255870	28.01.2021 22:20	500
	https://vk.com/wall-6126497_3256113	29.01.2021 10:58	500
Заполярный. Если вам необходимо уехать в отпуск/командировку или по каким-либо д	https://vk.com/wall-6126497_3256539	29.01.2021 17:56	500
В салоне красоты по адресу г. Заполчрный ул. Юбилейная 14 сдаются кабинеты и мес	https://vk.com/wall-6126497_3256611	29.01.2021 19:00	298
В магазине  «Альт» скидка 50% на всю БЫТОВУЮ ТЕХНИКУ!  Ждём Вас по адресу: г.Зап	https://vk.com/wall-6126497_3256671	29.01.2021 19:55	199
В магазине  «Альт» весь январь (с 4.01 по 31.01) скидка 20% на ВЕСЬ ассортимент.	https://vk.com/wall-6126497_3256683	29.01.2021 20:00	199
Выиграйте крутые призы от Салона Красоты Гвардейский24а!    Условия очень просты	https://vk.com/wall-6126497_3257092	29.01.2021 22:37	500
	https://vk.com/wall-6126497_3257477	30.01.2021 12:05	500
	https://vk.com/wall-6126497_3257525	30.01.2021 13:00	199
"Много Мебели" приглашает за покупками! Осталось всего 2 дня действующих акций и	https://vk.com/wall-6126497_3257605	30.01.2021 14:21	500
Выиграйте крутые призы от Салона Красоты Гвардейский24а!    Условия очень просты	https://vk.com/wall-6126497_3257698	30.01.2021 16:00	500
31.01.21 с 14.00 до 16.00 в районе совхоза Северный прогулки на лошади. Вопросы 	https://vk.com/wall-6126497_3257744	30.01.2021 16:40	100
	https://vk.com/wall-6126497_3257827	30.01.2021 18:08	500
Ремонт мобильных телефонов📱  ✅ Планшетов  💻 ноутбуков  📺 ЖК- телевизоров    http	https://vk.com/wall-6126497_3257875	30.01.2021 19:00	199
В магазине  «Альт» скидка 50% на всю БЫТОВУЮ ТЕХНИКУ!  Ждём Вас по адресу: г.Зап	https://vk.com/wall-6126497_3257941	30.01.2021 20:00	199
	https://vk.com/wall-6126497_3258459	31.01.2021 14:00	199
СБАЛАНСИРОВАННОЕ ПИТАНИЕ ИЗ ФРАНЦИИ  СО СКИДКОЙ 10%🌞  Собираю баночки , заказыва	https://vk.com/wall-6126497_3258610	31.01.2021 16:59	200
В салоне красоты по адресу г. Заполярный, ул. Юбилейная 14 сдаются кабинеты и ме	https://vk.com/wall-6126497_3258652	31.01.2021 17:30	298
В магазине  «Альт» весь январь (с 4.01 по 31.01) скидка 20% на ВЕСЬ ассортимент.	https://vk.com/wall-6126497_3258808	31.01.2021 20:00	199
🔧Сборка мебели и услуги "Мастер на час" в Заполярном.    Мы можем сделать 👍   Сб	https://vk.com/wall-6126497_3258811	31.01.2021 20:05	200
Мастерская"Leather Studio 2020" предлагает услуги по ремонту салона и сидений ав	https://vk.com/wall-6126497_3258840	31.01.2021 20:30	500