title	url	date	cost	comment
Кафе Шаверма (Заполярный, напротив стоматологии)  расширяет ассортимент и пригла	https://vk.com/wall-6126497_2493344	01.03.2019 00:02	200	
Живые розы в колбе - отличный подарок к 8 марта. Остались синие, белые и бирюзов	https://vk.com/wall-6126497_2493621	01.03.2019 11:40	100	
	https://vk.com/wall-6126497_2493665	01.03.2019 12:00	0	
	https://vk.com/wall-6126497_2493934	01.03.2019 15:19	180	
Грузоперевозки по г. Заполярный.добавляйтесь в группу  https://vk.com/club178868	https://vk.com/wall-6126497_2493963	01.03.2019 15:49	100	
[club101622797|Все виды сантехнических работ.] Быстро, качественно, недорого.  Г	https://vk.com/wall-6126497_2494050	01.03.2019 17:00	200	
Корейская косметика в Заполярном в наличии и на заказ!  Цены ниже чем в интернет	https://vk.com/wall-6126497_2494090	01.03.2019 17:30	200	
Мёд со своей пасеки ;цветочный:0,5 литра-300р,1 литр -500р,3 литра -1450р ,гречи	https://vk.com/wall-6126497_2494168	01.03.2019 18:30	200	
Кафе Шаверма (Заполярный, напротив стоматологии) расширяет ассортимент и приглаш	https://vk.com/wall-6126497_2494190	01.03.2019 18:45	200	
❗❗❗Внимание❗❗❗  ❄❄❄ФИНАЛЬНАЯ РАСПРОДАЖА ЗИМНЕЙ ОБУВИ!!!❄❄❄  🔥🔥🔥🔥СКИДКА 50% НА ЗИ	https://vk.com/wall-6126497_2494310	01.03.2019 20:00	200	
	https://vk.com/wall-6126497_2494356	01.03.2019 20:34	300	
	https://vk.com/wall-6126497_2494416	01.03.2019 21:16	300	
Ломбард.  Дадим деньги в долг под залог (низкий процент📉) 💰  Также купим золото 	https://vk.com/wall-6126497_2494487	01.03.2019 22:03	0	
	https://vk.com/wall-6126497_2494787	02.03.2019 11:04	300	
❗❗❗Внимание❗❗❗  ❄❄❄ФИНАЛЬНАЯ РАСПРОДАЖА ЗИМНЕЙ ОБУВИ!!!❄❄❄  🔥🔥🔥🔥СКИДКА 50% НА ЗИ	https://vk.com/wall-6126497_2494846	02.03.2019 12:00	200	
	https://vk.com/wall-6126497_2494859	02.03.2019 12:21	300	
	https://vk.com/wall-6126497_2494880	02.03.2019 12:36	0	
Грузоперевозки по г. Заполярный.сборный груз https://vk.com/club178868186 Звонит	https://vk.com/wall-6126497_2494991	02.03.2019 14:01	100	
	https://vk.com/wall-6126497_2495065	02.03.2019 15:08	300	
Пицца Домашняя - лучшее блюдо, чтобы порадовать своих домочадцев!   Чтобы пригот	https://vk.com/wall-6126497_2495191	02.03.2019 17:00	200	
Мёд со своей пасеки ;цветочный:0,5 литра-300р,1 литр -500р,3 литра -1450р ,гречи	https://vk.com/wall-6126497_2495362	02.03.2019 20:00	200	
	https://vk.com/wall-6126497_2495544	02.03.2019 22:53	300	
В магазине одежды "Альбатрос" поступление нового товара! Мы находимся по адресу:	https://vk.com/wall-6126497_2495596	02.03.2019 23:48	200	
В магазине одежды "Альбатрос" поступление нового товара! Мы находимся по адресу:	https://vk.com/wall-6126497_2495765	03.03.2019 10:00	200	
	https://vk.com/wall-6126497_2495805	03.03.2019 10:57	0	
	https://vk.com/wall-6126497_2495959	03.03.2019 12:43	200	
Уважаемые клиенты!                                                              	https://vk.com/wall-6126497_2496028	03.03.2019 13:30	200	клиента обслуживают несколько модераторов: Дмитрий Дубов, Елена Ушакова
	https://vk.com/wall-6126497_2496092	03.03.2019 14:27	300	
	https://vk.com/wall-6126497_2496106	03.03.2019 14:35	300	
Приглашаем вас вступить в группу Совместных покупок https://vk.com/club175177808	https://vk.com/wall-6126497_2496119	03.03.2019 14:45	100	
🔥АКЦИЯ🔥 В преддверии 🌺8 МАРТА🌺 запускаю АКЦИЮ! "✔ С ВАС 700 РУБЛЕЙ✔"  Акция прод	https://vk.com/wall-6126497_2496136	03.03.2019 15:00	200	
"Если душа требует праздника уже сейчас, порадуйте себя вкусной пиццей! Просто т	https://vk.com/wall-6126497_2496219	03.03.2019 16:23	200	
🔧Сборка мебели и услуги "Мастер на час" в Заполярном.  Мы можем сделать 👍  Сборк	https://vk.com/wall-6126497_2496227	03.03.2019 16:31	200	
	https://vk.com/wall-6126497_2496463	03.03.2019 19:37	300	
❗❗❗Внимание❗❗❗  ❄❄❄ФИНАЛЬНАЯ РАСПРОДАЖА ЗИМНЕЙ ОБУВИ!!!❄❄❄  🔥🔥🔥🔥СКИДКА 50% НА ЗИ	https://vk.com/wall-6126497_2496488	03.03.2019 20:00	200	
Мёд со своей пасеки ;цветочный:0,5 литра-300р,1 литр -500р,3 литра -1450р ,гречи	https://vk.com/wall-6126497_2496538	03.03.2019 20:22	200	
Ребята, ГОТОВА каждому помочь с подарками на 8 марта ! ❤️  Кто ещё не успел/не п	https://vk.com/wall-6126497_2496814	03.03.2019 22:39	200	
	https://vk.com/wall-6126497_2497113	04.03.2019 10:10	180	
❗❗❗Внимание❗❗❗  ❄❄❄ФИНАЛЬНАЯ РАСПРОДАЖА ЗИМНЕЙ ОБУВИ!!!❄❄❄  🔥🔥🔥🔥СКИДКА 50% НА ЗИ	https://vk.com/wall-6126497_2497249	04.03.2019 12:00	200	
	https://vk.com/wall-6126497_2497281	04.03.2019 12:19	0	
	https://vk.com/wall-6126497_2497382	04.03.2019 13:30	300	
❄❄❄Уважаемые жители Мурманской области!❄❄❄  У вас есть уникальная возможность бы	https://vk.com/wall-6126497_2497457	04.03.2019 14:38	200	
Красотки приглашаю Вас к себе на маникюр и покрытие гель лаком.19км. 89211550178	https://vk.com/wall-6126497_2497702	04.03.2019 18:00	200	
🔥АКЦИЯ🔥 В преддверии 🌺8 МАРТА🌺 запускаю АКЦИЮ! "✔ С ВАС 700 РУБЛЕЙ✔"  Акция прод	https://vk.com/wall-6126497_2497769	04.03.2019 18:53	200	
Мёд со своей пасеки ;цветочный:0,5 литра-300р,1 литр -500р,3 литра -1450р ,гречи	https://vk.com/wall-6126497_2497815	04.03.2019 19:20	200	
К 8 марта будет грудинка горячего копчения.Натуральное копчение,ольховая щепа,ни	https://vk.com/wall-6126497_2497887	04.03.2019 20:20	200	
	https://vk.com/wall-6126497_2497905	04.03.2019 20:30	300	
	https://vk.com/wall-6126497_2498079	04.03.2019 22:18	300	
Все виды сантехнических работ.  Быстро, качественно, недорого.  Гарантия, качест	https://vk.com/wall-6126497_2498695	05.03.2019 14:00	200	
ТРОЙНОЙ УДАР ПО ГОЛОДУ!    Более двух килограммов пиццы на любой вкус по привлек	https://vk.com/wall-6126497_2498787	05.03.2019 15:08	200	
	https://vk.com/wall-6126497_2498947	05.03.2019 17:10	300	
🌷Мужчины, все на кухню! Скидки 5-7 марта! 🌷  Самый красивый и нежный весенний пр	https://vk.com/wall-6126497_2498997	05.03.2019 18:00	200	
В магазине «Альт» поступление товара!!!🎉🎉🎉 - Платья праздничные и повседневные! 	https://vk.com/wall-6126497_2499050	05.03.2019 18:45	200	
Мёд со своей пасеки ;цветочный:0,5 литра-300р,1 литр -500р,3 литра -1450р ,гречи	https://vk.com/wall-6126497_2499110	05.03.2019 19:30	200	
❗❗❗Внимание❗❗❗  ❄❄❄ФИНАЛЬНАЯ РАСПРОДАЖА ЗИМНЕЙ ОБУВИ!!!❄❄❄  🔥🔥🔥🔥СКИДКА 50% НА ЗИ	https://vk.com/wall-6126497_2499144	05.03.2019 20:00	200	
[club178868186|Грузоперевозки по г.Заполярный и Печенгскому р-ну.] Бережно перев	https://vk.com/wall-6126497_2499330	05.03.2019 22:28	200	
	https://vk.com/wall-6126497_2499614	06.03.2019 10:00	300	
❗❗❗Внимание❗❗❗  ❄❄❄ФИНАЛЬНАЯ РАСПРОДАЖА ЗИМНЕЙ ОБУВИ!!!❄❄❄  🔥🔥🔥🔥СКИДКА 50% НА ЗИ	https://vk.com/wall-6126497_2499733	06.03.2019 12:00	200	
Дорогие друзья, совсем скоро наступит любимый весенний праздник —Международный Ж	https://vk.com/wall-6126497_2499947	06.03.2019 14:55	200	
Все виды сантехнических работ.  Быстро, качественно, недорого.  Гарантия, качест	https://vk.com/wall-6126497_2499962	06.03.2019 15:00	200	
Большие скидки в магазине «Смешные цены» с 06.03 по 10.03 (Никель,Спортивная,12)	https://vk.com/wall-6126497_2500298	06.03.2019 17:45	200	
Большие скидки в магазине «Московская Ярмарка» с 06.03 по 10.03 (Заполярный,Лени	https://vk.com/wall-6126497_2500301	06.03.2019 17:46	200	
	https://vk.com/wall-6126497_2500343	06.03.2019 18:23	300	
Мёд со своей пасеки ;цветочный:0,5 литра-300р,1 литр -500р,3 литра -1450р ,гречи	https://vk.com/wall-6126497_2500459	06.03.2019 19:30	200	
Большие скидки в магазине «Смешные цены» с 06.03 по 10.03 (Никель,Спортивная,12)	https://vk.com/wall-6126497_2501122	07.03.2019 11:00	200	
Большие скидки в магазине «Московская Ярмарка» с 06.03 по 10.03 (Заполярный,Лени	https://vk.com/wall-6126497_2501135	07.03.2019 11:20	200	
В продаже Шотландские чистокровные котики.Ласковые и нежные мальчишки.Д.р.22.11.	https://vk.com/wall-6126497_2501208	07.03.2019 12:20	200	
Ломбард.  Дадим деньги в долг под залог (низкий процент📉) 💰  Также купим золото 	https://vk.com/wall-6126497_2501296	07.03.2019 13:21	0	
Устанавливаем домофоны. Берем на техническое обслуживание домофоны : 15-20 кварт	https://vk.com/wall-6126497_2501440	07.03.2019 14:58	200	
	https://vk.com/wall-6126497_2501500	07.03.2019 15:30	300	
	https://vk.com/wall-6126497_2501527	07.03.2019 16:00	0	
Кафе Шаверма (Заполярный, напротив стоматологии) расширяет ассортимент и приглаш	https://vk.com/wall-6126497_2501731	07.03.2019 18:45	200	
❗❗❗Внимание❗❗❗  ❄❄❄ФИНАЛЬНАЯ РАСПРОДАЖА ЗИМНЕЙ ОБУВИ!!!❄❄❄  🔥🔥🔥🔥СКИДКА 50% НА ЗИ	https://vk.com/wall-6126497_2501809	07.03.2019 20:00	200	
	https://vk.com/wall-6126497_2501839	07.03.2019 20:30	300	
Уважаемые клиенты!  Вы не можете определиться с подарком для своих близких???К п	https://vk.com/wall-6126497_2502028	08.03.2019 00:06	200	клиента обслуживают несколько модераторов: Дмитрий Дубов, Елена Ушакова
	https://vk.com/wall-6126497_2502198	08.03.2019 10:00	300	
Большие скидки в магазине «Смешные цены» с 06.03 по 10.03 (Никель,Спортивная,12)	https://vk.com/wall-6126497_2502262	08.03.2019 11:00	200	
Большие скидки в магазине «Московская Ярмарка» с 06.03 по 10.03 (Заполярный,Лени	https://vk.com/wall-6126497_2502278	08.03.2019 11:20	200	
	https://vk.com/wall-6126497_2502319	08.03.2019 12:00	300	клиента обслуживают несколько модераторов: Дмитрий Дубов, Елена Ушакова
Оформите заказ специального набора для праздника! Закажите с бесплатной доставко	https://vk.com/wall-6126497_2502345	08.03.2019 12:29	200	
г.Заполярный, ул. Бабикова, 14 тел 89210381122, п.Никель, ул. Бредова, 15 тел 89	https://vk.com/wall-6126497_2502347	08.03.2019 12:31	200	клиента обслуживают несколько модераторов: Дмитрий Дубов, Елена Ушакова
	https://vk.com/wall-6126497_2502585	08.03.2019 16:12	0	
📞 89009407600 [id486486806|Орхидея Перманент]	https://vk.com/wall-6126497_2502590	08.03.2019 16:21	200	
ЗОМБ завершает выступление в клубе  Pin-Up и  выезжает в Заполярный,  клуб  “JAM	https://vk.com/wall-6126497_2502927	08.03.2019 21:31	0	
	https://vk.com/wall-6126497_2503156	09.03.2019 09:42	200	
Большие скидки в магазине «Смешные цены» с 06.03 по 10.03 (Никель,Спортивная,12)	https://vk.com/wall-6126497_2503201	09.03.2019 11:00	200	
	https://vk.com/wall-6126497_2503207	09.03.2019 11:03	0	
Большие скидки в магазине «Московская Ярмарка» с 06.03 по 10.03 (Заполярный,Лени	https://vk.com/wall-6126497_2503232	09.03.2019 11:20	200	
Надоела холодная зима, хочется чего-нибудь легкого летнего и экзотического?   То	https://vk.com/wall-6126497_2503243	09.03.2019 11:32	200	
	https://vk.com/wall-6126497_2503850	09.03.2019 20:14	300	
Большие скидки в магазине «Смешные цены» с 06.03 по 10.03 (Никель,Спортивная,12)	https://vk.com/wall-6126497_2504340	10.03.2019 11:00	200	
Большие скидки в магазине «Московская Ярмарка» с 06.03 по 10.03 (Заполярный,Лени	https://vk.com/wall-6126497_2504367	10.03.2019 11:20	200	
	https://vk.com/wall-6126497_2504449	10.03.2019 12:29	0	
Приглашаем вас вступить в группу Совместных покупок https://vk.com/club175177808	https://vk.com/wall-6126497_2504560	10.03.2019 14:11	100	
🔧Сборка мебели и услуги "Мастер на час" в Заполярном.  Мы можем сделать 👍  Сборк	https://vk.com/wall-6126497_2504744	10.03.2019 16:59	200	
Большие скидки в магазине «Смешные цены»(Никель,Спортивная,12) продолжаются до 1	https://vk.com/wall-6126497_2505512	11.03.2019 12:05	200	
Большие скидки в магазине «Московская Ярмарка» (Заполярный,Ленина,33) продолжают	https://vk.com/wall-6126497_2505545	11.03.2019 12:25	200	
	https://vk.com/wall-6126497_2505715	11.03.2019 14:18	300	
Пицца «Холостяк» – огромная пицца с большим количеством начинки придется по вкус	https://vk.com/wall-6126497_2505781	11.03.2019 15:00	200	
Мёд со своей пасеки ;цветочный:0,5 литра-300р,1 литр -500р,3 литра -1450р ,гречи	https://vk.com/wall-6126497_2505835	11.03.2019 15:42	200	
[id330497398|Юлия Федотова]	https://vk.com/wall-6126497_2505959	11.03.2019 17:13	200	
Предоставляю услуги массажа и шугаринга. ✔Детский массаж.  ✔Массаж при плоскосто	https://vk.com/wall-6126497_2506060	11.03.2019 18:30	200	
Вы хотите, чтобы Ваш ребенок: Раскрыл свои таланты и развил способности? Получил	https://vk.com/wall-6126497_2506304	11.03.2019 21:48	200	
Ломбард.  Дадим деньги в долг под залог (низкий процент📉) 💰  Также купим золото 	https://vk.com/wall-6126497_2506604	12.03.2019 09:21	0	
Большие скидки в магазине «Московская Ярмарка» (Заполярный,Ленина,33) продолжают	https://vk.com/wall-6126497_2506792	12.03.2019 11:20	200	
Большие скидки в магазине «Смешные цены»(Никель,Спортивная,12) продолжаются до 1	https://vk.com/wall-6126497_2506861	12.03.2019 12:05	200	
В магазине одежды "Альбатрос" весенняя распродажа летних платьев, скидка 30%. Мы	https://vk.com/wall-6126497_2507090	12.03.2019 14:23	200	
Пицца Домашняя - лучшее блюдо, чтобы порадовать своих домочадцев!   Чтобы пригот	https://vk.com/wall-6126497_2507111	12.03.2019 14:34	200	
	https://vk.com/wall-6126497_2507300	12.03.2019 16:40	300	
Мёд со своей пасеки ;цветочный:0,5 литра-300р,1 литр -500р,3 литра -1450р ,гречи	https://vk.com/wall-6126497_2507341	12.03.2019 17:05	200	
	https://vk.com/wall-6126497_2507578	12.03.2019 20:28	300	
Большие скидки в магазине «Московская Ярмарка» (Заполярный,Ленина,33) продолжают	https://vk.com/wall-6126497_2508010	13.03.2019 10:15	200	
	https://vk.com/wall-6126497_2508114	13.03.2019 11:41	0	
Большие скидки в магазине «Смешные цены»(Никель,Спортивная,12) продолжаются до 1	https://vk.com/wall-6126497_2508126	13.03.2019 11:55	200	
	https://vk.com/wall-6126497_2508488	13.03.2019 17:10	300	
💥 СЕВЕРНАЯ ЛАВКА💥 https://vk.com/club84353722  💥 ГОТОВИМСЯ К ЛЕТУ 💥 ТОВАРЫ для К	https://vk.com/wall-6126497_2508631	13.03.2019 18:50	100	
Мёд со своей пасеки ;цветочный:0,5 литра-300р,1 литр -500р,3 литра -1450р ,гречи	https://vk.com/wall-6126497_2508651	13.03.2019 19:05	200	
В магазине одежды "Альбатрос" весенняя распродажа летних платьев, скидка 30%. Мы	https://vk.com/wall-6126497_2508881	13.03.2019 22:00	200	
	https://vk.com/wall-6126497_2508937	13.03.2019 22:48	150	
	https://vk.com/wall-6126497_2508980	13.03.2019 23:50	300	
	https://vk.com/wall-6126497_2508989	14.03.2019 00:04	300	
В магазине одежды "Альбатрос" весенняя распродажа летних платьев, скидка 30%. Мы	https://vk.com/wall-6126497_2509191	14.03.2019 10:00	200	
Большие скидки в магазине «Московская Ярмарка» (Заполярный,Ленина,33) продолжают	https://vk.com/wall-6126497_2509210	14.03.2019 10:10	200	
Большие скидки в магазине «Смешные цены»(Никель,Спортивная,12) продолжаются до 1	https://vk.com/wall-6126497_2509297	14.03.2019 11:30	200	
Дорогие женщины!!!  15 и 16 марта (пятница и суббота) в ДК г.Заполярного состоит	https://vk.com/wall-6126497_2509485	14.03.2019 13:56	200	
"Пицца 4 в 1 - ГРАНД КАРНЕ   Если у вас большая семья, как и семья Моретти, и вы	https://vk.com/wall-6126497_2509494	14.03.2019 14:00	200	
Дорогие женщины!!!  15 и 16 марта (пятница и суббота) в ДК г.Заполярного состоит	https://vk.com/wall-6126497_2509767	14.03.2019 17:00	200	
🔥АКЦИЯ🔥  "✔ С ВАС 700 РУБЛЕЙ✔"  Продлится до конца марта . Успейте записаться , 	https://vk.com/wall-6126497_2510044	14.03.2019 19:11	200	
Мёд со своей пасеки ;цветочный:0,5 литра-300р,1 литр -500р,3 литра -1450р ,гречи	https://vk.com/wall-6126497_2510307	14.03.2019 21:05	200	
Дорогие женщины!!!  15 и 16 марта (пятница и суббота) в ДК г.Заполярного состоит	https://vk.com/wall-6126497_2510656	15.03.2019 09:00	200	
Большие скидки в магазине «Московская Ярмарка» (Заполярный,Ленина,33) продолжают	https://vk.com/wall-6126497_2510787	15.03.2019 10:45	200	
Большие скидки в магазине «Смешные цены»(Никель,Спортивная,12) продолжаются до 1	https://vk.com/wall-6126497_2510820	15.03.2019 11:05	200	
Уважаемые жители Мурманской области🌸  В офисе Ростелеком новое поступление Смарт	https://vk.com/wall-6126497_2510921	15.03.2019 12:24	200	
	https://vk.com/wall-6126497_2511159	15.03.2019 15:17	0	
	https://vk.com/wall-6126497_2511260	15.03.2019 16:36	300	клиента обслуживают несколько модераторов: Дмитрий Дубов, Валерий Фатхуллин
	https://vk.com/wall-6126497_2511357	15.03.2019 18:00	300	
Планируешь встречу с друзьями? Тогда тебе понадобится набор для большой компании	https://vk.com/wall-6126497_2511427	15.03.2019 18:48	200	
💥 СЕВЕРНАЯ ЛАВКА💥 https://vk.com/club84353722  💥 НОВЫЕ ТОВАРЫ 💥 ИГРУШКИ 💥  В НАЛ	https://vk.com/wall-6126497_2511507	15.03.2019 19:49	100	
	https://vk.com/wall-6126497_2511544	15.03.2019 20:13	150	
	https://vk.com/wall-6126497_2511555	15.03.2019 20:20	0	
Мёд со своей пасеки ;цветочный:0,5 литра-300р,1 литр -500р,3 литра -1450р ,гречи	https://vk.com/wall-6126497_2511772	15.03.2019 23:05	200	
	https://vk.com/wall-6126497_2511840	16.03.2019 00:35	0	
Мёд со своей пасеки ;цветочный:0,5 литра-300р,1 литр -500р,3 литра -1450р ,гречи	https://vk.com/wall-6126497_2512001	16.03.2019 10:05	200	
	https://vk.com/wall-6126497_2512068	16.03.2019 10:58	300	
«Грызунки» из пищевого силикона, детские метрики и открытки, буквы-подушки и мно	https://vk.com/wall-6126497_2512115	16.03.2019 11:30	200	
"Планируете большое застолье с друзьями или фуршет с коллегами? Пицца Мафия поза	https://vk.com/wall-6126497_2512202	16.03.2019 12:21	200	
	https://vk.com/wall-6126497_2512246	16.03.2019 13:00	300	
	https://vk.com/wall-6126497_2512274	16.03.2019 13:19	180	
	https://vk.com/wall-6126497_2512433	16.03.2019 14:47	0	
Группа модная семья приглашает вас вступить в группу совместных покупок.Здесь вы	https://vk.com/wall-6126497_2512454	16.03.2019 15:09	200	
магазин «Смешные цены»(Никель,Спортивная,12) снова продлевает период больших ски	https://vk.com/wall-6126497_2512887	16.03.2019 21:18	200	
Большие скидки в магазине «Московская Ярмарка» (Заполярный,Ленина,33) продолжают	https://vk.com/wall-6126497_2512907	16.03.2019 21:30	200	
	https://vk.com/wall-6126497_2512923	16.03.2019 21:51	150	
🔥ХОТИТЕ НАТЯЖНОЙ ПОТОЛОК?  НУЖНА КОМПАНИЯ С ОПЫТОМ, ДОГОВОРОМ И ГАРАНТИЕЙ?🤔   На	https://vk.com/wall-6126497_2512958	16.03.2019 22:18	200	
Большие скидки в магазине «Московская Ярмарка» (Заполярный,Ленина,33) продолжают	https://vk.com/wall-6126497_2513235	17.03.2019 10:30	200	
магазин «Смешные цены»(Никель,Спортивная,12) снова продлевает период больших ски	https://vk.com/wall-6126497_2513278	17.03.2019 11:05	200	
	https://vk.com/wall-6126497_2513560	17.03.2019 13:54	0	
Мёд со своей пасеки ;цветочный:0,5 литра-300р,1 литр -500р,3 литра -1450р ,гречи	https://vk.com/wall-6126497_2513571	17.03.2019 14:05	200	
Шаверма - это блюдо, пришедшее к нам из восточной кухни и прочно закрепившееся в	https://vk.com/wall-6126497_2513868	17.03.2019 18:37	200	
	https://vk.com/wall-6126497_2513959	17.03.2019 19:56	150	
Все виды сантехнических работ.  Быстро, качественно, недорого.  Гарантия, качест	https://vk.com/wall-6126497_2513965	17.03.2019 20:00	200	
🔧Сборка мебели и услуги "Мастер на час" в Заполярном.  Мы можем сделать 👍  Сборк	https://vk.com/wall-6126497_2514009	17.03.2019 20:30	200	
	https://vk.com/wall-6126497_2514164	17.03.2019 22:19	300	
Большие скидки в магазине «Московская Ярмарка» (Заполярный,Ленина,33) продолжают	https://vk.com/wall-6126497_2514531	18.03.2019 10:30	200	
магазин «Смешные цены»(Никель,Спортивная,12) снова продлевает период больших ски	https://vk.com/wall-6126497_2514574	18.03.2019 11:05	200	
Все виды сантехнических работ.  Быстро, качественно, недорого.  Гарантия, качест	https://vk.com/wall-6126497_2514633	18.03.2019 12:00	200	
	https://vk.com/wall-6126497_2514771	18.03.2019 14:04	300	
💥 СЕВЕРНАЯ ЛАВКА💥 https://vk.com/club84353722  💥 240 руб 💥 НАБОР ДЛЯ ВЫРАЩИВАНИЯ	https://vk.com/wall-6126497_2514802	18.03.2019 14:30	200	
	https://vk.com/wall-6126497_2514842	18.03.2019 15:04	0	
Готов к переезду в новый дом шотландский мальчик-страйт Д.р 16.01 Ест сухой и вл	https://vk.com/wall-6126497_2514880	18.03.2019 15:29	200	
Перед оригинальным вкусом пиццы Аль Шам сложно устоять!   А когда эта пицца ПО С	https://vk.com/wall-6126497_2514925	18.03.2019 16:00	200	
Мёд со своей пасеки ;цветочный:0,5 литра-300р,1 литр -500р,3 литра -1450р ,гречи	https://vk.com/wall-6126497_2514936	18.03.2019 16:05	200	
	https://vk.com/wall-6126497_2514949	18.03.2019 16:15	300	клиента обслуживают несколько модераторов: Дмитрий Дубов, Валерий Фатхуллин
	https://vk.com/wall-6126497_2515130	18.03.2019 18:33	300	
Вы планируете переехать, но все еще не знаете куда именно?  Путаетесь в предложе	https://vk.com/wall-6126497_2515204	18.03.2019 19:30	200	
Вы хотите, чтобы Ваш ребенок: Раскрыл свои таланты и развил способности? Получил	https://vk.com/wall-6126497_2515239	18.03.2019 20:00	200	
Большие скидки в магазине «Московская Ярмарка» (Заполярный,Ленина,33) продолжают	https://vk.com/wall-6126497_2515720	19.03.2019 10:30	200	
❗️Внимание❗️  Успей записаться до конца АКЦИИ🌷 https://vk.com/club144849807	https://vk.com/wall-6126497_2515745	19.03.2019 10:52	200	клиента обслуживают несколько модераторов: Дмитрий Дубов, Елена Ушакова
магазин «Смешные цены»(Никель,Спортивная,12) снова продлевает период больших ски	https://vk.com/wall-6126497_2515764	19.03.2019 11:05	200	
	https://vk.com/wall-6126497_2515828	19.03.2019 12:00	300	
🌸🌸🌸 Дорогие Дамы🌸🌸🌸 Приглашаю посетить парикмахерскую студию EvgeniyaStudio в г.	https://vk.com/wall-6126497_2516056	19.03.2019 14:30	200	
Укрась свой день вкусной пиццей и настроение будет что надо!   В этом тебе помож	https://vk.com/wall-6126497_2516147	19.03.2019 16:00	200	
Предоставляю услуги массажа и шугаринга. ✔Детский массаж.  ✔Массаж при плоскосто	https://vk.com/wall-6126497_2516331	19.03.2019 18:44	200	
Мёд со своей пасеки ;цветочный:0,5 литра-300р,1 литр -500р,3 литра -1450р ,гречи	https://vk.com/wall-6126497_2516374	19.03.2019 19:05	200	
Большие скидки в магазине «Московская Ярмарка» (Заполярный,Ленина,33) продолжают	https://vk.com/wall-6126497_2517002	20.03.2019 10:30	200	
магазин «Смешные цены»(Никель,Спортивная,12) снова продлевает период больших ски	https://vk.com/wall-6126497_2517040	20.03.2019 11:05	200	
	https://vk.com/wall-6126497_2517162	20.03.2019 12:38	0	
закажи по телефону: 8(8152) 215-222 или на сайте: https://zplrn.pizzamafia.ru/me	https://vk.com/wall-6126497_2517383	20.03.2019 15:00	200	
	https://vk.com/wall-6126497_2517527	20.03.2019 17:02	300	
	https://vk.com/wall-6126497_2517606	20.03.2019 18:15	300	
Вы планируете переехать, но все еще не знаете куда именно?  Путаетесь в предложе	https://vk.com/wall-6126497_2517707	20.03.2019 19:30	200	
Задумались о ремонте🤔, но надоели скучные обои?Решили изменить что то в своём ин	https://vk.com/wall-6126497_2517729	20.03.2019 19:45	200	
Мёд со своей пасеки ;цветочный:0,5 литра-300р,1 литр -500р,3 литра -1450р ,гречи	https://vk.com/wall-6126497_2517931	20.03.2019 22:05	200	
https://vk.com/odnikel51	https://vk.com/wall-6126497_2517994	20.03.2019 22:45	300	клиента обслуживают несколько модераторов: Дмитрий Дубов, Елена Ушакова
Ломбард.  Дадим деньги в долг под залог (низкий процент📉) 💰  Также купим золото 	https://vk.com/wall-6126497_2518303	21.03.2019 11:21	0	
	https://vk.com/wall-6126497_2518312	21.03.2019 11:30	300	
🌺🌺ПРОДАМ ДЕТСКИЕ  ВЕЩИ🌺ИТАЛЬЯНСКОГО БРЕНДА 🌺ORIGINAL MARINERS 🌺ВСЕ ВЕЩИ В НАЛИЧИ	https://vk.com/wall-6126497_2518344	21.03.2019 12:16	100	
	https://vk.com/wall-6126497_2518351	21.03.2019 12:23	300	
Позвольте себе вкусный обед с доставкой и тогда с хорошим настроением работать б	https://vk.com/wall-6126497_2518413	21.03.2019 13:00	200	
Грузоперевозки по г.Заполярный и Печенгскому р-ну. Бережно перевезем ваш груз по	https://vk.com/wall-6126497_2518519	21.03.2019 14:32	200	
	https://vk.com/wall-6126497_2518666	21.03.2019 17:00	300	
магазин «Смешные цены»(Никель,Спортивная,12) и магазин «Московская Ярмарка» (Зап	https://vk.com/wall-6126497_2518778	21.03.2019 18:55	200	
	https://vk.com/wall-6126497_2518956	21.03.2019 21:26	300	
магазин «Смешные цены»(Никель,Спортивная,12) и магазин «Московская Ярмарка» (Зап	https://vk.com/wall-6126497_2519333	22.03.2019 11:15	200	
	https://vk.com/wall-6126497_2519578	22.03.2019 15:05	0	
Планируешь встречу с друзьями? Тогда тебе понадобится набор для большой компании	https://vk.com/wall-6126497_2519632	22.03.2019 16:00	200	
	https://vk.com/wall-6126497_2519647	22.03.2019 16:15	300	клиента обслуживают несколько модераторов: Дмитрий Дубов, Валерий Фатхуллин
Вы планируете переехать, но все еще не знаете куда именно?  Путаетесь в предложе	https://vk.com/wall-6126497_2519880	22.03.2019 19:30	200	
📌У нас на 24 марта будет 📦 доставка! 🔋С экономьте своё время и деньги!!! 💣Обраща	https://vk.com/wall-6126497_2519951	22.03.2019 20:32	200	
	https://vk.com/wall-6126497_2519991	22.03.2019 21:04	0	
По всем вопросам пишите в личку пожалуйста.⬇️⬇️⬇️⬇️ https://vk.com/id80665566	https://vk.com/wall-6126497_2520036	22.03.2019 21:33	200	
	https://vk.com/wall-6126497_2520039	22.03.2019 21:36	0	
	https://vk.com/wall-6126497_2520127	22.03.2019 23:16	0	
магазин «Смешные цены»(Никель,Спортивная,12) и магазин «Московская Ярмарка» (Зап	https://vk.com/wall-6126497_2520411	23.03.2019 11:15	200	
	https://vk.com/wall-6126497_2520760	23.03.2019 15:32	300	
	https://vk.com/wall-6126497_2520949	23.03.2019 18:00	300	
📌У нас на 24 марта будет 📦 доставка! 🔋С экономьте своё время и деньги!!! 💣Обраща	https://vk.com/wall-6126497_2521040	23.03.2019 19:00	200	
	https://vk.com/wall-6126497_2521199	23.03.2019 21:25	0	
	https://vk.com/wall-6126497_2521228	23.03.2019 21:52	0	
магазин «Смешные цены»(Никель,Спортивная,12) и магазин «Московская Ярмарка» (Зап	https://vk.com/wall-6126497_2521663	24.03.2019 11:15	200	
	https://vk.com/wall-6126497_2521938	24.03.2019 14:42	0	
ПОПРОБУЙ ВЕСЕННЮЮ НОВИНКУ!  Хочется чего-нибудь вкусного и экзотического? Попроб	https://vk.com/wall-6126497_2521955	24.03.2019 15:00	200	
	https://vk.com/wall-6126497_2522087	24.03.2019 16:46	0	
магазин «Смешные цены»(Никель,Спортивная,12) и магазин «Московская Ярмарка» (Зап	https://vk.com/wall-6126497_2522764	25.03.2019 11:15	200	
Для кого-то пицца с тунцом это слишком экстравагантное сочетание ингредиентов, а	https://vk.com/wall-6126497_2523011	25.03.2019 15:00	200	
	https://vk.com/wall-6126497_2523110	25.03.2019 16:15	300	клиента обслуживают несколько модераторов: Дмитрий Дубов, Валерий Фатхуллин
	https://vk.com/wall-6126497_2523167	25.03.2019 17:00	300	
Утилизация в Askona!    Вопрос старой мебели не выходит из головы? Давно хотите 	https://vk.com/wall-6126497_2523261	25.03.2019 18:01	200	
	https://vk.com/wall-6126497_2523292	25.03.2019 18:28	300	
В магазине «Альт» распродажа зимнего ассортимента! С 25 марта по 4 апреля скидка	https://vk.com/wall-6126497_2523320	25.03.2019 19:00	200	
	https://vk.com/wall-6126497_2523422	25.03.2019 20:02	0	
магазин «Смешные цены»(Никель,Спортивная,12) и магазин «Московская Ярмарка» (Зап	https://vk.com/wall-6126497_2523960	26.03.2019 11:15	200	
Ломбард.  Дадим деньги в долг под залог (низкий процент📉) 💰  Также купим золото 	https://vk.com/wall-6126497_2524116	26.03.2019 13:21	0	
Пицца Аль-Шам - вкус, вдохновленный современностью! Каждый, кто впервые пробует 	https://vk.com/wall-6126497_2524239	26.03.2019 15:00	200	
	https://vk.com/wall-6126497_2524371	26.03.2019 16:20	300	
	https://vk.com/wall-6126497_2524469	26.03.2019 17:47	0	
🧨Здравствуйте дорогие клиенты!)А так же будущие и нынешние!!! 📉Новая неделя,новы	https://vk.com/wall-6126497_2524490	26.03.2019 18:07	200	
Еще можно успеть принять участие!	https://vk.com/wall-6126497_2524800	26.03.2019 22:11	300	
	https://vk.com/wall-6126497_2524918	27.03.2019 00:51	0	
магазин «Смешные цены»(Никель,Спортивная,12) и магазин «Московская Ярмарка» (Зап	https://vk.com/wall-6126497_2525169	27.03.2019 11:15	200	
	https://vk.com/wall-6126497_2525214	27.03.2019 12:00	0	
❗️❗️❗️Внимание❗️❗️❗️  ❄️❄️❄️ФИНАЛЬНАЯ РАСПРОДАЖА ЗИМНЕЙ ОБУВИ!!!❄️❄️❄️  🔥🔥🔥🔥СКИД	https://vk.com/wall-6126497_2525247	27.03.2019 12:27	200	
	https://vk.com/wall-6126497_2525693	27.03.2019 18:15	0	
	https://vk.com/wall-6126497_2525766	27.03.2019 19:14	300	
	https://vk.com/wall-6126497_2525818	27.03.2019 20:01	300	
🧨Здравствуйте дорогие клиенты!)А так же будущие и нынешние!!! 📉Новая неделя,новы	https://vk.com/wall-6126497_2525878	27.03.2019 20:49	200	
	https://vk.com/wall-6126497_2525901	27.03.2019 21:13	300	
‼️28.03.2019 Возьмём попутный груз Заполярный -Мурманск  Мурманск-Заполярный ‼️ 	https://vk.com/wall-6126497_2525923	27.03.2019 21:30	200	
ПИЦЦА ДНЯ - КЛАСС по специальной цене со скидкой 30%!   Нежная ветчина с ароматн	https://vk.com/wall-6126497_2526674	28.03.2019 15:00	200	
❗️❗️❗️Внимание❗️❗️❗️  ❄️❄️❄️ФИНАЛЬНАЯ РАСПРОДАЖА ЗИМНЕЙ ОБУВИ!!!❄️❄️❄️  🔥🔥🔥🔥СКИД	https://vk.com/wall-6126497_2526871	28.03.2019 17:30	200	
Милые девушки приглашаю вас на комбинированный маникюр! Наращивание биогелем Пок	https://vk.com/wall-6126497_2526971	28.03.2019 19:00	200	
	https://vk.com/wall-6126497_2526975	28.03.2019 19:07	0	
Все виды сантехнических работ.  Быстро, качественно, недорого.  Гарантия, качест	https://vk.com/wall-6126497_2527156	28.03.2019 21:35	200	
Планируешь встречу с друзьями? Тогда тебе понадобится набор для большой компании	https://vk.com/wall-6126497_2528005	29.03.2019 16:00	200	
	https://vk.com/wall-6126497_2528020	29.03.2019 16:15	300	клиента обслуживают несколько модераторов: Дмитрий Дубов, Валерий Фатхуллин
❗️❗️❗️Внимание❗️❗️❗️  ❄️❄️❄️ФИНАЛЬНАЯ РАСПРОДАЖА ЗИМНЕЙ ОБУВИ!!!❄️❄️❄️  🔥🔥🔥🔥СКИД	https://vk.com/wall-6126497_2528119	29.03.2019 17:30	200	
	https://vk.com/wall-6126497_2528276	29.03.2019 19:16	300	
	https://vk.com/wall-6126497_2528281	29.03.2019 19:23	0	
	https://vk.com/wall-6126497_2528327	29.03.2019 19:50	0	
	https://vk.com/wall-6126497_2528357	29.03.2019 20:15	300	
	https://vk.com/wall-6126497_2528522	29.03.2019 22:13	0	
В магазине одежды "Альбатрос" поступление нового товара! Мы находимся по адресу:	https://vk.com/wall-6126497_2528535	29.03.2019 22:19	200	
В магазине одежды "Альбатрос" поступление нового товара! Мы находимся по адресу:	https://vk.com/wall-6126497_2528799	30.03.2019 10:00	200	
	https://vk.com/wall-6126497_2528961	30.03.2019 11:57	0	
	https://vk.com/wall-6126497_2528965	30.03.2019 12:00	0	
"Хет трик" - супер-комбо для настоящих фанатов итальянской кухни!  Три топовые п	https://vk.com/wall-6126497_2529035	30.03.2019 13:00	200	
Милые девушки! Приглашаю вас за "НАСТРОЕНИЕМ" 💅 Снятие гель лак + сухой комбинир	https://vk.com/wall-6126497_2529103	30.03.2019 13:50	200	
❗️❗️❗️Внимание❗️❗️❗️  ❄️❄️❄️ФИНАЛЬНАЯ РАСПРОДАЖА ЗИМНЕЙ ОБУВИ!!!❄️❄️❄️  🔥🔥🔥🔥СКИД	https://vk.com/wall-6126497_2529389	30.03.2019 17:30	200	
	https://vk.com/wall-6126497_2529585	30.03.2019 20:32	0	
Специально для сладкоежек!   Нежный десерт Шокко Дольче - это манящее сочетание 	https://vk.com/wall-6126497_2530251	31.03.2019 13:11	200	
	https://vk.com/wall-6126497_2530378	31.03.2019 14:32	0	
Грузоперевозки по г.Заполярный и Печенгскому р-ну. Бережно перевезем ваш груз по	https://vk.com/wall-6126497_2530624	31.03.2019 17:12	200	
❗️❗️❗️Внимание❗️❗️❗️  ❄️❄️❄️ФИНАЛЬНАЯ РАСПРОДАЖА ЗИМНЕЙ ОБУВИ!!!❄️❄️❄️  🔥🔥🔥🔥СКИД	https://vk.com/wall-6126497_2530655	31.03.2019 17:30	200	
🔧Сборка мебели и услуги "Мастер на час" в Заполярном.  Мы можем сделать 👍  Сборк	https://vk.com/wall-6126497_2530822	31.03.2019 19:24	200	
Вы хотите, чтобы Ваш ребенок: Раскрыл свои таланты и развил способности? Получил	https://vk.com/wall-6126497_2530859	31.03.2019 20:00	200	
магазин «Смешные цены»(Никель,Спортивная,12) и магазин «Московская Ярмарка» (Зап	https://vk.com/wall-6126497_2530904	31.03.2019 20:40	200	