title	url	date	cost	comment
Всем привет, приглашаю вас в группу с товарами из Скандинавии и многое другое ht	https://vk.com/wall-6126497_2493688	01.03.2019 12:15	200	
🎊АКЦИЯ ДЛЯ НОВЫХ КЛИЕНТОВ С 22 ФЕВРАЛЯ ПО 8 МАРТА 🎊  Я, начинающий сертифицирова	https://vk.com/wall-6126497_2493974	01.03.2019 16:00	200	
Приглашаем жителей и гостей нашего города посетить кафе-бар "Арктика" по адресу:	https://vk.com/wall-6126497_2494227	01.03.2019 19:10	200	
	https://vk.com/wall-6126497_2494271	01.03.2019 19:27	300	
https://vk.com/zepclub1	https://vk.com/wall-6126497_2494292	01.03.2019 19:47	300	
	https://vk.com/wall-6126497_2494325	01.03.2019 20:18	300	
У вас скоро День Рождения, корпоратив или свадьба? Тогда вам точно ко мне!  Для 	https://vk.com/wall-6126497_2494857	02.03.2019 12:15	200	
Внимание! Горячая цена на Ботекс для волос ! -40% Никель https://vk.com/id503315	https://vk.com/wall-6126497_2494871	02.03.2019 12:27	100	
Здравствуйте!! У нас стартует акция на натяжные потолки, окна !!! Только до конц	https://vk.com/wall-6126497_2494907	02.03.2019 13:05	200	
Милые девушки приглашаю вас на аппаратный маникюр! Наращивание гелем Покрытие ге	https://vk.com/wall-6126497_2495119	02.03.2019 16:00	200	
Поступление нового товара весна-осень  На зимние товары скидка 30%  Заполярный, 	https://vk.com/wall-6126497_2495234	02.03.2019 17:51	200	
	https://vk.com/wall-6126497_2495247	02.03.2019 17:59	300	
Здравствуйте!! У нас стартует акция на натяжные потолки, окна !!! Только до конц	https://vk.com/wall-6126497_2495301	02.03.2019 19:00	200	
🎁🎁⚡⚡Добрый ДЕНЬ!! Магазин "Оптика" поздравляет милых дам с праздником, с 04 по 0	https://vk.com/wall-6126497_2495865	03.03.2019 11:57	200	клиента обслуживают несколько модераторов: Елена Ушакова, Валерий Фатхуллин
Милые девушки приглашаю вас на аппаратный маникюр! Наращивание гелем Покрытие ге	https://vk.com/wall-6126497_2496191	03.03.2019 16:00	200	
Грузоперевозки и переезды из Никеля, Заполярного, Печенги и Мурманской области в	https://vk.com/wall-6126497_2496417	03.03.2019 19:00	200	
Дорогие девушки, предоставляю бьюти-услуги : мастера-бровиста и мастера по шугар	https://vk.com/wall-6126497_2496453	03.03.2019 19:30	200	
	https://vk.com/wall-6126497_2496460	03.03.2019 19:35	300	
🔎 Ищете, где качественно распечатать фото?   📢 Добро пожаловать в группу совмест	https://vk.com/wall-6126497_2496511	03.03.2019 20:09	200	
🎊АКЦИЯ ДЛЯ НОВЫХ КЛИЕНТОВ С 22 ФЕВРАЛЯ ПО 8 МАРТА 🎊  Я, начинающий сертифицирова	https://vk.com/wall-6126497_2496531	03.03.2019 20:20	200	
😍Устройте сюрприз🎁 близкому человеку!  Наши мишки влюбляют в себя с первого взгл	https://vk.com/wall-6126497_2496584	03.03.2019 20:45	200	
Здравствуйте, с 6 марта будем продавать тюльпаны по 50 рублей. От 5 штук ДОСТАВК	https://vk.com/wall-6126497_2496908	04.03.2019 00:03	200	
	https://vk.com/wall-6126497_2497017	04.03.2019 07:47	300	
Здравствуйте, с 6 марта будем продавать тюльпаны по 60 рублей. От 5 штук ДОСТАВК	https://vk.com/wall-6126497_2497500	04.03.2019 15:00	200	
Поступлание нового товара  Большой выбор к 8 марта :  •блузки •юбки •кофты •джин	https://vk.com/wall-6126497_2497560	04.03.2019 15:44	200	
Дорогие подписчики, много нового товара, добавляемся в группу https://vk.com/clu	https://vk.com/wall-6126497_2497656	04.03.2019 17:29	100	
Здравствуйте!! У нас стартует акция на натяжные потолки, окна !!! Только до конц	https://vk.com/wall-6126497_2497786	04.03.2019 19:00	200	
В палатке 27 крытый рынок г.Заполярный. Скидки 50% на женскую одежду, купальники	https://vk.com/wall-6126497_2497869	04.03.2019 20:00	100	
	https://vk.com/wall-6126497_2497955	04.03.2019 20:59	300	
	https://vk.com/wall-6126497_2497976	04.03.2019 21:14	300	
😍Устройте сюрприз🎁 близкому человеку!  Наши мишки влюбляют в себя с первого взгл	https://vk.com/wall-6126497_2498007	04.03.2019 21:34	200	
В предверии весеннего праздника 8 марта, В наличии и на заказ для женщин, девуше	https://vk.com/wall-6126497_2498183	04.03.2019 23:05	200	
Ароматные медово имбирные пряники к празднику. В наличии и на заказ https://vk.c	https://vk.com/wall-6126497_2498201	04.03.2019 23:19	100	
	https://vk.com/wall-6126497_2498328	05.03.2019 06:55	300	
Здравствуйте, с 6 марта будем продавать тюльпаны по 60 рублей. От 5 штук ДОСТАВК	https://vk.com/wall-6126497_2498382	05.03.2019 09:00	200	
Здравствуйте, с 6 марта будем продавать тюльпаны по 70 рублей. От 5 штук ДОСТАВК	https://vk.com/wall-6126497_2498770	05.03.2019 14:58	200	
😍Устройте сюрприз🎁 близкому человеку!  Наши мишки влюбляют в себя с первого взгл	https://vk.com/wall-6126497_2498892	05.03.2019 16:30	200	
Здравствуйте!! У нас стартует акция на натяжные потолки, окна !!! Только до конц	https://vk.com/wall-6126497_2499047	05.03.2019 18:45	200	
Здравствуйте, с 6 марта продаем тюльпаны по 70 рублей. От 5 штук ДОСТАВКА БЕСПЛА	https://vk.com/wall-6126497_2499122	05.03.2019 19:45	200	
	https://vk.com/wall-6126497_2499140	05.03.2019 19:56	300	
	https://vk.com/wall-6126497_2499492	06.03.2019 07:28	300	
Здравствуйте, с 6 марта продаем тюльпаны по 70 рублей. От 5 штук ДОСТАВКА БЕСПЛА	https://vk.com/wall-6126497_2499548	06.03.2019 09:00	200	
Готовы к продаже котята-британцы, станут отличным подарком для вашей половинки(е	https://vk.com/wall-6126497_2500026	06.03.2019 15:38	200	
😍Устройте сюрприз🎁 близкому человеку!  Наши мишки влюбляют в себя с первого взгл	https://vk.com/wall-6126497_2500278	06.03.2019 17:30	200	
Свободны к резерву бенгальские(леопардовые котята), от родителей гранд/Интер чем	https://vk.com/wall-6126497_2500332	06.03.2019 18:13	200	
Здравствуйте!! У нас стартует акция на натяжные потолки, окна !!! Только до конц	https://vk.com/wall-6126497_2500436	06.03.2019 19:15	200	
Здравствуйте, с 6 марта продаем тюльпаны по 70 рублей. От 5 штук ДОСТАВКА БЕСПЛА	https://vk.com/wall-6126497_2500506	06.03.2019 20:00	200	
	https://vk.com/wall-6126497_2500518	06.03.2019 20:10	300	
Мы предлагаем Натяжные потолки подходящие большинству покупателей по количеству 	https://vk.com/wall-6126497_2500542	06.03.2019 20:20	200	клиента обслуживают несколько модераторов: Елена Ушакова, Дмитрий Дубов
	https://vk.com/wall-6126497_2500970	07.03.2019 08:08	300	
Здравствуйте, с 6 марта продаем тюльпаны по 70 рублей. От 5 штук ДОСТАВКА БЕСПЛА	https://vk.com/wall-6126497_2501015	07.03.2019 09:00	200	
😍Устройте сюрприз🎁 близкому человеку!  Наши мишки влюбляют в себя с первого взгл	https://vk.com/wall-6126497_2501711	07.03.2019 18:30	200	
Здравствуйте!! У нас стартует акция на натяжные потолки, окна !!! Только до конц	https://vk.com/wall-6126497_2501742	07.03.2019 19:00	200	
	https://vk.com/wall-6126497_2501758	07.03.2019 19:16	300	
Здравствуйте, с 6 марта продаем тюльпаны по 70 рублей. От 5 штук ДОСТАВКА БЕСПЛА	https://vk.com/wall-6126497_2501796	07.03.2019 19:45	200	
вчера в 20:20 Мы предлагаем Натяжные потолки подходящие большинству покупателей 	https://vk.com/wall-6126497_2501885	07.03.2019 21:11	200	клиента обслуживают несколько модераторов: Елена Ушакова, Дмитрий Дубов
😍Устройте сюрприз🎁 близкому человеку!  Наши мишки влюбляют в себя с первого взгл	https://vk.com/wall-6126497_2502131	08.03.2019 08:00	200	
Здравствуйте, с 6 марта продаем тюльпаны по 70 рублей. От 5 штук ДОСТАВКА БЕСПЛА	https://vk.com/wall-6126497_2502163	08.03.2019 09:00	200	
Всем привет, приглашаю вас в группу с товарами из Скандинавии и многое другое ht	https://vk.com/wall-6126497_2502375	08.03.2019 13:00	200	
😍Устройте сюрприз🎁 близкому человеку!  Наши мишки влюбляют в себя с первого взгл	https://vk.com/wall-6126497_2502532	08.03.2019 15:15	200	
	https://vk.com/wall-6126497_2503059	09.03.2019 00:22	300	
	https://vk.com/wall-6126497_2503463	09.03.2019 15:02	300	клиента обслуживают несколько модераторов: Елена Ушакова, Валерий Фатхуллин
Сертифицированный специалист по прокалыванию ушей, хрящика, носа и т.д. Спутник,	https://vk.com/wall-6126497_2503686	09.03.2019 17:59	100	
Скидки продолжаются! Мужские, женские и детские куртки; Мужские и женские шапки;	https://vk.com/wall-6126497_2504639	10.03.2019 15:14	200	
Шумоизоляция авто в Никеле, любого авто, любой сложности. Запись на апрель. За и	https://vk.com/wall-6126497_2505975	11.03.2019 17:30	200	
В кафе-бар "Арктика" требуются бармены (без вредных привычек) тел. 89212704283, 	https://vk.com/wall-6126497_2507847	13.03.2019 00:17	100	
ХОТИТЕ ПРИЯТНО УДИВИТЬ БЛИЗКОГО ЧЕЛОВЕКА НЕОБЫЧНЫМ ПОДАРКОМ? 🎁    📍Закажите порт	https://vk.com/wall-6126497_2508808	13.03.2019 20:59	200	
[club65216302|Торты и капкейки на заказ!] 🎂  Помогу Вам сделать необычный подаро	https://vk.com/wall-6126497_2509473	14.03.2019 13:48	200	
Милые девушки приглашаю вас на аппаратный маникюр! Наращивание гелем Покрытие ге	https://vk.com/wall-6126497_2509664	14.03.2019 16:00	200	
Открылся новый магазин  !!! ПЛАНЕТА ОДЕЖДА ОБУВЬ !!! Модно - не значит дорого! М	https://vk.com/wall-6126497_2510018	14.03.2019 19:00	200	
Сертифицированный специалист по прокалыванию ушей, хрящика, носа и т.д. Спутник,	https://vk.com/wall-6126497_2510077	14.03.2019 19:26	100	
🚛АргоЛогистик - транспортная компания, ежедневно выполняющая междугородние перев	https://vk.com/wall-6126497_2510120	14.03.2019 19:56	200	
Парикмахер-колорист приглашает на окрашивание любой сложности. Новые техники окр	https://vk.com/wall-6126497_2510153	14.03.2019 20:05	100	
	https://vk.com/wall-6126497_2511561	15.03.2019 20:21	300	клиента обслуживают несколько модераторов: Елена Ушакова, Валерий Фатхуллин
Мы предлагаем Натяжные потолки подходящие большинству покупателей по количеству 	https://vk.com/wall-6126497_2511584	15.03.2019 20:40	200	клиента обслуживают несколько модераторов: Елена Ушакова, Дмитрий Дубов
🐰 [club177552799|@al.zolotova51] Группа Именных Аксессуаров!  ► Грызунки  ►Именн	https://vk.com/wall-6126497_2513795	17.03.2019 17:30	200	
	https://vk.com/wall-6126497_2513954	17.03.2019 19:51	300	клиента обслуживают несколько модераторов: Елена Ушакова, Дмитрий Дубов
Милые девушки приглашаю вас на аппаратный маникюр! Наращивание гелем Покрытие ге	https://vk.com/wall-6126497_2514900	18.03.2019 15:45	200	
	https://vk.com/wall-6126497_2515944	19.03.2019 13:26	300	клиента обслуживают несколько модераторов: Елена Ушакова, Валерий Фатхуллин
Открылся новый магазин  !!! ПЛАНЕТА ОДЕЖДА ОБУВЬ !!! Модно - не значит дорого! М	https://vk.com/wall-6126497_2517668	20.03.2019 18:59	200	
🚍Пенсионерам, переезжающим из районов Крайнего Севера и приравненных к ним местн	https://vk.com/wall-6126497_2517675	20.03.2019 19:03	200	
Милые девушки! Я сертифицированный мастер по шугарингу и ваксинку в Заполярном. 	https://vk.com/wall-6126497_2517689	20.03.2019 19:15	200	
Вот и наступила всеми долгожданная весна!☀✌ А вместе с ней пришло настроение, сч	https://vk.com/wall-6126497_2517737	20.03.2019 19:53	200	
	https://vk.com/wall-6126497_2517780	20.03.2019 20:17	300	
	https://vk.com/wall-6126497_2517871	20.03.2019 21:21	300	клиента обслуживают несколько модераторов: Елена Ушакова, Дмитрий Дубов
Привет всем, приглашаю вас в группу товары из Скандинавии https://vk.com/club153	https://vk.com/wall-6126497_2518274	21.03.2019 11:00	200	
	https://vk.com/wall-6126497_2518393	21.03.2019 12:50	300	клиента обслуживают несколько модераторов: Елена Ушакова, Валерий Фатхуллин
	https://vk.com/wall-6126497_2518726	21.03.2019 18:03	300	клиента обслуживают несколько модераторов: Елена Ушакова, Валерий Фатхуллин
Сертифицированный специалист по прокалыванию ушей, хрящика, носа и т.д. Спутник,	https://vk.com/wall-6126497_2518802	21.03.2019 19:13	100	
Привет всем, приглашаю вас в группу товары из Скандинавии https://vk.com/club153	https://vk.com/wall-6126497_2519377	22.03.2019 12:00	200	
Весна-прекрасное время для праздника, радости и улыбок!  Хочется ярких цветов и 	https://vk.com/wall-6126497_2519816	22.03.2019 18:46	200	
Открылся новый магазин  !!! ПЛАНЕТА ОДЕЖДА ОБУВЬ !!! Модно - не значит дорого! М	https://vk.com/wall-6126497_2519838	22.03.2019 19:00	200	
Вот и наступила всеми долгожданная весна!☀✌ А вместе с ней пришло настроение, сч	https://vk.com/wall-6126497_2519900	22.03.2019 19:54	200	
Всем привет!  Предлагаю приобрести Зелёные Карты в страны Шенгена на 90 дней по 	https://vk.com/wall-6126497_2519905	22.03.2019 20:00	200	
	https://vk.com/wall-6126497_2519907	22.03.2019 20:02	300	
	https://vk.com/wall-6126497_2519934	22.03.2019 20:24	300	клиента обслуживают несколько модераторов: Елена Ушакова, Дмитрий Дубов
	https://vk.com/wall-6126497_2519989	22.03.2019 21:02	300	клиента обслуживают несколько модераторов: Елена Ушакова, Валерий Фатхуллин
Рады приветствовать Вас в нашей группе https://vk.com/club178710631  К заказу до	https://vk.com/wall-6126497_2520515	23.03.2019 12:30	100	
Продажа постельного белья, штор. Весь товар в НАЛИЧИИ! Бесплатная доставка до по	https://vk.com/wall-6126497_2520929	23.03.2019 17:45	200	
	https://vk.com/wall-6126497_2521021	23.03.2019 18:41	300	
	https://vk.com/wall-6126497_2521111	23.03.2019 19:57	300	клиента обслуживают несколько модераторов: Елена Ушакова, Дмитрий Дубов
Сертифицированный специалист по прокалыванию ушей, хрящика, носа и т.д. Спутник,	https://vk.com/wall-6126497_2521707	24.03.2019 11:57	100	
Новое поступление в магазине Эконом-класс: мужские, женские и детские куртки, дж	https://vk.com/wall-6126497_2521829	24.03.2019 13:24	200	
Дорогие друзья! Центр Семейного досуга "МимиМотик" Открыт для деток и их родител	https://vk.com/wall-6126497_2521881	24.03.2019 14:00	200	
Вот и наступила всеми долгожданная весна!☀✌ А вместе с ней пришло настроение, сч	https://vk.com/wall-6126497_2522277	24.03.2019 18:57	200	
Милые девушки приглашаю вас на аппаратный маникюр!  Наращивание гелем  Покрытие 	https://vk.com/wall-6126497_2522418	24.03.2019 21:18	200	
	https://vk.com/wall-6126497_2522520	24.03.2019 22:51	300	клиента обслуживают несколько модераторов: Елена Ушакова, Дмитрий Дубов
Милые девушки приглашаю вас на аппаратный маникюр!  Наращивание гелем  Покрытие 	https://vk.com/wall-6126497_2523029	25.03.2019 15:15	200	
	https://vk.com/wall-6126497_2524056	26.03.2019 12:37	300	клиента обслуживают несколько модераторов: Елена Ушакова, Валерий Фатхуллин
Уважаемые участники 🤗 Предлагаю к Вашему вниманию группу с совместными покупками	https://vk.com/wall-6126497_2524582	26.03.2019 19:15	200	
	https://vk.com/wall-6126497_2524602	26.03.2019 19:36	300	клиента обслуживают несколько модераторов: Елена Ушакова, Валерий Фатхуллин
	https://vk.com/wall-6126497_2524720	26.03.2019 21:03	300	клиента обслуживают несколько модераторов: Елена Ушакова, Дмитрий Дубов
Запчасти любых марок авто (оригинал/не оригинал), а также масла, жидкости, акб, 	https://vk.com/wall-6126497_2525586	27.03.2019 17:00	200	
Милые девушки приглашаю вас на аппаратный маникюр!  Наращивание гелем  Покрытие 	https://vk.com/wall-6126497_2525607	27.03.2019 17:15	200	
В магазине ЭКОНОМ-КЛАСС новое поступление! Мужские, женкие и детские куртки, обу	https://vk.com/wall-6126497_2526638	28.03.2019 14:22	200	
Парикмахер-колорист приглашает на окрашивание любой сложности. Новые техники окр	https://vk.com/wall-6126497_2527042	28.03.2019 20:00	200	
Милые девушки приглашаю вас на аппаратный маникюр!  Наращивание гелем  Покрытие 	https://vk.com/wall-6126497_2528076	29.03.2019 17:00	200	
В магазине "ЭКОНОМ - КЛАСС" пступление товара весна/осень! На зимнюю: обувь, муж	https://vk.com/wall-6126497_2528203	29.03.2019 18:30	200	
Магазин ПЛАНЕТА ОДЕЖДА ОБУВЬ! Модно - не значит дорого! Мужская, женская и детск	https://vk.com/wall-6126497_2528257	29.03.2019 19:00	200	
Вот и наступила всеми долгожданная весна!☀✌ А вместе с ней пришло настроение, сч	https://vk.com/wall-6126497_2528295	29.03.2019 19:30	200	
	https://vk.com/wall-6126497_2528338	29.03.2019 20:01	300	
Сертифицированный специалист по прокалыванию ушей, хрящика, носа и т.д. Спутник,	https://vk.com/wall-6126497_2528765	30.03.2019 09:37	100	
Перевозка автомобиля в другой город из Никеля, Заполярного, Печенги, Мурманска и	https://vk.com/wall-6126497_2528875	30.03.2019 11:00	200	
Новое поступление мужских, женских и детских курток. А также мужская и женская о	https://vk.com/wall-6126497_2528918	30.03.2019 11:31	200	
Никель! РАСПРОДАЖА с 14:00 до 16:00.  Сегодня последний день!  Магазин "Карапуз"	https://vk.com/wall-6126497_2529001	30.03.2019 12:27	200	
	https://vk.com/wall-6126497_2529543	30.03.2019 20:01	300	клиента обслуживают несколько модераторов: Елена Ушакова, Валерий Фатхуллин
Парикмахер-колорист приглашает на окрашивание любой сложности. Новые техники окр	https://vk.com/wall-6126497_2530340	31.03.2019 13:59	200	
Милые девушки приглашаю вас на аппаратный маникюр!  Наращивание гелем  Покрытие 	https://vk.com/wall-6126497_2530484	31.03.2019 15:45	200	
	https://vk.com/wall-6126497_2530678	31.03.2019 17:46	300	клиента обслуживают несколько модераторов: Елена Ушакова, Валерий Фатхуллин
Свободные места на маникюр. Работы и прайс в группе https://vk.com/club171444838	https://vk.com/wall-6126497_2530784	31.03.2019 19:00	100	
Уважаемые участники 🤗 Предлагаю к Вашему вниманию группу с совместными покупками	https://vk.com/wall-6126497_2530848	31.03.2019 19:48	200	