title	start-date	start-time	end-date	end-time	hours	cost
Микрозайм	03.12.2019	17:00	03.12.2019	18:00	1	120
Брусника	03.12.2019	18:00	03.12.2019	19:00	1	120
Бигуди	03.12.2019	19:00	03.12.2019	20:00	1	120
Кудинова Юлия	03.12.2019	20:00	03.12.2019	23:45	3	360
Любовь Юрг	07.12.2019	00:00	07.12.2019	09:00	9	600
Сарочка Матиса	07.12.2019	09:00	07.12.2019	13:00	4	360
Окраина	07.12.2019	13:00	07.12.2019	15:00	2	160
Сахарок	07.12.2019	15:00	07.12.2019	16:00	1	80
норд фит	07.12.2019	16:00	07.12.2019	17:00	1	80
Микрозайм	07.12.2019	17:00	07.12.2019	18:00	1	120
Брусника	07.12.2019	18:00	07.12.2019	19:00	1	120
Бигуди	07.12.2019	19:00	07.12.2019	20:00	1	120
Норд фит	07.12.2019	21:00	07.12.2019	22:00	1	120
Товары из Скандинавии	09.12.2019	17:00	09.12.2019	21:00	4	480
пых пых	11.12.2019	00:00	11.12.2019	18:00	18	1400
Брусника	11.12.2019	18:00	11.12.2019	19:00	1	120
Бигуди	11.12.2019	19:00	11.12.2019	20:00	1	120
ПЫХ	11.12.2019	20:00	11.12.2019	23:45	3	360
Мебель Плюс	14.12.2019	10:00	14.12.2019	12:00	2	180
Окраина	14.12.2019	13:00	14.12.2019	15:00	2	160
Сова	14.12.2019	20:00	14.12.2019	23:45	3	360
Наталья Полякова	15.12.2019	00:00	15.12.2019	01:00	1	66
Сахарок	15.12.2019	01:00	15.12.2019	09:00	8	533
Мебель Плюс	15.12.2019	09:00	15.12.2019	17:00	8	680
Микрозайм	15.12.2019	17:00	15.12.2019	18:00	1	120
Брусника	15.12.2019	18:00	15.12.2019	19:00	1	120
Бигуди	15.12.2019	19:00	15.12.2019	20:00	1	120
Окраина	18.12.2019	13:00	18.12.2019	15:00	2	160
Товары из Скандинавии	19.12.2019	00:00	19.12.2019	09:00	9	600
ПЫХ ПЫХ	19.12.2019	09:00	19.12.2019	13:00	4	360
Окраина	19.12.2019	13:00	19.12.2019	15:00	2	160
Микрозайм	19.12.2019	17:00	19.12.2019	18:00	1	120
Брусника	19.12.2019	18:00	19.12.2019	19:00	1	120
Бигуди	19.12.2019	19:00	19.12.2019	20:00	1	120
Норд Фит	19.12.2019	20:00	19.12.2019	21:00	1	120
Галина Иванова	19.12.2019	21:00	19.12.2019	23:45	2	240
Леха Воробей	22.12.2019	12:00	22.12.2019	18:00	6	540
Наращивание ресниц	23.12.2019	00:00	23.12.2019	09:00	9	600
ПЫХ ПЫХ	23.12.2019	09:00	23.12.2019	13:00	4	360
Окраина	23.12.2019	13:00	23.12.2019	15:00	2	160
Леха Воробей	23.12.2019	15:00	23.12.2019	17:00	2	160
Микрозайм	23.12.2019	17:00	23.12.2019	18:00	1	120
Брусника	23.12.2019	18:00	23.12.2019	19:00	1	120
Бигуди	23.12.2019	19:00	23.12.2019	20:00	1	120
Пых Пых	23.12.2019	20:00	23.12.2019	23:45	3	360
Мебель +	26.12.2019	12:00	26.12.2019	18:00	6	540
Леха Воробей	27.12.2019	00:00	27.12.2019	09:00	9	600
ПЫХ ПЫХ	27.12.2019	09:00	27.12.2019	13:00	4	360
Ремонт авто	27.12.2019	13:00	27.12.2019	17:00	4	320
Микрозайм	27.12.2019	17:00	27.12.2019	18:00	1	120
Брусника	27.12.2019	18:00	27.12.2019	19:00	1	120
Бигуди	27.12.2019	19:00	27.12.2019	20:00	1	120
Татьяна Бердюгина	27.12.2019	20:00	27.12.2019	23:45	3	360
Леха Лепёшкин	30.12.2019	00:00	30.12.2019	18:00	18	1400
Леха Лепёшкин	30.12.2019	20:00	30.12.2019	23:45	3	360
Лепёшкин	31.12.2019	00:00	31.12.2019	13:00	13	960
Брусника	31.12.2019	13:00	31.12.2019	14:00	1	80
Бигуди	31.12.2019	14:00	31.12.2019	15:00	1	80
Лепёшкин	31.12.2019	15:00	31.12.2019	17:00	2	160
Микрозайм	31.12.2019	17:00	31.12.2019	18:00	1	120
Лепёшкин	31.12.2019	18:00	31.12.2019	23:45	5	600