title	start-date	start-time	end-date	end-time	hours	cost
Екатерина Екатерина	05.09.2023	10:00	05.09.2023	12:00	2	200
Галина лазер	09.09.2023	07:00	09.09.2023	23:00	16	1600
Екатерина Екатерина	10.09.2023	13:00	10.09.2023	15:00	2	200
Екатерина Екатерина	14.09.2023	21:00	14.09.2023	23:00	2	200
Эля Шангалиева	15.09.2023	09:00	15.09.2023	11:00	2	200
Алексей Базанов	17.09.2023	17:00	17.09.2023	18:00	1	100
Екатерина Екатерина	19.09.2023	10:00	19.09.2023	12:00	2	200
Екатерина Екатерина	23.09.2023	13:00	23.09.2023	15:00	2	200
Ефременко ортолаб	26.09.2023	19:00	26.09.2023	23:45	4	400
Екатерина Екатерина	28.09.2023	10:00	28.09.2023	12:00	2	200
Женин	28.09.2023	23:00	28.09.2023	23:45	0	0
Женин	29.09.2023	21:00	29.09.2023	23:45	2	200
Якоби	30.09.2023	10:00	30.09.2023	23:45	13	1300