title	url	date	cost
Максим_Федоров	https://vk.com/wall-6126497_3945282	01.09.2023 10:00	100
Автомагия	https://vk.com/wall-6126497_3945321	01.09.2023 11:36	220
Code_la_Dance	https://vk.com/wall-6126497_3945322	01.09.2023 11:37	220
Антошка	https://vk.com/wall-6126497_3945345	01.09.2023 12:13	330
89021328349_горбуша_непотрошенная	https://vk.com/wall-6126497_3945612	01.09.2023 19:49	100
Наталья_Шибецкая	https://vk.com/wall-6126497_3945671	01.09.2023 21:07	100
Максим_Федоров	https://vk.com/wall-6126497_3945821	02.09.2023 10:00	100
89021328349_горбуша_непотрошенная	https://vk.com/wall-6126497_3945892	02.09.2023 11:45	100
Риелтор_Ульяна	https://vk.com/wall-6126497_3945893	02.09.2023 11:46	100
Пых_пых	https://vk.com/wall-6126497_3946003	02.09.2023 14:24	220
Риелтор_Ульяна	https://vk.com/wall-6126497_3946100	02.09.2023 16:54	220
Магия_красоты	https://vk.com/wall-6126497_3946110	02.09.2023 17:17	100
89021328349_горбуша_непотрошенная	https://vk.com/wall-6126497_3946173	02.09.2023 19:52	100
Анастасия_Ильина	https://vk.com/wall-6126497_3946255	02.09.2023 22:39	100
Анастасия_Ильина	https://vk.com/wall-6126497_3946334	03.09.2023 08:50	100
МедLike	https://vk.com/wall-6126497_3946350	03.09.2023 09:34	500
Магия_красоты	https://vk.com/wall-6126497_3946423	03.09.2023 11:48	100
Максим_Федоров	https://vk.com/wall-6126497_3946528	03.09.2023 14:00	100
Три_хвоста	https://vk.com/wall-6126497_3946530	03.09.2023 14:01	220
89021328349_горбуша_непотрошенная	https://vk.com/wall-6126497_3946650	03.09.2023 17:42	100
Автомагия	https://vk.com/wall-6126497_3946868	04.09.2023 07:32	220
Code_la_Dance	https://vk.com/wall-6126497_3946870	04.09.2023 07:36	220
Максим_Федоров	https://vk.com/wall-6126497_3946916	04.09.2023 10:00	100
89211601220_квартира_посуточно	https://vk.com/wall-6126497_3947031	04.09.2023 13:01	100
Афрокудри_Наталья_Беляева	https://vk.com/wall-6126497_3947038	04.09.2023 13:17	500
Анастасия_Ильина	https://vk.com/wall-6126497_3947298	04.09.2023 19:59	100
Риелстройсервис	https://vk.com/wall-6126497_3947299	04.09.2023 20:00	330
Автомагия	https://vk.com/wall-6126497_3947463	05.09.2023 08:03	220
Code_la_Dance	https://vk.com/wall-6126497_3947464	05.09.2023 08:04	220
Анастасия_Ильина	https://vk.com/wall-6126497_3947471	05.09.2023 08:28	100
Анастасия_Ильина	https://vk.com/wall-6126497_3947543	05.09.2023 10:19	100
Константин_Фирсов	https://vk.com/wall-6126497_3947626	05.09.2023 12:30	220
Автомагия	https://vk.com/wall-6126497_3947631	05.09.2023 12:40	220
89211601220_квартира_посуточно	https://vk.com/wall-6126497_3947644	05.09.2023 13:02	100
Пых_пых	https://vk.com/wall-6126497_3947682	05.09.2023 13:44	220
Риелстройсервис	https://vk.com/wall-6126497_3947728	05.09.2023 15:00	330
Code_la_Dance	https://vk.com/wall-6126497_3947821	05.09.2023 18:00	220
Три_хвоста	https://vk.com/wall-6126497_3947893	05.09.2023 20:01	220
Code_la_Dance	https://vk.com/wall-6126497_3948051	06.09.2023 08:30	220
Автомагия	https://vk.com/wall-6126497_3948053	06.09.2023 08:30	220
Риелстройсервис	https://vk.com/wall-6126497_3948080	06.09.2023 10:00	330
Риелтор_Ульяна	https://vk.com/wall-6126497_3948205	06.09.2023 13:24	220
89021328349_горбуша_непотрошенная	https://vk.com/wall-6126497_3948433	06.09.2023 18:55	100
Code_la_Dance	https://vk.com/wall-6126497_3948605	07.09.2023 09:38	220
Прокат_товаров_в_Заполярном	https://vk.com/wall-6126497_3948758	07.09.2023 13:47	500
Машина_на_заказ	https://vk.com/wall-6126497_3948759	07.09.2023 13:47	220
Пых_пых	https://vk.com/wall-6126497_3948773	07.09.2023 14:00	220
Askona_Заполярный	https://vk.com/wall-6126497_3948821	07.09.2023 15:15	500
Автомагия	https://vk.com/wall-6126497_3948822	07.09.2023 15:19	220
Риелстройсервис	https://vk.com/wall-6126497_3949013	07.09.2023 21:00	330
Риелстройсервис	https://vk.com/wall-6126497_3949236	08.09.2023 12:00	330
Автомагия	https://vk.com/wall-6126497_3949283	08.09.2023 12:54	220
Константин_Фирсов	https://vk.com/wall-6126497_3949322	08.09.2023 14:00	220
89021328349_горбуша_непотрошенная	https://vk.com/wall-6126497_3949434	08.09.2023 17:26	100
North_Style	https://vk.com/wall-6126497_3949983	09.09.2023 17:30	220
Игорь_Тишкин_ремонт_мобильных_телефонов	https://vk.com/wall-6126497_3950105	09.09.2023 21:37	500
ProfMaster	https://vk.com/wall-6126497_3950282	10.09.2023 11:49	330
North_Style	https://vk.com/wall-6126497_3950637	10.09.2023 20:08	220
Пых_пых	https://vk.com/wall-6126497_3950882	11.09.2023 09:55	220
Пых_пых	https://vk.com/wall-6126497_3950892	11.09.2023 10:13	220
Автомагия	https://vk.com/wall-6126497_3950923	11.09.2023 10:52	220
Code_la_Dance	https://vk.com/wall-6126497_3950983	11.09.2023 12:22	220
89211601220_квартира_посуточно	https://vk.com/wall-6126497_3951101	11.09.2023 15:37	100
Константин_Фирсов	https://vk.com/wall-6126497_3951113	11.09.2023 16:00	220
89652017101_покупка_авто	https://vk.com/wall-6126497_3951148	11.09.2023 17:09	500
Автомагия	https://vk.com/wall-6126497_3951612	12.09.2023 14:54	220
Code_la_Dance	https://vk.com/wall-6126497_3951624	12.09.2023 15:02	220
Три_хвоста	https://vk.com/wall-6126497_3951746	12.09.2023 18:00	220
89211601220_квартира_посуточно	https://vk.com/wall-6126497_3951780	12.09.2023 19:02	100
North_Style	https://vk.com/wall-6126497_3951832	12.09.2023 20:41	220
Риелтор_Ульяна	https://vk.com/wall-6126497_3951858	12.09.2023 21:58	220
Машина_на_заказ	https://vk.com/wall-6126497_3951881	12.09.2023 23:30	220
Code_la_Dance	https://vk.com/wall-6126497_3951953	13.09.2023 09:14	220
Автомагия	https://vk.com/wall-6126497_3952044	13.09.2023 12:06	220
89210354705	https://vk.com/wall-6126497_3952185	13.09.2023 15:37	100
89211601220_квартира_посуточно	https://vk.com/wall-6126497_3952593	14.09.2023 09:27	100
Константин_Фирсов	https://vk.com/wall-6126497_3952727	14.09.2023 12:30	220
89021328349_горбуша_непотрошенная	https://vk.com/wall-6126497_3952781	14.09.2023 13:30	100
Автомагия	https://vk.com/wall-6126497_3952785	14.09.2023 13:33	220
Code_la_Dance	https://vk.com/wall-6126497_3952798	14.09.2023 13:50	220
89021328349_горбуша_непотрошенная	https://vk.com/wall-6126497_3952996	14.09.2023 18:21	100
Планета	https://vk.com/wall-6126497_3953060	14.09.2023 20:00	220
Планета	https://vk.com/wall-6126497_3953256	15.09.2023 09:30	220
Code_la_Dance	https://vk.com/wall-6126497_3953367	15.09.2023 12:59	220
89021328349_горбуша_непотрошенная	https://vk.com/wall-6126497_3953379	15.09.2023 13:14	100
Наращивание_ресниц_3	https://vk.com/wall-6126497_3953380	15.09.2023 13:23	500
МедLike	https://vk.com/wall-6126497_3953419	15.09.2023 14:30	500
North_Style	https://vk.com/wall-6126497_3953554	15.09.2023 18:29	220
ProfMaster	https://vk.com/wall-6126497_3953610	15.09.2023 19:44	330
Машина_на_заказ	https://vk.com/wall-6126497_3953741	15.09.2023 23:27	220
Планета	https://vk.com/wall-6126497_3953883	16.09.2023 12:00	220
Антошка	https://vk.com/wall-6126497_3953929	16.09.2023 12:48	330
Пых_пых	https://vk.com/wall-6126497_3953993	16.09.2023 14:11	220
89021328349_горбуша_непотрошенная	https://vk.com/wall-6126497_3953994	16.09.2023 14:11	100
Игорь_Тишкин_ремонт_мобильных_телефонов	https://vk.com/wall-6126497_3954276	16.09.2023 20:43	500
Планета	https://vk.com/wall-6126497_3954436	17.09.2023 10:00	220
Функциональное_питание	https://vk.com/wall-6126497_3954478	17.09.2023 11:26	500
89210354705	https://vk.com/wall-6126497_3954631	17.09.2023 15:15	100
Константин_Фирсов	https://vk.com/wall-6126497_3954697	17.09.2023 17:00	220
Орхидея_перманент	https://vk.com/wall-6126497_3954800	17.09.2023 19:49	500
Автомагия	https://vk.com/wall-6126497_3954944	18.09.2023 09:06	220
Code_la_Dance	https://vk.com/wall-6126497_3954945	18.09.2023 09:06	220
Code_la_Dance	https://vk.com/wall-6126497_3955144	18.09.2023 13:45	220
Code_la_Dance	https://vk.com/wall-6126497_3955338	18.09.2023 18:11	220
Планета	https://vk.com/wall-6126497_3955417	18.09.2023 20:00	220
89210342544	https://vk.com/wall-6126497_3955465	18.09.2023 20:30	500
Риелтор_Ульяна	https://vk.com/wall-6126497_3955520	18.09.2023 21:23	220
Планета	https://vk.com/wall-6126497_3955804	19.09.2023 10:00	220
Автомагия	https://vk.com/wall-6126497_3955948	19.09.2023 12:37	220
Code_la_Dance	https://vk.com/wall-6126497_3955949	19.09.2023 12:37	220
Пых_пых	https://vk.com/wall-6126497_3956015	19.09.2023 14:00	220
Три_хвоста	https://vk.com/wall-6126497_3956315	19.09.2023 21:01	220
Code_la_Dance	https://vk.com/wall-6126497_3956637	20.09.2023 09:11	220
Константин_Фирсов	https://vk.com/wall-6126497_3956786	20.09.2023 12:00	220
89211601220_квартира_посуточно	https://vk.com/wall-6126497_3956864	20.09.2023 13:28	100
North_Style	https://vk.com/wall-6126497_3957049	20.09.2023 18:22	220
Планета	https://vk.com/wall-6126497_3957120	20.09.2023 20:00	220
Code_la_Dance	https://vk.com/wall-6126497_3957303	21.09.2023 09:16	220
Планета	https://vk.com/wall-6126497_3957320	21.09.2023 10:00	220
Автомагия	https://vk.com/wall-6126497_3957515	21.09.2023 15:19	220
Askona_Заполярный	https://vk.com/wall-6126497_3957516	21.09.2023 15:19	500
Машина_на_заказ	https://vk.com/wall-6126497_3957548	21.09.2023 15:57	220
North_Style	https://vk.com/wall-6126497_3957641	21.09.2023 19:11	220
89021328349_горбуша_непотрошенная	https://vk.com/wall-6126497_3957667	21.09.2023 19:47	100
Планета	https://vk.com/wall-6126497_3957887	22.09.2023 10:00	220
Code_la_Dance	https://vk.com/wall-6126497_3957921	22.09.2023 10:45	220
Мобильные_аксессуары	https://vk.com/wall-6126497_3957992	22.09.2023 12:29	500
Автомагия	https://vk.com/wall-6126497_3958048	22.09.2023 13:54	220
Пых_пых	https://vk.com/wall-6126497_3958049	22.09.2023 13:55	220
Code_la_Dance	https://vk.com/wall-6126497_3958143	22.09.2023 16:05	220
IriS	https://vk.com/wall-6126497_3958289	22.09.2023 19:38	500
Риелтор_Ульяна	https://vk.com/wall-6126497_3958358	22.09.2023 21:33	220
Планета	https://vk.com/wall-6126497_3958514	23.09.2023 08:53	220
Константин_Фирсов	https://vk.com/wall-6126497_3958786	23.09.2023 15:00	220
North_Style	https://vk.com/wall-6126497_3959031	23.09.2023 21:28	220
Планета	https://vk.com/wall-6126497_3959197	24.09.2023 11:00	220
Автомагия	https://vk.com/wall-6126497_3959199	24.09.2023 11:01	220
Code_la_Dance	https://vk.com/wall-6126497_3959200	24.09.2023 11:01	220
Машина_на_заказ	https://vk.com/wall-6126497_3959240	24.09.2023 11:59	220
North_Style	https://vk.com/wall-6126497_3959442	24.09.2023 17:29	220
LineHair	https://vk.com/wall-6126497_3959468	24.09.2023 18:13	500
Мишка_Тедди	https://vk.com/wall-6126497_3959515	24.09.2023 19:29	500
Шоколадные_наборы_из_бельгийского_шоколада	https://vk.com/wall-6126497_3959594	24.09.2023 21:40	500
Code_la_Dance	https://vk.com/wall-6126497_3959714	25.09.2023 09:56	220
Автомагия	https://vk.com/wall-6126497_3959715	25.09.2023 09:56	220
89211601220_квартира_посуточно	https://vk.com/wall-6126497_3959739	25.09.2023 10:34	100
Code_la_Dance	https://vk.com/wall-6126497_3959767	25.09.2023 11:39	220
ProfMaster	https://vk.com/wall-6126497_3959878	25.09.2023 14:06	330
Антошка	https://vk.com/wall-6126497_3959974	25.09.2023 15:36	330
Риелтор_Ульяна	https://vk.com/wall-6126497_3960066	25.09.2023 17:43	100
89652017101_покупка_авто	https://vk.com/wall-6126497_3960084	25.09.2023 18:27	500
Машина_на_заказ	https://vk.com/wall-6126497_3960147	25.09.2023 19:54	220
Прокат_товаров_в_Заполярном	https://vk.com/wall-6126497_3960148	25.09.2023 19:54	500
Планета	https://vk.com/wall-6126497_3960154	25.09.2023 20:00	220
Афрокудри_Наталья_Беляева	https://vk.com/wall-6126497_3960207	25.09.2023 21:42	500
Планета	https://vk.com/wall-6126497_3960340	26.09.2023 10:00	220
Пых_пых	https://vk.com/wall-6126497_3960457	26.09.2023 12:29	220
Code_la_Dance	https://vk.com/wall-6126497_3960534	26.09.2023 14:12	220
Автомагия	https://vk.com/wall-6126497_3960590	26.09.2023 15:23	220
Константин_Фирсов	https://vk.com/wall-6126497_3960652	26.09.2023 17:30	220
Три_хвоста	https://vk.com/wall-6126497_3960661	26.09.2023 17:45	220
Browsasha	https://vk.com/wall-6126497_3960664	26.09.2023 17:51	500
Антошка	https://vk.com/wall-6126497_3960711	26.09.2023 19:12	330
Code_la_Dance	https://vk.com/wall-6126497_3960875	27.09.2023 08:53	220
Автомагия	https://vk.com/wall-6126497_3960963	27.09.2023 12:10	220
North_Style	https://vk.com/wall-6126497_3961095	27.09.2023 16:24	220
Афрокудри_Наталья_Беляева	https://vk.com/wall-6126497_3961107	27.09.2023 16:45	500
Code_la_Dance	https://vk.com/wall-6126497_3961201	27.09.2023 19:54	220
Планета	https://vk.com/wall-6126497_3961205	27.09.2023 20:00	220
Альт	https://vk.com/wall-6126497_3961209	27.09.2023 20:15	500
Планета	https://vk.com/wall-6126497_3961404	28.09.2023 10:00	220
89211601220_квартира_посуточно	https://vk.com/wall-6126497_3961498	28.09.2023 12:12	100
Автомагия	https://vk.com/wall-6126497_3961692	28.09.2023 17:13	220
Code_la_Dance	https://vk.com/wall-6126497_3961693	28.09.2023 17:14	220
Ульяна_Никитина	https://vk.com/wall-6126497_3961742	28.09.2023 19:24	100
Машина_на_заказ	https://vk.com/wall-6126497_3961863	28.09.2023 23:01	220
Планета	https://vk.com/wall-6126497_3961952	29.09.2023 10:00	220
Константин_Фирсов	https://vk.com/wall-6126497_3962036	29.09.2023 12:30	220
Code_la_Dance	https://vk.com/wall-6126497_3962082	29.09.2023 13:29	220
Автомагия	https://vk.com/wall-6126497_3962083	29.09.2023 13:29	220
ProfMaster	https://vk.com/wall-6126497_3962135	29.09.2023 15:14	330
Пых_пых	https://vk.com/wall-6126497_3962158	29.09.2023 15:47	220
Игорь_Тишкин_ремонт_мобильных_телефонов	https://vk.com/wall-6126497_3962314	29.09.2023 19:39	500
Планета	https://vk.com/wall-6126497_3962594	30.09.2023 10:00	220
Code_la_Dance	https://vk.com/wall-6126497_3962614	30.09.2023 10:14	220
Автомагия	https://vk.com/wall-6126497_3962615	30.09.2023 10:14	220
89021328349_горбуша_непотрошенная	https://vk.com/wall-6126497_3962766	30.09.2023 14:39	100
Три_хвоста	https://vk.com/wall-6126497_3962778	30.09.2023 15:00	220
North_Style	https://vk.com/wall-6126497_3962934	30.09.2023 18:27	220
Альт	https://vk.com/wall-6126497_3963005	30.09.2023 20:23	500
Риелтор_Ульяна	https://vk.com/wall-6126497_3963076	30.09.2023 22:23	220