title	url	date	cost	comment
Развал-Схождение выполняем на самом новейшем компьютерном стенде ТЕХНО ВЕКТОР 7 	https://vk.com/wall-6126497_2731243	01.10.2019 10:00	200	
💥 СЕВЕРНАЯ ЛАВКА💥 https://vk.com/club84353722  💥 НОВЫЙ ТОВАР 💥БИЗИБОРДЫ💥  В НАЛИ	https://vk.com/wall-6126497_2731360	01.10.2019 11:59	100	
Развал-Схождение выполняем на самом новейшем компьютерном стенде ТЕХНО ВЕКТОР 7 	https://vk.com/wall-6126497_2731797	01.10.2019 18:00	200	
С Первым Мурманским Вы на шаг ближе к своей мечте! Подайте заявку сегодня на сай	https://vk.com/wall-6126497_2731799	01.10.2019 18:01	200	
	https://vk.com/wall-6126497_2731814	01.10.2019 18:10	300	клиента обслуживают несколько модераторов: Валерий Фатхуллин, Дмитрий Дубов
	https://vk.com/wall-6126497_2731818	01.10.2019 18:12	300	
Займы на условиях «День рождения», «Новый заемщик» предоставляются наличными ден	https://vk.com/wall-6126497_2731885	01.10.2019 19:14	200	
	https://vk.com/wall-6126497_2732161	01.10.2019 23:58	300	
Празднуем День Рождения Мурманска!    «Мурманск, город мой широкоплечий!  Грудью	https://vk.com/wall-6126497_2732593	02.10.2019 13:33	200	
В городе Заполярный ожидается открытие нового салона красоты «бигуди». На работу	https://vk.com/wall-6126497_2732996	02.10.2019 18:37	200	
	https://vk.com/wall-6126497_2733038	02.10.2019 19:07	300	
В магазине «Альт» акция! Чайник электрический всего за 795 рублей!  Так же посту	https://vk.com/wall-6126497_2733108	02.10.2019 19:53	200	
	https://vk.com/wall-6126497_2733636	03.10.2019 11:01	300	
Развал-Схождение выполняем на самом новейшем компьютерном стенде ТЕХНО ВЕКТОР 7 	https://vk.com/wall-6126497_2733679	03.10.2019 11:28	200	
	https://vk.com/wall-6126497_2733755	03.10.2019 12:49	300	
Шиномонтаж в Печенге, гараж находится в районе Стадионная д.5. Обращаться в любо	https://vk.com/wall-6126497_2733762	03.10.2019 12:51	200	
Милые девушки,приглашаю на: У/З чистку лица У/З массаж лица Массаж  Шугаринг. Ес	https://vk.com/wall-6126497_2734051	03.10.2019 16:28	200	
🌺Полимерная депиляция. Коллагенирование ресниц.🌺 Цены Вас Порадуют🍬👉https://m.vk	https://vk.com/wall-6126497_2734317	03.10.2019 20:29	100	
Развал-Схождение выполняем на самом новейшем компьютерном стенде ТЕХНО ВЕКТОР 7 	https://vk.com/wall-6126497_2734722	04.10.2019 10:00	200	
С Первым Мурманским Вы на шаг ближе к своей мечте! Подайте заявку сегодня на сай	https://vk.com/wall-6126497_2735336	04.10.2019 18:42	200	
Развал-Схождение выполняем на самом новейшем компьютерном стенде ТЕХНО ВЕКТОР 7 	https://vk.com/wall-6126497_2735868	05.10.2019 10:00	200	
	https://vk.com/wall-6126497_2736005	05.10.2019 11:37	300	
Развал-Схождение выполняем на самом новейшем компьютерном стенде ТЕХНО ВЕКТОР 7 	https://vk.com/wall-6126497_2736611	05.10.2019 18:00	200	
	https://vk.com/wall-6126497_2737732	06.10.2019 17:35	300	
https://vk.com/club152791206 "ТРИКОТАЖ ИЗ ИВАНОВО"  Рада приветствовать Вас в мо	https://vk.com/wall-6126497_2738354	07.10.2019 09:47	200	
💥 СЕВЕРНАЯ ЛАВКА💥 https://vk.com/club84353722  💥 НОВЫЙ ТОВАР 💥 ПУПСЫ 💥  В НАЛИЧИ	https://vk.com/wall-6126497_2738378	07.10.2019 10:02	100	
Шиномонтаж в Печенге, гараж находится в районе Стадионная д.5. Обращаться в любо	https://vk.com/wall-6126497_2738487	07.10.2019 11:54	200	
	https://vk.com/wall-6126497_2738702	07.10.2019 14:50	300	
Начинающий мастер ногтевого сервиса, набирает моделей по приятным ценам для отра	https://vk.com/wall-6126497_2738910	07.10.2019 17:32	200	
Развал-Схождение выполняем на самом новейшем компьютерном стенде ТЕХНО ВЕКТОР 7 	https://vk.com/wall-6126497_2738952	07.10.2019 18:09	200	
	https://vk.com/wall-6126497_2739261	07.10.2019 22:59	300	
ВСЯ варёная колбаса со скидкой -25%!  Варёную колбасу можно по праву считать про	https://vk.com/wall-6126497_2739686	08.10.2019 13:33	200	
	https://vk.com/wall-6126497_2739782	08.10.2019 14:31	300	
Всем Привет!))) 😊😊😊😉  Появилась новая услуга от группы https://vk.com/avtonazaka	https://vk.com/wall-6126497_2740479	08.10.2019 23:54	200	
Займы на условиях «День рождения», «Новый заемщик» предоставляются наличными ден	https://vk.com/wall-6126497_2740889	09.10.2019 12:53	200	
	https://vk.com/wall-6126497_2741046	09.10.2019 14:47	300	
Рыбный четверг? И даже пятница? Легко! -25%!!!  А вы уже пробовали наши замечате	https://vk.com/wall-6126497_2742244	10.10.2019 13:47	200	
	https://vk.com/wall-6126497_2742348	10.10.2019 15:09	300	
	https://vk.com/wall-6126497_2742820	10.10.2019 21:00	300	
[club129860849|Компьютерный сервис «Терабайт»!] Вступайте в нашу группу у нас мо	https://vk.com/wall-6126497_2742967	10.10.2019 22:59	150	
💥АРГОННО-ДУГОВАЯ СВАРКА💥:  ✅Чёрные металлы, алюминий, дюралюминий, силумин, леги	https://vk.com/wall-6126497_2744085	11.10.2019 19:01	200	
[club129860849|ТераБайт_51 ! Компьютерный сервис!] Вступайте в нашу группу у нас	https://vk.com/wall-6126497_2744420	11.10.2019 23:37	150	
	https://vk.com/wall-6126497_2745835	13.10.2019 09:00	300	
	https://vk.com/wall-6126497_2746533	13.10.2019 17:48	300	
Дорогие женщины!!!  15 октября(вторник) в ДК г.Никель  16-17 октября(среда и чет	https://vk.com/wall-6126497_2747082	14.10.2019 09:41	200	
14 октября в интернет-магазине ОКРАИНА ВСЕМ и НАВСЕГДА СКИДКА 20%!  Совершите за	https://vk.com/wall-6126497_2747590	14.10.2019 16:47	200	
💥 СЕВЕРНАЯ ЛАВКА💥 https://vk.com/club84353722  💥 НОВЫЙ ТОВАР 💥 МЕБЕЛЬ ДЛЯ КУКОЛ 	https://vk.com/wall-6126497_2747597	14.10.2019 16:51	200	
В магазине  "Джинсовый Дом "   поступление нового товара  джинсов  женские, мужс	https://vk.com/wall-6126497_2747894	14.10.2019 20:57	200	клиента обслуживают несколько модераторов: Валерий Фатхуллин, Дмитрий Дубов
	https://vk.com/wall-6126497_2748677	15.10.2019 16:00	300	
💥АРГОННО-ДУГОВАЯ СВАРКА💥:  ✅Чёрные металлы, алюминий, дюралюминий, силумин, леги	https://vk.com/wall-6126497_2748733	15.10.2019 16:46	200	
	https://vk.com/wall-6126497_2749002	15.10.2019 21:01	300	клиента обслуживают несколько модераторов: Валерий Фатхуллин, Дмитрий Дубов
	https://vk.com/wall-6126497_2749701	16.10.2019 15:01	300	клиента обслуживают несколько модераторов: Валерий Фатхуллин, Дмитрий Дубов
Сегодня последняя поставка в этом году живых раков из Карелии Вопросы в л/с или 	https://vk.com/wall-6126497_2749709	16.10.2019 15:03	200	
[club129860849|ТераБайт_51 ! Компьютерный сервис!]  Вступайте в нашу группу у на	https://vk.com/wall-6126497_2750165	16.10.2019 21:02	150	
В магазине  "Джинсовый Дом "   поступление нового товара  джинсов  женские, мужс	https://vk.com/wall-6126497_2750275	16.10.2019 22:28	200	клиента обслуживают несколько модераторов: Валерий Фатхуллин, Дмитрий Дубов
	https://vk.com/wall-6126497_2750601	17.10.2019 09:55	300	
130 р. 89110646666	https://vk.com/wall-6126497_2750649	17.10.2019 10:49	200	
В магазине  "Джинсовый Дом "   поступление нового товара  джинсов  женские, мужс	https://vk.com/wall-6126497_2750689	17.10.2019 11:28	200	клиента обслуживают несколько модераторов: Валерий Фатхуллин, Дмитрий Дубов
💥АРГОННО-ДУГОВАЯ СВАРКА💥:  ✅Чёрные металлы, алюминий, дюралюминий, силумин, леги	https://vk.com/wall-6126497_2751142	17.10.2019 18:00	200	
Сосиски -24%! 17-18 октября!  89 оригинальных блюд мы можем приготовить из наших	https://vk.com/wall-6126497_2751155	17.10.2019 18:08	200	
	https://vk.com/wall-6126497_2751218	17.10.2019 19:00	300	
	https://vk.com/wall-6126497_2751990	18.10.2019 13:00	300	
В магазине  "Джинсовый Дом "   поступление нового товара  джинсов  женские, мужс	https://vk.com/wall-6126497_2752033	18.10.2019 13:29	200	клиента обслуживают несколько модераторов: Валерий Фатхуллин, Дмитрий Дубов
В магазине  "Джинсовый Дом "   поступление нового товара  джинсов  женские, мужс	https://vk.com/wall-6126497_2752852	19.10.2019 10:29	200	клиента обслуживают несколько модераторов: Валерий Фатхуллин, Дмитрий Дубов
	https://vk.com/wall-6126497_2753047	19.10.2019 13:00	300	
Международный день Повара!  Одна из самых первых и самых востребованных професси	https://vk.com/wall-6126497_2753134	19.10.2019 14:20	200	
	https://vk.com/wall-6126497_2753184	19.10.2019 15:01	300	
💥АРГОННО-ДУГОВАЯ СВАРКА💥:  ✅Чёрные металлы, алюминий, дюралюминий, силумин, леги	https://vk.com/wall-6126497_2753403	19.10.2019 18:00	200	
В магазине  "Джинсовый Дом "   поступление нового товара  джинсов  женские, мужс	https://vk.com/wall-6126497_2754191	20.10.2019 11:29	200	клиента обслуживают несколько модераторов: Валерий Фатхуллин, Дмитрий Дубов
ХОТИТЕ НАТЯЖНОЙ ПОТОЛОК?    НУЖНА КОМПАНИЯ С ОПЫТОМ, ДОГОВОРОМ И ГАРАНТИЕЙ?   На	https://vk.com/wall-6126497_2754225	20.10.2019 12:07	200	
	https://vk.com/wall-6126497_2754327	20.10.2019 13:00	300	
	https://vk.com/wall-6126497_2754454	20.10.2019 14:15	300	
Получай выгоды с картой «Проф Плюс» ! #ПрофПлюс, финалист всероссийского конкурс	https://vk.com/wall-6126497_2755190	20.10.2019 22:34	200	
В магазине  "Джинсовый Дом "   поступление нового товара  джинсов  женские, мужс	https://vk.com/wall-6126497_2755632	21.10.2019 12:29	200	клиента обслуживают несколько модераторов: Валерий Фатхуллин, Дмитрий Дубов
	https://vk.com/wall-6126497_2755669	21.10.2019 13:00	300	
💥АРГОННО-ДУГОВАЯ СВАРКА💥:  ✅Чёрные металлы, алюминий, дюралюминий, силумин, леги	https://vk.com/wall-6126497_2756105	21.10.2019 19:00	200	
	https://vk.com/wall-6126497_2756865	22.10.2019 13:00	300	
Ребята, теперь в Заполярном есть возможность приобрести продукцию NL internation	https://vk.com/wall-6126497_2757282	22.10.2019 18:23	200	
	https://vk.com/wall-6126497_2757411	22.10.2019 20:32	300	
	https://vk.com/wall-6126497_2757974	23.10.2019 13:00	300	
💥АРГОННО-ДУГОВАЯ СВАРКА💥:  ✅Чёрные металлы, алюминий, дюралюминий, силумин, леги	https://vk.com/wall-6126497_2758456	23.10.2019 20:00	200	
💥АРГОННО-ДУГОВАЯ СВАРКА💥:  ✅Чёрные металлы, алюминий, дюралюминий, силумин, леги	https://vk.com/wall-6126497_2758510	23.10.2019 21:00	200	
	https://vk.com/wall-6126497_2759109	24.10.2019 13:00	300	
	https://vk.com/wall-6126497_2760257	25.10.2019 13:00	300	
Отмечаем День Рождения ОКРАИНЫ!  27 хитов, 27 скидок, 3 дня – вот так мы отмечае	https://vk.com/wall-6126497_2760443	25.10.2019 15:17	200	
💥АРГОННО-ДУГОВАЯ СВАРКА💥:  ✅Чёрные металлы, алюминий, дюралюминий, силумин, леги	https://vk.com/wall-6126497_2760944	25.10.2019 22:00	200	
	https://vk.com/wall-6126497_2761498	26.10.2019 13:00	300	
	https://vk.com/wall-6126497_2762624	27.10.2019 13:00	300	
💥АРГОННО-ДУГОВАЯ СВАРКА💥:  ✅Чёрные металлы, алюминий, дюралюминий, силумин, леги	https://vk.com/wall-6126497_2762842	27.10.2019 16:00	200	
	https://vk.com/wall-6126497_2763783	28.10.2019 13:00	300	
	https://vk.com/wall-6126497_2764975	29.10.2019 13:00	300	
💥АРГОННО-ДУГОВАЯ СВАРКА💥:  ✅Чёрные металлы, алюминий, дюралюминий, силумин, леги	https://vk.com/wall-6126497_2765355	29.10.2019 18:00	200	
	https://vk.com/wall-6126497_2766072	30.10.2019 13:00	300	
	https://vk.com/wall-6126497_2767179	31.10.2019 13:00	300	
Страшно вкусный Хэллоуин!  Отмечаете Хэллоуин? Позвольте предложить вам ужасно в	https://vk.com/wall-6126497_2767352	31.10.2019 15:23	200	
💥АРГОННО-ДУГОВАЯ СВАРКА💥:  ✅Чёрные металлы, алюминий, дюралюминий, силумин, леги	https://vk.com/wall-6126497_2767514	31.10.2019 18:00	200	
Примерно 1471-75 км, около 74 км до Заполярного, район Заозерского перевала, на 	https://vk.com/wall-6126497_2767872	31.10.2019 23:03	200	