title	url	date	cost
89217095675_куплю_золото	https://vk.com/wall-6126497_3915167	01.07.2023 13:00	220
Александра_Карипова	https://vk.com/wall-6126497_3915334	01.07.2023 19:00	100
Александра_Карипова	https://vk.com/wall-6126497_3915840	02.07.2023 19:03	100
Наращивание_волос_Заполярный	https://vk.com/wall-6126497_3915865	02.07.2023 20:15	500
Александра_Карипова	https://vk.com/wall-6126497_3916290	03.07.2023 19:00	100
89217095675_куплю_золото	https://vk.com/wall-6126497_3916594	04.07.2023 13:00	220
Александра_Карипова	https://vk.com/wall-6126497_3916794	04.07.2023 19:00	100
Александра_Карипова	https://vk.com/wall-6126497_3917279	05.07.2023 19:03	100
89217095675_куплю_золото	https://vk.com/wall-6126497_3917545	06.07.2023 13:00	220
Обувь_51	https://vk.com/wall-6126497_3918266	07.07.2023 22:01	500
89217095675_куплю_золото	https://vk.com/wall-6126497_3918472	08.07.2023 13:03	220
89892335611	https://vk.com/wall-6126497_3918662	08.07.2023 20:12	220
89892335611	https://vk.com/wall-6126497_3918672	08.07.2023 20:25	220
89892335611	https://vk.com/wall-6126497_3918675	08.07.2023 20:35	220
89113470910_свежая_семга	https://vk.com/wall-6126497_3918794	09.07.2023 11:10	220
89113471625_свежая_горбуша	https://vk.com/wall-6126497_3918894	09.07.2023 14:52	100
89113470910_свежая_семга	https://vk.com/wall-6126497_3918918	09.07.2023 16:05	220
89217095675_куплю_золото	https://vk.com/wall-6126497_3919663	11.07.2023 13:00	220
89113470910_свежая_семга	https://vk.com/wall-6126497_3919762	11.07.2023 16:10	220
89892335611	https://vk.com/wall-6126497_3920087	12.07.2023 10:20	220
89892335611	https://vk.com/wall-6126497_3920104	12.07.2023 10:55	220
89892335611	https://vk.com/wall-6126497_3920108	12.07.2023 11:10	220
Магазин_Штольня	https://vk.com/wall-6126497_3920157	12.07.2023 13:09	500
89217095675_куплю_золото	https://vk.com/wall-6126497_3920598	13.07.2023 13:00	220
Магазин_Дом	https://vk.com/wall-6126497_3920732	13.07.2023 16:58	100
Магазин_Дом	https://vk.com/wall-6126497_3920876	13.07.2023 20:00	100
Грузоперевозки_89212705233	https://vk.com/wall-6126497_3921058	14.07.2023 10:00	500
Салон_для_ресниц	https://vk.com/wall-6126497_3921155	14.07.2023 14:00	500
Массаж_Горелова	https://vk.com/wall-6126497_3921268	14.07.2023 19:01	500
89892335611	https://vk.com/wall-6126497_3921361	14.07.2023 23:23	220
89217095675_куплю_золото	https://vk.com/wall-6126497_3921545	15.07.2023 13:00	220
89892335611	https://vk.com/wall-6126497_3921599	15.07.2023 14:57	220
89384131690_свежая_семга	https://vk.com/wall-6126497_3922020	16.07.2023 16:16	500
89113470910_свежая_семга	https://vk.com/wall-6126497_3922742	18.07.2023 10:31	220
89217095675_куплю_золото	https://vk.com/wall-6126497_3922807	18.07.2023 13:00	220
89211738253_морские_прогулки	https://vk.com/wall-6126497_3923242	19.07.2023 12:22	500
Step_by_Step	https://vk.com/wall-6126497_3923337	19.07.2023 15:25	500
Маникюр_и_педикюр_Заполярный	https://vk.com/wall-6126497_3923366	19.07.2023 16:20	100
89217095675_куплю_золото	https://vk.com/wall-6126497_3923727	20.07.2023 13:00	220
Маникюр_и_педикюр_Заполярный	https://vk.com/wall-6126497_3923851	20.07.2023 16:20	100
89113470910_свежая_семга	https://vk.com/wall-6126497_3924182	21.07.2023 12:50	220
Маникюр_и_педикюр_Заполярный	https://vk.com/wall-6126497_3924299	21.07.2023 16:20	100
89113470910_свежая_семга	https://vk.com/wall-6126497_3924557	22.07.2023 10:54	220
89217095675_куплю_золото	https://vk.com/wall-6126497_3924626	22.07.2023 13:00	220
Торговый_дом_Заполярный	https://vk.com/wall-6126497_3924628	22.07.2023 13:00	500
Маникюр_и_педикюр_Заполярный	https://vk.com/wall-6126497_3924713	22.07.2023 16:20	100
Грузоперевозки_Заполярный_89211608887	https://vk.com/wall-6126497_3924829	22.07.2023 21:00	500
89113470910_свежая_семга	https://vk.com/wall-6126497_3924991	23.07.2023 12:05	220
Мир_обуви_и_одежды	https://vk.com/wall-6126497_3925105	23.07.2023 16:00	220
Маникюр_и_педикюр_Заполярный	https://vk.com/wall-6126497_3925114	23.07.2023 16:20	100
89113470910_свежая_семга	https://vk.com/wall-6126497_3925526	24.07.2023 15:27	220
Маникюр_и_педикюр_Заполярный	https://vk.com/wall-6126497_3925541	24.07.2023 16:20	100
Артем_тату_мастер	https://vk.com/wall-6126497_3925583	24.07.2023 18:01	500
Мир_обуви_и_одежды	https://vk.com/wall-6126497_3925604	24.07.2023 19:00	220
89113471625_свежая_горбуша	https://vk.com/wall-6126497_3925658	24.07.2023 20:48	100
89217095675_куплю_золото	https://vk.com/wall-6126497_3925920	25.07.2023 13:00	220
Маникюр_и_педикюр_Заполярный	https://vk.com/wall-6126497_3926026	25.07.2023 16:20	100
89212758312_вакансия	https://vk.com/wall-6126497_3926112	25.07.2023 18:54	500
Мир_обуви_и_одежды	https://vk.com/wall-6126497_3926116	25.07.2023 19:00	220
Грузоперевозки_Заполярный_89211608887	https://vk.com/wall-6126497_3926185	25.07.2023 21:00	500
Маникюр_и_педикюр_Заполярный	https://vk.com/wall-6126497_3926603	26.07.2023 16:20	100
89217095675_куплю_золото	https://vk.com/wall-6126497_3927018	27.07.2023 13:00	220
Мир_обуви_и_одежды	https://vk.com/wall-6126497_3927656	28.07.2023 19:58	220
Грузоперевозки_Заполярный_89211608887	https://vk.com/wall-6126497_3927689	28.07.2023 21:00	500
Мир_обуви_и_одежды	https://vk.com/wall-6126497_3927869	29.07.2023 11:00	220
89217095675_куплю_золото	https://vk.com/wall-6126497_3927923	29.07.2023 13:00	220
Салон_для_ресниц	https://vk.com/wall-6126497_3928610	30.07.2023 14:40	100
Маникюр_и_педикюр_Заполярный	https://vk.com/wall-6126497_3928807	30.07.2023 21:15	100
Маникюр_и_педикюр_Заполярный	https://vk.com/wall-6126497_3929200	31.07.2023 18:05	100
Мир_обуви_и_одежды	https://vk.com/wall-6126497_3929274	31.07.2023 21:00	220