title	start-date	start-time	end-date	end-time	hours	cost
Булат	01.07.2023	14:00	01.07.2023	17:00	3	300
Борыгин	01.07.2023	17:00	01.07.2023	20:00	3	300
Булат	02.07.2023	14:00	02.07.2023	17:00	3	300
Борыгин	02.07.2023	17:00	02.07.2023	20:00	3	300
Аникусьско	05.07.2023	22:00	05.07.2023	23:00	1	100
Нахалова	06.07.2023	12:00	06.07.2023	13:00	1	100
Борыгин	06.07.2023	17:00	06.07.2023	21:00	4	400
Аникусько	06.07.2023	22:00	06.07.2023	23:00	1	100
аникусько	07.07.2023	23:00	08.07.2023	00:00	1	0
Борыгин	08.07.2023	17:00	08.07.2023	21:00	4	400
Аникусько	08.07.2023	21:00	08.07.2023	22:00	1	100
Аникусько	09.07.2023	22:00	09.07.2023	23:00	1	100
Пых	10.07.2023	10:00	10.07.2023	22:00	12	1200
Пых	11.07.2023	10:00	11.07.2023	22:00	12	1200
Пых	12.07.2023	10:00	12.07.2023	22:00	12	1200
Пых	13.07.2023	10:00	13.07.2023	22:00	12	1200
Борыгин	15.07.2023	17:00	15.07.2023	21:00	4	400
Борыгин	17.07.2023	17:00	17.07.2023	21:00	4	400
Милонкова	18.07.2023	00:00	18.07.2023	17:00	17	1700
Борыгин	18.07.2023	17:00	18.07.2023	21:00	4	400
Милонкова	18.07.2023	21:00	18.07.2023	23:45	2	200
Кудинова	19.07.2023	17:00	19.07.2023	18:00	1	100
Булат	21.07.2023	18:00	21.07.2023	23:00	5	500
Борыгин	22.07.2023	17:00	22.07.2023	21:00	4	400
Борыгин	23.07.2023	17:00	23.07.2023	21:00	4	400
Золотарев	23.07.2023	21:00	23.07.2023	23:45	2	200
Персей	24.07.2023	20:00	24.07.2023	22:00	2	200
Золотарев	26.07.2023	18:00	26.07.2023	21:00	3	300
	27.07.2023	14:00	27.07.2023	19:00	5	500
Золотарев	27.07.2023	19:00	27.07.2023	22:00	3	300
	29.07.2023	17:00	29.07.2023	19:00	2	200
Алборова	30.07.2023	18:00	30.07.2023	23:00	5	500