title	url	date	cost
ТК_Спутник	https://vk.com/wall-6126497_4046905	01.04.2024 18:30	220
ТК_Спутник	https://vk.com/wall-6126497_4047355	02.04.2024 19:40	220
ТК_Спутник	https://vk.com/wall-6126497_4047689	03.04.2024 18:41	220
ТК_Спутник	https://vk.com/wall-6126497_4048140	04.04.2024 18:45	220
ТК_Спутник	https://vk.com/wall-6126497_4048511	05.04.2024 18:40	220
ТК_Спутник	https://vk.com/wall-6126497_4048891	06.04.2024 18:45	220
ТК_Спутник	https://vk.com/wall-6126497_4049236	07.04.2024 18:40	220
ТК_Спутник	https://vk.com/wall-6126497_4049550	08.04.2024 18:45	220
ТК_Спутник	https://vk.com/wall-6126497_4049971	09.04.2024 18:40	220
ТК_Спутник	https://vk.com/wall-6126497_4050325	10.04.2024 18:45	220
ТК_Спутник	https://vk.com/wall-6126497_4050682	11.04.2024 18:40	220
ТК_Спутник	https://vk.com/wall-6126497_4051082	12.04.2024 18:45	220
ТК_Спутник	https://vk.com/wall-6126497_4051443	13.04.2024 18:40	220
ТК_Спутник	https://vk.com/wall-6126497_4051797	14.04.2024 18:45	220
ТК_Спутник	https://vk.com/wall-6126497_4052283	15.04.2024 18:40	220
ТК_Спутник	https://vk.com/wall-6126497_4052787	16.04.2024 18:45	220
ТК_Спутник	https://vk.com/wall-6126497_4053223	17.04.2024 18:40	220
ТК_Спутник	https://vk.com/wall-6126497_4053602	18.04.2024 18:45	220
ТК_Спутник	https://vk.com/wall-6126497_4054056	19.04.2024 18:40	220
ТК_Спутник	https://vk.com/wall-6126497_4054467	20.04.2024 18:45	220
ТК_Спутник	https://vk.com/wall-6126497_4054851	21.04.2024 18:40	220
ТК_Спутник	https://vk.com/wall-6126497_4055247	22.04.2024 18:45	220
ТК_Спутник	https://vk.com/wall-6126497_4055670	23.04.2024 18:40	220
ТК_Спутник	https://vk.com/wall-6126497_4056126	24.04.2024 18:45	220
Кафе_Северяночка	https://vk.com/wall-6126497_4056366	25.04.2024 11:55	330
ТК_Спутник	https://vk.com/wall-6126497_4056563	25.04.2024 18:40	220
Кафе_Северяночка	https://vk.com/wall-6126497_4056821	26.04.2024 11:55	330
ТК_Спутник	https://vk.com/wall-6126497_4057004	26.04.2024 18:45	220
Кафе_Северяночка	https://vk.com/wall-6126497_4057238	27.04.2024 11:52	330
ТК_Спутник	https://vk.com/wall-6126497_4057430	27.04.2024 18:40	220
Кафе_Северяночка	https://vk.com/wall-6126497_4057728	28.04.2024 16:00	330
ТК_Спутник	https://vk.com/wall-6126497_4057776	28.04.2024 18:45	220
ТК_Спутник	https://vk.com/wall-6126497_4058272	29.04.2024 18:40	220
ТК_Спутник	https://vk.com/wall-6126497_4058695	30.04.2024 18:45	220