title	start-date	start-time	end-date	end-time	hours	cost
Юлия Федотова	02.12.2022	00:00	02.12.2022	23:45	23	2000
Хурзадай	03.12.2022	15:00	03.12.2022	18:00	3	280
Романова	03.12.2022	18:00	03.12.2022	20:00	2	240
Полина Дикерт	03.12.2022	20:00	03.12.2022	23:45	3	360
Белова	05.12.2022	17:00	05.12.2022	18:00	1	120
Пустовалова	09.12.2022	13:00	09.12.2022	17:00	4	320
Романова	09.12.2022	19:00	09.12.2022	21:00	2	240
Милонкова	10.12.2022	09:00	10.12.2022	11:00	2	160
Гасанов	10.12.2022	13:00	10.12.2022	21:00	8	800
Милонкова	11.12.2022	00:00	11.12.2022	09:00	9	600
Милонкова	11.12.2022	12:00	11.12.2022	13:00	1	100
Гасанов	11.12.2022	13:00	11.12.2022	21:00	8	800
Милонкова	12.12.2022	09:00	12.12.2022	10:00	1	80
Пых	12.12.2022	10:00	12.12.2022	22:00	12	1200
Милонкова	13.12.2022	09:00	13.12.2022	10:00	1	80
Пых	13.12.2022	10:00	13.12.2022	22:00	12	1200
Лавтакова	14.12.2022	00:00	14.12.2022	09:00	9	600
Пых	14.12.2022	10:00	14.12.2022	22:00	12	1200
Гасанов	15.12.2022	13:00	15.12.2022	19:00	6	560
Гасанов	16.12.2022	13:00	16.12.2022	21:00	8	800
Зарина	17.12.2022	16:00	17.12.2022	22:00	6	680
	18.12.2022	06:00	18.12.2022	11:00	5	360
Лукашенко	18.12.2022	11:00	18.12.2022	13:00	2	200
Лавтакова	19.12.2022	09:00	19.12.2022	19:00	10	920
Милонкова	19.12.2022	19:00	19.12.2022	22:00	3	360
Лукашенко	19.12.2022	22:00	19.12.2022	23:45	1	120
Никитина	22.12.2022	21:00	22.12.2022	23:45	2	240
Пых	24.12.2022	10:00	24.12.2022	22:00	12	1200
Пых	25.12.2022	10:00	25.12.2022	22:00	12	1200
Пых	26.12.2022	10:00	26.12.2022	22:00	12	1200
Васильева	27.12.2022	15:00	27.12.2022	19:00	4	400
Трофименко	27.12.2022	21:00	27.12.2022	23:45	2	240
Васильева	28.12.2022	18:00	28.12.2022	19:00	1	120
Васильева	29.12.2022	18:00	29.12.2022	20:00	2	240
Трофименко	29.12.2022	20:00	29.12.2022	23:45	3	360
Васильева	30.12.2022	12:00	30.12.2022	14:00	2	180
Васильева	30.12.2022	18:00	30.12.2022	20:00	2	240
Трофименко	30.12.2022	20:00	30.12.2022	23:45	3	360