title	url	date	cost
	https://vk.com/wall-6126497_3798465	01.12.2022 07:19	199
	https://vk.com/wall-6126497_3798536	01.12.2022 09:52	199
	https://vk.com/wall-6126497_3798633	01.12.2022 12:29	199
	https://vk.com/wall-6126497_3798634	01.12.2022 12:29	199
Предоставляю услуги по реставрации ванной жидким акрилом https://vk.com/club2109	https://vk.com/wall-6126497_3798826	01.12.2022 17:00	199
Заполярный. Начинающий сертифицированный мастер маникюра ищет моделей для пополн	https://vk.com/wall-6126497_3798859	01.12.2022 18:00	199
	https://vk.com/wall-6126497_3799095	02.12.2022 00:01	298
	https://vk.com/wall-6126497_3799182	02.12.2022 09:02	199
	https://vk.com/wall-6126497_3799289	02.12.2022 12:00	199
	https://vk.com/wall-6126497_3799309	02.12.2022 12:28	199
	https://vk.com/wall-6126497_3799311	02.12.2022 12:29	199
	https://vk.com/wall-6126497_3799391	02.12.2022 14:00	298
п.Печенга!  Милые ДАМЫ  Приглашаю Вас на ШУГАРИНГ (сахарную депиляцию) по АКЦИИ.	https://vk.com/wall-6126497_3799509	02.12.2022 17:16	500
Заполярный. Начинающий сертифицированный мастер маникюра ищет моделей для пополн	https://vk.com/wall-6126497_3799585	02.12.2022 19:00	199
	https://vk.com/wall-6126497_3800086	03.12.2022 15:59	199
	https://vk.com/wall-6126497_3800149	03.12.2022 17:11	500
📍Заполярный  Всем привет! Меня зовут Екатерина и я начинающий сертифицированный 	https://vk.com/wall-6126497_3800189	03.12.2022 18:00	298
	https://vk.com/wall-6126497_3800192	03.12.2022 18:04	500
Заполярный. Начинающий сертифицированный мастер маникюра ищет моделей для пополн	https://vk.com/wall-6126497_3800237	03.12.2022 19:00	199
В магазине  «Альт» поступление товара: - Нижнее белье, в том числе нестандартных	https://vk.com/wall-6126497_3800267	03.12.2022 19:39	200
	https://vk.com/wall-6126497_3800290	03.12.2022 20:17	199
Заполярный 👍 Аренда 👍   Велотренажёр 👉  https://vk.com/market-187454425?w=produc	https://vk.com/wall-6126497_3800412	03.12.2022 23:30	500
	https://vk.com/wall-6126497_3800647	04.12.2022 13:18	199
Продам 2-комн.квартиру г.Заполярный, ул. Крупской, д.5, 3 этаж Стоимость 1,45 мл	https://vk.com/wall-6126497_3800671	04.12.2022 13:56	100
👉  Внимание в Декабре работаю в Заполярном,только 2 дня,11-18 числа ‼️( Запись в	https://vk.com/wall-6126497_3800727	04.12.2022 14:59	199
Предоставляю услуги по реставрации ванной жидким акрилом https://vk.com/club2109	https://vk.com/wall-6126497_3800869	04.12.2022 18:00	199
Заполярный. Начинающий сертифицированный мастер маникюра ищет моделей для пополн	https://vk.com/wall-6126497_3800892	04.12.2022 18:30	199
Дорогие Родители! ️Спешу сообщить, что открыли запись на Новогодние поздравляния	https://vk.com/wall-6126497_3800944	04.12.2022 19:41	199
	https://vk.com/wall-6126497_3800989	04.12.2022 20:47	199
	https://vk.com/wall-6126497_3801095	04.12.2022 23:30	298
Начинающий сертифицированный мастер по наращиванию ресниц приглашает моделей. Дл	https://vk.com/wall-6126497_3801316	05.12.2022 13:00	500
	https://vk.com/wall-6126497_3801319	05.12.2022 13:00	199
	https://vk.com/wall-6126497_3801320	05.12.2022 13:01	199
	https://vk.com/wall-6126497_3801374	05.12.2022 14:00	199
Добрый день!   Ищу менеджеров для удалённой работы. Можно совмещать с основной д	https://vk.com/wall-6126497_3801513	05.12.2022 16:46	500
Заполярный. Начинающий сертифицированный мастер маникюра ищет моделей для пополн	https://vk.com/wall-6126497_3801551	05.12.2022 18:00	199
	https://vk.com/wall-6126497_3801564	05.12.2022 18:18	298
	https://vk.com/wall-6126497_3801568	05.12.2022 18:29	199
	https://vk.com/wall-6126497_3801595	05.12.2022 19:00	298
Юридические услуги: 1) Гражданские дела 2)Административные дела 3)Трудовые споры	https://vk.com/wall-6126497_3801596	05.12.2022 19:05	199
Продам 2-комн.квартиру г.Заполярный, ул.Юбилейная, д.17 Стоимость 1,6 млн https:	https://vk.com/wall-6126497_3801830	06.12.2022 06:00	100
Заполярный. Милые девушки, ищу моделей на наращивание ресниц! Для пополнения пор	https://vk.com/wall-6126497_3801978	06.12.2022 11:35	500
	https://vk.com/wall-6126497_3802165	06.12.2022 16:11	199
	https://vk.com/wall-6126497_3802166	06.12.2022 16:11	199
Заполярный. Начинающий сертифицированный мастер маникюра ищет моделей для пополн	https://vk.com/wall-6126497_3802256	06.12.2022 19:00	199
Юридические услуги: 1) Гражданские дела 2)Административные дела 3)Трудовые споры	https://vk.com/wall-6126497_3802259	06.12.2022 19:05	199
Предлагаем Вашему вниманию 🔞Шуточный стриптиз🔥🔥🔥 от Антонио🕺 и Джулии 💃🏼 С нами 	https://vk.com/wall-6126497_3802284	06.12.2022 19:49	298
Уважаемые жители Печенгского округа, на ваш выбор мы готовы предложить: Туры по 	https://vk.com/wall-6126497_3802617	07.12.2022 11:04	200
	https://vk.com/wall-6126497_3802653	07.12.2022 12:22	500
Милые девушки,женщины!   Приглашаю вас на маникюр,покрытие гель-лаком,наращивани	https://vk.com/wall-6126497_3802663	07.12.2022 12:36	500
	https://vk.com/wall-6126497_3802680	07.12.2022 13:00	298
Предоставляю услуги: Сантехника и Электросварочных  Работ не Дорого  Вопросы тол	https://vk.com/wall-6126497_3802745	07.12.2022 14:25	500
Предоставляю услуги по реставрации ванной жидким акрилом https://vk.com/club2109	https://vk.com/wall-6126497_3802854	07.12.2022 17:00	199
Милые ДАМЫ.)   Приглашаю Вас на ШУГАРИНГ по АКЦИИ  СКИДКА 50% НА ПЕРВОЕ ПОСЕЩЕНИ	https://vk.com/wall-6126497_3802871	07.12.2022 17:22	500
Продам 2-комн.квартиру г.Заполярный, ул. Мира, д.7, 2 этаж Стоимость 1,55 млн ht	https://vk.com/wall-6126497_3802917	07.12.2022 18:34	100
Юридические услуги: 1) Гражданские дела 2)Административные дела 3)Трудовые споры	https://vk.com/wall-6126497_3802939	07.12.2022 19:05	199
	https://vk.com/wall-6126497_3802984	07.12.2022 19:50	199
	https://vk.com/wall-6126497_3803004	07.12.2022 20:24	199
	https://vk.com/wall-6126497_3803313	08.12.2022 12:48	199
	https://vk.com/wall-6126497_3803324	08.12.2022 12:59	199
	https://vk.com/wall-6126497_3803369	08.12.2022 14:00	199
	https://vk.com/wall-6126497_3803383	08.12.2022 14:16	199
Сдам в г. Заполярный 2-комн.кв. ул. Юбилейная, д.22 1-комн.кв., ул. К.Маркса, д.	https://vk.com/wall-6126497_3803530	08.12.2022 17:44	100
Юридические услуги: 1) Гражданские дела 2)Административные дела 3)Трудовые споры	https://vk.com/wall-6126497_3803585	08.12.2022 19:00	199
КРАСОТА ВАШИХ НОГТЕЙ В МОИХ РУКАХ! 💅💅  Всем привет 👋  Меня зовут Лера  Ищу модел	https://vk.com/wall-6126497_3803591	08.12.2022 19:05	500
В магазине  «Альт» поступление товара: - Нижнее белье, в том числе нестандартных	https://vk.com/wall-6126497_3803608	08.12.2022 19:35	200
Поздравление с помoщью рoстовой куклы  Мишки Тедди 🧸или Бубы! Хотите удивить люб	https://vk.com/wall-6126497_3803942	09.12.2022 13:04	298
	https://vk.com/wall-6126497_3803989	09.12.2022 13:50	500
Предоставляю услуги по реставрации ванной жидким акрилом https://vk.com/club2109	https://vk.com/wall-6126497_3804107	09.12.2022 17:30	199
Юридические услуги: 1) Гражданские дела 2)Административные дела 3)Трудовые споры	https://vk.com/wall-6126497_3804165	09.12.2022 19:00	199
	https://vk.com/wall-6126497_3804216	09.12.2022 20:23	199
Продам 2-комнатную квартиру г. Заполярный, ул. Мира, д.7 https://vk.com/vashreal	https://vk.com/wall-6126497_3804279	09.12.2022 21:36	100
	https://vk.com/wall-6126497_3804422	10.12.2022 07:57	300
	https://vk.com/wall-6126497_3804433	10.12.2022 08:36	199
	https://vk.com/wall-6126497_3804443	10.12.2022 08:59	199
‼️‼️Куплю ваше авто, целое, битое требующее срочной продажи, оформление на месте	https://vk.com/wall-6126497_3804463	10.12.2022 10:00	298
Предлагаем Вашему вниманию 🔞Шуточный стриптиз🔥🔥🔥 от Антонио🕺 и Джулии 💃🏼 С нами 	https://vk.com/wall-6126497_3804508	10.12.2022 11:07	298
	https://vk.com/wall-6126497_3804546	10.12.2022 12:13	298
	https://vk.com/wall-6126497_3804691	10.12.2022 15:29	199
	https://vk.com/wall-6126497_3804712	10.12.2022 16:00	298
💅КРАСОТЫ ВАШИХ НОГТЕЙ В МОИХ РУКАХ💅  ‼️‼️ПЕРВЫМ 10 ЛЮДЯМ , МАНИКЮР С ПОКРЫТИЕМ В	https://vk.com/wall-6126497_3804716	10.12.2022 16:05	500
	https://vk.com/wall-6126497_3804739	10.12.2022 16:33	199
Юридические услуги: 1) Гражданские дела 2)Административные дела 3)Трудовые споры	https://vk.com/wall-6126497_3804874	10.12.2022 19:00	199
Продам в г. Заполярный 3-комн.кв. ул. Юбилейная, д.22 2-комн.кв., ул. Крупской, 	https://vk.com/wall-6126497_3804986	10.12.2022 21:55	100
	https://vk.com/wall-6126497_3805040	10.12.2022 23:51	298
	https://vk.com/wall-6126497_3805281	11.12.2022 12:51	199
	https://vk.com/wall-6126497_3805339	11.12.2022 14:00	199
	https://vk.com/wall-6126497_3805520	11.12.2022 17:29	199
	https://vk.com/wall-6126497_3805717	11.12.2022 21:25	199
Ребята всех приветствую .  Хочу вам представить масло на разлив. Фирмы Lukoil 5/	https://vk.com/wall-6126497_3805957	12.12.2022 12:05	500
	https://vk.com/wall-6126497_3806016	12.12.2022 13:20	199
	https://vk.com/wall-6126497_3806154	12.12.2022 17:00	199
Предоставляю услуги по реставрации ванной жидким акрилом https://vk.com/club2109	https://vk.com/wall-6126497_3806188	12.12.2022 18:00	199
Юридические услуги: 1) Гражданские дела 2)Административные дела 3)Трудовые споры	https://vk.com/wall-6126497_3806235	12.12.2022 19:00	199
Ремонт мобильных телефонов📱  ✅ Планшетов  💻 ноутбуков  📺 ЖК- телевизоров    http	https://vk.com/wall-6126497_3806265	12.12.2022 19:43	199
Уважаемые жители и гости Печенгского р-на!  НАПОМИНАЕМ О СЕБЕ! Заполярный! Торго	https://vk.com/wall-6126497_3806279	12.12.2022 20:00	298
	https://vk.com/wall-6126497_3806354	12.12.2022 21:42	199
	https://vk.com/wall-6126497_3806387	12.12.2022 22:52	199
	https://vk.com/wall-6126497_3806580	13.12.2022 11:50	199
	https://vk.com/wall-6126497_3806625	13.12.2022 13:02	199
	https://vk.com/wall-6126497_3806849	13.12.2022 18:29	199
Юридические услуги: 1) Гражданские дела 2)Административные дела 3)Трудовые споры	https://vk.com/wall-6126497_3806866	13.12.2022 19:00	199
	https://vk.com/wall-6126497_3807293	14.12.2022 13:59	199
	https://vk.com/wall-6126497_3807454	14.12.2022 18:14	199
Юридические услуги: 1) Гражданские дела 2)Административные дела 3)Трудовые споры	https://vk.com/wall-6126497_3807477	14.12.2022 19:05	199
	https://vk.com/wall-6126497_3807481	14.12.2022 19:09	500
	https://vk.com/wall-6126497_3807570	14.12.2022 21:27	500
Пгт Никель  Печать фото 10х15 см - 10 р , от 100 штук по 9 р  А4 - 40 р   https:	https://vk.com/wall-6126497_3807577	14.12.2022 21:40	100
	https://vk.com/wall-6126497_3807666	14.12.2022 23:29	298
Заполярный 👍 Аренда 👍   Велотренажёр 👉  https://vk.com/market-187454425?w=produc	https://vk.com/wall-6126497_3807667	14.12.2022 23:30	500
📣Не пропустите ❄НОВАЯ ЗИМНЯЯ ❄ коллекция !💥 ➖большой выбор женской и мужской вер	https://vk.com/wall-6126497_3807724	15.12.2022 07:45	200
‼️‼️Куплю ваше авто, целое, битое требующее срочной продажи, оформление на месте	https://vk.com/wall-6126497_3807794	15.12.2022 11:00	298
	https://vk.com/wall-6126497_3807802	15.12.2022 11:09	199
	https://vk.com/wall-6126497_3807803	15.12.2022 11:09	199
	https://vk.com/wall-6126497_3807900	15.12.2022 13:34	199
Ремонт мобильных телефонов📱  ✅ Планшетов  💻 ноутбуков  📺 ЖК- телевизоров    http	https://vk.com/wall-6126497_3807991	15.12.2022 16:00	199
Юридические услуги: 1) Гражданские дела 2)Административные дела 3)Трудовые споры	https://vk.com/wall-6126497_3808138	15.12.2022 19:05	199
	https://vk.com/wall-6126497_3808152	15.12.2022 19:19	298
Предоставляю услуги по реставрации ванной жидким акрилом https://vk.com/vannaya5	https://vk.com/wall-6126497_3808179	15.12.2022 20:00	199
	https://vk.com/wall-6126497_3808380	16.12.2022 07:14	199
Продам 2-комнатную квартиру г. Заполярный, ул.Космонавтов, д.10 Стоимость 1,6 мл	https://vk.com/wall-6126497_3808418	16.12.2022 09:20	100
Никель, Заполярный, приглашаем на новогодние фотопроекты 🎄  2⃣4⃣ декабря (суббот	https://vk.com/wall-6126497_3808516	16.12.2022 12:20	500
	https://vk.com/wall-6126497_3808517	16.12.2022 12:22	199
	https://vk.com/wall-6126497_3808561	16.12.2022 13:23	199
	https://vk.com/wall-6126497_3808688	16.12.2022 16:38	298
Уважаемые жители и гости Печенгского р-на!  НАПОМИНАЕМ О СЕБЕ! Заполярный! Торго	https://vk.com/wall-6126497_3808722	16.12.2022 17:30	298
	https://vk.com/wall-6126497_3808746	16.12.2022 18:01	199
Предлагаем Вашему вниманию 🔞Шуточный стриптиз🔥🔥🔥 от Антонио🕺 и Джулии 💃🏼 С нами 	https://vk.com/wall-6126497_3809248	17.12.2022 14:49	298
	https://vk.com/wall-6126497_3809250	17.12.2022 14:49	199
Юридические услуги: 1) Гражданские дела 2)Административные дела 3)Трудовые споры	https://vk.com/wall-6126497_3809457	17.12.2022 19:00	199
СРОЧНО Продам в г. Заполярный 2-комн.кв. ул.Ленина, д.19 1400000 млн. https://m.	https://vk.com/wall-6126497_3809549	17.12.2022 20:33	100
	https://vk.com/wall-6126497_3809563	17.12.2022 20:52	500
	https://vk.com/wall-6126497_3809675	17.12.2022 23:06	199
	https://vk.com/wall-6126497_3809953	18.12.2022 14:33	199
Ремонт мобильных телефонов📱  ✅ Планшетов  💻 ноутбуков  📺 ЖК- телевизоров    http	https://vk.com/wall-6126497_3810086	18.12.2022 17:00	199
Предоставляю услуги по реставрации ванной жидким акрилом https://vk.com/vannaya5	https://vk.com/wall-6126497_3810119	18.12.2022 18:00	199
Юридические услуги: 1) Гражданские дела 2)Административные дела 3)Трудовые споры	https://vk.com/wall-6126497_3810185	18.12.2022 19:00	199
	https://vk.com/wall-6126497_3810465	19.12.2022 10:48	500
Никель, Заполярный❗❗❗  Девочки   записывайтесь на реконструкцию волос  сделаю ва	https://vk.com/wall-6126497_3810497	19.12.2022 11:45	199
Дорогие Родители! ️Спешу сообщить, что открыли запись на Новогодние поздравляния	https://vk.com/wall-6126497_3810513	19.12.2022 12:23	199
	https://vk.com/wall-6126497_3810636	19.12.2022 14:50	199
Юридические услуги: 1) Гражданские дела 2)Административные дела 3)Трудовые споры	https://vk.com/wall-6126497_3810798	19.12.2022 19:00	199
	https://vk.com/wall-6126497_3810815	19.12.2022 19:25	199
	https://vk.com/wall-6126497_3811219	20.12.2022 11:28	199
‼️В п.Старая Титовка работает АЗС ‼️❗	https://vk.com/wall-6126497_3811252	20.12.2022 12:05	500
Здравствуйте, меня зовут Альбина  Я косметолог с медицинским образованием  Буду 	https://vk.com/wall-6126497_3811259	20.12.2022 12:15	500
‼️‼️Куплю ваше авто, целое, битое требующее срочной продажи, оформление на месте	https://vk.com/wall-6126497_3811282	20.12.2022 12:51	298
Уважаемые жители и гости Печенгского р-на!  НАПОМИНАЕМ О СЕБЕ! Заполярный! Торго	https://vk.com/wall-6126497_3811316	20.12.2022 14:00	298
	https://vk.com/wall-6126497_3811350	20.12.2022 14:49	199
Думаешь о покупке квартиры в Санкт-Петербурге? Новостройки или вторичное жилье? 	https://vk.com/wall-6126497_3811370	20.12.2022 15:18	298
Юридические услуги: 1) Гражданские дела 2)Административные дела 3)Трудовые споры	https://vk.com/wall-6126497_3811582	20.12.2022 19:00	199
	https://vk.com/wall-6126497_3811788	20.12.2022 22:44	199
	https://vk.com/wall-6126497_3811791	20.12.2022 22:49	298
🌈Всем добрых дней и наилучших пожеланий!🌷 ↪ Особенно подростающему поколению, де	https://vk.com/wall-6126497_3811961	21.12.2022 10:06	199
Дорогие Родители! ️ Спешу сообщить, что открыли запись на Новогодние поздравляни	https://vk.com/wall-6126497_3812167	21.12.2022 14:11	199
	https://vk.com/wall-6126497_3812229	21.12.2022 15:08	199
Предоставляю услуги по реставрации ванной жидким акрилом https://vk.com/vannaya5	https://vk.com/wall-6126497_3812352	21.12.2022 17:00	199
❗️ВНИМАНИЕ ❗️ Приближаются Новогодние праздники, корпоративы! Открыта запись на 	https://vk.com/wall-6126497_3812447	21.12.2022 18:40	500
Юридические услуги: 1) Гражданские дела 2)Административные дела 3)Трудовые споры	https://vk.com/wall-6126497_3812463	21.12.2022 19:05	199
	https://vk.com/wall-6126497_3812488	21.12.2022 19:40	199
Ремонт мобильных телефонов📱  ✅ Планшетов  💻 ноутбуков  📺 ЖК- телевизоров    http	https://vk.com/wall-6126497_3812512	21.12.2022 20:00	199
🌈Всем добрых дней и наилучших пожеланий!🌷 ↪ Особенно подростающему поколению, де	https://vk.com/wall-6126497_3813007	22.12.2022 14:30	199
	https://vk.com/wall-6126497_3813127	22.12.2022 16:55	199
💢💢💢 Приглашаем посетить наши магазины "Патриот" по адресам в г. Североморске, ул	https://vk.com/wall-6126497_3813248	22.12.2022 19:20	500
	https://vk.com/wall-6126497_3813382	22.12.2022 22:11	199
	https://vk.com/wall-6126497_3813383	22.12.2022 22:11	199
Продам 2-комн.квартиру с мебелью и техникой ул.Космонавтов,1 этаж Цена 1,45 млн.	https://vk.com/wall-6126497_3813385	22.12.2022 22:14	100
Анатомические диваны Askona из наличия и со скидками до 50%! Распродажа выставки	https://vk.com/wall-6126497_3813734	23.12.2022 12:01	200
Ипотека 1% на весь срок  https://vk.com/irinanedvijimost	https://vk.com/wall-6126497_3813735	23.12.2022 12:03	298
	https://vk.com/wall-6126497_3813749	23.12.2022 12:29	199
	https://vk.com/wall-6126497_3813865	23.12.2022 14:28	199
Предлагаем Вашему вниманию 🔞Шуточный стриптиз🔥🔥🔥 от Антонио🕺 и Джулии 💃🏼 С нами 	https://vk.com/wall-6126497_3813868	23.12.2022 14:33	298
	https://vk.com/wall-6126497_3813893	23.12.2022 15:06	199
	https://vk.com/wall-6126497_3813952	23.12.2022 16:28	199
🌈Всем добрых дней и наилучших пожеланий!🌷 ↪ Особенно подростающему поколению, де	https://vk.com/wall-6126497_3814029	23.12.2022 18:15	199
	https://vk.com/wall-6126497_3814148	23.12.2022 21:19	199
Подписывайся в нашу группу сухой туман заполярный https://vk.com/ekotumanzpl. По	https://vk.com/wall-6126497_3814176	23.12.2022 22:05	500
	https://vk.com/wall-6126497_3814286	24.12.2022 01:48	199
	https://vk.com/wall-6126497_3814447	24.12.2022 12:30	199
Уважаемые жители и гости Печенгского р-на!  НАПОМИНАЕМ О СЕБЕ! Заполярный! Торго	https://vk.com/wall-6126497_3814604	24.12.2022 16:00	298
	https://vk.com/wall-6126497_3814605	24.12.2022 16:01	199
🌈Всем добрых дней и наилучших пожеланий!🌷 ↪ Особенно подростающему поколению, де	https://vk.com/wall-6126497_3814618	24.12.2022 16:30	199
Ипотека 1% на весь срок  https://vk.com/irinanedvijimost	https://vk.com/wall-6126497_3814636	24.12.2022 17:00	298
Ремонт мобильных телефонов📱  ✅ Планшетов  💻 ноутбуков  📺 ЖК- телевизоров    http	https://vk.com/wall-6126497_3814684	24.12.2022 18:00	199
Предоставляю услуги по реставрации ванной жидким акрилом https://vk.com/vannaya5	https://vk.com/wall-6126497_3814703	24.12.2022 18:30	199
📍Заполярный    Всем привет! Меня зовут Екатерина и я сертифицированный мастер по	https://vk.com/wall-6126497_3814709	24.12.2022 18:35	298
Поздравление с помoщью рoстовой куклы  Мишки Тедди 🧸или Бубы!Хотите удивить люби	https://vk.com/wall-6126497_3814730	24.12.2022 19:03	298
❄️Дорогие жители и гости  Печенгского района‼️ ❄️Магазин "ПЛАНЕТА  ОДЕЖДА, ОБУВЬ	https://vk.com/wall-6126497_3814776	24.12.2022 20:05	500
	https://vk.com/wall-6126497_3814926	24.12.2022 23:02	199
🌈Всем добрых дней и наилучших пожеланий!🌷 ↪ Особенно подростающему поколению, де	https://vk.com/wall-6126497_3815143	25.12.2022 12:30	199
	https://vk.com/wall-6126497_3815180	25.12.2022 13:10	199
‼️‼️Куплю ваше авто, целое, битое требующее срочной продажи, оформление на месте	https://vk.com/wall-6126497_3815219	25.12.2022 13:36	298
	https://vk.com/wall-6126497_3815373	25.12.2022 16:35	199
Предоставляю услуги: Сантехника и Электросварочных  Работ не Дорого  Вопросы тол	https://vk.com/wall-6126497_3815460	25.12.2022 18:33	500
Поздравление с помoщью рoстовой куклы  Мишки Тедди 🧸или Бубы!Хотите удивить люби	https://vk.com/wall-6126497_3815512	25.12.2022 19:30	298
	https://vk.com/wall-6126497_3815838	26.12.2022 12:01	500
	https://vk.com/wall-6126497_3815904	26.12.2022 13:37	298
	https://vk.com/wall-6126497_3815912	26.12.2022 13:41	199
	https://vk.com/wall-6126497_3815952	26.12.2022 14:28	199
🌈Всем добрых дней и наилучших пожеланий!🌷 ↪ Особенно подростающему поколению, де	https://vk.com/wall-6126497_3816139	26.12.2022 18:30	199
Наша компания поможет сделать Вашу квартиру красивой и уютной - от установки вхо	https://vk.com/wall-6126497_3816229	26.12.2022 20:45	500
Предлагаем Вашему вниманию 🔞Шуточный стриптиз🔥🔥🔥 от Антонио🕺 и Джулии 💃🏼 С нами 	https://vk.com/wall-6126497_3816482	27.12.2022 09:54	298
🌹Дорогие девочки, девушки, женщины. 🌹Приглашаю Вас к себе маникюр с покрытием ге	https://vk.com/wall-6126497_3816548	27.12.2022 11:59	500
Предоставляю услуги по реставрации ванной жидким акрилом https://vk.com/club2109	https://vk.com/wall-6126497_3816637	27.12.2022 14:00	100
Ремонт мобильных телефонов📱  ✅ Планшетов  💻 ноутбуков  📺 ЖК- телевизоров    http	https://vk.com/wall-6126497_3816744	27.12.2022 16:30	199
	https://vk.com/wall-6126497_3816760	27.12.2022 17:02	199
Наша компания поможет сделать Вашу квартиру красивой и уютной - от установки вхо	https://vk.com/wall-6126497_3816835	27.12.2022 18:43	500
Новостройки Санкт-Петербурга!   https://vk.com/irinanedvijimost	https://vk.com/wall-6126497_3816860	27.12.2022 19:20	298
🌈Всем добрых дней и наилучших пожеланий!🌷 ↪ Особенно подростающему поколению, де	https://vk.com/wall-6126497_3816914	27.12.2022 20:30	199
Дорогие Родители! ️Спешу сообщить, что открыли запись на Новогодние поздравляния	https://vk.com/wall-6126497_3816930	27.12.2022 21:02	199
	https://vk.com/wall-6126497_3816931	27.12.2022 21:03	199
Уважаемые жители Печенгского округа, поздравляем вас с наступающим Новым годом !	https://vk.com/wall-6126497_3817200	28.12.2022 12:45	200
г. Заполярный Сниму 3-комнатную квартиру https://m.vk.com/vashrealtor51	https://vk.com/wall-6126497_3817238	28.12.2022 13:43	100
	https://vk.com/wall-6126497_3817240	28.12.2022 13:43	500
🌈Всем добрых дней и наилучших пожеланий!🌷 ↪ Особенно подростающему поколению, де	https://vk.com/wall-6126497_3817255	28.12.2022 14:00	199
	https://vk.com/wall-6126497_3817268	28.12.2022 14:11	199
Уважаемые жители и гости Печенгского р-на!  НАПОМИНАЕМ О СЕБЕ! Заполярный! Торго	https://vk.com/wall-6126497_3817314	28.12.2022 15:00	298
Поздравление с помoщью рoстовой куклы  Мишки Тедди 🧸или Бубы!Хотите удивить люби	https://vk.com/wall-6126497_3817370	28.12.2022 16:14	298
https://vk.com/id476590504	https://vk.com/wall-6126497_3817574	28.12.2022 20:34	500
	https://vk.com/wall-6126497_3817598	28.12.2022 21:15	199
Самые "Вкусные" цены только у нас😜 и точка!😁           🚗Индивидуальный трансфер 	https://vk.com/wall-6126497_3817678	28.12.2022 23:29	200
Заполярный 👍 Аренда 👍    Прицеп двухосный Экспедиция 3600 * 1500 👉https://vk.com	https://vk.com/wall-6126497_3817679	28.12.2022 23:29	500
🌈Всем добрых дней и наилучших пожеланий!🌷 ↪ Особенно подростающему поколению, де	https://vk.com/wall-6126497_3818079	29.12.2022 17:00	199
❄️Дорогие жители и гости  Печенгского района‼️ ❄️Магазин "ПЛАНЕТА  ОДЕЖДА, ОБУВЬ	https://vk.com/wall-6126497_3818235	29.12.2022 20:46	500
	https://vk.com/wall-6126497_3818266	29.12.2022 21:24	199
Поздравление с помoщью рoстовой куклы  Мишки Тедди 🧸или Бубы!Хотите удивить люби	https://vk.com/wall-6126497_3818482	30.12.2022 09:45	298
Ремонт мобильных телефонов📱  ✅ Планшетов  💻 ноутбуков  📺 ЖК- телевизоров    http	https://vk.com/wall-6126497_3818602	30.12.2022 14:00	199
🌈Всем добрых дней и наилучших пожеланий!🌷 ↪ Особенно подростающему поколению, де	https://vk.com/wall-6126497_3818684	30.12.2022 16:30	199
Предоставляю услуги по реставрации ванной жидким акрилом https://vk.com/vannaya5	https://vk.com/wall-6126497_3818691	30.12.2022 17:00	199
	https://vk.com/wall-6126497_3818745	30.12.2022 18:02	500