title	url	date	cost	comment
🎗Студия Натяжных потолков🎗  🔥🔥🔥Акция на Натяжные потолки  со СПАЙКОЙ 20% 20% 20%	https://vk.com/wall-6126497_2567467	01.05.2019 10:00	200	клиента обслуживают несколько модераторов: Дмитрий Дубов, Елена Ушакова
	https://vk.com/wall-6126497_2567705	01.05.2019 12:45	300	
	https://vk.com/wall-6126497_2567725	01.05.2019 12:58	0	
Для вас, милые дамы🌷  🌸🌸🌸РАСПРОДАЖА ЖЕНСКОЙ ВЕСЕННЕЙ ОБУВИ!!!🌸🌸🌸  🔥🔥🔥🔥СКИДКА 30%	https://vk.com/wall-6126497_2567728	01.05.2019 13:00	200	
[club172395679|Окна. Двери. Потолки.]  Уважаемые жители Печенгского района! Толь	https://vk.com/wall-6126497_2568003	01.05.2019 16:30	200	
Ко дню Великой Победы!!! Традиционно, самые красивые броши к празднику у нас, в 	https://vk.com/wall-6126497_2568066	01.05.2019 17:11	200	
	https://vk.com/wall-6126497_2568104	01.05.2019 17:40	300	
🎗Студия Натяжных потолков🎗  🔥🔥🔥Акция на Натяжные потолки  со СПАЙКОЙ 20% 20% 20%	https://vk.com/wall-6126497_2568252	01.05.2019 20:19	200	клиента обслуживают несколько модераторов: Дмитрий Дубов, Елена Ушакова
EvgeniyaStudio в г. Заполярный: - окрашивания волос любой сложности; - кератинов	https://vk.com/wall-6126497_2568268	01.05.2019 20:36	200	
	https://vk.com/wall-6126497_2568380	01.05.2019 22:00	300	
[club172395679|Окна. Двери. Потолки.]  Уважаемые жители Печенгского района! Толь	https://vk.com/wall-6126497_2568649	02.05.2019 10:00	200	
🎗Студия Натяжных потолков🎗  🔥🔥🔥Акция на Натяжные потолки  со СПАЙКОЙ 20% 20% 20%	https://vk.com/wall-6126497_2568797	02.05.2019 12:00	200	клиента обслуживают несколько модераторов: Дмитрий Дубов, Елена Ушакова
Для вас, милые дамы🌷  🌸🌸🌸РАСПРОДАЖА ЖЕНСКОЙ ВЕСЕННЕЙ ОБУВИ!!!🌸🌸🌸  🔥🔥🔥🔥СКИДКА 30%	https://vk.com/wall-6126497_2568880	02.05.2019 13:00	200	
	https://vk.com/wall-6126497_2569159	02.05.2019 16:45	300	
	https://vk.com/wall-6126497_2569962	03.05.2019 11:42	300	
Для вас, милые дамы🌷  🌸🌸🌸РАСПРОДАЖА ЖЕНСКОЙ ВЕСЕННЕЙ ОБУВИ!!!🌸🌸🌸  🔥🔥🔥🔥СКИДКА 30%	https://vk.com/wall-6126497_2570092	03.05.2019 13:00	200	
	https://vk.com/wall-6126497_2570286	03.05.2019 15:28	0	
	https://vk.com/wall-6126497_2570288	03.05.2019 15:29	0	
🎗Студия Натяжных потолков🎗  🔥🔥🔥Акция на Натяжные потолки  со СПАЙКОЙ 20% 20% 20%	https://vk.com/wall-6126497_2570629	03.05.2019 20:02	200	клиента обслуживают несколько модераторов: Дмитрий Дубов, Елена Ушакова
Дорогие друзья!!! Приезжаем переобуваться на шиномонтаж "ДжONE-АВТО" г. Заполярн	https://vk.com/wall-6126497_2570743	03.05.2019 21:42	200	
	https://vk.com/wall-6126497_2570936	04.05.2019 01:22	150	
	https://vk.com/wall-6126497_2571126	04.05.2019 10:27	300	
Для вас, милые дамы🌷  🌸🌸🌸РАСПРОДАЖА ЖЕНСКОЙ ВЕСЕННЕЙ ОБУВИ!!!🌸🌸🌸  🔥🔥🔥🔥СКИДКА 30%	https://vk.com/wall-6126497_2571330	04.05.2019 13:00	200	
	https://vk.com/wall-6126497_2571543	04.05.2019 15:43	300	
	https://vk.com/wall-6126497_2571544	04.05.2019 15:44	300	
	https://vk.com/wall-6126497_2571814	04.05.2019 19:15	0	
	https://vk.com/wall-6126497_2572613	05.05.2019 13:03	200	
[club172395679|Окна. Двери. Потолки.]  Уважаемые жители Печенгского района! Толь	https://vk.com/wall-6126497_2573100	05.05.2019 18:30	200	
ЗАТОЧНИК В ГОРОДЕ ЗАПОЛЯРНЫЙ   Уважаемые мастера ногтевого сервиса,  парикмахерс	https://vk.com/wall-6126497_2573236	05.05.2019 20:00	200	
ХОТИТЕ НАТЯЖНОЙ ПОТОЛОК?  НУЖНА КОМПАНИЯ С ОПЫТОМ, ДОГОВОРОМ И ГАРАНТИЕЙ?  Наша 	https://vk.com/wall-6126497_2573243	05.05.2019 20:02	200	
	https://vk.com/wall-6126497_2573347	05.05.2019 21:20	300	
ДОБРО ПОЖАЛОВАТЬ!!!! в наш магазин "NEBUTIK"- расположенный по адресу - НИКЕЛЬ Г	https://vk.com/wall-6126497_2573491	05.05.2019 23:34	200	клиента обслуживают несколько модераторов: Дмитрий Дубов, Елена Ушакова
Перед оригинальным вкусом пиццы Аль Шам сложно устоять!   А когда эта пицца ПО С	https://vk.com/wall-6126497_2574186	06.05.2019 16:14	200	
Приглашаем Вас в наш интернет магазин  https://vk.com/club152162750 🥰 📌Огромный 	https://vk.com/wall-6126497_2574328	06.05.2019 18:28	200	
Центр раннего развития "Капитошка" в Заполярном https://vk.com/detzentr! будет п	https://vk.com/wall-6126497_2574401	06.05.2019 19:31	200	
Дорогие северяне, друзья! Команда нашего небольшого кафе поздравляет Вас с празд	https://vk.com/wall-6126497_2574428	06.05.2019 20:01	200	клиента обслуживают несколько модераторов: Дмитрий Дубов, Денис Ширшов
Вызвать клининговую компанию для уборки своей квартиры - не самый простой шаг дл	https://vk.com/wall-6126497_2574493	06.05.2019 21:00	200	
#Никель #Заполярный#Суши Wok #Акция #Набор #Роллы  С чего мы начнем этот вторник	https://vk.com/wall-6126497_2574868	07.05.2019 10:03	200	клиента обслуживают несколько модераторов: Дмитрий Дубов, Елена Ушакова
В магазине «АВТОМАГиЯ» большое поступление велосипедов и запчастей к ним.  Ждём 	https://vk.com/wall-6126497_2574937	07.05.2019 11:24	200	клиента обслуживают несколько модераторов: Дмитрий Дубов, Елена Ушакова
	https://vk.com/wall-6126497_2575199	07.05.2019 15:38	0	
	https://vk.com/wall-6126497_2575406	07.05.2019 18:43	300	
	https://vk.com/wall-6126497_2575500	07.05.2019 19:57	0	
Дорогие друзья!!! 😃Приезжаем переобуваться на шиномонтаж "ДжONE-АВТО" - г. Запол	https://vk.com/wall-6126497_2575538	07.05.2019 20:24	200	
Дорогие северяне, друзья! Команда нашего небольшого кафе поздравляет Вас с празд	https://vk.com/wall-6126497_2575543	07.05.2019 20:27	200	клиента обслуживают несколько модераторов: Дмитрий Дубов, Денис Ширшов
	https://vk.com/wall-6126497_2575674	07.05.2019 22:08	300	
[club172395679|Окна. Двери. Потолки.]  Уважаемые жители Печенгского района! Толь	https://vk.com/wall-6126497_2575927	08.05.2019 10:00	200	
Дорогие северяне, друзья! Команда нашего небольшого кафе поздравляет Вас с празд	https://vk.com/wall-6126497_2575983	08.05.2019 11:00	200	клиента обслуживают несколько модераторов: Дмитрий Дубов, Денис Ширшов
	https://vk.com/wall-6126497_2576057	08.05.2019 12:09	0	
EvgeniyaStudio в г. Заполярный: - окрашивания волос любой сложности; - кератинов	https://vk.com/wall-6126497_2576467	08.05.2019 17:28	200	
	https://vk.com/wall-6126497_2576602	08.05.2019 19:36	300	
Более подробную информацию о проведении  🎗 АКЦИИ 🎗 можно уточнить по ☎8960-027-4	https://vk.com/wall-6126497_2576652	08.05.2019 20:18	200	клиента обслуживают несколько модераторов: Дмитрий Дубов, Елена Ушакова
	https://vk.com/wall-6126497_2577116	09.05.2019 11:34	0	
Дорогие северяне, друзья! Команда нашего небольшого кафе поздравляет Вас с празд	https://vk.com/wall-6126497_2577242	09.05.2019 13:31	200	клиента обслуживают несколько модераторов: Дмитрий Дубов, Денис Ширшов
	https://vk.com/wall-6126497_2577335	09.05.2019 14:54	300	
	https://vk.com/wall-6126497_2577477	09.05.2019 17:00	300	
Более подробную информацию о проведении  🎗 АКЦИИ 🎗 можно уточнить по ☎8960-027-4	https://vk.com/wall-6126497_2577669	09.05.2019 20:17	200	клиента обслуживают несколько модераторов: Дмитрий Дубов, Елена Ушакова
Пикник с ОКРАИНОЙ… и розыгрыш решёток для гриля!   С 10 по 11 мая мы хотим подго	https://vk.com/wall-6126497_2578178	10.05.2019 11:00	200	
	https://vk.com/wall-6126497_2578376	10.05.2019 13:14	0	
	https://vk.com/wall-6126497_2578499	10.05.2019 15:06	300	
НИКЕЛЬ! Нужны модели на макияж и укладки. Бесплатно. ❤Хочешь попасть ко мне и по	https://vk.com/wall-6126497_2578502	10.05.2019 15:09	200	
	https://vk.com/wall-6126497_2578525	10.05.2019 15:23	0	
Ребята, теперь в Заполярном есть возможность приобрести продукцию NL internation	https://vk.com/wall-6126497_2578707	10.05.2019 18:25	200	
🎈🎈🎈Поздравляем с Праздником Великой Победы и продлеваем Акцию на потолки!!! Вете	https://vk.com/wall-6126497_2578762	10.05.2019 19:15	200	
	https://vk.com/wall-6126497_2578800	10.05.2019 19:51	0	
	https://vk.com/wall-6126497_2578886	10.05.2019 20:56	300	
Более подробную информацию о проведении  🎗 АКЦИИ 🎗 можно уточнить по ☎8960-027-4	https://vk.com/wall-6126497_2578889	10.05.2019 20:57	200	клиента обслуживают несколько модераторов: Дмитрий Дубов, Елена Ушакова
	https://vk.com/wall-6126497_2579545	11.05.2019 14:18	0	
Дорогие друзья!!! 😃Приезжаем переобуваться на шиномонтаж "ДжONE-АВТО" - г. Запол	https://vk.com/wall-6126497_2579557	11.05.2019 14:31	200	
[club172395679|Окна. Двери. Потолки.]  Уважаемые жители Печенгского района! Толь	https://vk.com/wall-6126497_2579743	11.05.2019 18:00	200	
	https://vk.com/wall-6126497_2579813	11.05.2019 19:06	300	
	https://vk.com/wall-6126497_2579828	11.05.2019 19:15	300	
🎈🎈🎈Поздравляем с Праздником Великой Победы и продлеваем Акцию на потолки!!! Вете	https://vk.com/wall-6126497_2579833	11.05.2019 19:20	200	
	https://vk.com/wall-6126497_2579895	11.05.2019 20:33	0	
🤯⚒Хотите начать ремонт и не  знаете с чего начать?⚒🤯 📌 Сделайте 1-ый шаг , устан	https://vk.com/wall-6126497_2579974	11.05.2019 21:57	200	клиента обслуживают несколько модераторов: Дмитрий Дубов, Елена Ушакова
	https://vk.com/wall-6126497_2579997	11.05.2019 22:33	300	
Все виды сантехнических работ.  Быстро, качественно, недорого.  Гарантия, качест	https://vk.com/wall-6126497_2580249	12.05.2019 11:00	200	
	https://vk.com/wall-6126497_2581094	12.05.2019 18:17	300	
	https://vk.com/wall-6126497_2581249	12.05.2019 19:50	0	
🔧Сборка мебели и услуги "Мастер на час" в Заполярном.  Мы можем сделать 👍  Сборк	https://vk.com/wall-6126497_2581288	12.05.2019 20:30	200	
🤯⚒Хотите начать ремонт и не  знаете с чего начать?⚒🤯 📌 Сделайте 1-ый шаг , устан	https://vk.com/wall-6126497_2581328	12.05.2019 21:07	200	клиента обслуживают несколько модераторов: Дмитрий Дубов, Елена Ушакова
Все виды сантехнических работ.  Быстро, качественно, недорого.  Гарантия, качест	https://vk.com/wall-6126497_2581798	13.05.2019 11:00	200	
Приветствую милые девушки! Предлагаю вам маникюр+ покрытие гель лаком,наращивани	https://vk.com/wall-6126497_2581901	13.05.2019 12:36	200	
	https://vk.com/wall-6126497_2582186	13.05.2019 16:21	300	
	https://vk.com/wall-6126497_2582192	13.05.2019 16:24	300	
	https://vk.com/wall-6126497_2582209	13.05.2019 16:50	300	
Мёд со своей пасеки ; гречишный 0,5-300р ,1 литр 500 р,3 литра 1450р ,Рапсовый л	https://vk.com/wall-6126497_2582341	13.05.2019 18:43	200	
	https://vk.com/wall-6126497_2582430	13.05.2019 19:59	0	
	https://vk.com/wall-6126497_2582509	13.05.2019 21:01	300	
💥 СЕВЕРНАЯ ЛАВКА💥 https://vk.com/club84353722  💥 КРАСОТА И ЗДОРОВЬЕ 💥 В НАЛИЧИИ 	https://vk.com/wall-6126497_2582840	14.05.2019 08:11	200	
🍒Милые Девушки 👯👸👵  Я сертифицированный мастер по наращиванию ресниничек 😌 😏 💥Ма	https://vk.com/wall-6126497_2582873	14.05.2019 08:48	200	
[club172395679|Окна. Двери. Потолки.]  Уважаемые жители Печенгского района! Толь	https://vk.com/wall-6126497_2582935	14.05.2019 10:00	200	
Мёд со своей пасеки ; гречишный 0,5-300р ,1 литр 500 р,3 литра 1450р ,Рапсовый л	https://vk.com/wall-6126497_2583218	14.05.2019 14:00	200	
Варёную колбасу можно по праву считать продуктом демократичным. «Варёнку» едят в	https://vk.com/wall-6126497_2583396	14.05.2019 16:03	200	
	https://vk.com/wall-6126497_2583730	14.05.2019 20:36	300	
	https://vk.com/wall-6126497_2583774	14.05.2019 21:06	0	
Открылся шиномонтаж в Печенге, район магазина Ирина, обращаться по номерам 89113	https://vk.com/wall-6126497_2583889	14.05.2019 22:08	100	
Light-ЕДА -25%! 15-16 мая!  с 15 по 16 мая – 2 дня лёгкости! Заказывайте вкусное	https://vk.com/wall-6126497_2584303	15.05.2019 10:56	200	
	https://vk.com/wall-6126497_2584351	15.05.2019 11:25	0	
❗️АНТИСП - ЭТО СОВЕРШЕННО НОВЫЙ ПРОЕКТ В МИРЕ ЭКОНОМИИ И МОДЫ ❗️  Мода – это то,	https://vk.com/wall-6126497_2584399	15.05.2019 12:12	200	
Мёд со своей пасеки ; гречишный 0,5-300р ,1 литр 500 р,3 литра 1450р ,Рапсовый л	https://vk.com/wall-6126497_2584609	15.05.2019 15:00	200	
Открылся шиномонтаж в Печенге, район магазина Ирина, обращаться по номерам 89113	https://vk.com/wall-6126497_2584749	15.05.2019 17:09	100	
	https://vk.com/wall-6126497_2585156	15.05.2019 22:02	0	
	https://vk.com/wall-6126497_2585209	15.05.2019 22:51	300	
Все рыбные пельмени -23%! 2 дня!  А вы уже пробовали наши замечательные рыбные п	https://vk.com/wall-6126497_2585902	16.05.2019 16:07	200	
	https://vk.com/wall-6126497_2586126	16.05.2019 19:00	0	
Открылся шиномонтаж в Печенге,  район магазина Ирина,  обращаться по номерам 891	https://vk.com/wall-6126497_2586841	17.05.2019 12:53	100	
Установка домофонов. Берем на техническое обслуживание домофоны.  Установка труб	https://vk.com/wall-6126497_2586843	17.05.2019 12:55	200	
	https://vk.com/wall-6126497_2587052	17.05.2019 16:15	300	клиента обслуживают несколько модераторов: Дмитрий Дубов, Валерий Фатхуллин
[club172395679|Окна. Двери. Потолки.]  Уважаемые жители Печенгского района! Толь	https://vk.com/wall-6126497_2587138	17.05.2019 18:00	200	
МАГАЗИН  «МЕБЕЛЬ ПЛЮС»  Заполярный,Космонавтов 2а.  В НАЛИЧИИ. МОДУЛЬНЫЕ КУХНИ: 	https://vk.com/wall-6126497_2587155	17.05.2019 18:16	200	
	https://vk.com/wall-6126497_2587156	17.05.2019 18:16	180	
	https://vk.com/wall-6126497_2587157	17.05.2019 18:17	180	
Дорогие друзья!!! 🚗Приезжаем переобуваться на шиномонтаж "ДжONE-АВТО" г. Заполяр	https://vk.com/wall-6126497_2587188	17.05.2019 18:40	200	
	https://vk.com/wall-6126497_2587276	17.05.2019 19:51	0	
🤯⚒Хотите начать ремонт и не  знаете с чего начать?⚒🤯 📌 Сделайте 1-ый шаг , устан	https://vk.com/wall-6126497_2587306	17.05.2019 20:14	200	клиента обслуживают несколько модераторов: Дмитрий Дубов, Елена Ушакова
https://vk.com/club152791206  "ТРИКОТАЖ ИЗ ИВАНОВО"  Рада Приветствовать Вас в м	https://vk.com/wall-6126497_2587608	18.05.2019 00:04	200	
	https://vk.com/wall-6126497_2587865	18.05.2019 11:42	0	
	https://vk.com/wall-6126497_2588260	18.05.2019 18:00	300	
	https://vk.com/wall-6126497_2588372	18.05.2019 19:39	0	
Мёд со своей пасеки ;гречишный 0,5-300р ,1 литр 500 р,3 литра 1450р ,Рапсовый ли	https://vk.com/wall-6126497_2588374	18.05.2019 19:40	200	
🤯⚒Хотите начать ремонт и не  знаете с чего начать?⚒🤯 📌 Сделайте 1-ый шаг , устан	https://vk.com/wall-6126497_2588545	18.05.2019 21:38	200	клиента обслуживают несколько модераторов: Дмитрий Дубов, Елена Ушакова
	https://vk.com/wall-6126497_2588575	18.05.2019 21:57	300	
Ломбард.  Дадим деньги в долг под залог (низкий процент📉) 💰  Также купим золото 	https://vk.com/wall-6126497_2588658	18.05.2019 22:54	0	
[club172395679|Окна. Двери. Потолки.]  Уважаемые жители Печенгского района! Толь	https://vk.com/wall-6126497_2588893	19.05.2019 10:00	200	
	https://vk.com/wall-6126497_2589009	19.05.2019 11:45	0	
	https://vk.com/wall-6126497_2589068	19.05.2019 12:30	300	клиента обслуживают несколько модераторов: Дмитрий Дубов, Валерий Фатхуллин
	https://vk.com/wall-6126497_2589192	19.05.2019 14:00	0	
Приглашаем жителей и гостей Печенгского района на народную ярмарку! (В Заполярно	https://vk.com/wall-6126497_2589450	19.05.2019 17:20	200	
Мёд со своей пасеки ;гречишный 0,5-300р ,1 литр 500 р,3 литра 1450р ,Рапсовый ли	https://vk.com/wall-6126497_2589480	19.05.2019 17:40	200	
	https://vk.com/wall-6126497_2589519	19.05.2019 18:14	300	
🤯⚒Хотите начать ремонт и не  знаете с чего начать?⚒🤯 📌 Сделайте 1-ый шаг , устан	https://vk.com/wall-6126497_2589632	19.05.2019 20:00	200	клиента обслуживают несколько модераторов: Дмитрий Дубов, Елена Ушакова
МАГАЗИН  «МЕБЕЛЬ ПЛЮС» г.Заполярный. ул. Бабикова 4. ул. Космонавтов 2а. п.Никел	https://vk.com/wall-6126497_2590181	20.05.2019 11:00	200	
	https://vk.com/wall-6126497_2590261	20.05.2019 12:00	300	
МАГАЗИН  «МЕБЕЛЬ ПЛЮС» Заполярный, ул. Космонавтов 2а. https://vk.com/club672818	https://vk.com/wall-6126497_2590287	20.05.2019 12:30	200	
🎈🎈🎈Поздравляем с Праздником Великой Победы и продлеваем Акцию на потолки!!! Вете	https://vk.com/wall-6126497_2590324	20.05.2019 13:12	200	
Уважаемые жители Печенгского района!!! 🎉🎉 Спешите организовать свой летний отдых	https://vk.com/wall-6126497_2590359	20.05.2019 13:55	200	
Мёд со своей пасеки ;гречишный 0,5-300р ,1 литр 500 р,3 литра 1450р ,Рапсовый ли	https://vk.com/wall-6126497_2590476	20.05.2019 15:40	200	
	https://vk.com/wall-6126497_2590519	20.05.2019 16:15	300	клиента обслуживают несколько модераторов: Дмитрий Дубов, Валерий Фатхуллин
	https://vk.com/wall-6126497_2590521	20.05.2019 16:17	300	
	https://vk.com/wall-6126497_2590727	20.05.2019 19:00	0	
🎈🎈🎈Поздравляем с Праздником Великой Победы и продлеваем Акцию на потолки!!! Вете	https://vk.com/wall-6126497_2590777	20.05.2019 19:30	200	
ХОТИТЕ НАТЯЖНОЙ ПОТОЛОК?  НУЖНА КОМПАНИЯ С ОПЫТОМ, ДОГОВОРОМ И ГАРАНТИЕЙ? Наша к	https://vk.com/wall-6126497_2591019	20.05.2019 22:57	200	
Мёд со своей пасеки ;гречишный 0,5-300р ,1 литр 500 р,3 литра 1450р ,Рапсовый ли	https://vk.com/wall-6126497_2591746	21.05.2019 16:41	200	
	https://vk.com/wall-6126497_2591935	21.05.2019 20:02	0	
🎈🎈🎈Поздравляем с Праздником Великой Победы и продлеваем Акцию на потолки!!! Вете	https://vk.com/wall-6126497_2592008	21.05.2019 21:05	200	
К отъезду ГОТОВЫ! До -26% на продукты в дорогу!  Уезжаете, улетаете, путешествуе	https://vk.com/wall-6126497_2592530	22.05.2019 12:01	200	
	https://vk.com/wall-6126497_2592770	22.05.2019 15:14	300	
👸👸👸Девочки, приглашаю вас на депиляцию сахарной пастой и воском. п. Никель. ⭐⭐⭐А	https://vk.com/wall-6126497_2592898	22.05.2019 17:00	200	
	https://vk.com/wall-6126497_2593145	22.05.2019 20:54	0	
	https://vk.com/wall-6126497_2593659	23.05.2019 11:55	270.0	клиента обслуживают несколько модераторов: Дмитрий Дубов, Валерий Фатхуллин, Елена Ушакова
Light Еда. БЖУ – в норме! -25%!  Всем-всем-всем последователям ЗОЖ и следящим за	https://vk.com/wall-6126497_2593668	23.05.2019 12:04	200	
Открылся шиномонтаж в Печенге,  район магазина Ирина,  обращаться по номерам 891	https://vk.com/wall-6126497_2594002	23.05.2019 16:56	100	
	https://vk.com/wall-6126497_2594155	23.05.2019 19:00	0	
	https://vk.com/wall-6126497_2594217	23.05.2019 19:46	0	
	https://vk.com/wall-6126497_2594233	23.05.2019 20:00	300	
НИКЕЛЬ! Нужны модели на макияж и укладки. Бесплатно. ❤Хочешь попасть ко мне и по	https://vk.com/wall-6126497_2594292	23.05.2019 20:59	200	
	https://vk.com/wall-6126497_2594829	24.05.2019 12:48	0	
	https://vk.com/wall-6126497_2594968	24.05.2019 14:29	180	
	https://vk.com/wall-6126497_2595025	24.05.2019 15:09	0	
	https://vk.com/wall-6126497_2595109	24.05.2019 16:15	300	клиента обслуживают несколько модераторов: Дмитрий Дубов, Валерий Фатхуллин
	https://vk.com/wall-6126497_2595269	24.05.2019 19:00	0	
	https://vk.com/wall-6126497_2595405	24.05.2019 21:02	180	
	https://vk.com/wall-6126497_2595413	24.05.2019 21:05	300	
Привет, друзья! У нас есть для Вас маленькое познавательное кино про одну знамен	https://vk.com/wall-6126497_2595655	25.05.2019 01:25	200	клиента обслуживают несколько модераторов: Дмитрий Дубов, Денис Ширшов
	https://vk.com/wall-6126497_2595932	25.05.2019 12:20	0	
	https://vk.com/wall-6126497_2596191	25.05.2019 16:00	300	
Продам печень трески,изготовлена в море,банка 0.7-550 рублей. Доставка от 2х бан	https://vk.com/wall-6126497_2596292	25.05.2019 17:33	200	
	https://vk.com/wall-6126497_2596400	25.05.2019 19:00	0	
МАГАЗИН « МЕБЕЛЬ ПЛЮС» г. Заполярный,ул. Бабикова 4 п. Никель пр. Молодежный 5. 	https://vk.com/wall-6126497_2596520	25.05.2019 21:07	200	
	https://vk.com/wall-6126497_2596942	26.05.2019 11:51	0	
	https://vk.com/wall-6126497_2597078	26.05.2019 13:36	200	
	https://vk.com/wall-6126497_2597308	26.05.2019 16:33	0	
	https://vk.com/wall-6126497_2597475	26.05.2019 19:00	0	
Продам печень трески,изготовлена в море,банка 0.7-550 рублей. Доставка от 2х бан	https://vk.com/wall-6126497_2597542	26.05.2019 20:09	200	
🔧Сборка мебели и услуги "Мастер на час" в Заполярном.  Мы можем сделать 👍  Сборк	https://vk.com/wall-6126497_2597907	27.05.2019 08:00	200	
	https://vk.com/wall-6126497_2598352	27.05.2019 16:15	300	клиента обслуживают несколько модераторов: Дмитрий Дубов, Валерий Фатхуллин
Какой же северянин не любит рыбу? А Пельмени из рыбы? Представляем серию Рыбных 	https://vk.com/wall-6126497_2598371	27.05.2019 16:41	200	
	https://vk.com/wall-6126497_2598655	27.05.2019 20:28	300	
	https://vk.com/wall-6126497_2598750	27.05.2019 21:16	0	
Уважаемые девушки! Нужна модель на завтра 28 мая на классическое наращивание рес	https://vk.com/wall-6126497_2598791	27.05.2019 21:39	200	
	https://vk.com/wall-6126497_2599246	28.05.2019 12:00	300	
	https://vk.com/wall-6126497_2599558	28.05.2019 16:51	300	
	https://vk.com/wall-6126497_2599722	28.05.2019 19:15	0	
Задумались о ремонте🤔, но надоели скучные обои?Решили изменить что то в своём ин	https://vk.com/wall-6126497_2599740	28.05.2019 19:25	200	
Заполярный и километры!МЁД РАЗНОТРАВЬЕ! Своя пасека, доставка до квартиры! Все в	https://vk.com/wall-6126497_2599836	28.05.2019 20:31	200	
	https://vk.com/wall-6126497_2600094	28.05.2019 23:28	300	
	https://vk.com/wall-6126497_2600239	29.05.2019 08:30	300	
В магазине одежды "Альбатрос" поступление новых вещей! Мы находимся по адресу: п	https://vk.com/wall-6126497_2600299	29.05.2019 10:00	200	клиента обслуживают несколько модераторов: Дмитрий Дубов, Елена Ушакова
Продам печень трески,изготовлена в море,банка 0.7-550 рублей. Доставка от 2х бан	https://vk.com/wall-6126497_2600554	29.05.2019 14:40	200	
	https://vk.com/wall-6126497_2600661	29.05.2019 15:52	200	
	https://vk.com/wall-6126497_2600818	29.05.2019 18:31	300	
	https://vk.com/wall-6126497_2600840	29.05.2019 19:00	0	
В магазине одежды "Альбатрос" поступление новых вещей! Мы находимся по адресу: п	https://vk.com/wall-6126497_2601064	29.05.2019 22:00	200	клиента обслуживают несколько модераторов: Дмитрий Дубов, Елена Ушакова
Детский день. Детское меню. До -25%!  Что может быть прекраснее детства? Познани	https://vk.com/wall-6126497_2601329	30.05.2019 09:18	200	
https://vk.com/club152791206  "ТРИКОТАЖ ИЗ ИВАНОВО"  Рада Приветствовать Вас в м	https://vk.com/wall-6126497_2601417	30.05.2019 11:21	200	
	https://vk.com/wall-6126497_2601461	30.05.2019 12:06	300	
	https://vk.com/wall-6126497_2601477	30.05.2019 12:20	300	
БОДРОСТЬ, ОПТИМИЗМ И РАБОТОСПОСОБНОСТЬ СЕВЕРЯН😀   Многие из нас, жителей Крайнег	https://vk.com/wall-6126497_2601829	30.05.2019 18:00	0	
	https://vk.com/wall-6126497_2601903	30.05.2019 19:15	0	
В магазине «Альт» поступление бытовой техники!!!🎉🎉🎉 - Чайники! - Утюги! - И друг	https://vk.com/wall-6126497_2601954	30.05.2019 20:00	200	
	https://vk.com/wall-6126497_2602283	31.05.2019 08:32	300	
	https://vk.com/wall-6126497_2602595	31.05.2019 14:31	300	
	https://vk.com/wall-6126497_2602641	31.05.2019 15:10	0	
	https://vk.com/wall-6126497_2602661	31.05.2019 15:22	300	
	https://vk.com/wall-6126497_2602719	31.05.2019 16:15	300	клиента обслуживают несколько модераторов: Дмитрий Дубов, Валерий Фатхуллин
	https://vk.com/wall-6126497_2602855	31.05.2019 18:32	300	
	https://vk.com/wall-6126497_2602897	31.05.2019 19:15	0	
Продам печень трески,изготовлена в море,0.7 банка 550р. Доставка. [id109507767|А	https://vk.com/wall-6126497_2602907	31.05.2019 19:34	100	
	https://vk.com/wall-6126497_2603050	31.05.2019 21:49	0	
Уважаемые жители г. Заполярный и печенгского района!  Мы рады сообщить вам что б	https://vk.com/wall-6126497_2603089	31.05.2019 22:08	200	