title	url	date	cost	comment
Уважаемые жители! Приглашаем Вас посетить магазин "WoodStok" ("Секонд хэнд"). Ев	https://vk.com/wall-6126497_2567594	01.05.2019 11:30	200	
Заполярный📌📌📌 Принимаю заказы на пошив, ремонт и коррекцию одежды, а так же на т	https://vk.com/wall-6126497_2568049	01.05.2019 17:00	200	
Предоставляю парикмахерские услуги на дому. - Стрижки: — мужские; — женские; — д	https://vk.com/wall-6126497_2570365	03.05.2019 16:30	100	
Всем привет. 🤗  Я начинающий мастер ногтевого 💅сервиса.Приглашаю к себе на маник	https://vk.com/wall-6126497_2571073	04.05.2019 09:51	200	
Парикмахер-колорист приглашает на окрашивание любой сложности. Новые техники окр	https://vk.com/wall-6126497_2571301	04.05.2019 12:50	200	
Нужны модели для наработки скорости, маникюр + покрытие, в л/с https://vk.com/id	https://vk.com/wall-6126497_2572758	05.05.2019 14:43	100	
Наращу реснички, для отработки техники и пополнения портфолио. 600₽  Заполярный.	https://vk.com/wall-6126497_2572790	05.05.2019 15:03	100	
	https://vk.com/wall-6126497_2573212	05.05.2019 19:34	300	
Милые девушки, приглашаю вас на аппаратный маникюр!  Наращивание гелем  Покрытие	https://vk.com/wall-6126497_2574233	06.05.2019 17:00	200	
Грузоперевозки и переезды из Никеля, Заполярного, Печенги и Мурманской области в	https://vk.com/wall-6126497_2574376	06.05.2019 19:10	200	
	https://vk.com/wall-6126497_2574420	06.05.2019 19:56	300	
В кафе-бар "Арктика" требуются бармены (без вредных привычек) тел. 89212704283, 	https://vk.com/wall-6126497_2575392	07.05.2019 18:30	100	
Продам орех - фундук, урожай 2018 года. Орех полный, сладкий, свой с участка. 25	https://vk.com/wall-6126497_2575923	08.05.2019 09:57	200	
Приглашаю на съёмку новорожденных! Такие фотографии можно сделать один раз в жиз	https://vk.com/wall-6126497_2576849	08.05.2019 23:51	200	
🛑 АВТОСТРАХОВАНИЕ ЛЕГКОВЫХ АВТОМОБИЛЕЙ!!! 🛑 💥Производим расчёт страховки и подго	https://vk.com/wall-6126497_2577720	09.05.2019 21:00	200	
Поступление нового товара! Большой выбор ветровок женских, мужских и детских. Дж	https://vk.com/wall-6126497_2579052	10.05.2019 23:13	200	
Милые девушки! Я сертифицированный мастер по шугарингу и ваксинку в Заполярном. 	https://vk.com/wall-6126497_2579057	10.05.2019 23:18	200	
	https://vk.com/wall-6126497_2579464	11.05.2019 13:11	300	
Парикмахерская "Персей"  Все виды парикмахерских услуг:  * Женская стрижка, окра	https://vk.com/wall-6126497_2579827	11.05.2019 19:14	200	
Новое поступление! Большой выбор одежды для всей семьи: ветровки, кроссовки, руб	https://vk.com/wall-6126497_2581657	13.05.2019 07:43	200	
Сертифицированный специалист по прокалыванию ушей, хрящика, носа и т.д. Спутник,	https://vk.com/wall-6126497_2582946	14.05.2019 10:07	100	
Печенгский район. Все работы с крышей гаража ! Вопросы в личку ! https://vk.com/	https://vk.com/wall-6126497_2583150	14.05.2019 13:00	200	
[club116020567|Женский секрет]  👑👠💃  Совместные покупки - объединяйтесь, это выг	https://vk.com/wall-6126497_2583555	14.05.2019 18:29	200	
Самые лучшие спа-процедуры для ваших ШИКАРНЫХ РЕСНИЦ и БРОВЕЙ💎💎💎МАКИЯЖ 🍭Ламиниро	https://vk.com/wall-6126497_2583752	14.05.2019 20:56	200	клиента обслуживают несколько модераторов: Елена Ушакова, Валерий Фатхуллин
В наличии платья и детская одежда по увлекательным ценам.  https://vk.com/album-	https://vk.com/wall-6126497_2584746	15.05.2019 17:07	100	
Никель. Подготовлю вашего ребенка к школе (обучение чтению, математика). 8930278	https://vk.com/wall-6126497_2584979	15.05.2019 20:00	100	
🚍Пенсионерам, переезжающим из районов Крайнего Севера и приравненных к ним местн	https://vk.com/wall-6126497_2586270	16.05.2019 21:04	200	
	https://vk.com/wall-6126497_2587286	17.05.2019 20:01	300	
🙌 Мы рады приветствовать Вас в нашей группе [club116020567|"ЖЕНСКИЙ СЕКРЕТ"]  Мы	https://vk.com/wall-6126497_2588252	18.05.2019 17:51	200	
В кафе-бар "Арктика" требуются бармены (без вредных привычек) тел. 89212704283, 	https://vk.com/wall-6126497_2589927	20.05.2019 00:07	100	
Запчасти любых марок авто (оригинал/не оригинал), а также масла, жидкости, акб, 	https://vk.com/wall-6126497_2590579	20.05.2019 17:00	200	
Гостевой дом "Слава" https://vk.com/public171582537 Для желающих отдохнуть в Адл	https://vk.com/wall-6126497_2590601	20.05.2019 17:30	100	
Дорогие невесты и выпускницы 2019 года!🔥 В июне осталось несколько свободных мес	https://vk.com/wall-6126497_2592880	22.05.2019 16:43	200	
Небывалое снижение цен на окна, балконы и лоджии от [club51234651|ФиС l Окна l Д	https://vk.com/wall-6126497_2592945	22.05.2019 17:39	200	
Парикмахер-колорист приглашает на новые техники окрашивания (любой сложности). А	https://vk.com/wall-6126497_2593029	22.05.2019 19:00	200	
	https://vk.com/wall-6126497_2593195	22.05.2019 21:34	300	
Большой выбор товара для всей семьи. В ассортименте: ветровки, футболки, рубашки	https://vk.com/wall-6126497_2595171	24.05.2019 17:20	200	
Сертифицированный специалист по прокалыванию ушей, хрящика, носа и т.д. Спутник,	https://vk.com/wall-6126497_2595832	25.05.2019 10:38	100	
Милые девушки приглашаю вас на аппаратный маникюр!  Наращивание гелем  Покрытие 	https://vk.com/wall-6126497_2596330	25.05.2019 18:00	200	
Печенга. Предлагаются к продаже щенки сибирской хаски! Мальчик и девочка, черно-	https://vk.com/wall-6126497_2596566	25.05.2019 21:58	200	
	https://vk.com/wall-6126497_2597712	26.05.2019 22:17	300	
Большой выбор товара для всей семьи. В ассортименте ветровки, футболки, рубашки,	https://vk.com/wall-6126497_2598183	27.05.2019 13:39	200	
	https://vk.com/wall-6126497_2598210	27.05.2019 14:08	300	
Мастер маникюра с опытом работы более 10 лет набирает клиентскую базу. Маникюр +	https://vk.com/wall-6126497_2598533	27.05.2019 18:51	200	
🚛КОМПЕНСАЦИЯ ПЕРЕЕЗДА ДЛЯ ВОЕННОСЛУЖАЩИХ ИЗ МУРМАНСКОЙ ОБЛАСТИ  📗В статье 20 ФЗ 	https://vk.com/wall-6126497_2598552	27.05.2019 19:05	200	
Мастер маникюра с опытом работы более 10 лет набирает клиентскую базу. Маникюр +	https://vk.com/wall-6126497_2598911	27.05.2019 23:10	200	
Мастер маникюра с опытом работы более 10 лет набирает клиентскую базу. Маникюр +	https://vk.com/wall-6126497_2599303	28.05.2019 12:55	200	
Магазин стильной модной одежды PANDORA.👗👗👗Милые Дамы, спешите, ликвидационные ск	https://vk.com/wall-6126497_2599349	28.05.2019 13:33	200	
Ремонт вмятин без покраски в Нижнем Луостари! 89216051173 https://vk.com/id37065	https://vk.com/wall-6126497_2599688	28.05.2019 19:00	200	
ProfBeauty https://vk.com/public171522823 Заполярный ул. Мира д. 7 (площадь, маг	https://vk.com/wall-6126497_2599757	28.05.2019 19:51	200	
	https://vk.com/wall-6126497_2599766	28.05.2019 19:56	300	
	https://vk.com/wall-6126497_2599871	28.05.2019 21:00	300	
В магазине "ЭКОНОМ КЛАСС" большой ассортимент одежды и обуви для всей семьи: кур	https://vk.com/wall-6126497_2601475	30.05.2019 12:18	200	
Любишь модно одеваться? Тогда тебе в "Планету"! Магазин "Планета". Модно - не зн	https://vk.com/wall-6126497_2601626	30.05.2019 14:15	200	
ТРЕБУЮТСЯ МОДЕЛИ НА САХАРНУЮ ДЕПИЛЯЦИЮ Заполярный, Н. Луостари, В.Луостари, Корз	https://vk.com/wall-6126497_2601784	30.05.2019 17:00	100	
Ремонт вмятин без покраски в Нижнем Луостари! 89216051173 https://vk.com/id37065	https://vk.com/wall-6126497_2601885	30.05.2019 19:00	200	
	https://vk.com/wall-6126497_2601989	30.05.2019 20:21	300	
	https://vk.com/wall-6126497_2602018	30.05.2019 21:00	300	
🌺🌺 ФОТОШТОРЫ 3 Д ЭФФЕКТ. В НАЛИЧИИ. 🌺 НА ЗАКАЗ 🌺🌺  🐝🐝🐝 СБОР ЗАКАЗА НА 5 ИЮНЯ 🐝🐝🐝	https://vk.com/wall-6126497_2602870	31.05.2019 18:49	200	