title	start-date	start-time	end-date	end-time	hours	cost
Подарки к 9 мая	07.05.2019	12:00	07.05.2019	22:00	10	1000
Подарки к 9 мая	08.05.2019	12:00	08.05.2019	22:00	10	1000
Неганова	10.05.2019	10:00	10.05.2019	15:00	5	500
Мебель #pkg	11.05.2019	15:00	11.05.2019	22:00	7	0
Строитель #pkg	12.05.2019	10:00	12.05.2019	15:00	5	0