title	url	date	cost
💧Когда на улице дождь и слякоть 💦 необходимо надевать непромокаемую обувь. Именн	https://vk.com/wall-6126497_2973537	01.05.2020 11:51	200
	https://vk.com/wall-6126497_2973733	01.05.2020 14:00	199
	https://vk.com/wall-6126497_2974068	01.05.2020 17:42	199
	https://vk.com/wall-6126497_2975065	02.05.2020 14:09	199
	https://vk.com/wall-6126497_2975487	02.05.2020 19:14	298
📌В наличии:📌 Печень трески 0,7 (стекл. банка) 580₽ Креветка: закончилась! Сёмга 	https://vk.com/wall-6126497_2975594	02.05.2020 20:49	500
	https://vk.com/wall-6126497_2976238	03.05.2020 14:06	199
04.05.2020 ДОСТАВКА В СТОРОНУ НИКЕЛЬ!!! ДЕЛАЕМ ЗАКАЗЫ👌 Печень трески 0,7 (стекл.	https://vk.com/wall-6126497_2976595	03.05.2020 18:18	500
	https://vk.com/wall-6126497_2976726	03.05.2020 20:14	199
7.05.2020г (доставка на Никель) г. Заполярный (каждый день) 8.05.2020( доставка 	https://vk.com/wall-6126497_2977438	04.05.2020 14:05	500
	https://vk.com/wall-6126497_2977579	04.05.2020 15:51	199
	https://vk.com/wall-6126497_2977604	04.05.2020 16:12	199
Мы снова открыты! С 05.05 - Ура!😍 Студия красоты [id564352689|BIGUDI] приглашает	https://vk.com/wall-6126497_2977796	04.05.2020 18:15	500
	https://vk.com/wall-6126497_2978683	05.05.2020 14:00	199
	https://vk.com/wall-6126497_2979755	06.05.2020 14:00	199
Дорогие  красавицы  ❗❗❗ Оказываю следующий вид услуг: ✅ Перманентный макияж бров	https://vk.com/wall-6126497_2979869	06.05.2020 15:41	500
	https://vk.com/wall-6126497_2980314	06.05.2020 21:19	298
	https://vk.com/wall-6126497_2980889	07.05.2020 12:34	199
	https://vk.com/wall-6126497_2981146	07.05.2020 16:23	199
Заполярный.  Продам, беспроводные наушники, зарядные устройства, видеорегистрато	https://vk.com/wall-6126497_2981611	07.05.2020 22:04	500
	https://vk.com/wall-6126497_2982187	08.05.2020 14:00	199
Мы рады сообщить вам, что в салоне [id564352689|BIGUDI] начинает работу мастер м	https://vk.com/wall-6126497_2982273	08.05.2020 14:55	500
	https://vk.com/wall-6126497_2982505	08.05.2020 18:00	199
Милые девушки акция для всех на реснички Верхнее Луостари https://vk.com/club190	https://vk.com/wall-6126497_2983109	08.05.2020 23:10	100
В магазине  «Альт» поступление товара! - Резиновые сапоги детские и женские! - Ж	https://vk.com/wall-6126497_2984280	09.05.2020 19:30	200
	https://vk.com/wall-6126497_2984762	10.05.2020 11:34	199
	https://vk.com/wall-6126497_2984897	10.05.2020 14:01	199
В магазине  «Альт» поступление товара! - Резиновые сапоги детские и женские! - Ж	https://vk.com/wall-6126497_2985233	10.05.2020 19:00	200
	https://vk.com/wall-6126497_2986346	11.05.2020 18:00	199
	https://vk.com/wall-6126497_2987324	12.05.2020 14:01	199
	https://vk.com/wall-6126497_2987642	12.05.2020 17:26	199
	https://vk.com/wall-6126497_2988722	13.05.2020 14:00	199
	https://vk.com/wall-6126497_2989042	13.05.2020 18:35	199
15.05.2020г (доставка на Никель) г. Заполярный (каждый день) Продаём самые вкусн	https://vk.com/wall-6126497_2989084	13.05.2020 19:05	500
🌸Приглашаем всех жителей Печенгского района в Салон красоты «Гламур»🌸 ✅Мы находи	https://vk.com/wall-6126497_2989177	13.05.2020 20:20	298
✅Пассажирские перевозки https://vk.com/avtonazakaz51    ✅Грузовые перевозки http	https://vk.com/wall-6126497_2989447	13.05.2020 23:00	200
	https://vk.com/wall-6126497_2990466	14.05.2020 19:05	199
	https://vk.com/wall-6126497_2991113	15.05.2020 10:00	500
	https://vk.com/wall-6126497_2991370	15.05.2020 12:56	199
Сосиски -24%! 15-16 мая!    89 оригинальных блюд мы можем приготовить из наших л	https://vk.com/wall-6126497_2991524	15.05.2020 14:30	200
🌸Приглашаем всех жителей Печенгского района в Салон красоты «Гламур»🌸 ✅Мы находи	https://vk.com/wall-6126497_2991773	15.05.2020 16:30	298
	https://vk.com/wall-6126497_2991879	15.05.2020 18:00	199
	https://vk.com/wall-6126497_2993132	16.05.2020 14:32	199
Ремонт? Автомобиль? Отпуск?  Вы можете себе это позволить!  Успейте подать заявк	https://vk.com/wall-6126497_2993427	16.05.2020 17:30	298
	https://vk.com/wall-6126497_2993490	16.05.2020 18:30	199
	https://vk.com/wall-6126497_2994515	17.05.2020 14:01	199
🌸Приглашаем всех жителей Печенгского района в Салон красоты «Гламур»🌸 ✅Мы находи	https://vk.com/wall-6126497_2994910	17.05.2020 18:40	298
	https://vk.com/wall-6126497_2994988	17.05.2020 20:00	199
Уважаемые туристы!  Сообщаем вам , что турагентство Реал тур возобновило свою ра	https://vk.com/wall-6126497_2995707	18.05.2020 13:55	200
	https://vk.com/wall-6126497_2995710	18.05.2020 13:56	199
Ремонт мобильных телефонов📱 ✅ Планшетов 💻 ноутбуков 📺 ЖК- телевизоров  https://v	https://vk.com/wall-6126497_2996043	18.05.2020 18:00	500
В наличии есть любые аксессуары для телефонов айфонов зарядное устройство наушни	https://vk.com/wall-6126497_2996098	18.05.2020 18:25	500
🤩🤩🤩ПРИГЛАШАЕМ ВАС ВСТУПИТЬ В НАШУ ГРУППУ🇺🇸🇫🇮 Закупки из США и ЕВРОПЫ  🚛 Мы беспл	https://vk.com/wall-6126497_2996445	18.05.2020 23:00	500
	https://vk.com/wall-6126497_2996489	19.05.2020 00:01	500
	https://vk.com/wall-6126497_2996954	19.05.2020 14:01	199
Пельмени -25%! 2 дня!    Абсолютно разные, но такие вкусные, без них трудно пред	https://vk.com/wall-6126497_2996997	19.05.2020 14:30	200
🌸Приглашаем всех жителей Печенгского района в Салон красоты «Гламур»🌸 ✅Мы находи	https://vk.com/wall-6126497_2997314	19.05.2020 19:00	298
[club129860849|@terabayt_51] Компьютерный сервис " Терабайт" Вступайте в нашу гр	https://vk.com/wall-6126497_2997352	19.05.2020 19:40	200
	https://vk.com/wall-6126497_2998028	20.05.2020 14:00	199
Ремонт? Автомобиль? Отпуск?  Вы можете себе это позволить!  Успейте подать заявк	https://vk.com/wall-6126497_2998343	20.05.2020 18:30	298
Сырокопченая колбаса до -30%! 21-22 мая.    Настоящие сырокопченые колбасы – про	https://vk.com/wall-6126497_2999200	21.05.2020 14:00	200
	https://vk.com/wall-6126497_2999207	21.05.2020 14:03	199
30.05.2020г (доставка Никель) г. Заполярный (каждый день) Продаём самые вкусные 	https://vk.com/wall-6126497_2999252	21.05.2020 14:49	500
🌸Приглашаем всех жителей Печенгского района в Салон красоты «Гламур»🌸 ✅Мы находи	https://vk.com/wall-6126497_2999433	21.05.2020 17:25	298
	https://vk.com/wall-6126497_3000453	22.05.2020 14:00	199
[club129860849|@terabayt_51] Компьютерный сервис " Терабайт" Вступайте в нашу гр	https://vk.com/wall-6126497_3000787	22.05.2020 19:30	200
	https://vk.com/wall-6126497_3001515	23.05.2020 14:00	199
Ремонт? Автомобиль? Отпуск?  Вы можете себе это позволить!  Успейте подать заявк	https://vk.com/wall-6126497_3001777	23.05.2020 18:00	298
	https://vk.com/wall-6126497_3001873	23.05.2020 19:34	300
	https://vk.com/wall-6126497_3002664	24.05.2020 14:00	199
[club129860849|@terabayt_51] Компьютерный сервис " Терабайт" Вступайте в нашу гр	https://vk.com/wall-6126497_3002927	24.05.2020 18:00	200
	https://vk.com/wall-6126497_3003063	24.05.2020 20:31	298
	https://vk.com/wall-6126497_3003189	24.05.2020 22:00	298
	https://vk.com/wall-6126497_3003790	25.05.2020 14:01	199
Любимые Варёные колбасы -25%! Всего 2 дня!    Варёную колбасу можно по праву счи	https://vk.com/wall-6126497_3004860	26.05.2020 14:00	200
	https://vk.com/wall-6126497_3004864	26.05.2020 14:00	199
Ремонт? Автомобиль? Отпуск?  Вы можете себе это позволить!  Успейте подать заявк	https://vk.com/wall-6126497_3005190	26.05.2020 19:00	298
[club129860849|@terabayt_51] Компьютерный сервис " Терабайт" Вступайте в нашу гр	https://vk.com/wall-6126497_3005469	26.05.2020 23:18	200
	https://vk.com/wall-6126497_3005935	27.05.2020 14:05	199
	https://vk.com/wall-6126497_3007471	28.05.2020 16:03	199
В пятницу (29 мая) доставка В НИКЕЛЬ и ЗАПОЛЯРНЫЙ!!!  Принимаем заказы на *Печен	https://vk.com/wall-6126497_3008063	28.05.2020 22:15	500
	https://vk.com/wall-6126497_3008915	29.05.2020 14:00	199
Ремонт мобильных телефонов📱 ✅ Планшетов 💻 ноутбуков 📺 ЖК- телевизоров  https://v	https://vk.com/wall-6126497_3009067	29.05.2020 16:00	100
Заполярный.  Продам, беспроводные наушники, зарядные устройства, на Android - iP	https://vk.com/wall-6126497_3009090	29.05.2020 16:16	500
	https://vk.com/wall-6126497_3010305	30.05.2020 14:00	199
Ремонт? Автомобиль? Отпуск?  Вы можете себе это позволить!  Успейте подать заявк	https://vk.com/wall-6126497_3010527	30.05.2020 17:10	298
[club129860849|@terabayt_51] Компьютерный сервис " Терабайт" Вступайте в нашу гр	https://vk.com/wall-6126497_3010738	30.05.2020 20:30	200
Сдаются в аренду места в маникюрном кабинете! А так же кабинеты под косметологич	https://vk.com/wall-6126497_3010916	30.05.2020 23:40	500
	https://vk.com/wall-6126497_3012063	31.05.2020 21:55	199