title	start-date	start-time	end-date	end-time	hours	cost
Ципилев	03.08.2022	16:00	03.08.2022	20:00	4	440
Милонкова	04.08.2022	10:00	04.08.2022	22:00	12	1200
Милонкова	05.08.2022	10:00	05.08.2022	22:00	12	1200
Милонкова	06.08.2022	10:00	06.08.2022	22:00	12	1200
Моргунова	09.08.2022	12:00	09.08.2022	20:00	8	780
Иванова	09.08.2022	20:00	09.08.2022	21:00	1	120
Гасанов	10.08.2022	12:00	10.08.2022	20:00	8	780
Гасанов	11.08.2022	12:00	11.08.2022	17:00	5	420
Пушкарев	12.08.2022	00:00	12.08.2022	09:00	9	600
Ципилев	12.08.2022	12:00	12.08.2022	17:00	5	420
Гасанов	13.08.2022	13:00	13.08.2022	18:00	5	440
Пых	14.08.2022	14:00	14.08.2022	19:00	5	480
Персей	14.08.2022	19:00	14.08.2022	20:00	1	120
Чеузова	14.08.2022	20:00	14.08.2022	21:00	1	120
Пых	15.08.2022	12:00	15.08.2022	20:00	8	780
Байминзан	15.08.2022	20:00	15.08.2022	23:45	3	360
Пушкарев	16.08.2022	00:00	16.08.2022	09:00	9	600
Ципилев	16.08.2022	12:00	16.08.2022	17:00	5	420
Федоськова	16.08.2022	19:00	16.08.2022	20:00	1	120
Хохлова	17.08.2022	08:00	17.08.2022	18:00	10	866
Федоськова	17.08.2022	18:00	17.08.2022	19:00	1	120
Планета	17.08.2022	19:00	17.08.2022	21:00	2	240
Персей	17.08.2022	20:00	17.08.2022	21:00	1	120
Наталия	18.08.2022	09:00	18.08.2022	19:00	10	920
Федоськова	18.08.2022	19:00	18.08.2022	20:00	1	120
Планета	18.08.2022	20:00	18.08.2022	21:00	1	120
Тонкопий	19.08.2022	13:00	19.08.2022	14:00	1	80
Федоськова	19.08.2022	19:00	19.08.2022	20:00	1	120
Планета	19.08.2022	20:00	19.08.2022	21:00	1	120
Федоськова	20.08.2022	19:00	20.08.2022	20:00	1	120
Планета	20.08.2022	20:00	20.08.2022	21:00	1	120
Тонкопий	20.08.2022	21:00	20.08.2022	22:00	1	120
Ципилев	21.08.2022	12:00	21.08.2022	17:00	5	420
Федоськова	21.08.2022	19:00	21.08.2022	20:00	1	120
Планета	21.08.2022	20:00	21.08.2022	21:00	1	120
Тонкопий	21.08.2022	21:00	21.08.2022	22:00	1	120
Казанская	21.08.2022	22:00	21.08.2022	23:00	1	120
Милонкова	22.08.2022	00:00	22.08.2022	19:00	19	1520
Федоськова	22.08.2022	19:00	22.08.2022	20:00	1	120
Планета	22.08.2022	20:00	22.08.2022	21:00	1	120
Пушкарев	23.08.2022	00:00	23.08.2022	09:00	9	600
Планета	23.08.2022	20:00	23.08.2022	21:00	1	120
Ципилев	24.08.2022	16:00	24.08.2022	20:00	4	440
Планета	24.08.2022	20:00	24.08.2022	21:00	1	120
Планета	25.08.2022	20:00	25.08.2022	21:00	1	120
Тетерина	26.08.2022	13:00	26.08.2022	14:00	1	80
Тетерина	26.08.2022	19:00	26.08.2022	20:00	1	120
Планета	26.08.2022	20:00	26.08.2022	21:00	1	120
Хохлова	27.08.2022	16:00	27.08.2022	20:00	4	440
Планета	27.08.2022	20:00	27.08.2022	21:00	1	120
Хохлова	27.08.2022	21:00	27.08.2022	23:45	2	240
Хохлова	28.08.2022	08:00	28.08.2022	20:00	12	1106
Планета	28.08.2022	20:00	28.08.2022	21:00	1	120
Хохлова	28.08.2022	21:00	28.08.2022	23:45	2	240
Bridgit	29.08.2022	10:00	29.08.2022	13:00	3	280
Тетерина	29.08.2022	13:00	29.08.2022	14:00	1	80
Bridgit	29.08.2022	17:00	29.08.2022	19:00	2	240
Тетерина	29.08.2022	19:00	29.08.2022	20:00	1	120
Планета	29.08.2022	20:00	29.08.2022	21:00	1	120
Bridgit	29.08.2022	21:00	29.08.2022	23:45	2	240
Brigitte	30.08.2022	12:00	30.08.2022	14:00	2	180
Планета	30.08.2022	20:00	30.08.2022	21:00	1	120
	30.08.2022	21:00	30.08.2022	23:00	2	240
Планета	31.08.2022	20:00	31.08.2022	21:00	1	120