title	start-date	start-time	end-date	end-time	hours	cost
+320р кацар сп	02.01.2020	13:00	02.01.2020	17:00	4	320
+80 Махач	05.01.2020	09:00	05.01.2020	10:00	1	80
80р Костин Брусника	05.01.2020	10:00	05.01.2020	11:00	1	80
100р Костин бигуди	05.01.2020	11:00	05.01.2020	12:00	1	100
+1200р Лизаветка Саввина	05.01.2020	12:00	05.01.2020	23:45	11	1140
+240р Махач	06.01.2020	20:00	06.01.2020	22:00	2	240
+100р Акулич	07.01.2020	13:00	07.01.2020	14:00	1	80
+200р Махач	07.01.2020	16:00	07.01.2020	18:00	2	200
+240р Махач	07.01.2020	20:00	07.01.2020	22:00	2	240
+240р Нилова	07.01.2020	22:00	07.01.2020	23:45	1	120
+1500р Юлия Федотова	09.01.2020	00:00	09.01.2020	23:30	23	2000
+420р Милонкова	10.01.2020	12:00	10.01.2020	17:00	5	420
+480р Нилова	11.01.2020	20:00	11.01.2020	23:45	3	360
+860р Ксения Величкина	13.01.2020	00:00	13.01.2020	12:00	12	860
+420р Волошина	13.01.2020	12:00	13.01.2020	17:00	5	420
120р Селякова	13.01.2020	17:00	13.01.2020	18:00	1	120
120р Костин бигуди	13.01.2020	18:00	13.01.2020	19:00	1	120
120р Костин брусника	13.01.2020	19:00	13.01.2020	20:00	1	120
+480р Волошина	13.01.2020	20:00	13.01.2020	23:45	3	360
+480р Моргунова	14.01.2020	20:00	14.01.2020	23:45	3	360
+1400р Сметанин	15.01.2020	00:00	15.01.2020	18:00	18	1400
+480р Сметанин	15.01.2020	20:00	15.01.2020	23:45	3	360
+420р Волошина	17.01.2020	12:00	17.01.2020	17:00	5	420
120р Селякова	17.01.2020	17:00	17.01.2020	18:00	1	120
120р Костин брусника	17.01.2020	18:00	17.01.2020	19:00	1	120
120р Костин бигуди	17.01.2020	19:00	17.01.2020	20:00	1	120
+480р Волошина	17.01.2020	20:00	17.01.2020	23:45	3	360
420р Милонкова	19.01.2020	12:00	19.01.2020	17:00	5	420
+480р Нилова	19.01.2020	20:00	19.01.2020	23:45	3	360
240р Милонкова	21.01.2020	16:00	21.01.2020	17:00	1	80
120р Селякова	21.01.2020	17:00	21.01.2020	18:00	1	120
120р Костин брусника	21.01.2020	18:00	21.01.2020	19:00	1	120
120р Костин бигуди	21.01.2020	19:00	21.01.2020	20:00	1	120
+ Милонкова	21.01.2020	20:00	21.01.2020	23:45	3	360
280р Милонкова	23.01.2020	15:00	23.01.2020	18:00	3	280
1280р Шитова	25.01.2020	00:00	25.01.2020	17:00	17	1280
120р Селякова	25.01.2020	17:00	25.01.2020	18:00	1	120
120р Костин брусника	25.01.2020	18:00	25.01.2020	19:00	1	120
120р Костин бигуди	25.01.2020	19:00	25.01.2020	20:00	1	120
+120р Назарова	25.01.2020	22:00	25.01.2020	23:00	1	120
120р Селякова	29.01.2020	17:00	29.01.2020	18:00	1	120
120р Костин брусника	29.01.2020	18:00	29.01.2020	19:00	1	120
120р Костин бигуди	29.01.2020	19:00	29.01.2020	20:00	1	120