title	start-date	start-time	end-date	end-time	hours	cost
Елена Викторовна	01.07.2024	09:00	01.07.2024	10:00	1	100
Даниил Саблин	01.07.2024	16:00	01.07.2024	20:00	4	400
Даниил Саблин	02.07.2024	16:00	02.07.2024	20:00	4	400
Елена пикина	03.07.2024	13:00	03.07.2024	14:00	1	100
Даниил Саблин	03.07.2024	16:00	03.07.2024	20:00	4	400
Елена пикина	04.07.2024	07:00	04.07.2024	09:00	2	200
Елена пикина	05.07.2024	12:00	05.07.2024	14:00	2	200
Елена пикина	05.07.2024	23:00	05.07.2024	23:45	0	0
Оля Кантщева	20.07.2024	23:00	20.07.2024	23:45	0	0