title	url	date	cost
89892335611	https://vk.com/wall-6126497_4058797	01.05.2024 01:16	500
Потолок_эксперт	https://vk.com/wall-6126497_4059283	02.05.2024 11:00	220
Just_Fun	https://vk.com/wall-6126497_4059329	02.05.2024 12:30	330
Aqua_Life	https://vk.com/wall-6126497_4059511	02.05.2024 19:11	220
Магия_SPA	https://vk.com/wall-6126497_4059862	03.05.2024 16:20	330
Aqua_Life	https://vk.com/wall-6126497_4059924	03.05.2024 19:03	220
Магия_рук	https://vk.com/wall-6126497_4059964	03.05.2024 20:58	500
89062879895	https://vk.com/wall-6126497_4060282	04.05.2024 15:00	500
Aqua_Life	https://vk.com/wall-6126497_4060391	04.05.2024 19:00	220
Just_Fun	https://vk.com/wall-6126497_4060448	04.05.2024 22:00	330
Потолок_эксперт	https://vk.com/wall-6126497_4060547	05.05.2024 11:00	220
Магия_SPA	https://vk.com/wall-6126497_4060591	05.05.2024 13:10	330
Aqua_Life	https://vk.com/wall-6126497_4060729	05.05.2024 19:05	220
Just_Fun	https://vk.com/wall-6126497_4061006	06.05.2024 12:30	330
Aqua_Life	https://vk.com/wall-6126497_4061180	06.05.2024 19:00	220
Десткий_массаж	https://vk.com/wall-6126497_4061381	07.05.2024 11:36	500
Магия_SPA	https://vk.com/wall-6126497_4061497	07.05.2024 16:03	330
Aqua_Life	https://vk.com/wall-6126497_4061569	07.05.2024 19:00	220
Потолок_эксперт	https://vk.com/wall-6126497_4061707	08.05.2024 11:00	220
Just_Fun	https://vk.com/wall-6126497_4061740	08.05.2024 12:30	330
Мир_обуви_и_одежды	https://vk.com/wall-6126497_4061870	08.05.2024 18:01	220
Aqua_Life	https://vk.com/wall-6126497_4061895	08.05.2024 19:00	220
Магия_SPA	https://vk.com/wall-6126497_4062045	09.05.2024 11:06	330
Aqua_Life	https://vk.com/wall-6126497_4062225	09.05.2024 19:00	220
Екатерина_Викторова	https://vk.com/wall-6126497_4062269	09.05.2024 20:48	500
Салон_для_ресниц	https://vk.com/wall-6126497_4062536	10.05.2024 15:00	100
Aqua_Life	https://vk.com/wall-6126497_4062648	10.05.2024 19:00	220
Мир_обуви_и_одежды	https://vk.com/wall-6126497_4062711	10.05.2024 22:00	220
Магия_SPA	https://vk.com/wall-6126497_4062791	11.05.2024 10:06	330
Потолок_эксперт	https://vk.com/wall-6126497_4062805	11.05.2024 11:00	220
Педикюр_от_Ирины	https://vk.com/wall-6126497_4062811	11.05.2024 11:05	500
Aqua_Life	https://vk.com/wall-6126497_4063014	11.05.2024 19:00	220
Салон_для_ресниц	https://vk.com/wall-6126497_4063298	12.05.2024 15:00	100
Мир_обуви_и_одежды	https://vk.com/wall-6126497_4063487	12.05.2024 21:59	220
Магия_рук	https://vk.com/wall-6126497_4063587	13.05.2024 10:24	500
89217095675_куплю_золото	https://vk.com/wall-6126497_4063631	13.05.2024 12:02	220
Step_by_Step	https://vk.com/wall-6126497_4064025	14.05.2024 10:20	500
Потолок_эксперт	https://vk.com/wall-6126497_4064040	14.05.2024 11:00	220
Салон_для_ресниц	https://vk.com/wall-6126497_4064138	14.05.2024 15:00	100
Мобильные_аксесссуары	https://vk.com/wall-6126497_4064169	14.05.2024 15:57	500
Мир_обуви_и_одежды	https://vk.com/wall-6126497_4064219	14.05.2024 18:00	220
Магазин_Штольня	https://vk.com/wall-6126497_4064314	14.05.2024 22:17	500
89217095675_куплю_золото	https://vk.com/wall-6126497_4064420	15.05.2024 12:00	220
Салон_для_ресниц	https://vk.com/wall-6126497_4064881	16.05.2024 15:00	100
Потолок_эксперт	https://vk.com/wall-6126497_4065154	17.05.2024 11:00	220
Мир_обуви_и_одежды	https://vk.com/wall-6126497_4065181	17.05.2024 11:59	220
89217095675_куплю_золото	https://vk.com/wall-6126497_4065184	17.05.2024 12:00	220
Магазин_Штольня	https://vk.com/wall-6126497_4065191	17.05.2024 12:03	500
ФиС	https://vk.com/wall-6126497_4065290	17.05.2024 15:24	500
Салон_для_ресниц	https://vk.com/wall-6126497_4065706	18.05.2024 15:00	100
Мир_обуви_и_одежды	https://vk.com/wall-6126497_4066233	19.05.2024 19:58	220
89217095675_куплю_золото	https://vk.com/wall-6126497_4066410	20.05.2024 12:00	220
Мир_обуви_и_одежды	https://vk.com/wall-6126497_4066862	21.05.2024 14:03	220
Шаверма_Заполярный	https://vk.com/wall-6126497_4066931	21.05.2024 16:58	500
89217095675_куплю_золото	https://vk.com/wall-6126497_4067206	22.05.2024 12:00	220
Мир_обуви_и_одежды	https://vk.com/wall-6126497_4067795	23.05.2024 19:04	220
Педикюр_от_Ирины	https://vk.com/wall-6126497_4067970	24.05.2024 00:38	500
89217095675_куплю_золото	https://vk.com/wall-6126497_4068054	24.05.2024 12:00	220
Лазерная_эпиляция_в_Никеле	https://vk.com/wall-6126497_4068384	25.05.2024 12:17	220
Александра_Карипова	https://vk.com/wall-6126497_4068579	25.05.2024 19:02	100
Лазерная_эпиляция_в_Никеле	https://vk.com/wall-6126497_4068748	26.05.2024 11:00	220
Мир_обуви_и_одежды	https://vk.com/wall-6126497_4068871	26.05.2024 14:58	220
Александра_Карипова	https://vk.com/wall-6126497_4068957	26.05.2024 19:02	100
Педикюр_от_Ирины	https://vk.com/wall-6126497_4069136	27.05.2024 09:13	500
89217095675_куплю_золото	https://vk.com/wall-6126497_4069194	27.05.2024 12:00	220
Лазерная_эпиляция_в_Никеле	https://vk.com/wall-6126497_4069196	27.05.2024 12:05	220
Александра_Карипова	https://vk.com/wall-6126497_4069377	27.05.2024 19:00	100
Лазерная_эпиляция_в_Никеле	https://vk.com/wall-6126497_4069704	28.05.2024 16:30	220
Магия_рук	https://vk.com/wall-6126497_4069947	29.05.2024 11:07	500
89217095675_куплю_золото	https://vk.com/wall-6126497_4069986	29.05.2024 12:00	220
Лазерная_эпиляция_в_Никеле	https://vk.com/wall-6126497_4070034	29.05.2024 14:05	220
Александра_Карипова	https://vk.com/wall-6126497_4070145	29.05.2024 19:00	100
Медтехника_и_ортопедия_Ортолаб	https://vk.com/wall-6126497_4070155	29.05.2024 19:25	500
Мир_обуви_и_одежды	https://vk.com/wall-6126497_4070175	29.05.2024 19:58	220
Лазерная_эпиляция_в_Никеле	https://vk.com/wall-6126497_4070407	30.05.2024 14:20	220
Александра_Карипова	https://vk.com/wall-6126497_4070495	30.05.2024 19:00	100
Лазерная_эпиляция_в_Никеле	https://vk.com/wall-6126497_4070658	31.05.2024 11:49	220
89217095675_куплю_золото	https://vk.com/wall-6126497_4070664	31.05.2024 12:00	220
Магнит_Косметик	https://vk.com/wall-6126497_4070689	31.05.2024 13:00	500
Александра_Карипова	https://vk.com/wall-6126497_4070801	31.05.2024 19:00	100