title	url	date	cost
Code_la_Dance	https://vk.com/wall-6126497_4058890	01.05.2024 11:20	330
У_мангала	https://vk.com/wall-6126497_4058923	01.05.2024 12:30	220
Автомагия	https://vk.com/wall-6126497_4058958	01.05.2024 13:24	330
Пых_пых	https://vk.com/wall-6126497_4058990	01.05.2024 14:05	220
Стас_Авдеев_свежий_краб	https://vk.com/wall-6126497_4059106	01.05.2024 19:00	220
Сова	https://vk.com/wall-6126497_4059131	01.05.2024 20:00	330
Антошка	https://vk.com/wall-6126497_4059140	01.05.2024 20:20	330
МАУ_Информцентр	https://vk.com/wall-6126497_4059347	02.05.2024 13:00	220
У_мангала	https://vk.com/wall-6126497_4059366	02.05.2024 13:30	220
МАУ_Информцентр	https://vk.com/wall-6126497_4059422	02.05.2024 15:00	220
Прокат_товаров_в_Заполярном	https://vk.com/wall-6126497_4059495	02.05.2024 18:25	500
Антошка	https://vk.com/wall-6126497_4059698	03.05.2024 09:19	330
Окна_двери_потолки_2	https://vk.com/wall-6126497_4059781	03.05.2024 13:00	220
Константин_Фирсов	https://vk.com/wall-6126497_4059795	03.05.2024 13:30	220
Антошка	https://vk.com/wall-6126497_4059851	03.05.2024 16:00	330
Компьютерная_диагностика_ремонт	https://vk.com/wall-6126497_4059870	03.05.2024 16:42	500
У_мангала	https://vk.com/wall-6126497_4059896	03.05.2024 18:00	220
Стас_Авдеев_свежий_краб	https://vk.com/wall-6126497_4059922	03.05.2024 19:00	220
Сова	https://vk.com/wall-6126497_4059942	03.05.2024 20:00	330
МАУ_Информцентр	https://vk.com/wall-6126497_4060241	04.05.2024 14:00	220
Пых_пых	https://vk.com/wall-6126497_4060247	04.05.2024 14:05	220
У_мангала	https://vk.com/wall-6126497_4060295	04.05.2024 15:32	220
У_мангала	https://vk.com/wall-6126497_4060395	04.05.2024 19:05	220
У_мангала	https://vk.com/wall-6126497_4060603	05.05.2024 13:30	220
Салон_Бигуди	https://vk.com/wall-6126497_4060688	05.05.2024 17:00	500
Стас_Авдеев_свежий_краб	https://vk.com/wall-6126497_4060728	05.05.2024 19:00	220
Сова	https://vk.com/wall-6126497_4060758	05.05.2024 20:00	330
Code_la_Dance	https://vk.com/wall-6126497_4060923	06.05.2024 09:55	330
МАУ_Информцентр	https://vk.com/wall-6126497_4060992	06.05.2024 12:00	220
Окна_двери_потолки_2	https://vk.com/wall-6126497_4061023	06.05.2024 13:00	220
Компьютерная_диагностика_ремонт	https://vk.com/wall-6126497_4061054	06.05.2024 13:59	500
МАУ_Информцентр	https://vk.com/wall-6126497_4061083	06.05.2024 15:00	220
Константин_Фирсов	https://vk.com/wall-6126497_4061111	06.05.2024 16:00	220
Прокат_товаров_в_Заполярном	https://vk.com/wall-6126497_4061276	06.05.2024 23:31	500
Пых_пых	https://vk.com/wall-6126497_4061494	07.05.2024 15:59	220
ПМОВК	https://vk.com/wall-6126497_4061552	07.05.2024 18:00	220
Сова	https://vk.com/wall-6126497_4061582	07.05.2024 20:00	330
Ульяна_Никитина	https://vk.com/wall-6126497_4061725	08.05.2024 11:55	500
У_мангала	https://vk.com/wall-6126497_4061766	08.05.2024 13:30	220
МАУ_Информцентр	https://vk.com/wall-6126497_4061810	08.05.2024 15:00	220
У_мангала	https://vk.com/wall-6126497_4061881	08.05.2024 18:30	220
Стас_Авдеев_свежий_краб	https://vk.com/wall-6126497_4061896	08.05.2024 19:05	220
Дым_Дымыч	https://vk.com/wall-6126497_4062068	09.05.2024 11:59	500
У_мангала	https://vk.com/wall-6126497_4062071	09.05.2024 12:05	220
Окна_двери_потолки_2	https://vk.com/wall-6126497_4062094	09.05.2024 13:00	220
У_мангала	https://vk.com/wall-6126497_4062139	09.05.2024 15:00	220
Константин_Фирсов	https://vk.com/wall-6126497_4062155	09.05.2024 16:00	220
У_мангала	https://vk.com/wall-6126497_4062231	09.05.2024 19:05	220
Пых_пых	https://vk.com/wall-6126497_4062357	10.05.2024 09:28	220
У_мангала	https://vk.com/wall-6126497_4062644	10.05.2024 18:56	220
Стас_Авдеев_свежий_краб	https://vk.com/wall-6126497_4062649	10.05.2024 19:05	220
Три_хвоста	https://vk.com/wall-6126497_4062666	10.05.2024 20:00	500
ProfMaster	https://vk.com/wall-6126497_4062672	10.05.2024 20:16	500
Code_la_Dance	https://vk.com/wall-6126497_4062708	10.05.2024 21:56	330
Три_хвоста	https://vk.com/wall-6126497_4063040	11.05.2024 20:18	500
У_мангала	https://vk.com/wall-6126497_4063087	11.05.2024 21:54	220
Окна_двери_потолки_2	https://vk.com/wall-6126497_4063242	12.05.2024 13:00	220
Константин_Фирсов	https://vk.com/wall-6126497_4063252	12.05.2024 13:30	220
У_мангала	https://vk.com/wall-6126497_4063307	12.05.2024 15:27	220
Стас_Авдеев_свежий_краб	https://vk.com/wall-6126497_4063399	12.05.2024 19:00	220
Функциональное_питание	https://vk.com/wall-6126497_4063624	13.05.2024 11:42	500
89210354705	https://vk.com/wall-6126497_4063629	13.05.2024 12:00	100
Пых_пых	https://vk.com/wall-6126497_4063642	13.05.2024 12:32	220
89211601220_квартира_посуточно	https://vk.com/wall-6126497_4063762	13.05.2024 16:38	100
Окна_двери_потолки_2	https://vk.com/wall-6126497_4064089	14.05.2024 13:00	220
У_мангала	https://vk.com/wall-6126497_4064091	14.05.2024 13:05	220
ПМОВК	https://vk.com/wall-6126497_4064205	14.05.2024 17:30	220
Стас_Авдеев_свежий_краб	https://vk.com/wall-6126497_4064245	14.05.2024 19:00	220
РеалТур	https://vk.com/wall-6126497_4064383	15.05.2024 10:00	500
У_мангала	https://vk.com/wall-6126497_4064472	15.05.2024 13:30	220
Константин_Фирсов	https://vk.com/wall-6126497_4064493	15.05.2024 14:00	220
ПМОВК	https://vk.com/wall-6126497_4064601	15.05.2024 18:30	220
Антошка	https://vk.com/wall-6126497_4064695	16.05.2024 00:01	330
Антошка	https://vk.com/wall-6126497_4064697	16.05.2024 00:01	330
Окна_двери_потолки_2	https://vk.com/wall-6126497_4064803	16.05.2024 12:30	220
Пых_пых	https://vk.com/wall-6126497_4064917	16.05.2024 16:50	220
У_мангала	https://vk.com/wall-6126497_4064919	16.05.2024 16:51	220
Стас_Авдеев_свежий_краб	https://vk.com/wall-6126497_4064966	16.05.2024 19:00	220
Машина_на_заказ	https://vk.com/wall-6126497_4065071	16.05.2024 23:30	500
У_мангала	https://vk.com/wall-6126497_4065359	17.05.2024 18:00	220
ПМОВК	https://vk.com/wall-6126497_4065370	17.05.2024 18:15	220
Заботливые_сердца	https://vk.com/wall-6126497_4065398	17.05.2024 19:15	500
Анаконда_Пронкина	https://vk.com/wall-6126497_4065447	17.05.2024 21:27	500
Окна_двери_потолки_2	https://vk.com/wall-6126497_4065656	18.05.2024 13:00	220
У_мангала	https://vk.com/wall-6126497_4065691	18.05.2024 14:30	220
Константин_Фирсов	https://vk.com/wall-6126497_4065747	18.05.2024 17:00	220
Стас_Авдеев_свежий_краб	https://vk.com/wall-6126497_4065776	18.05.2024 19:00	220
Окна_двери_потолки_2	https://vk.com/wall-6126497_4066006	19.05.2024 13:00	220
89211717273	https://vk.com/wall-6126497_4066007	19.05.2024 13:01	100
У_мангала	https://vk.com/wall-6126497_4066039	19.05.2024 14:00	220
ПМОВК	https://vk.com/wall-6126497_4066181	19.05.2024 18:00	220
89211717273	https://vk.com/wall-6126497_4066490	20.05.2024 15:00	100
Пых_пых	https://vk.com/wall-6126497_4066494	20.05.2024 15:09	220
Стас_Авдеев_свежий_краб	https://vk.com/wall-6126497_4066580	20.05.2024 19:00	220
Константин_Фирсов	https://vk.com/wall-6126497_4066808	21.05.2024 12:00	220
Окна_двери_потолки_2	https://vk.com/wall-6126497_4066818	21.05.2024 12:30	220
89211717273	https://vk.com/wall-6126497_4066871	21.05.2024 14:30	100
Планета	https://vk.com/wall-6126497_4067018	21.05.2024 20:00	220
МАУ_Информцентр	https://vk.com/wall-6126497_4067237	22.05.2024 12:41	220
89211717273	https://vk.com/wall-6126497_4067356	22.05.2024 16:00	100
ПМОВК	https://vk.com/wall-6126497_4067407	22.05.2024 18:32	220
Стас_Авдеев_свежий_краб	https://vk.com/wall-6126497_4067422	22.05.2024 19:05	220
У_мангала	https://vk.com/wall-6126497_4067438	22.05.2024 19:30	220
Планета	https://vk.com/wall-6126497_4067456	22.05.2024 20:00	220
Окна_двери_потолки_2	https://vk.com/wall-6126497_4067666	23.05.2024 13:00	220
89211717273	https://vk.com/wall-6126497_4067756	23.05.2024 17:00	100
Планета	https://vk.com/wall-6126497_4067833	23.05.2024 20:00	220
Автомагия	https://vk.com/wall-6126497_4068026	24.05.2024 10:07	330
Автомагия	https://vk.com/wall-6126497_4068115	24.05.2024 15:00	330
Константин_Фирсов	https://vk.com/wall-6126497_4068176	24.05.2024 17:00	220
Риелтор_Ульяна	https://vk.com/wall-6126497_4068191	24.05.2024 18:06	500
Стас_Авдеев_свежий_краб	https://vk.com/wall-6126497_4068201	24.05.2024 19:00	220
Автомагия	https://vk.com/wall-6126497_4068202	24.05.2024 19:01	330
ПМОВК	https://vk.com/wall-6126497_4068213	24.05.2024 19:30	220
Планета	https://vk.com/wall-6126497_4068223	24.05.2024 20:00	220
Пых_пых	https://vk.com/wall-6126497_4068362	25.05.2024 11:42	220
Code_la_Dance	https://vk.com/wall-6126497_4068377	25.05.2024 12:00	330
Окна_двери_потолки_2	https://vk.com/wall-6126497_4068421	25.05.2024 13:00	220
МАУ_Информцентр	https://vk.com/wall-6126497_4068477	25.05.2024 15:00	220
Анаконда_Пронкина	https://vk.com/wall-6126497_4068578	25.05.2024 19:00	500
Планета	https://vk.com/wall-6126497_4068611	25.05.2024 20:00	220
Окна_двери_потолки_2	https://vk.com/wall-6126497_4068816	26.05.2024 13:00	220
ПМОВК	https://vk.com/wall-6126497_4068922	26.05.2024 17:30	220
Стас_Авдеев_свежий_краб	https://vk.com/wall-6126497_4068955	26.05.2024 19:00	220
Планета	https://vk.com/wall-6126497_4068979	26.05.2024 20:00	220
Askona_Заполярный	https://vk.com/wall-6126497_4069264	27.05.2024 14:09	500
Константин_Фирсов	https://vk.com/wall-6126497_4069292	27.05.2024 15:00	220
Автомагия	https://vk.com/wall-6126497_4069323	27.05.2024 16:09	330
Планета	https://vk.com/wall-6126497_4069400	27.05.2024 20:00	220
Окна_двери_потолки_2	https://vk.com/wall-6126497_4069615	28.05.2024 13:00	220
МАУ_Информцентр	https://vk.com/wall-6126497_4069631	28.05.2024 13:30	220
Askona_Заполярный	https://vk.com/wall-6126497_4069653	28.05.2024 14:43	500
Пых_пых	https://vk.com/wall-6126497_4069721	28.05.2024 17:52	220
Планета	https://vk.com/wall-6126497_4069776	28.05.2024 20:00	220
Три_хвоста	https://vk.com/wall-6126497_4069775	28.05.2024 20:00	500
Окна_двери_потолки_2	https://vk.com/wall-6126497_4069806	28.05.2024 21:00	220
Планета	https://vk.com/wall-6126497_4070176	29.05.2024 20:00	220
Пых_пых	https://vk.com/wall-6126497_4070376	30.05.2024 13:00	220
Планета	https://vk.com/wall-6126497_4070512	30.05.2024 20:00	220
Компьютерная_диагностика_ремонт	https://vk.com/wall-6126497_4070674	31.05.2024 12:19	500
Пых_пых	https://vk.com/wall-6126497_4070684	31.05.2024 12:42	220
МАУ_Информцентр	https://vk.com/wall-6126497_4070709	31.05.2024 14:00	220
Прокат_товаров_в_Заполярном	https://vk.com/wall-6126497_4070899	31.05.2024 23:31	500