title	url	date	cost	comment
	https://vk.com/wall-6126497_2603388	01.06.2019 10:00	0	
БРИТАНСКИЕ КОТЯТА ищут заботливую семью, родились 21.04, фото и инфо в лс https:	https://vk.com/wall-6126497_2603405	01.06.2019 10:26	100	
	https://vk.com/wall-6126497_2603769	01.06.2019 16:00	300	
А ВЫ УЖЕ СЛЫШАЛИ О МАШИНКАХ НА РАДИОУПРАВЛЕНИИ НОВОГО ПОКОЛЕНИЯ?   Машинки, кото	https://vk.com/wall-6126497_2603777	01.06.2019 16:08	200	
	https://vk.com/wall-6126497_2603962	01.06.2019 19:15	0	
Продам печень трески ,изготовлена в море,банки 0.7-550рублей,возможна доставка! 	https://vk.com/wall-6126497_2603998	01.06.2019 19:58	100	
🎗Заполярный.🎗 🔥Замена кровли гаражей.🔥 📍Также рубероид технониколь в наличии.☎89	https://vk.com/wall-6126497_2604035	01.06.2019 20:37	200	клиента обслуживают несколько модераторов: Дмитрий Дубов, Елена Ушакова
Продаются котята-британцы.  2 мальчика и 2 девочки.   Родились 29 марта. Кушают 	https://vk.com/wall-6126497_2604077	01.06.2019 21:16	200	
	https://vk.com/wall-6126497_2604143	01.06.2019 22:17	300	
EvgeniyaStudio в г. Заполярный: - окрашивания волос любой сложности; - кератинов	https://vk.com/wall-6126497_2604642	02.06.2019 14:41	200	
	https://vk.com/wall-6126497_2604945	02.06.2019 19:15	0	
🎗Заполярный.🎗 🔥Замена кровли гаражей.🔥 📍Также рубероид технониколь в наличии.☎89	https://vk.com/wall-6126497_2605046	02.06.2019 20:25	100	клиента обслуживают несколько модераторов: Дмитрий Дубов, Елена Ушакова
Худеете или просто хотите разнообразить меню? Предложение специально для вас! То	https://vk.com/wall-6126497_2605831	03.06.2019 14:44	200	
День Крановщика отмечаем… Варёной колбасой! -25%!  Крановщик – профессия для вын	https://vk.com/wall-6126497_2606457	04.06.2019 08:22	200	
Ведущая федеральная розничная сеть магазинов «Пятерочка» приглашает на работу: П	https://vk.com/wall-6126497_2607068	04.06.2019 20:20	200	
	https://vk.com/wall-6126497_2607114	04.06.2019 21:00	0	
Заполярный, Печенга, километры!!!!!Готовы к переезду в новый дом британские котя	https://vk.com/wall-6126497_2607115	04.06.2019 21:01	200	
https://vk.com/pro100zap  Новости от производителя корпусной мебели на заказ "ПР	https://vk.com/wall-6126497_2607803	05.06.2019 16:18	200	
	https://vk.com/wall-6126497_2607848	05.06.2019 17:00	0	
МАГАЗИН «МЕБЕЛЬ ПЛЮС»  г. Заполярный. ул.Космонавтов 2а. Мы можем , предваритель	https://vk.com/wall-6126497_2607908	05.06.2019 18:06	200	
🎗Заполярный.🎗 🔥Замена кровли гаражей.🔥 📍Также рубероид технониколь в наличии.☎89	https://vk.com/wall-6126497_2608084	05.06.2019 21:02	100	клиента обслуживают несколько модераторов: Дмитрий Дубов, Елена Ушакова
	https://vk.com/wall-6126497_2608141	05.06.2019 22:11	0	
Привет, северяне! Не так давно в нашем кафе появилась новая, не совсем обычная в	https://vk.com/wall-6126497_2608145	05.06.2019 22:17	200	клиента обслуживают несколько модераторов: Дмитрий Дубов, Денис Ширшов
#Никель #Заполярный#Суши Wok #Акция #Набор #Роллы  С чего мы начнем этот четверг	https://vk.com/wall-6126497_2608471	06.06.2019 11:00	200	клиента обслуживают несколько модераторов: Дмитрий Дубов, Елена Ушакова
г. Заполярный Мастер маникюра, Анна Казаева +79646849892 https://vk.com/id161732	https://vk.com/wall-6126497_2608753	06.06.2019 15:41	200	
#Никель #Заполярный#Суши Wok #Акция #Набор #Роллы  С чего мы начнем этот четверг	https://vk.com/wall-6126497_2608771	06.06.2019 16:00	200	клиента обслуживают несколько модераторов: Дмитрий Дубов, Елена Ушакова
	https://vk.com/wall-6126497_2609754	07.06.2019 18:59	0	
	https://vk.com/wall-6126497_2610549	08.06.2019 15:13	0	
	https://vk.com/wall-6126497_2610590	08.06.2019 16:00	0	
	https://vk.com/wall-6126497_2610668	08.06.2019 17:24	0	
	https://vk.com/wall-6126497_2610813	08.06.2019 20:23	0	
В магазине Брусника  скидка на весь товар ( кроме верхней одежды, нижнего белья 	https://vk.com/wall-6126497_2610849	08.06.2019 21:08	200	
	https://vk.com/wall-6126497_2611517	09.06.2019 16:32	0	
	https://vk.com/wall-6126497_2611571	09.06.2019 17:26	300	
Ломбард.  Дадим деньги в долг под залог (низкий процент📉) 💰  Также купим золото 	https://vk.com/wall-6126497_2611999	09.06.2019 23:13	0	
	https://vk.com/wall-6126497_2612609	10.06.2019 15:53	300	
	https://vk.com/wall-6126497_2612613	10.06.2019 15:55	200	
Отмечаем День России! Скидка на 22 товара! Один из самых молодых праздников, име	https://vk.com/wall-6126497_2612633	10.06.2019 16:12	200	
	https://vk.com/wall-6126497_2612804	10.06.2019 18:47	300	
	https://vk.com/wall-6126497_2612884	10.06.2019 19:45	0	
Продам печень трески изготовлена в море,банки 0,7 ,цена 550рублей,возможна доста	https://vk.com/wall-6126497_2613101	10.06.2019 22:44	200	
🔧Сборка мебели и услуги "Мастер на час" в Заполярном.  Мы можем сделать 👍  Сборк	https://vk.com/wall-6126497_2613874	11.06.2019 18:00	200	
	https://vk.com/wall-6126497_2614124	11.06.2019 21:25	0	
Приглашаем вас посетить магазин одежды "Альбатрос". Мы находимся по адресу: пер.	https://vk.com/wall-6126497_2614201	11.06.2019 22:27	200	клиента обслуживают несколько модераторов: Дмитрий Дубов, Елена Ушакова
	https://vk.com/wall-6126497_2614321	12.06.2019 00:11	200	
Приглашаем вас посетить магазин одежды "Альбатрос". Мы находимся по адресу: пер.	https://vk.com/wall-6126497_2614511	12.06.2019 10:00	200	клиента обслуживают несколько модераторов: Дмитрий Дубов, Елена Ушакова
Продам печень трески изготовлена в море,банки 0,7 ,цена 550рублей,возможна доста	https://vk.com/wall-6126497_2614558	12.06.2019 10:54	100	
	https://vk.com/wall-6126497_2614638	12.06.2019 12:00	300	
МАГАЗИН « МЕБЕЛЬ ПЛЮС» г. Заполярный  ул. Бабикова 4. п. Никель пр. Молодежный 5	https://vk.com/wall-6126497_2614723	12.06.2019 13:05	200	
Заполярный, Печенга, километры!!!!!Готовы к переезду в новый дом британские котя	https://vk.com/wall-6126497_2614728	12.06.2019 13:09	200	
Дорогие Никельчане!)  СК Лидер для Вас открыл ПРОКАТ ВЕЛОСИПЕДОВ🚴‍♂  Велосипеды 	https://vk.com/wall-6126497_2614758	12.06.2019 13:30	200	
🔧Сборка мебели и услуги "Мастер на час" в Заполярном.  Мы можем сделать 👍  Сборк	https://vk.com/wall-6126497_2614823	12.06.2019 14:20	200	
Light Еда. БЖУ – в норме! -25%!  Всем-всем-всем последователям ЗОЖ и следящим за	https://vk.com/wall-6126497_2614862	12.06.2019 14:50	200	
	https://vk.com/wall-6126497_2614952	12.06.2019 16:10	0	
⚠️ TOP SERVICE  ⚠️ 📲На дисплеи Цены упали ! Теперь замена дисплея дешевле! Замен	https://vk.com/wall-6126497_2614969	12.06.2019 16:30	200	
	https://vk.com/wall-6126497_2615122	12.06.2019 19:30	0	
ХОТИТЕ НАТЯЖНОЙ ПОТОЛОК?  НУЖНА КОМПАНИЯ С ОПЫТОМ, ДОГОВОРОМ И ГАРАНТИЕЙ? Наша к	https://vk.com/wall-6126497_2615192	12.06.2019 20:39	200	
Изготовлю для Вас и Ваших малышей в кратчайшие сроки🌷:  https://vk.com/bypogodin	https://vk.com/wall-6126497_2616021	13.06.2019 16:49	100	
🔧Сборка мебели и услуги "Мастер на час" в Заполярном.  Мы можем сделать 👍  Сборк	https://vk.com/wall-6126497_2616059	13.06.2019 17:20	200	
	https://vk.com/wall-6126497_2616172	13.06.2019 19:20	300	
	https://vk.com/wall-6126497_2616187	13.06.2019 19:30	0	
Продам печень трески изготовлена в море,банки 0,7 ,цена 550рублей,возможна доста	https://vk.com/wall-6126497_2616321	13.06.2019 21:25	100	
Все виды сантехнических работ.  Быстро, качественно, недорого.  Гарантия, качест	https://vk.com/wall-6126497_2616389	13.06.2019 22:31	200	
Привет, друзья! Порой даже небольшие, но приятные мелочи могут стать частью одно	https://vk.com/wall-6126497_2616529	14.06.2019 00:53	200	клиента обслуживают несколько модераторов: Дмитрий Дубов, Денис Ширшов
Кафе «Юность» приглашает всех родителей с детишками на детскую вечеринку «Караме	https://vk.com/wall-6126497_2616635	14.06.2019 09:00	200	
	https://vk.com/wall-6126497_2616710	14.06.2019 11:00	0	
	https://vk.com/wall-6126497_2617088	14.06.2019 18:41	0	
	https://vk.com/wall-6126497_2617105	14.06.2019 19:00	0	
	https://vk.com/wall-6126497_2617180	14.06.2019 20:04	0	
Продам печень трески изготовлена в море,банки 0,7 ,цена 550рублей,возможна доста	https://vk.com/wall-6126497_2617521	15.06.2019 09:16	200	
«Улыбка ребенка самое важное» Приглашаем детишек к нам на батут «Звериный мир»! 	https://vk.com/wall-6126497_2617544	15.06.2019 09:40	200	
	https://vk.com/wall-6126497_2617556	15.06.2019 10:15	0	
	https://vk.com/wall-6126497_2617592	15.06.2019 11:01	300	
Заполярный, Печенга, километры!!!!!Готовы к переезду в новый дом британские котя	https://vk.com/wall-6126497_2617624	15.06.2019 11:34	200	
В магазине «Альт» поступление товара! -Босоножки! -Сарафаны! -Джинсы! -Шорты и м	https://vk.com/wall-6126497_2618089	15.06.2019 19:30	200	
НИКЕЛЬ! Нужны модели на макияж и укладки. Бесплатно. ❤Хочешь попасть ко мне и по	https://vk.com/wall-6126497_2618118	15.06.2019 20:00	200	
НИКЕЛЬ! Нужны модели на макияж и укладки. Бесплатно. ❤Хочешь попасть ко мне и по	https://vk.com/wall-6126497_2618536	16.06.2019 12:15	200	
https://vk.com/club152791206  "ТРИКОТАЖ ИЗ ИВАНОВО"  Рада Приветствовать Вас в м	https://vk.com/wall-6126497_2618687	16.06.2019 14:36	200	
	https://vk.com/wall-6126497_2618867	16.06.2019 17:47	0	
Блинная неделя с ОКРАИНОЙ! -26%!  Летняя масленица – слышали о такой? С 17 по 23	https://vk.com/wall-6126497_2619700	17.06.2019 15:18	200	
	https://vk.com/wall-6126497_2619794	17.06.2019 17:00	300	
	https://vk.com/wall-6126497_2619902	17.06.2019 19:00	0	
🔥🔥🔥В отделе «Мир обуви»🔥🔥🔥🔥  Город Заполярный, крытый рынок!!!   ❌❌❌ЛИКВИДАЦИОНН	https://vk.com/wall-6126497_2620083	17.06.2019 21:53	200	
🔥🔥🔥В отделе «Мир обуви»🔥🔥🔥🔥 Город Заполярный, крытый рынок!!!  ❌❌❌ЛИКВИДАЦИОННАЯ	https://vk.com/wall-6126497_2620459	18.06.2019 12:00	200	
	https://vk.com/wall-6126497_2620812	18.06.2019 19:09	0	
Колбасимся! Или -23% на ВСЕ сырокопченые колбасы!  Настоящая сырокопченая колбас	https://vk.com/wall-6126497_2621324	19.06.2019 12:14	200	
Уважаемые жители Печенгского района!!! 🎉🎉 Спешите организовать свой летний отдых	https://vk.com/wall-6126497_2621350	19.06.2019 12:40	200	
Продам печень трески ,изготовлена в море,банки 0.7-550рублей,возможна доставка! 	https://vk.com/wall-6126497_2621459	19.06.2019 14:16	100	
	https://vk.com/wall-6126497_2621671	19.06.2019 18:38	0	
🔥🔥🔥В отделе «Мир обуви»🔥🔥🔥🔥  Город Заполярный, крытый рынок!!!   ❌❌❌ЛИКВИДАЦИОНН	https://vk.com/wall-6126497_2621736	19.06.2019 20:00	200	
Рыбный четверг? И даже пятница? Легко! -30%!!!  А вы уже пробовали наши замечате	https://vk.com/wall-6126497_2622079	20.06.2019 10:15	200	
🔥🔥🔥В отделе «Мир обуви»🔥🔥🔥🔥  Город Заполярный, крытый рынок!!!   ❌❌❌ЛИКВИДАЦИОНН	https://vk.com/wall-6126497_2622178	20.06.2019 12:00	200	
	https://vk.com/wall-6126497_2622618	20.06.2019 19:07	0	
	https://vk.com/wall-6126497_2623310	21.06.2019 15:10	200	
	https://vk.com/wall-6126497_2623627	21.06.2019 19:36	0	
🔥🔥🔥В отделе «Мир обуви»🔥🔥🔥🔥  Город Заполярный, крытый рынок!!!   ❌❌❌ЛИКВИДАЦИОНН	https://vk.com/wall-6126497_2623655	21.06.2019 20:00	200	
	https://vk.com/wall-6126497_2623745	21.06.2019 21:32	300	
	https://vk.com/wall-6126497_2623896	21.06.2019 23:33	300	
Заполярный, Печенга, километры!!!!!Готовы к переезду в новый дом британские котя	https://vk.com/wall-6126497_2624066	22.06.2019 10:01	200	
🔥🔥🔥В отделе «Мир обуви»🔥🔥🔥🔥  Город Заполярный, крытый рынок!!!   ❌❌❌ЛИКВИДАЦИОНН	https://vk.com/wall-6126497_2624166	22.06.2019 12:00	200	
	https://vk.com/wall-6126497_2624210	22.06.2019 12:31	300	
	https://vk.com/wall-6126497_2624490	22.06.2019 17:29	0	
	https://vk.com/wall-6126497_2624576	22.06.2019 19:05	0	
Продам печень трески изготовлена в море,банки 0,7 ,цена 550рублей,возможна доста	https://vk.com/wall-6126497_2624593	22.06.2019 19:14	200	
	https://vk.com/wall-6126497_2624723	22.06.2019 21:48	300	
В магазине одежды "Альбатрос" поступление нового летнего товара, приглашаем вас 	https://vk.com/wall-6126497_2624837	22.06.2019 23:15	200	клиента обслуживают несколько модераторов: Дмитрий Дубов, Елена Ушакова
В магазине одежды "Альбатрос" поступление нового летнего товара, приглашаем вас 	https://vk.com/wall-6126497_2625014	23.06.2019 10:00	200	клиента обслуживают несколько модераторов: Дмитрий Дубов, Елена Ушакова
	https://vk.com/wall-6126497_2625474	23.06.2019 18:34	0	
🔥🔥🔥В отделе «Мир обуви»🔥🔥🔥🔥  Город Заполярный, крытый рынок!!!   ❌❌❌ЛИКВИДАЦИОНН	https://vk.com/wall-6126497_2625530	23.06.2019 20:00	200	
Уважаемые девушки и женщины !!!🌹🌹🌹 Приглашаю в группу «Лечение волос,Кератин,Нан	https://vk.com/wall-6126497_2625843	24.06.2019 09:35	200	
	https://vk.com/wall-6126497_2625919	24.06.2019 11:00	300	
🔥🔥🔥В отделе «Мир обуви»🔥🔥🔥🔥  Город Заполярный, крытый рынок!!!   ❌❌❌ЛИКВИДАЦИОНН	https://vk.com/wall-6126497_2625966	24.06.2019 12:00	200	
	https://vk.com/wall-6126497_2625974	24.06.2019 12:04	200	
Розыгрыш в салоне Askona в г. Заполярный!*   Хотите засыпать легко и быстро?  В 	https://vk.com/wall-6126497_2626227	24.06.2019 17:34	200	
	https://vk.com/wall-6126497_2626324	24.06.2019 19:20	300	
	https://vk.com/wall-6126497_2626357	24.06.2019 19:51	0	
Ломбард.  Дадим деньги в долг под залог (низкий процент📉) 💰  Также купим золото 	https://vk.com/wall-6126497_2626505	24.06.2019 22:46	0	
Продам печень трески изготовлена в море,банки 0,7 ,цена 550рублей,возможна доста	https://vk.com/wall-6126497_2626684	25.06.2019 10:00	200	
Light Еда. БЖУ – в норме! -25%!  Всем-всем-всем последователям ЗОЖ и следящим за	https://vk.com/wall-6126497_2626990	25.06.2019 15:36	200	
Представляю вашему вниманию женские сумочки ручной работы. Подходят как на кажды	https://vk.com/wall-6126497_2627057	25.06.2019 16:58	200	
🔥🔥🔥В отделе «Мир обуви»🔥🔥🔥🔥  Город Заполярный, крытый рынок!!!   ❌❌❌ЛИКВИДАЦИОНН	https://vk.com/wall-6126497_2627199	25.06.2019 20:00	200	
	https://vk.com/wall-6126497_2627314	25.06.2019 21:45	0	
🔥🔥🔥В отделе «Мир обуви»🔥🔥🔥🔥  Город Заполярный, крытый рынок!!!   ❌❌❌ЛИКВИДАЦИОНН	https://vk.com/wall-6126497_2627667	26.06.2019 12:00	200	
Ломбард.  Дадим деньги в долг под залог (низкий процент📉) 💰  Также купим золото 	https://vk.com/wall-6126497_2627810	26.06.2019 15:00	0	
День Молодёжи отмечаем ПЕЛЬМЕНЯМИ! 25%!  Абсолютно разные, но такие вкусные, без	https://vk.com/wall-6126497_2628016	26.06.2019 19:01	200	
	https://vk.com/wall-6126497_2628151	26.06.2019 21:25	0	
☀️☀️🔥ЛЕТНЯЯ РАСПРОДАЖА🔥☀️☀️ 🤯⚒Хотите начать ремонт и не  знаете с чего начать?⚒🤯	https://vk.com/wall-6126497_2628219	26.06.2019 22:36	200	клиента обслуживают несколько модераторов: Дмитрий Дубов, Елена Ушакова
Ломбард.  Дадим деньги в долг под залог (низкий процент📉) 💰  Также купим золото 	https://vk.com/wall-6126497_2628528	27.06.2019 12:08	0	
Уважаемые жители и гости Печенгского района, рады сообщить Вам что в г.Заполярны	https://vk.com/wall-6126497_2628812	27.06.2019 17:09	200	
	https://vk.com/wall-6126497_2628860	27.06.2019 18:10	300	
	https://vk.com/wall-6126497_2629629	28.06.2019 13:27	0	
	https://vk.com/wall-6126497_2629992	28.06.2019 19:05	0	
	https://vk.com/wall-6126497_2630021	28.06.2019 19:25	300	
☀☀🔥ЛЕТНЯЯ РАСПРОДАЖА🔥☀☀ 🤯⚒Хотите начать ремонт и не  знаете с чего начать?⚒🤯 📌 С	https://vk.com/wall-6126497_2630056	28.06.2019 20:00	200	клиента обслуживают несколько модераторов: Дмитрий Дубов, Елена Ушакова
💥ПРОКАТ ВЕЛОСИПЕДОВ НИКЕЛЬ💥  🚴Группа в контакте https://vk.com/veloprokat51  ☎ П	https://vk.com/wall-6126497_2630084	28.06.2019 20:35	200	
Дорогие мои клиентки ❤️ До моего отъезда осталось мало времени ( с 14 июля я в о	https://vk.com/wall-6126497_2630236	28.06.2019 23:25	200	клиента обслуживают несколько модераторов: Дмитрий Дубов, Елена Ушакова
	https://vk.com/wall-6126497_2630984	29.06.2019 19:37	200	
	https://vk.com/wall-6126497_2630991	29.06.2019 19:46	300	
☀☀🔥ЛЕТНЯЯ РАСПРОДАЖА🔥☀☀ 🤯⚒Хотите начать ремонт и не  знаете с чего начать?⚒🤯 📌 С	https://vk.com/wall-6126497_2631005	29.06.2019 20:00	200	клиента обслуживают несколько модераторов: Дмитрий Дубов, Елена Ушакова
	https://vk.com/wall-6126497_2631035	29.06.2019 20:30	0	
30.06.2019 г. Приглашаем детишек к нам на батут «Звериный мир»! стоимость 10 мин	https://vk.com/wall-6126497_2631364	30.06.2019 09:30	200	
💥ПРОКАТ ВЕЛОСИПЕДОВ НИКЕЛЬ💥  🚴Группа в контакте https://vk.com/veloprokat51  ☎ П	https://vk.com/wall-6126497_2631540	30.06.2019 12:15	200	
🔧Сборка мебели и услуги "Мастер на час" в Заполярном.  Мы можем сделать 👍  Сборк	https://vk.com/wall-6126497_2631851	30.06.2019 17:37	200	
	https://vk.com/wall-6126497_2631900	30.06.2019 19:00	0	
	https://vk.com/wall-6126497_2631926	30.06.2019 19:25	300	
☀☀🔥ЛЕТНЯЯ РАСПРОДАЖА🔥☀☀ 🤯⚒Хотите начать ремонт и не  знаете с чего начать?⚒🤯 📌 С	https://vk.com/wall-6126497_2631960	30.06.2019 20:00	200	клиента обслуживают несколько модераторов: Дмитрий Дубов, Елена Ушакова
Готовы к переезду в новый дом две девчушки, скоттиш-фолд. День рождения 22.05.20	https://vk.com/wall-6126497_2632001	30.06.2019 20:40	200	
✔Предлагаю ремонт квартир в Мурманске и области любой сложности! ✔Отделочные раб	https://vk.com/wall-6126497_2632002	30.06.2019 20:41	200	
ОЧЕНЬ СКОРО ОТКРЫТИЕ МАГАЗИНА ProfMaster💥💥💥 в городе Заполярный😊  💫Магазин для и	https://vk.com/wall-6126497_2632110	30.06.2019 22:23	200	
Продам печень трески изготовлена в море,банки 0,7 ,цена 550рублей,возможна доста	https://vk.com/wall-6126497_2632111	30.06.2019 22:24	200	