title	url	date	cost
Вас приветствует  "Джинсовый дом "  Мы находимся в городе Заполярный на крытом р	https://vk.com/wall-6126497_3536326	17.12.2021 19:15	200
Вас приветствует  "Джинсовый дом "  Мы находимся в городе Заполярный на крытом р	https://vk.com/wall-6126497_3538568	19.12.2021 19:15	200
Вас приветствует  "Джинсовый дом "  Мы  в городе Заполярный на крытом рынке у вх	https://vk.com/wall-6126497_3540354	21.12.2021 19:15	200
Вас приветствует  "Джинсовый дом "  Мы  в городе Заполярный на крытом рынке у вх	https://vk.com/wall-6126497_3542389	23.12.2021 19:15	200
Вас приветствует  "Джинсовый дом "  Мы  в городе Заполярный на крытом рынке у вх	https://vk.com/wall-6126497_3544420	25.12.2021 19:15	200