title	url	date	cost
Компания [club207493389|"Потолок Эксперт"]! Мы сделаем 💫Не потолок, 💫а космос 💫 	https://vk.com/wall-6126497_3493670	01.11.2021 11:00	500
Заполярный. Требуется.  Комплектовщик заказов службы доставки  График работы: 2/	https://vk.com/wall-6126497_3493715	01.11.2021 12:00	199
Куплю золото-лом дорого от 2000 за грамм ! Никель - Заполярный ! Возможен выезд 	https://vk.com/wall-6126497_3493788	01.11.2021 13:00	199
Попутный груз Мурманская область, г. Мурманск, Санкт - Петербург и города России	https://vk.com/wall-6126497_3494047	01.11.2021 17:00	100
Дорогие дамы🌸Приглашаю вас к себе на маникюр💅🏻Работаю на дому!  https://vk.com/n	https://vk.com/wall-6126497_3494217	01.11.2021 20:35	100
Приглашаю в ноябре 3 человек на индивидуальную консультацию (цена 1500 рублей)  	https://vk.com/wall-6126497_3494929	02.11.2021 16:00	500
Попутный груз Мурманская область, г. Мурманск, Санкт - Петербург и города России	https://vk.com/wall-6126497_3494990	02.11.2021 17:00	100
Быстро и качественно произведём шиномонтажные работы. В том числе ошиповка шин, 	https://vk.com/wall-6126497_3495250	02.11.2021 21:19	500
Куплю золото-лом дорого от 2000 за грамм ! Никель - Заполярный ! Возможен выезд 	https://vk.com/wall-6126497_3495688	03.11.2021 13:00	199
Ламинирование ресниц + ботокс 6D ресниц, CERAMIDE CONCENTRATE. Работаю на италья	https://vk.com/wall-6126497_3495759	03.11.2021 14:00	199
💥 АРГОННО-ДУГОВАЯ СВАРКА 💥: ✅Чёрные металлы, алюминий, дюралюминий, силумин, лег	https://vk.com/wall-6126497_3495933	03.11.2021 17:05	199
Компания [club207493389|"Потолок Эксперт"]! Мы сделаем 💫Не потолок, 💫а космос 💫 	https://vk.com/wall-6126497_3496375	04.11.2021 11:00	500
Готовы переехать в новый дом птенцы кореллы, цвета разные,есть мальчики и девочк	https://vk.com/wall-6126497_3496635	04.11.2021 15:46	500
Нижнее Луостари! Весь ноябрь акция на оформление бровей! Архитектура 400₽ Долгов	https://vk.com/wall-6126497_3496693	04.11.2021 16:46	100
В магазин ,,Эконом класс,, г. Заполярный на Ленина 24 поступление нового товара.	https://vk.com/wall-6126497_3496857	04.11.2021 19:04	199
	https://vk.com/wall-6126497_3496910	04.11.2021 20:00	300
Всем добра и мёда! Осень... Октябрь... Вечер... Диван...  Что может быть лучше ч	https://vk.com/wall-6126497_3496970	04.11.2021 21:09	500
Приглашаю Вас посетить [club204577377|Студию красоты и релакса МагияSPA 💞] Порад	https://vk.com/wall-6126497_3496991	04.11.2021 21:29	199
https://vk.com/club170832177 Ламинирование и Botox ресниц Шугаринг и воск. депил	https://vk.com/wall-6126497_3497291	05.11.2021 11:00	298
Ламинирование ресниц + ботокс 6D ресниц, CERAMIDE CONCENTRATE. Работаю на италья	https://vk.com/wall-6126497_3497525	05.11.2021 14:00	199
	https://vk.com/wall-6126497_3497528	05.11.2021 14:09	500
[club183232846|💥 АРГОННО-ДУГОВАЯ СВАРКА 💥]: ✅Чёрные металлы, алюминий, дюралюмин	https://vk.com/wall-6126497_3498110	06.11.2021 10:00	199
В  магазин ,,Эконом класс,, г. Заполярный на Ленина 24 поступление нового товара	https://vk.com/wall-6126497_3498150	06.11.2021 11:00	199
Куплю золото-лом дорого от 2000 за грамм ! Никель - Заполярный ! Возможен выезд 	https://vk.com/wall-6126497_3498266	06.11.2021 13:00	199
ВАКАНСИЯ!👩🏼‍💼🧑🏽‍💼  СРОЧНО! В КОФЕЙНЫЙ КИОСК пгт. Никель требуется работник на 2 	https://vk.com/wall-6126497_3498327	06.11.2021 13:57	500
Ремонт ТВ и компьютерной техники, монтаж систем видеонаблюдения. С выездом по вс	https://vk.com/wall-6126497_3498329	06.11.2021 14:00	500
Заполярный.  Требуется продавец в магазин АВТОМАГиЯ по адресу ул. Терешковой дом	https://vk.com/wall-6126497_3498574	06.11.2021 18:07	500
Компания [club207493389|"Потолок Эксперт"]! Мы сделаем 💫Не потолок, 💫а космос 💫 	https://vk.com/wall-6126497_3498946	07.11.2021 11:00	500
Никель-Заполярный  Завтра 08.11.2021 ожидается доставка свежей сёмги (потрашенна	https://vk.com/wall-6126497_3498982	07.11.2021 11:36	200
Дипломированный массажист и косметолог с медицинским образованием. Индивидуальны	https://vk.com/wall-6126497_3499039	07.11.2021 12:21	200
Ламинирование ресниц + ботокс 6D ресниц, CERAMIDE CONCENTRATE. Работаю на италья	https://vk.com/wall-6126497_3499179	07.11.2021 14:00	199
Приглашаю Вас посетить [club204577377|Студию красоты и релакса МагияSPA 💞]  Пора	https://vk.com/wall-6126497_3499370	07.11.2021 17:00	199
Доставка по Печенгскому району. Гирлянда штора 😻  Цвет свечения: цветной, белый,	https://vk.com/wall-6126497_3499404	07.11.2021 18:00	500
Куплю золото-лом дорого от 2000 за грамм ! Никель - Заполярный ! Возможен выезд 	https://vk.com/wall-6126497_3499940	08.11.2021 13:00	199
	https://vk.com/wall-6126497_3500263	08.11.2021 19:06	300
Срочно продам авто!!! опель астра 1998 года и ауди 100 1983 года, за подробностя	https://vk.com/wall-6126497_3500448	08.11.2021 22:11	100
Ламинирование ресниц + ботокс 6D ресниц, CERAMIDE CONCENTRATE. Работаю на италья	https://vk.com/wall-6126497_3500830	09.11.2021 14:00	199
[club183232846|💥 АРГОННО-ДУГОВАЯ СВАРКА 💥]: ✅Чёрные металлы, алюминий, дюралюмин	https://vk.com/wall-6126497_3501007	09.11.2021 17:10	199
Заполярный. В кафе азиатской кухни формата take-away сети СушиWok требуется; Адм	https://vk.com/wall-6126497_3501509	10.11.2021 11:00	199
Заполярный. Милые девушки!🌷 Приглашаю Вас на наращивание, ламинирование и ботокс	https://vk.com/wall-6126497_3501609	10.11.2021 12:37	100
Куплю золото-лом дорого от 2000 за грамм ! Никель - Заполярный ! Возможен выезд 	https://vk.com/wall-6126497_3501637	10.11.2021 13:00	199
Заполярный.   Требуется продавец в магазин АВТОМАГиЯ по адресу ул. Терешковой до	https://vk.com/wall-6126497_3501764	10.11.2021 14:57	500
📦 ПЛАНИРУЕТЕ ПЕРЕЕЗД? 7 причин, почему Вам следует обратиться в Службу переездов	https://vk.com/wall-6126497_3502040	10.11.2021 19:00	500
Заполярный. В кафе азиатской кухни формата take-away сети СушиWok требуется; Адм	https://vk.com/wall-6126497_3502541	11.11.2021 11:00	199
Ламинирование ресниц + ботокс 6D ресниц, CERAMIDE CONCENTRATE. Работаю на италья	https://vk.com/wall-6126497_3502694	11.11.2021 14:00	199
Приглашаю Вас посетить [club204577377|Студию красоты и релакса МагияSPA 💞]  Пора	https://vk.com/wall-6126497_3502895	11.11.2021 17:00	199
21 ноября в Заполярном состоится мастер-класс по изготовлению ободка для волос. 	https://vk.com/wall-6126497_3503035	11.11.2021 19:47	500
Здравствуйте 🤝  УВАЖАЕМЫЕ НАШИ ПОКУПАТЕЛИ !🌺 В нашем МАГАЗИНЕ «МОСКОВСКАЯ ЯРМАРК	https://vk.com/wall-6126497_3503361	12.11.2021 10:00	200
[club183232846|💥 АРГОННО-ДУГОВАЯ СВАРКА 💥]: ✅Чёрные металлы, алюминий, дюралюмин	https://vk.com/wall-6126497_3503363	12.11.2021 10:10	199
https://vk.com/club170832177 Ламинирование и Botox ресниц Шугаринг и воск. депил	https://vk.com/wall-6126497_3503391	12.11.2021 11:00	298
Заполярный. Милые девушки!🌷 Приглашаю Вас на наращивание, ламинирование и ботокс	https://vk.com/wall-6126497_3503479	12.11.2021 12:46	100
Здравствуйте 🤝  УВАЖАЕМЫЕ НАШИ ПОКУПАТЕЛИ !🌺 В нашем МАГАЗИНЕ «МОСКОВСКАЯ ЯРМАРК	https://vk.com/wall-6126497_3503686	12.11.2021 17:01	200
	https://vk.com/wall-6126497_3503695	12.11.2021 17:10	300
	https://vk.com/wall-6126497_3503730	12.11.2021 17:55	300
	https://vk.com/wall-6126497_3503925	12.11.2021 21:38	300
Куплю золото-лом дорого от 2000 за грамм ! Никель - Заполярный ! Возможен выезд 	https://vk.com/wall-6126497_3504273	13.11.2021 13:00	199
Заполярный Предлагаю услуги парикмахера с выездом на дом. 89113050467 https://vk	https://vk.com/wall-6126497_3504295	13.11.2021 13:32	100
ЗАПОЛЯРНЫЙ. ПРОДАМ КЛЮКВУ 250 РУБЛЕЙ ЗА ЛИТР. КОЛИЧЕСТВО ОГРАНИЧЕНО. ВОПРОСЫ ПО 	https://vk.com/wall-6126497_3504437	13.11.2021 15:41	100
	https://vk.com/wall-6126497_3504438	13.11.2021 15:43	199
Свежий Мёд со своей пасеки!🍯 Сбор 2021 года! Количество ограничено  🐝 Разнотравь	https://vk.com/wall-6126497_3504526	13.11.2021 17:13	500
Магазин одежды "4 Сезона". Поступление нового товара. Большой ассортимент. Мы вс	https://vk.com/wall-6126497_3505057	14.11.2021 11:10	199
Заполярный Предлагаю услуги парикмахера с выездом на дом. 89113050467 https://vk	https://vk.com/wall-6126497_3505103	14.11.2021 12:00	100
Заполярный. Милые девушки!🌷 Приглашаю Вас на наращивание, ламинирование и ботокс	https://vk.com/wall-6126497_3505147	14.11.2021 12:53	100
Приглашаю Вас посетить [club204577377|Студию красоты и релакса МагияSPA 💞]  Пора	https://vk.com/wall-6126497_3505406	14.11.2021 17:00	199
	https://vk.com/wall-6126497_3505993	15.11.2021 12:05	199
Куплю золото-лом дорого от 2000 за грамм ! Никель - Заполярный ! Возможен выезд 	https://vk.com/wall-6126497_3506049	15.11.2021 13:00	199
[club183232846|💥 АРГОННО-ДУГОВАЯ СВАРКА 💥]: ✅Чёрные металлы, алюминий, дюралюмин	https://vk.com/wall-6126497_3506288	15.11.2021 17:20	199
Уважаемые дамы и господа. Предлагаю широкий спектр услуг оздоровительного массаж	https://vk.com/wall-6126497_3506471	15.11.2021 20:35	200
С 16 ноября по 21 ноября (5 дней)!!! Приехала Белорусская продукция: сало, колба	https://vk.com/wall-6126497_3506845	16.11.2021 12:04	500
Магазин одежды "4 Сезона". Поступление нового товара. Большой ассортимент. Мы вс	https://vk.com/wall-6126497_3507573	17.11.2021 11:13	199
	https://vk.com/wall-6126497_3507612	17.11.2021 12:00	199
Куплю золото-лом дорого от 2000 за грамм ! Никель - Заполярный ! Возможен выезд 	https://vk.com/wall-6126497_3507652	17.11.2021 13:00	199
	https://vk.com/wall-6126497_3508065	17.11.2021 20:20	300
[club183232846|💥 АРГОННО-ДУГОВАЯ СВАРКА 💥]: ✅Чёрные металлы, алюминий, дюралюмин	https://vk.com/wall-6126497_3508421	18.11.2021 10:20	199
Магазин одежды "4 Сезона". Поступление нового товара. Большой ассортимент. Мы вс	https://vk.com/wall-6126497_3508441	18.11.2021 11:00	199
В магазин ,,Эконом класс,, г. Заполярный на Ленина 24 поступление нового товара.	https://vk.com/wall-6126497_3508463	18.11.2021 11:29	199
Ламинирование ресниц + ботокс 6D ресниц, CERAMIDE CONCENTRATE. Работаю на италья	https://vk.com/wall-6126497_3508594	18.11.2021 14:00	199
	https://vk.com/wall-6126497_3508740	18.11.2021 17:00	199
	https://vk.com/wall-6126497_3509201	19.11.2021 10:00	300
Никель. Сауна Заречье! Цена: 1200р/час. Заказать сауну можно от 2 часов для 6 че	https://vk.com/wall-6126497_3509246	19.11.2021 10:55	500
https://vk.com/club170832177 Ламинирование и Botox ресниц Шугаринг и воск. депил	https://vk.com/wall-6126497_3509251	19.11.2021 11:00	298
Магазин одежды "4 Сезона". Поступление нового товара. Большой ассортимент. Мы вс	https://vk.com/wall-6126497_3509266	19.11.2021 11:19	199
	https://vk.com/wall-6126497_3509302	19.11.2021 12:00	199
Приглашаем на Фото- день «Новогодняя пижама пати»✨ 5 декабря 2021  Стильные обра	https://vk.com/wall-6126497_3509348	19.11.2021 12:55	500
Свежий Мёд со своей пасеки!🍯 Сбор 2021 года! Количество ограничено  🐝 Разнотравь	https://vk.com/wall-6126497_3509610	19.11.2021 18:50	500
	https://vk.com/wall-6126497_3509614	19.11.2021 19:00	300
В магазин ,,Эконом класс,, г. Заполярный на Ленина 24 поступление нового товара.	https://vk.com/wall-6126497_3510071	20.11.2021 11:30	199
Куплю золото-лом дорого от 2000 за грамм ! Никель - Заполярный ! Возможен выезд 	https://vk.com/wall-6126497_3510161	20.11.2021 13:00	199
	https://vk.com/wall-6126497_3510164	20.11.2021 13:04	298
Ламинирование ресниц + ботокс 6D ресниц, CERAMIDE CONCENTRATE. Работаю на италья	https://vk.com/wall-6126497_3510219	20.11.2021 14:00	199
МЕД из Пензы . мед цветочный со своей пасеки . доставка до квартиры и по району 	https://vk.com/wall-6126497_3510224	20.11.2021 14:03	200
	https://vk.com/wall-6126497_3510871	21.11.2021 12:00	199
	https://vk.com/wall-6126497_3510929	21.11.2021 13:00	298
Приглашаю Вас посетить [club204577377|Студию красоты и релакса МагияSPA 💞]  Пора	https://vk.com/wall-6126497_3511197	21.11.2021 17:00	199
[club183232846|💥 АРГОННО-ДУГОВАЯ СВАРКА 💥]: ✅Чёрные металлы, алюминий, дюралюмин	https://vk.com/wall-6126497_3511219	21.11.2021 17:30	199
Магазин одежды "4 Сезона". Поступление нового товара. Большой ассортимент. Мы вс	https://vk.com/wall-6126497_3511725	22.11.2021 11:05	199
Заполярный.В кафе азиатской кухни формата take-away сети СушиWok требуется: Адми	https://vk.com/wall-6126497_3511793	22.11.2021 12:00	199
Куплю золото-лом дорого от 2000 за грамм ! Никель - Заполярный ! Возможен выезд 	https://vk.com/wall-6126497_3511834	22.11.2021 13:00	199
Заполярный. Требуется.  Комплектовщик заказов службы доставки  График работы: 2/	https://vk.com/wall-6126497_3511840	22.11.2021 13:03	199
Ламинирование ресниц + ботокс 6D ресниц, CERAMIDE CONCENTRATE. Работаю на италья	https://vk.com/wall-6126497_3511881	22.11.2021 14:00	199
Ламинирование ресниц  Оформление и долговременная укладка бровей Инстаграм [club	https://vk.com/wall-6126497_3512028	22.11.2021 16:46	100
Продаются ежата декоративные (африканский белобрюхий ежик), максимальный размер 	https://vk.com/wall-6126497_3512046	22.11.2021 17:07	500
Готовы переехать в новый дом птенцы кореллы, цвета разные, есть мальчики и девоч	https://vk.com/wall-6126497_3512047	22.11.2021 17:08	500
	https://vk.com/wall-6126497_3512589	23.11.2021 12:00	199
	https://vk.com/wall-6126497_3512654	23.11.2021 13:00	298
Уважаемые дамы и господа. Предлагаю широкий спектр услуг оздоровительного массаж	https://vk.com/wall-6126497_3512819	23.11.2021 15:52	200
	https://vk.com/wall-6126497_3512947	23.11.2021 18:12	500
[club183232846|💥 АРГОННО-ДУГОВАЯ СВАРКА 💥]: ✅Чёрные металлы, алюминий, дюралюмин	https://vk.com/wall-6126497_3513391	24.11.2021 10:30	199
Магазин одежды "4 Сезона". Поступление нового товара. Большой ассортимент. Мы вс	https://vk.com/wall-6126497_3513406	24.11.2021 11:05	199
Ламинирование ресниц + ботокс 6D ресниц, CERAMIDE CONCENTRATE. Работаю на италья	https://vk.com/wall-6126497_3513551	24.11.2021 14:00	199
Заполярный Предлагаю услуги парикмахера с выездом на дом. 89113050467 https://vk	https://vk.com/wall-6126497_3513851	24.11.2021 19:00	100
	https://vk.com/wall-6126497_3514303	25.11.2021 12:00	199
Заполярный. В кафе азиатской кухни формата take-away сети СушиWok требуется; Адм	https://vk.com/wall-6126497_3514493	25.11.2021 15:33	199
Приглашаю Вас посетить [club204577377|Студию красоты и релакса МагияSPA 💞]  Пора	https://vk.com/wall-6126497_3514586	25.11.2021 17:00	199
	https://vk.com/wall-6126497_3514637	25.11.2021 18:00	500
🇷🇺 Бесплатный переезд для военнослужащих 🇷🇺  Специалисты Службы переездов [club1	https://vk.com/wall-6126497_3514710	25.11.2021 19:00	500
https://vk.com/club170832177 Ламинирование и Botox ресниц Шугаринг и воск. депил	https://vk.com/wall-6126497_3515156	26.11.2021 11:00	298
Магазин одежды "4 Сезона". Поступление нового товара. Большой ассортимент. Мы вс	https://vk.com/wall-6126497_3515169	26.11.2021 11:10	199
	https://vk.com/wall-6126497_3515302	26.11.2021 13:00	298
Ламинирование ресниц + ботокс 6D ресниц, CERAMIDE CONCENTRATE. Работаю на италья	https://vk.com/wall-6126497_3515391	26.11.2021 14:00	199
В магазин ,,Эконом класс,, г. Заполярный на Ленина 24 поступление нового товара.	https://vk.com/wall-6126497_3516039	27.11.2021 10:46	199
	https://vk.com/wall-6126497_3516113	27.11.2021 12:00	199
[club183232846|💥 АРГОННО-ДУГОВАЯ СВАРКА 💥]: ✅Чёрные металлы, алюминий, дюралюмин	https://vk.com/wall-6126497_3516471	27.11.2021 17:40	199
Открылся новый магазин «СМЕШНЫЕ ЦЕНЫ»😀                 пгт Никель, ул. Бредова,9	https://vk.com/wall-6126497_3516686	27.11.2021 21:44	200
Магазин одежды "4 Сезона". Поступление нового товара. Большой ассортимент. Мы вс	https://vk.com/wall-6126497_3516959	28.11.2021 11:20	199
Приглашаю Вас посетить [club204577377|Студию красоты и релакса МагияSPA 💞]  Пора	https://vk.com/wall-6126497_3517363	28.11.2021 17:00	199
Открылся новый магазин «СМЕШНЫЕ ЦЕНЫ»😀                 пгт Никель, ул. Бредова,9	https://vk.com/wall-6126497_3517577	28.11.2021 19:29	200
Заполярный. В кафе азиатской кухни формата take-away сети СушиWok требуется; Адм	https://vk.com/wall-6126497_3517922	29.11.2021 11:00	199
	https://vk.com/wall-6126497_3517964	29.11.2021 12:00	199
Заполярный. Требуется.  Комплектовщик заказов службы доставки  График работы: 2/	https://vk.com/wall-6126497_3517970	29.11.2021 12:07	199
Открылся новый магазин «СМЕШНЫЕ ЦЕНЫ»😀                 пгт Никель, ул. Бредова,9	https://vk.com/wall-6126497_3518563	29.11.2021 19:45	200
Студия "Персей"  Все виды парикмахерских услуг: * Женские стрижки, окрашивания *	https://vk.com/wall-6126497_3518610	29.11.2021 20:37	200
Девочки, приветствую!🌸 💅🏻Меня зовут Анна и я профессиональный мастер ногтевого с	https://vk.com/wall-6126497_3518753	29.11.2021 23:00	200
[club183232846|💥 АРГОННО-ДУГОВАЯ СВАРКА 💥]: ✅Чёрные металлы, алюминий, дюралюмин	https://vk.com/wall-6126497_3518958	30.11.2021 10:40	199
Заполярный. В кафе азиатской кухни формата take-away сети СушиWok требуется; Адм	https://vk.com/wall-6126497_3518979	30.11.2021 11:00	199
Магазин одежды "4 Сезона". Поступление нового товара. Большой ассортимент. Мы вс	https://vk.com/wall-6126497_3519004	30.11.2021 11:30	199
	https://vk.com/wall-6126497_3519026	30.11.2021 12:00	199
Ламинирование + ботокс ресниц. Вельвет. Оформление бровей. Еще есть места на дек	https://vk.com/wall-6126497_3519040	30.11.2021 12:20	100
	https://vk.com/wall-6126497_3519087	30.11.2021 13:00	298
Открылся новый магазин «СМЕШНЫЕ ЦЕНЫ»😀                 пгт Никель, ул. Бредова,9	https://vk.com/wall-6126497_3519412	30.11.2021 18:59	200
	https://vk.com/wall-6126497_3519415	30.11.2021 19:00	300
В магазин ,,Эконом класс,, г. Заполярный на Ленина 24 поступление нового товара.	https://vk.com/wall-6126497_3519468	30.11.2021 20:00	199
	https://vk.com/wall-6126497_3519491	30.11.2021 20:21	300