title	url	date	cost
	https://vk.com/wall-6126497_3493858	01.11.2021 14:00	199
	https://vk.com/wall-6126497_3494018	01.11.2021 16:36	199
‼️ Автомойка самообслуживания и комплексной мойки! 🚘‼️ Мы находимся в Ждановке! 	https://vk.com/wall-6126497_3494181	01.11.2021 20:00	199
В магазине  «Альт» распродажа!  Все ЖЕНСКИЕ зимние САПОГИ по 1000₽!!!  Ждём Вас 	https://vk.com/wall-6126497_3494185	01.11.2021 20:05	200
Ремонт мобильных телефонов📱  ✅ Планшетов  💻 ноутбуков  📺 ЖК- телевизоров    http	https://vk.com/wall-6126497_3494190	01.11.2021 20:10	199
	https://vk.com/wall-6126497_3494644	02.11.2021 12:27	500
Уважаемые жители Печенгского округа!!! Сообщаем, что турагентство с 26 апреля ра	https://vk.com/wall-6126497_3494655	02.11.2021 12:29	200
	https://vk.com/wall-6126497_3494858	02.11.2021 14:50	500
Завтра 03.11.2021  ожидается привоз свежевыловленой форели 🐟 Доставка Никель-Зап	https://vk.com/wall-6126497_3495069	02.11.2021 18:52	500
	https://vk.com/wall-6126497_3495071	02.11.2021 18:53	199
‼️ Автомойка самообслуживания и комплексной мойки! 🚘‼️ Мы находимся в Ждановке! 	https://vk.com/wall-6126497_3495076	02.11.2021 19:00	199
Никель Услуги Эвакуатора ! 89643091856 Дмитрий	https://vk.com/wall-6126497_3495133	02.11.2021 20:00	100
В магазине  «Альт» распродажа!  Все ЖЕНСКИЕ зимние САПОГИ по 1000₽!!!  Ждём Вас 	https://vk.com/wall-6126497_3495136	02.11.2021 20:05	200
https://vk.com/abczap	https://vk.com/wall-6126497_3495152	02.11.2021 20:20	199
	https://vk.com/wall-6126497_3495277	02.11.2021 21:44	199
	https://vk.com/wall-6126497_3495723	03.11.2021 13:30	199
ЭВАКУАТОР🛻  Работаем с 2008 года!  Накоплен богатейший опыт транспортировки и эв	https://vk.com/wall-6126497_3495927	03.11.2021 17:00	500
Добро пожаловать в "Ni-Строй"! 👋 Мы с радостью поможем Вам с ремонтом, и сделаем	https://vk.com/wall-6126497_3495999	03.11.2021 18:30	500
‼️ Автомойка самообслуживания и комплексной мойки! 🚘‼️ Мы находимся в Ждановке! 	https://vk.com/wall-6126497_3496143	03.11.2021 21:00	199
Дорогие участники группы, Хочу пригласить вас в группу "Шторы и домашний текстил	https://vk.com/wall-6126497_3496663	04.11.2021 16:14	100
Никель.  Дорогие девушки) Я начинающий мастер. Приглашаю девушек на шугаринг/вос	https://vk.com/wall-6126497_3496809	04.11.2021 18:27	500
Ремонт мобильных телефонов📱  ✅ Планшетов  💻 ноутбуков  📺 ЖК- телевизоров    http	https://vk.com/wall-6126497_3496811	04.11.2021 18:30	199
	https://vk.com/wall-6126497_3496827	04.11.2021 18:42	199
‼️ Автомойка самообслуживания и комплексной мойки! 🚘‼️ Мы находимся в Ждановке! 	https://vk.com/wall-6126497_3496854	04.11.2021 19:00	199
В магазине  «Альт» поступление: - Женские тапочки!!!  Так же напоминаем, что у н	https://vk.com/wall-6126497_3496917	04.11.2021 20:05	200
	https://vk.com/wall-6126497_3496971	04.11.2021 21:10	500
	https://vk.com/wall-6126497_3497555	05.11.2021 14:40	199
‼️ Автомойка самообслуживания и комплексной мойки! 🚘‼️ Мы находимся в Ждановке! 	https://vk.com/wall-6126497_3497838	05.11.2021 20:00	199
	https://vk.com/wall-6126497_3497855	05.11.2021 20:25	199
	https://vk.com/wall-6126497_3497925	05.11.2021 21:56	199
	https://vk.com/wall-6126497_3497994	05.11.2021 23:48	298
	https://vk.com/wall-6126497_3498265	06.11.2021 12:59	199
‼️ Автомойка самообслуживания и комплексной мойки! 🚘‼️ Мы находимся в Ждановке! 	https://vk.com/wall-6126497_3498700	06.11.2021 21:00	199
	https://vk.com/wall-6126497_3498738	06.11.2021 21:57	298
Пассажирские перевозки https://vk.com/avtonazakaz51.              Грузовые перев	https://vk.com/wall-6126497_3498776	06.11.2021 23:00	500
Добрый день. Приглашаю Вас в группу совместных закупок "Мать и дитя". У нас вы н	https://vk.com/wall-6126497_3498909	07.11.2021 10:14	500
	https://vk.com/wall-6126497_3499008	07.11.2021 12:01	199
Помощь в оформлении Диагностической карты ТО категории А,В,С и продлении и оформ	https://vk.com/wall-6126497_3499251	07.11.2021 15:05	500
Самое время успеть к Новому году 🌲  Дорогие девушки! Приглашаю вас на перманентн	https://vk.com/wall-6126497_3499451	07.11.2021 19:00	500
‼️ Автомойка самообслуживания и комплексной мойки! 🚘‼️ Мы находимся в Ждановке! 	https://vk.com/wall-6126497_3499485	07.11.2021 19:30	199
Ремонт мобильных телефонов📱  ✅ Планшетов  💻 ноутбуков  📺 ЖК- телевизоров    http	https://vk.com/wall-6126497_3499507	07.11.2021 20:00	199
🔧Сборка мебели и услуги "Мастер на час" в Заполярном.    Мы можем сделать 👍   Сб	https://vk.com/wall-6126497_3499512	07.11.2021 20:05	200
С удовольствием возьмем собаку или кошку на передержку! Опыт передержки животных	https://vk.com/wall-6126497_3499620	07.11.2021 22:27	500
https://vk.com/abczap	https://vk.com/wall-6126497_3500060	08.11.2021 15:21	199
‼️ Автомойка самообслуживания и комплексной мойки! 🚘‼️ Мы находимся в Ждановке! 	https://vk.com/wall-6126497_3500348	08.11.2021 20:00	199
Внимание  РОЗЫГРЫШ ШОКОЛАДА РУЧНОЙ РАБОТЫ (Только для жителей Печенгского района	https://vk.com/wall-6126497_3501015	09.11.2021 17:22	100
Ремонт мобильных телефонов📱  ✅ Планшетов  💻 ноутбуков  📺 ЖК- телевизоров    http	https://vk.com/wall-6126497_3501080	09.11.2021 19:00	199
‼️ Автомойка самообслуживания и комплексной мойки! 🚘‼️ Мы находимся в Ждановке! 	https://vk.com/wall-6126497_3501126	09.11.2021 20:00	199
‼️‼️Куплю ваше авто, целое, битое требующее срочной продажи, оформление на месте	https://vk.com/wall-6126497_3501190	09.11.2021 21:14	298
	https://vk.com/wall-6126497_3501565	10.11.2021 11:58	199
	https://vk.com/wall-6126497_3501656	10.11.2021 13:23	298
Г. Заполярный  Милые девушки приглашаю Вас на аппаратный маникюр , покрытие гель	https://vk.com/wall-6126497_3501687	10.11.2021 13:44	100
Дорогие участники группы, Хочу пригласить вас в группу "Шторы и домашний текстил	https://vk.com/wall-6126497_3501721	10.11.2021 14:21	100
Привет 🌹 Тебе сложно рисовать брови каждое утро? Они получаются разными,  слишко	https://vk.com/wall-6126497_3501766	10.11.2021 15:00	298
https://vk.com/abczap	https://vk.com/wall-6126497_3501800	10.11.2021 15:21	199
Услуги автосервиса и сход-развал. Качественно и недорого! ➡Сход-Развал Заполярны	https://vk.com/wall-6126497_3502010	10.11.2021 18:30	199
Добро пожаловать в "Ni-Строй"! 👋 Мы с радостью поможем Вам с ремонтом, и сделаем	https://vk.com/wall-6126497_3502215	10.11.2021 21:53	500
	https://vk.com/wall-6126497_3502695	11.11.2021 14:00	298
	https://vk.com/wall-6126497_3502942	11.11.2021 17:57	199
	https://vk.com/wall-6126497_3502946	11.11.2021 18:00	298
Дорогие участники, приглашаю Вас в группу "Шторы и домашний текстиль по низким ц	https://vk.com/wall-6126497_3502973	11.11.2021 18:30	100
Ремонт мобильных телефонов📱  ✅ Планшетов  💻 ноутбуков  📺 ЖК- телевизоров    http	https://vk.com/wall-6126497_3502987	11.11.2021 19:00	199
	https://vk.com/wall-6126497_3503433	12.11.2021 11:54	199
Чёрный ноябрь🎃  Долгожданное событие года!   ◼️Черный ноябрь -самое масштабное с	https://vk.com/wall-6126497_3503503	12.11.2021 13:22	500
	https://vk.com/wall-6126497_3503531	12.11.2021 14:00	298
https://vk.com/abczap	https://vk.com/wall-6126497_3503596	12.11.2021 15:22	199
	https://vk.com/wall-6126497_3503736	12.11.2021 18:00	298
	https://vk.com/wall-6126497_3503827	12.11.2021 19:42	199
Всем привет! Меня зовут Лена и я варю ароматические свечи https://vk.com/lesvech	https://vk.com/wall-6126497_3504315	13.11.2021 13:56	500
Прокат детских товаров и игрушек в Печенгском районе.  https://vk.com/toryplay  	https://vk.com/wall-6126497_3504333	13.11.2021 14:15	199
Услуги автосервиса и сход-развал. Качественно и недорого! ➡Сход-Развал Заполярны	https://vk.com/wall-6126497_3504570	13.11.2021 18:00	199
https://vk.com/club208674521  Здравствуйте милые девушки ! Я начинающий сертифиц	https://vk.com/wall-6126497_3504650	13.11.2021 19:17	500
	https://vk.com/wall-6126497_3505332	14.11.2021 15:36	300
Ремонт мобильных телефонов📱  ✅ Планшетов  💻 ноутбуков  📺 ЖК- телевизоров    http	https://vk.com/wall-6126497_3505542	14.11.2021 20:00	199
Никель.  Дорогие девушки) Я начинающий мастер. Приглашаю девушек на шугаринг/вос	https://vk.com/wall-6126497_3505988	15.11.2021 12:00	500
Дорогие участники, приглашаю Вас в группу "Шторы и домашний текстиль по низким ц	https://vk.com/wall-6126497_3506175	15.11.2021 15:07	100
https://vk.com/abczap	https://vk.com/wall-6126497_3506199	15.11.2021 15:22	199
	https://vk.com/wall-6126497_3506304	15.11.2021 17:40	298
У нас вы сможете порадовать своих деток без больших вложений https://vk.com/tory	https://vk.com/wall-6126497_3506324	15.11.2021 18:05	199
	https://vk.com/wall-6126497_3506559	15.11.2021 22:15	199
Сварочные, покрасочные, слесарные работы https://vk.com/svarka51rus Цены ниже Му	https://vk.com/wall-6126497_3506940	16.11.2021 13:30	100
Ремонт мобильных телефонов В наличии есть любые аксессуары для телефонов айфонов	https://vk.com/wall-6126497_3507124	16.11.2021 17:41	500
Услуги автосервиса и сход-развал. Качественно и недорого! ➡Сход-Развал Заполярны	https://vk.com/wall-6126497_3507189	16.11.2021 19:00	199
Продам Стейки Сёмги горячего копчения!!!! В подложке 500-700 грамм 1500 рублей з	https://vk.com/wall-6126497_3507241	16.11.2021 20:01	500
«Наши люди на такси 🚖  в булочную не ездят!»  Хорошо те времена уже прошли😅 и се	https://vk.com/wall-6126497_3507394	16.11.2021 23:00	200
Девочки предлогаю свои услуги : КЕРАТИН, БОТОКС, НАНОПЛАСТИКА, БИКСИПЛАСТИЯ,  Пр	https://vk.com/wall-6126497_3507697	17.11.2021 14:06	500
https://vk.com/abczap	https://vk.com/wall-6126497_3507752	17.11.2021 15:22	199
❇ https://vk.com/toryplay ❇  🌼Tory Play – сервис аренды игрушек, помогающий роди	https://vk.com/wall-6126497_3507892	17.11.2021 18:00	199
Ремонт мобильных телефонов📱  ✅ Планшетов  💻 ноутбуков  📺 ЖК- телевизоров    http	https://vk.com/wall-6126497_3507989	17.11.2021 19:30	199
Шугаринг (сахарная депиляция) город Заполярный. Проф материалы, сладкие цены, ую	https://vk.com/wall-6126497_3508130	17.11.2021 21:16	100
г. Заполярный Друзья, мы снова с Вами! Продаём самые вкусные сухофрукты,орехи, ц	https://vk.com/wall-6126497_3508214	17.11.2021 23:12	500
Дорогие участники, приглашаю Вас в группу "Шторы и домашний текстиль по низким ц	https://vk.com/wall-6126497_3508869	18.11.2021 19:20	100
	https://vk.com/wall-6126497_3508907	18.11.2021 19:50	298
	https://vk.com/wall-6126497_3509395	19.11.2021 14:01	199
г. Заполярный Друзья, мы снова с Вами! Продаём самые вкусные сухофрукты,орехи, ц	https://vk.com/wall-6126497_3509397	19.11.2021 14:02	500
https://vk.com/abczap	https://vk.com/wall-6126497_3509459	19.11.2021 15:23	199
Услуги автосервиса и сход-развал. Качественно и недорого! ➡Сход-Развал Заполярны	https://vk.com/wall-6126497_3509668	19.11.2021 20:00	199
Милые дамы, девушки!!!  Ухоженные ручки и ножки стали неотъемлемой частью образа	https://vk.com/wall-6126497_3509675	19.11.2021 20:05	500
‼️‼️Куплю ваше авто, целое, битое требующее срочной продажи, оформление на месте	https://vk.com/wall-6126497_3509709	19.11.2021 20:37	298
Продажа окон 1650*1730 :10Шт.3.500 руб окно.89504728986 Михаил. ПРОДАНО!!!	https://vk.com/wall-6126497_3510187	20.11.2021 13:30	100
	https://vk.com/wall-6126497_3510220	20.11.2021 14:00	199
	https://vk.com/wall-6126497_3510314	20.11.2021 15:26	298
❇ https://vk.com/toryplay ❇  🌼Tory Play – сервис аренды игрушек, помогающий роди	https://vk.com/wall-6126497_3510382	20.11.2021 17:05	199
Внимание! РОЗЫГРЫШ ШОКОЛАДА РУЧНОЙ РАБОТЫ (Только для жителей Печенгского района	https://vk.com/wall-6126497_3510410	20.11.2021 17:47	100
Ремонт мобильных телефонов📱  ✅ Планшетов  💻 ноутбуков  📺 ЖК- телевизоров    http	https://vk.com/wall-6126497_3510514	20.11.2021 20:00	199
Добро пожаловать в группу   https://vk.com/club76423768  Давайте утепляться на з	https://vk.com/wall-6126497_3510605	20.11.2021 22:19	200
Шугаринг (сахарная депиляция) город Заполярный. Проф материалы, сладкие цены, ую	https://vk.com/wall-6126497_3510899	21.11.2021 12:33	100
	https://vk.com/wall-6126497_3511334	21.11.2021 19:52	199
В магазине  «Альт» в наличии постельное белье и пледы. Отличный подарок к Новому	https://vk.com/wall-6126497_3511341	21.11.2021 20:00	200
К вашему празднику, мероприятию, корпоративу или просто так, приготовлю для вас 	https://vk.com/wall-6126497_3511627	22.11.2021 07:00	500
	https://vk.com/wall-6126497_3511733	22.11.2021 11:10	500
https://vk.com/abczap	https://vk.com/wall-6126497_3511977	22.11.2021 15:23	199
Услуги автосервиса и сход-развал. Качественно и недорого! ➡Сход-Развал Заполярны	https://vk.com/wall-6126497_3512065	22.11.2021 17:30	199
Самое время успеть к Новому году 🌲  Дорогие девушки! Приглашаю вас на перманентн	https://vk.com/wall-6126497_3512149	22.11.2021 18:51	500
	https://vk.com/wall-6126497_3512153	22.11.2021 19:00	500
	https://vk.com/wall-6126497_3512713	23.11.2021 14:00	199
Ремонт мобильных телефонов📱  ✅ Планшетов  💻 ноутбуков  📺 ЖК- телевизоров    http	https://vk.com/wall-6126497_3512987	23.11.2021 19:05	199
Никель.    Дорогие девушки)   Я начинающий мастер.   Приглашаю девушек на шугари	https://vk.com/wall-6126497_3512994	23.11.2021 19:13	500
Стрижка: мужская, женская, детская (простая, модельная, любой сложности) Ваши во	https://vk.com/wall-6126497_3513010	23.11.2021 19:26	500
Приветствую Вас в нашей группе )))     https://vk.com/gruzoperevozki.zapolyarny 	https://vk.com/wall-6126497_3513174	23.11.2021 23:13	500
https://vk.com/abczap	https://vk.com/wall-6126497_3513637	24.11.2021 15:24	199
	https://vk.com/wall-6126497_3513646	24.11.2021 15:32	199
В магазине  «Альт» в наличии постельное белье и пледы. Отличный подарок к Новому	https://vk.com/wall-6126497_3513738	24.11.2021 17:19	200
Дорогие женщины!!!  26 и 27 ноября (пятница и суббота) в ДК г.Заполярного  состо	https://vk.com/wall-6126497_3513790	24.11.2021 18:00	199
Милые дамы, девушки!!!  Ухоженные ручки и ножки стали неотъемлемой частью образа	https://vk.com/wall-6126497_3513859	24.11.2021 19:05	500
Заполярный.  Ищу модель на афронаращивание волос. Оплата только за материал.  Во	https://vk.com/wall-6126497_3513867	24.11.2021 19:10	100
https://vk.com/toryplay 🌼Tory Play – сервис аренды игрушек, помогающий родителям	https://vk.com/wall-6126497_3513934	24.11.2021 21:00	199
«Наши люди на такси 🚖  в булочную не ездят!»  Хорошо те времена уже прошли😅 и се	https://vk.com/wall-6126497_3514030	24.11.2021 23:00	200
Дорогие женщины!!!  26 и 27 ноября (пятница и суббота) в ДК г.Заполярного  состо	https://vk.com/wall-6126497_3514127	25.11.2021 08:00	199
Дорогие девушки😍  ☝Никель☝ Приглашаю Вас моделью на наращивание ресничек, для об	https://vk.com/wall-6126497_3514314	25.11.2021 12:17	500
Дорогие женщины!!!  26 и 27 ноября (пятница и суббота) в ДК г.Заполярного  состо	https://vk.com/wall-6126497_3514342	25.11.2021 13:00	199
Уважаемые жители Печенгского округа!!! Сообщаем, что турагентство с 26 апреля ра	https://vk.com/wall-6126497_3514377	25.11.2021 13:36	200
Фото-день Новогодняя пижама пати✨ 5 декабря  Стильные образы !✨  Вы получите -1ч	https://vk.com/wall-6126497_3514415	25.11.2021 14:10	200
	https://vk.com/wall-6126497_3514425	25.11.2021 14:22	199
Дорогие женщины!!!  26 и 27 ноября (пятница и суббота) в ДК г.Заполярного  состо	https://vk.com/wall-6126497_3514525	25.11.2021 16:00	199
	https://vk.com/wall-6126497_3514715	25.11.2021 19:07	500
Услуги автосервиса и сход-развал. Качественно и недорого! ➡Сход-Развал Заполярны	https://vk.com/wall-6126497_3514728	25.11.2021 19:30	199
Поздравление от Деда Мороза и Снегурочки    На Дому.  Вызов Деда Мороза и Снегур	https://vk.com/wall-6126497_3514779	25.11.2021 20:30	500
	https://vk.com/wall-6126497_3515019	26.11.2021 07:47	300
Дорогие женщины!!!  26 и 27 ноября (пятница и суббота) в ДК г.Заполярного  состо	https://vk.com/wall-6126497_3515023	26.11.2021 08:00	199
	https://vk.com/wall-6126497_3515380	26.11.2021 13:53	199
Дорогие женщины!!!  26 и 27 ноября (пятница и суббота) в ДК г.Заполярного  состо	https://vk.com/wall-6126497_3515398	26.11.2021 14:05	199
https://vk.com/abczap	https://vk.com/wall-6126497_3515492	26.11.2021 15:24	199
https://vk.com/club208674521  Здравствуйте милые девушки ! Я начинающий сертифиц	https://vk.com/wall-6126497_3515566	26.11.2021 17:20	500
Ремонт мобильных телефонов📱  ✅ Планшетов  💻 ноутбуков  📺 ЖК- телевизоров    http	https://vk.com/wall-6126497_3515701	26.11.2021 20:05	199
	https://vk.com/wall-6126497_3515713	26.11.2021 20:15	199
Милые девушки! Приглашаю Вас на процедуру : 💥 оформление и окрашивание бровей 💥 	https://vk.com/wall-6126497_3515736	26.11.2021 20:47	298
‼️‼️Куплю ваше авто, целое, битое требующее срочной продажи, оформление на месте	https://vk.com/wall-6126497_3516041	27.11.2021 10:52	298
	https://vk.com/wall-6126497_3516326	27.11.2021 15:13	199
	https://vk.com/wall-6126497_3516383	27.11.2021 16:04	199
	https://vk.com/wall-6126497_3516640	27.11.2021 20:39	500
‼️‼️Куплю ваше авто, целое, битое требующее срочной продажи, оформление на месте	https://vk.com/wall-6126497_3516902	28.11.2021 10:00	298
✅Поздравляем с днём мамы✅ ❤️Радуйте своих мам!❤️ ◼️Дарите только нужные подарки 	https://vk.com/wall-6126497_3517005	28.11.2021 12:10	500
	https://vk.com/wall-6126497_3517250	28.11.2021 15:45	199
Услуги автосервиса и сход-развал. Качественно и недорого! ➡Сход-Развал Заполярны	https://vk.com/wall-6126497_3517543	28.11.2021 19:10	199
🔧Сборка мебели и услуги "Мастер на час" в Заполярном.    Мы можем сделать 👍   Сб	https://vk.com/wall-6126497_3517602	28.11.2021 20:00	200
Добро пожаловать в "Ni-Строй"! 👋 Мы с радостью поможем Вам с ремонтом, и сделаем	https://vk.com/wall-6126497_3517608	28.11.2021 20:11	500
Заполярный  Приглашаю на маникюр  Буду рада вас видеть   https://vk.com/club2052	https://vk.com/wall-6126497_3517800	29.11.2021 00:44	100
Заполярный(каждый день) Никель (01.11.2021г) Друзья, мы снова с Вами! На продаже	https://vk.com/wall-6126497_3518046	29.11.2021 12:58	500
	https://vk.com/wall-6126497_3518143	29.11.2021 14:03	199
Ремонт мобильных телефонов📱  ✅ Планшетов  💻 ноутбуков  📺 ЖК- телевизоров    http	https://vk.com/wall-6126497_3518602	29.11.2021 20:30	199
https://vk.com/imperatrica_murmansk	https://vk.com/wall-6126497_3519187	30.11.2021 15:08	500
Здравствуйте, милые девушки, меня зовут Оксана! 👋  💥Я сертифицированный мастер-б	https://vk.com/wall-6126497_3519272	30.11.2021 16:46	500
Меня зовут Татьяна и я профессиональный мастер ногтевого сервиса со стажем более	https://vk.com/wall-6126497_3519340	30.11.2021 18:00	500
	https://vk.com/wall-6126497_3519424	30.11.2021 19:06	199
❇ https://vk.com/toryplay ❇  🔥 Наш прокат детских товаров и игрушек поможет Вам 	https://vk.com/wall-6126497_3519473	30.11.2021 20:05	199
Заполярный  Дорогие дамы👸🏼и господа🤴🏻 Меня зовут Любовь, и я сертифицированный м	https://vk.com/wall-6126497_3519631	30.11.2021 23:17	500