title	url	date	cost
	https://vk.com/wall-6126497_3437100	01.09.2021 12:30	150
	https://vk.com/wall-6126497_3437123	01.09.2021 12:57	298
Предлагаю свои услуги по шитью и подшиву штор!!🔧✂🔨📍📐  Цена зависит от сложности 	https://vk.com/wall-6126497_3437287	01.09.2021 16:13	500
	https://vk.com/wall-6126497_3437351	01.09.2021 17:17	199
Предприятие ООО"Гольфстрим"(магазин Кулинария), приглашает на работу: пекаря, ко	https://vk.com/wall-6126497_3437381	01.09.2021 17:46	199
	https://vk.com/wall-6126497_3438133	02.09.2021 12:42	298
	https://vk.com/wall-6126497_3438588	02.09.2021 17:22	199
	https://vk.com/wall-6126497_3438670	02.09.2021 18:29	500
	https://vk.com/wall-6126497_3438672	02.09.2021 18:30	150
Автозапчасти для иномарок в наличии    Заполярный  89110646666	https://vk.com/wall-6126497_3438780	02.09.2021 19:38	199
Предприятие ООО"Гольфстрим"(магазин Кулинария), приглашает на работу: пекаря, ко	https://vk.com/wall-6126497_3438781	02.09.2021 19:38	199
	https://vk.com/wall-6126497_3438803	02.09.2021 20:02	199
Всем привет 🙋🏼‍♀️ меня зовут Бэлла,я сертифицированный бровист. Принимаю в г.Зап	https://vk.com/wall-6126497_3439095	03.09.2021 00:44	500
	https://vk.com/wall-6126497_3439465	03.09.2021 12:30	150
	https://vk.com/wall-6126497_3439653	03.09.2021 15:23	298
Предлагаем вашему вниманию ,нашу группу ‼️‼️ 🍁«Вкус Заполярья «🍂  Сдесь собраны 	https://vk.com/wall-6126497_3439699	03.09.2021 16:24	199
Предприятие ООО"Гольфстрим"(магазин Кулинария), приглашает на работу: пекаря, ко	https://vk.com/wall-6126497_3439937	03.09.2021 20:44	199
Автозапчасти для иномарок в наличии    Заполярный  89110646666	https://vk.com/wall-6126497_3439947	03.09.2021 20:47	199
	https://vk.com/wall-6126497_3440057	03.09.2021 22:18	199
🛑У вас секутся волосы, но вы не хотите их стричь?🛑      ❗️Проблема решена! 🙅🏼‍♀️	https://vk.com/wall-6126497_3440092	03.09.2021 23:01	500
Займы на любые нужды от 2000 до 200 000 рублей. Никель, Заполярный. Вопросы в лс	https://vk.com/wall-6126497_3440326	04.09.2021 11:00	100
	https://vk.com/wall-6126497_3440327	04.09.2021 11:01	199
Автозапчасти для иномарок в наличии    Заполярный  89110646666	https://vk.com/wall-6126497_3440702	04.09.2021 16:28	199
	https://vk.com/wall-6126497_3440836	04.09.2021 18:30	150
Предприятие ООО"Гольфстрим"(магазин Кулинария), приглашает на работу: пекаря, ко	https://vk.com/wall-6126497_3440914	04.09.2021 19:30	199
	https://vk.com/wall-6126497_3441243	05.09.2021 09:25	199
	https://vk.com/wall-6126497_3441418	05.09.2021 12:30	150
	https://vk.com/wall-6126497_3441469	05.09.2021 13:36	199
Автозапчасти для иномарок в наличии    Заполярный  89110646666	https://vk.com/wall-6126497_3441717	05.09.2021 17:28	199
Предприятие ООО"Гольфстрим"(магазин Кулинария), приглашает на работу: пекаря, ко	https://vk.com/wall-6126497_3441721	05.09.2021 17:30	199
	https://vk.com/wall-6126497_3442299	06.09.2021 11:17	199
г.Заполярный Милые дамы💕 Приглашаю вас на маникюр с выравниванием ногтевой пласт	https://vk.com/wall-6126497_3442488	06.09.2021 14:16	500
Автозапчасти для иномарок в наличии    Заполярный  89110646666	https://vk.com/wall-6126497_3442672	06.09.2021 18:15	199
Предприятие ООО"Гольфстрим"(магазин Кулинария), приглашает на работу: пекаря, ко	https://vk.com/wall-6126497_3442682	06.09.2021 18:28	199
	https://vk.com/wall-6126497_3442685	06.09.2021 18:30	150
	https://vk.com/wall-6126497_3442710	06.09.2021 19:01	199
	https://vk.com/wall-6126497_3443282	07.09.2021 12:30	150
Автозапчасти для иномарок в наличии    Заполярный  89110646666	https://vk.com/wall-6126497_3443756	07.09.2021 19:15	199
Предприятие ООО"Гольфстрим"(магазин Кулинария), приглашает на работу: пекаря, ко	https://vk.com/wall-6126497_3443765	07.09.2021 19:28	199
	https://vk.com/wall-6126497_3443785	07.09.2021 19:53	199
Холдинг Умнaя SRЕDA спeциaлизиpуeтся в cфepe пepepаботки отxодoв из смeшaнногo п	https://vk.com/wall-6126497_3444136	08.09.2021 09:57	199
	https://vk.com/wall-6126497_3444176	08.09.2021 10:38	199
Автозапчасти для иномарок в наличии    Заполярный  89110646666	https://vk.com/wall-6126497_3444377	08.09.2021 14:15	199
	https://vk.com/wall-6126497_3444514	08.09.2021 18:17	199
	https://vk.com/wall-6126497_3444523	08.09.2021 18:30	150
	https://vk.com/wall-6126497_3444553	08.09.2021 19:08	199
Автозапчасти для иномарок в наличии    Заполярный  89110646666	https://vk.com/wall-6126497_3444600	08.09.2021 20:15	199
	https://vk.com/wall-6126497_3444936	09.09.2021 11:29	199
	https://vk.com/wall-6126497_3444937	09.09.2021 11:29	199
	https://vk.com/wall-6126497_3444938	09.09.2021 11:29	199
	https://vk.com/wall-6126497_3444988	09.09.2021 12:30	150
Холдинг Умнaя SRЕDA специализируется в сфере переработки отходов из смешанного п	https://vk.com/wall-6126497_3444998	09.09.2021 12:40	199
	https://vk.com/wall-6126497_3445177	09.09.2021 15:11	500
Автозапчасти для иномарок в наличии    Заполярный  89110646666	https://vk.com/wall-6126497_3445182	09.09.2021 15:15	199
Заполярный и Печенгский район.🏘🏘🏘  Куплю золото в любом виде и количестве💍💍💍  От	https://vk.com/wall-6126497_3445377	09.09.2021 19:35	199
	https://vk.com/wall-6126497_3445735	10.09.2021 10:01	199
Ювелирная и обувная мастерская в Никеле, ул.Победы, д.5 работает со вторника по 	https://vk.com/wall-6126497_3445864	10.09.2021 12:34	199
Автозапчасти для иномарок в наличии    Заполярный  89110646666	https://vk.com/wall-6126497_3446042	10.09.2021 16:15	199
	https://vk.com/wall-6126497_3446133	10.09.2021 18:03	500
	https://vk.com/wall-6126497_3446149	10.09.2021 18:30	150
Заполярный и Печенгский район.🏘🏘🏘  Куплю золото в любом виде и количестве💍💍💍  От	https://vk.com/wall-6126497_3446175	10.09.2021 19:05	199
Холдинг Умнaя SRЕDA специализируется в сфере переработки отходов из смешанного п	https://vk.com/wall-6126497_3446186	10.09.2021 19:15	199
Ищете необычный подарок? Посмотрите на наши яркие, красивые букеты-светильники😉 	https://vk.com/wall-6126497_3446301	10.09.2021 21:59	500
	https://vk.com/wall-6126497_3446699	11.09.2021 12:30	150
Автозапчасти для иномарок в наличии    Заполярный  89110646666	https://vk.com/wall-6126497_3446993	11.09.2021 17:15	199
Холдинг Умнaя SRЕDA специализируется в сфере переработки отходов из смешанного п	https://vk.com/wall-6126497_3447017	11.09.2021 17:40	199
Изготовление дубликатов госномеров за 15 минут. Все номера по ГОСТ. Высокое каче	https://vk.com/wall-6126497_3447045	11.09.2021 18:02	500
Заполярный и Печенгский район.🏘🏘🏘  Куплю золото в любом виде и количестве💍💍💍  От	https://vk.com/wall-6126497_3447096	11.09.2021 19:06	199
	https://vk.com/wall-6126497_3447110	11.09.2021 19:29	199
	https://vk.com/wall-6126497_3447180	11.09.2021 20:50	199
Открыта запись с 13.09 на мужские и женские стрижки ( от 300 до 400р) и не сложн	https://vk.com/wall-6126497_3447514	12.09.2021 10:56	500
Предлагаем вашему вниманию ,нашу группу ‼️‼️ 🍁«Вкус Заполярья «🍂  Сдесь собраны 	https://vk.com/wall-6126497_3447704	12.09.2021 14:16	199
продам печень трески.креветки и другие морепродукты https://m.vk.com/public20526	https://vk.com/wall-6126497_3447705	12.09.2021 14:17	100
	https://vk.com/wall-6126497_3447800	12.09.2021 16:09	199
Холдинг Умнaя SRЕDA специализируется в сфере переработки отходов из смешанного п	https://vk.com/wall-6126497_3447898	12.09.2021 17:58	199
Автозапчасти для иномарок в наличии    Заполярный  89110646666	https://vk.com/wall-6126497_3447919	12.09.2021 18:15	199
	https://vk.com/wall-6126497_3447939	12.09.2021 18:30	150
	https://vk.com/wall-6126497_3447968	12.09.2021 19:01	500
Изготовление дубликатов госномеров за 15 минут. Все номера по ГОСТ. Высокое каче	https://vk.com/wall-6126497_3447971	12.09.2021 19:03	500
	https://vk.com/wall-6126497_3448050	12.09.2021 20:37	199
	https://vk.com/wall-6126497_3448051	12.09.2021 20:37	199
	https://vk.com/wall-6126497_3448456	13.09.2021 12:30	150
Холдинг Умнaя SRЕDA специализируется в сфере переработки отходов из смешанного п	https://vk.com/wall-6126497_3448743	13.09.2021 18:08	199
Автозапчасти для иномарок в наличии    Заполярный  89110646666	https://vk.com/wall-6126497_3448813	13.09.2021 19:15	199
	https://vk.com/wall-6126497_3449276	14.09.2021 12:53	199
Открыта запись с 13.09 на мужские и женские стрижки ( от 300 до 400р) и не сложн	https://vk.com/wall-6126497_3449452	14.09.2021 15:58	500
Холдинг Умнaя SRЕDA специализируется в сфере переработки отходов из смешанного п	https://vk.com/wall-6126497_3449567	14.09.2021 18:02	199
	https://vk.com/wall-6126497_3449588	14.09.2021 18:30	150
Автозапчасти для иномарок в наличии    Заполярный  89110646666	https://vk.com/wall-6126497_3449656	14.09.2021 20:15	199
	https://vk.com/wall-6126497_3449669	14.09.2021 20:36	199
Никель -заполярный 🍣  Продам свежее филе семги (в вакуумной упаковке) Кусочки от	https://vk.com/wall-6126497_3449984	15.09.2021 11:30	199
	https://vk.com/wall-6126497_3450079	15.09.2021 12:30	150
Холдинг Умнaя SRЕDA специализируется в сфере переработки отходов из смешанного п	https://vk.com/wall-6126497_3450217	15.09.2021 14:42	199
Ювелирная мастерская ( Никель) купит золото любой пробы. Деньги под залог. +7911	https://vk.com/wall-6126497_3450413	15.09.2021 18:38	100
	https://vk.com/wall-6126497_3450465	15.09.2021 19:41	199
Автозапчасти для иномарок в наличии    Заполярный  89110646666	https://vk.com/wall-6126497_3450533	15.09.2021 21:15	199
Никель -заполярный 🍣  Продам свежее филе семги (в вакуумной упаковке) Кусочки от	https://vk.com/wall-6126497_3450795	16.09.2021 10:00	199
Заполярный!! Приглашаю на Ламинирование ресниц, оформление бровей. Цена вас  при	https://vk.com/wall-6126497_3450949	16.09.2021 12:30	100
	https://vk.com/wall-6126497_3451077	16.09.2021 14:51	300
	https://vk.com/wall-6126497_3451225	16.09.2021 16:52	199
	https://vk.com/wall-6126497_3451226	16.09.2021 16:52	199
	https://vk.com/wall-6126497_3451298	16.09.2021 18:30	150
	https://vk.com/wall-6126497_3451322	16.09.2021 18:57	199
Холдинг Умнaя SRЕDA специализируется в сфере переработки отходов из смешанного п	https://vk.com/wall-6126497_3451422	16.09.2021 20:40	199
Услуги пескоструя!!! Быстро качественно и недорого!!!!  https://vk.com/club20704	https://vk.com/wall-6126497_3451461	16.09.2021 21:11	100
Автозапчасти для иномарок в наличии    Заполярный  89110646666	https://vk.com/wall-6126497_3451522	16.09.2021 22:15	199
	https://vk.com/wall-6126497_3451831	17.09.2021 10:47	199
	https://vk.com/wall-6126497_3451921	17.09.2021 12:30	150
	https://vk.com/wall-6126497_3452066	17.09.2021 14:50	199
Автозапчасти для иномарок в наличии    Заполярный  89110646666	https://vk.com/wall-6126497_3452093	17.09.2021 15:15	199
Грузоперевозки по Печенгскому району и Мурманской области. Беру груз до 1.5тонн 	https://vk.com/wall-6126497_3452186	17.09.2021 17:01	298
Ювелирная мастерская ( Никель) купит золото любой пробы. Деньги под залог. +7911	https://vk.com/wall-6126497_3452273	17.09.2021 18:38	100
Ремонт и обслуживание компьютерной техники по Печенгскому району.   - помощь с в	https://vk.com/wall-6126497_3452318	17.09.2021 19:52	298
	https://vk.com/wall-6126497_3452844	18.09.2021 14:10	300
	https://vk.com/wall-6126497_3452921	18.09.2021 15:55	199
Автозапчасти для иномарок в наличии    Заполярный  89110646666	https://vk.com/wall-6126497_3452935	18.09.2021 16:15	199
	https://vk.com/wall-6126497_3453065	18.09.2021 18:30	150
Холдинг Умнaя SRЕDA специализируется в сфере переработки отходов из смешанного п	https://vk.com/wall-6126497_3453083	18.09.2021 18:56	199
	https://vk.com/wall-6126497_3453413	19.09.2021 09:19	199
	https://vk.com/wall-6126497_3453641	19.09.2021 12:30	150
продам печень трески.креветки и другие морепродукты https://m.vk.com/public20526	https://vk.com/wall-6126497_3453798	19.09.2021 15:03	100
Автозапчасти для иномарок в наличии    Заполярный  89110646666	https://vk.com/wall-6126497_3453900	19.09.2021 17:15	199
Ювелирная мастерская ( Никель) купит золото любой пробы. Деньги под залог. +7911	https://vk.com/wall-6126497_3453989	19.09.2021 18:38	100
	https://vk.com/wall-6126497_3454136	19.09.2021 21:16	199
Предлагаем вашему вниманию ❗❗❗😊  Филе Щуки в индивидуальной вакуумной упаковке-5	https://vk.com/wall-6126497_3454367	20.09.2021 10:00	199
Изготовление  дубликатов госномеров за  15 минут. Все номера по ГОСТ. Высокое ка	https://vk.com/wall-6126497_3454635	20.09.2021 15:08	500
Заполярный и Печенгский район.🏘🏘🏘  Куплю золото в любом виде и количестве💍💍💍  От	https://vk.com/wall-6126497_3454645	20.09.2021 15:16	199
Автозапчасти для иномарок в наличии    Заполярный  89110646666	https://vk.com/wall-6126497_3454836	20.09.2021 18:15	199
	https://vk.com/wall-6126497_3454850	20.09.2021 18:30	150
	https://vk.com/wall-6126497_3454912	20.09.2021 19:29	199
Предлагаем вашему вниманию ❗❗❗😊  Филе Щуки в индивидуальной вакуумной упаковке-5	https://vk.com/wall-6126497_3455161	21.09.2021 10:00	199
Заполярный. Открыта запись на мужские, женские стрижки ( от 300 до 400р), а такж	https://vk.com/wall-6126497_3455186	21.09.2021 10:28	500
	https://vk.com/wall-6126497_3455248	21.09.2021 11:32	500
	https://vk.com/wall-6126497_3455249	21.09.2021 11:32	500
	https://vk.com/wall-6126497_3455298	21.09.2021 12:07	199
ХОТИТЕ НАТЯЖНОЙ ПОТОЛОК? ОКНА? ДВЕРИ?  НУЖНА КОМПАНИЯ С ОПЫТОМ, ДОГОВОРОМ И ГАРА	https://vk.com/wall-6126497_3455331	21.09.2021 12:19	298
	https://vk.com/wall-6126497_3455348	21.09.2021 12:30	150
	https://vk.com/wall-6126497_3455425	21.09.2021 14:02	298
продам печень трески.креветки и другие морепродукты https://m.vk.com/public20526	https://vk.com/wall-6126497_3455489	21.09.2021 15:25	100
	https://vk.com/wall-6126497_3455629	21.09.2021 18:02	199
Ювелирная мастерская ( Никель) купит золото любой пробы. Деньги под залог. +7911	https://vk.com/wall-6126497_3455653	21.09.2021 18:38	100
	https://vk.com/wall-6126497_3455656	21.09.2021 18:40	199
Заполярный и Печенгский район.🏘🏘🏘  Куплю золото в любом виде и количестве💍💍💍  От	https://vk.com/wall-6126497_3455675	21.09.2021 19:03	199
Автозапчасти для иномарок в наличии    Заполярный  89110646666	https://vk.com/wall-6126497_3455688	21.09.2021 19:15	199
Barber/стрижки Ленина д. 5 "Городская баня" 9095618904 https://vk.com/club204175	https://vk.com/wall-6126497_3455702	21.09.2021 19:33	100
	https://vk.com/wall-6126497_3456209	22.09.2021 13:28	199
	https://vk.com/wall-6126497_3456559	22.09.2021 18:30	150
	https://vk.com/wall-6126497_3456639	22.09.2021 19:40	199
продам печень трески.креветки и другие морепродукты https://m.vk.com/public20526	https://vk.com/wall-6126497_3456656	22.09.2021 19:59	100
	https://vk.com/wall-6126497_3456660	22.09.2021 20:02	199
Автозапчасти для иномарок в наличии    Заполярный  89110646666	https://vk.com/wall-6126497_3456672	22.09.2021 20:15	199
	https://vk.com/wall-6126497_3457031	23.09.2021 09:59	199
	https://vk.com/wall-6126497_3457152	23.09.2021 12:30	150
ХОТИТЕ НАТЯЖНОЙ ПОТОЛОК? ОКНА? ДВЕРИ?  НУЖНА КОМПАНИЯ С ОПЫТОМ, ДОГОВОРОМ И ГАРА	https://vk.com/wall-6126497_3457344	23.09.2021 16:15	298
Ювелирная мастерская ( Никель) купит золото любой пробы. Деньги под залог. +7911	https://vk.com/wall-6126497_3457408	23.09.2021 17:39	100
	https://vk.com/wall-6126497_3457431	23.09.2021 18:03	199
	https://vk.com/wall-6126497_3457432	23.09.2021 18:03	199
Мужские/стрижки Ленина д. 5 "Городская баня" 9095618904 https://vk.com/club20417	https://vk.com/wall-6126497_3457433	23.09.2021 18:04	100
	https://vk.com/wall-6126497_3457476	23.09.2021 18:40	199
Заполярный и Печенгский район.🏘🏘🏘  Куплю золото в любом виде и количестве💍💍💍  От	https://vk.com/wall-6126497_3457503	23.09.2021 19:03	199
	https://vk.com/wall-6126497_3457524	23.09.2021 19:22	300
Продолжается приём брусники, черники, вороники, рябины. Никель, Трестовские гара	https://vk.com/wall-6126497_3457543	23.09.2021 19:45	100
Компания Умнaя SRЕDA специализирующаяся в сфере переработки отходов из пластика.	https://vk.com/wall-6126497_3457803	24.09.2021 08:01	199
	https://vk.com/wall-6126497_3458311	24.09.2021 17:05	199
Ремонт и обслуживание компьютерной техники по Печенгскому району.  - помощь с вы	https://vk.com/wall-6126497_3458317	24.09.2021 17:21	298
	https://vk.com/wall-6126497_3458371	24.09.2021 18:30	150
Грузоперевозки по Печенгскому району и Мурманской области.  Беру груз до 1.5тонн	https://vk.com/wall-6126497_3458410	24.09.2021 19:21	298
Продам Toyota Land Cruiser Prado 4.0 AT, 2019 года пробег 47 000 км. Один собств	https://vk.com/wall-6126497_3458514	24.09.2021 21:05	500
	https://vk.com/wall-6126497_3458515	24.09.2021 21:06	199
	https://vk.com/wall-6126497_3458516	24.09.2021 21:06	199
	https://vk.com/wall-6126497_3458957	25.09.2021 12:30	150
	https://vk.com/wall-6126497_3459051	25.09.2021 13:40	199
ХОТИТЕ НАТЯЖНОЙ ПОТОЛОК? ОКНА? ДВЕРИ?  НУЖНА КОМПАНИЯ С ОПЫТОМ, ДОГОВОРОМ И ГАРА	https://vk.com/wall-6126497_3459262	25.09.2021 17:15	298
	https://vk.com/wall-6126497_3459281	25.09.2021 17:37	298
Заполярный и Печенгский район.🏘🏘🏘  Куплю золото в любом виде и количестве💍💍💍  От	https://vk.com/wall-6126497_3459360	25.09.2021 19:03	199
	https://vk.com/wall-6126497_3459410	25.09.2021 19:57	199
Услуги пескоструя!!! Быстро качественно и недорого!!!!  https://vk.com/club20704	https://vk.com/wall-6126497_3459871	26.09.2021 12:01	100
	https://vk.com/wall-6126497_3460112	26.09.2021 15:20	199
	https://vk.com/wall-6126497_3460271	26.09.2021 18:30	150
Холдинг Умнaя SRЕDA специализируется в сфере переработки отходов из смешанного п	https://vk.com/wall-6126497_3460430	26.09.2021 21:00	199
Компания Умнaя SRЕDA специализирующаяся в сфере переработки отходов из пластика.	https://vk.com/wall-6126497_3460668	27.09.2021 09:07	199
	https://vk.com/wall-6126497_3460819	27.09.2021 12:30	150
ХОТИТЕ НАТЯЖНОЙ ПОТОЛОК? ОКНА? ДВЕРИ?  НУЖНА КОМПАНИЯ С ОПЫТОМ, ДОГОВОРОМ И ГАРА	https://vk.com/wall-6126497_3461159	27.09.2021 18:15	298
Заполярный и Печенгский район.🏘🏘🏘  Куплю золото в любом виде и количестве💍💍💍  От	https://vk.com/wall-6126497_3461210	27.09.2021 19:03	199
	https://vk.com/wall-6126497_3462008	28.09.2021 18:30	150
	https://vk.com/wall-6126497_3462023	28.09.2021 18:49	199
🧿ШИНОМОНТАЖ🧿   ➡️Заполярный ⬅️    Переобуем вашего железного коня!)  Залатаем По	https://vk.com/wall-6126497_3462031	28.09.2021 18:56	199
Продам печень трески.креветки и другие морепродукты https://m.vk.com/public20526	https://vk.com/wall-6126497_3462058	28.09.2021 19:27	100
Компания Умнaя SRЕDA специализирующаяся в сфере переработки отходов из пластика.	https://vk.com/wall-6126497_3462060	28.09.2021 19:27	199
	https://vk.com/wall-6126497_3462077	28.09.2021 19:51	199
	https://vk.com/wall-6126497_3462570	29.09.2021 12:30	150
ХОТИТЕ НАТЯЖНОЙ ПОТОЛОК? ОКНА? ДВЕРИ?  НУЖНА КОМПАНИЯ С ОПЫТОМ, ДОГОВОРОМ И ГАРА	https://vk.com/wall-6126497_3462735	29.09.2021 15:15	298
	https://vk.com/wall-6126497_3462914	29.09.2021 18:17	199
	https://vk.com/wall-6126497_3462918	29.09.2021 18:18	199
	https://vk.com/wall-6126497_3462936	29.09.2021 18:49	199
	https://vk.com/wall-6126497_3462953	29.09.2021 19:02	199
Заполярный и Печенгский район.🏘🏘🏘  Куплю золото в любом виде и количестве💍💍💍  От	https://vk.com/wall-6126497_3462956	29.09.2021 19:03	199
	https://vk.com/wall-6126497_3463034	29.09.2021 20:02	199
🧿ШИНОМОНТАЖ🧿   ➡️Заполярный ⬅️    Переобуем вашего железного коня!)  Залатаем По	https://vk.com/wall-6126497_3463063	29.09.2021 20:25	199
Компания Умнaя SRЕDA специализирующаяся в сфере переработки отходов из пластика.	https://vk.com/wall-6126497_3463064	29.09.2021 20:25	199
	https://vk.com/wall-6126497_3463850	30.09.2021 18:30	150
Заполярный, Никель, Печенга.  Приглашаем вас в нашу группу  "Трезвый Строитель".	https://vk.com/wall-6126497_3463895	30.09.2021 19:00	500
	https://vk.com/wall-6126497_3463928	30.09.2021 19:35	199
	https://vk.com/wall-6126497_3463956	30.09.2021 20:02	199
Компания Умнaя SRЕDA специализирующаяся в сфере переработки отходов из пластика.	https://vk.com/wall-6126497_3463960	30.09.2021 20:06	199
🧿ШИНОМОНТАЖ🧿   ➡️Заполярный ⬅️    Переобуем вашего железного коня!)  Залатаем По	https://vk.com/wall-6126497_3463961	30.09.2021 20:06	199
продам печень трески.креветки и другие морепродукты https://m.vk.com/public20526	https://vk.com/wall-6126497_3464015	30.09.2021 20:56	100