title	url	date	cost	comment
Грузоперевозки и переезды по России.  АргоЛогистик - транспортная компания, ежед	https://vk.com/wall-6126497_2372071	01.12.2018 11:00	200	
Наращивание ресниц, недорого. Запись на декабрь открыта. Заполярный, Нижнее Луос	https://vk.com/wall-6126497_2372194	01.12.2018 12:30	100	
Магазин стильной модной одежды PANDORA!🎉🎉🎉Милые Дамы спешим вам сообщить приятну	https://vk.com/wall-6126497_2372209	01.12.2018 12:44	200	
Здравствуйте! Красивые платья на все случаи жизни.  В наличии нет, все на заказ 	https://vk.com/wall-6126497_2372232	01.12.2018 13:00	200	
☃☃☃❄❄СРОК АКЦИИ ОГРАНИЧЕН❄❄☃☃☃ С 17.11 по 15.12 Натяжные потолки  🎄🎄🎄🎄🎄🎄🎄🎄🎄🎄🎄🎄🎄🎄	https://vk.com/wall-6126497_2372824	01.12.2018 19:19	200	клиента обслуживают несколько модераторов: Елена Ушакова, Дмитрий Дубов
[club170609490|Фотопечать в Никеле]  Кому еще нужно распечатать фото? Формирую з	https://vk.com/wall-6126497_2373058	01.12.2018 21:38	200	
Ботокс для волос. Качественный состав. Запись по 28 декабря. https://vk.com/id48	https://vk.com/wall-6126497_2373198	01.12.2018 23:04	100	
Внимание❗❗❗  Открылась мойка для автомобилей "Car Wash 51"!  Заполярный, здание 	https://vk.com/wall-6126497_2373410	02.12.2018 08:00	200	
Требуются модели на маникюр и покрытие гель лаком. 400р. Имеется сертификат маст	https://vk.com/wall-6126497_2374175	02.12.2018 17:40	100	
Ремонт вмятин без покраски в Нижнем Луостари! 89216051173 https://vk.com/id37065	https://vk.com/wall-6126497_2374327	02.12.2018 19:00	200	
☃☃☃❄❄СРОК АКЦИИ ОГРАНИЧЕН❄❄☃☃☃ С 17.11 по 15.12 Натяжные потолки  🎄🎄🎄🎄🎄🎄🎄🎄🎄🎄🎄🎄🎄🎄	https://vk.com/wall-6126497_2374352	02.12.2018 19:20	200	клиента обслуживают несколько модераторов: Елена Ушакова, Дмитрий Дубов
Продам мёд со своей пасеки. Цветочный 3л (4,5кг) -1500р, гречишный 3л -2000р. Ни	https://vk.com/wall-6126497_2374380	02.12.2018 19:40	100	
#Никель #Заполярный #Акция #Набор #Роллы  С чего мы начнем этот понедельник ? С 	https://vk.com/wall-6126497_2374977	03.12.2018 10:13	200	
[club135661476|AVON Никель | Заполярный]  Каталог 17/2018 до 12 декабря.  ✅ Отпр	https://vk.com/wall-6126497_2375830	03.12.2018 20:41	200	
г. Заполярный  Всем привет 🌸  Я начинающий сертифицированный мастер маникюра и п	https://vk.com/wall-6126497_2375953	03.12.2018 22:00	200	
г. Заполярный  Всем привет 🌸  Я начинающий сертифицированный мастер маникюра и п	https://vk.com/wall-6126497_2376813	04.12.2018 15:00	200	
[club172395679|Окна. Двери. Потолки.]  Уважаемые жители Печенгского района! Толь	https://vk.com/wall-6126497_2377094	04.12.2018 18:00	200	
Ремонт вмятин без покраски в Нижнем Луостари! 89216051173 https://vk.com/id37065	https://vk.com/wall-6126497_2377189	04.12.2018 19:00	200	
Приглашаем вас в группу по установке ОКОН, ДВЕРЕЙ и НАТЯЖНЫХ ПОТОЛКОВ  https://v	https://vk.com/wall-6126497_2377598	04.12.2018 23:44	200	
Внимание❗❗❗  Открылась мойка для автомобилей "Car Wash 51"!  Заполярный, здание 	https://vk.com/wall-6126497_2377739	05.12.2018 08:00	200	
Предновогодний 17 каталог Фаберлик! Подарки для родных и близких! Подписывайтесь	https://vk.com/wall-6126497_2377779	05.12.2018 09:00	100	
😍 Устройте сюрприз близкому человеку!  Наши мишки влюбляют в себя с первого взгл	https://vk.com/wall-6126497_2377788	05.12.2018 09:07	200	
Приглашаем вас в группу по установке ОКОН, ДВЕРЕЙ и НАТЯЖНЫХ ПОТОЛКОВ  https://v	https://vk.com/wall-6126497_2377812	05.12.2018 09:39	200	
Грузоперевозки и переезды по России.  АргоЛогистик - транспортная компания, ежед	https://vk.com/wall-6126497_2377895	05.12.2018 11:00	200	
Предновогодний 17 каталог Орифлейм! Подарки для родных и близких! Подписывайтесь	https://vk.com/wall-6126497_2377926	05.12.2018 11:30	100	
Запчасти любых марок авто на заказ (оригинал/не оригинал) дешевле автодока, экзи	https://vk.com/wall-6126497_2377977	05.12.2018 12:18	200	
Магазин стильной модной одежды PANDORA!🎉🎉🎉Милые Дамы спешим вам сообщить приятну	https://vk.com/wall-6126497_2378116	05.12.2018 14:08	200	
МАНИКЮР - это безграничная возможность раскрытия индивидуальности и женственност	https://vk.com/wall-6126497_2378611	05.12.2018 19:40	200	
	https://vk.com/wall-6126497_2378714	05.12.2018 20:57	300	клиента обслуживают несколько модераторов: Елена Ушакова, Валерий Фатхуллин
Ботокс для волос. До плеч 1500, до лопаток 2000, до талии 3000. ЗАПОЛЯРНЫЙ. http	https://vk.com/wall-6126497_2378937	05.12.2018 23:34	100	
Подгузники из Скандинавии. ВСЕ ВОПРОСЫ ПИШИТЕ В ГРУППУ https://vk.com/club153782	https://vk.com/wall-6126497_2379198	06.12.2018 10:40	200	
Ну вот что ей ещё подарить? 🤔  Да так, чтобы сказала "Вау!"?  Мишка из Роз - обя	https://vk.com/wall-6126497_2379304	06.12.2018 12:20	200	
Приглашаем вас в группу по установке ОКОН, ДВЕРЕЙ и НАТЯЖНЫХ ПОТОЛКОВ  https://v	https://vk.com/wall-6126497_2379342	06.12.2018 12:45	200	
Ботокс для волос. До плеч 1500, до лопаток 2000, до талии 3000. ЗАПОЛЯРНЫЙ. http	https://vk.com/wall-6126497_2379674	06.12.2018 16:39	100	
г. Заполярный  Всем привет 🌸  Я начинающий сертифицированный мастер маникюра и п	https://vk.com/wall-6126497_2379755	06.12.2018 17:40	200	
Представляю компанию Avon!  Принимаю заказы до 28.12.2018  Предновогодние скидки	https://vk.com/wall-6126497_2379844	06.12.2018 18:25	100	
Ремонт вмятин без покраски в Нижнем Луостари! 89216051173 https://vk.com/id37065	https://vk.com/wall-6126497_2379884	06.12.2018 19:00	200	
Предлагаю услуги массажа с выездом на дом.  Все виды массажа: детский, сегментар	https://vk.com/wall-6126497_2379911	06.12.2018 19:30	200	клиента обслуживают несколько модераторов: Елена Ушакова, Валерий Фатхуллин
Я представитель компании AVON.  Заказы принимаю до 28.12.18  Хорошие скидки  Сде	https://vk.com/wall-6126497_2379989	06.12.2018 20:30	200	
С 07.12.2018 по 31.12.2018  СКИДКА на одну покупку 30%, две и более 50%  Магазин	https://vk.com/wall-6126497_2380009	06.12.2018 20:50	200	клиента обслуживают несколько модераторов: Елена Ушакова, Валерий Фатхуллин
ПРЕДЛАГАЮ УСЛУГИ МАССАЖИСТА !  ДЕТСКИЙ МАССАЖ: общеукрепляющий, гипер-гипотонус,	https://vk.com/wall-6126497_2380272	06.12.2018 23:49	200	
😍Устройте сюрприз🎁 близкому человеку!  Наши мишки влюбляют в себя с первого взгл	https://vk.com/wall-6126497_2380552	07.12.2018 08:30	200	
г. Заполярный  Всем привет 🌸  Я начинающий сертифицированный мастер маникюра и п	https://vk.com/wall-6126497_2380572	07.12.2018 09:00	200	
[club172395679|Окна. Двери. Потолки.]  Уважаемые жители Печенгского района! Толь	https://vk.com/wall-6126497_2380609	07.12.2018 09:57	200	
Всем привет. Приглашаю вас, милые дамы 💅, на маникюр, покрытие гель лаком и моде	https://vk.com/wall-6126497_2380611	07.12.2018 10:00	200	
БОТОКС ДЛЯ ВОЛОС ! имеются сертификаты, так же на состав, которым работаю. Стоим	https://vk.com/wall-6126497_2380664	07.12.2018 11:03	100	
	https://vk.com/wall-6126497_2381217	07.12.2018 17:10	300	клиента обслуживают несколько модераторов: Елена Ушакова, Валерий Фатхуллин
	https://vk.com/wall-6126497_2381461	07.12.2018 20:15	300	
Огромный выбор одежды с принтом на разные тематики. Для креативных людей есть во	https://vk.com/wall-6126497_2381467	07.12.2018 20:20	200	
Самые лучшие спа-процедуры для ваших ШИКАРНЫХ РЕСНИЦ и БРОВЕЙ💎💎💎МАКИЯЖ  🍭Ламинир	https://vk.com/wall-6126497_2381565	07.12.2018 21:00	200	клиента обслуживают несколько модераторов: Елена Ушакова, Валерий Фатхуллин
Внимание❗❗❗  Открылась мойка для автомобилей "Car Wash 51"!  Заполярный, здание 	https://vk.com/wall-6126497_2382111	08.12.2018 08:00	200	
😍Устройте сюрприз🎁 близкому человеку!  Наши мишки влюбляют в себя с первого взгл	https://vk.com/wall-6126497_2382335	08.12.2018 12:00	200	
С 07.12.2018 по 31.12.2018  СКИДКА на одну покупку 30%, две и более 50%  Магазин	https://vk.com/wall-6126497_2382970	08.12.2018 18:00	200	клиента обслуживают несколько модераторов: Елена Ушакова, Валерий Фатхуллин
Ремонт вмятин без покраски в Нижнем Луостари! 89216051173 https://vk.com/id37065	https://vk.com/wall-6126497_2383056	08.12.2018 19:00	200	
	https://vk.com/wall-6126497_2383144	08.12.2018 20:06	300	клиента обслуживают несколько модераторов: Елена Ушакова, Валерий Фатхуллин
	https://vk.com/wall-6126497_2383228	08.12.2018 20:52	300	
В магазине «ПЕРСОНА» новое поступление мужских рубашек, брюк, галстуков и ремней	https://vk.com/wall-6126497_2384132	09.12.2018 17:07	200	
	https://vk.com/wall-6126497_2384224	09.12.2018 18:23	0	
Представляю компанию Avon! Хорошие скидки. Продукция будет отличным подарком для	https://vk.com/wall-6126497_2384699	09.12.2018 23:32	100	
#Никель #Акция #Роллы #Пицца #Набор #Подарок  Долгожданная раздача подарков в Ни	https://vk.com/wall-6126497_2384954	10.12.2018 09:57	200	
‼‼Внимание,Внимание ‼‼ Если вы не успели в этом году заказать Окно или натяжной 	https://vk.com/wall-6126497_2384970	10.12.2018 10:15	200	
Грузоперевозки и переезды по России.  АргоЛогистик - транспортная компания, ежед	https://vk.com/wall-6126497_2385356	10.12.2018 15:00	200	
Представляю компанию Avon!  Хорошие скидки. Продукция будет отличным подарком дл	https://vk.com/wall-6126497_2385500	10.12.2018 16:21	100	
Продаётся щенок чихуахуа кремового окраса, длинношерстный. Имеются документы, ка	https://vk.com/wall-6126497_2385551	10.12.2018 17:00	200	
г. Заполярный  Всем привет 🌸  Я начинающий сертифицированный мастер маникюра и п	https://vk.com/wall-6126497_2385643	10.12.2018 18:00	200	
Ремонт вмятин без покраски в Нижнем Луостари! 89216051173 https://vk.com/id37065	https://vk.com/wall-6126497_2385737	10.12.2018 19:00	200	
😍Устройте сюрприз🎁 близкому человеку!  Наши мишки влюбляют в себя с первого взгл	https://vk.com/wall-6126497_2385764	10.12.2018 19:20	200	
В палатке 26 крытый рынок г.Заполярный. Новое поступление платьев, блузок и утеп	https://vk.com/wall-6126497_2385798	10.12.2018 19:45	100	
В палатке 27 крытый рынок г.Заполярный. Скидки 50% на женскую одежду, купальники	https://vk.com/wall-6126497_2385843	10.12.2018 20:20	100	
	https://vk.com/wall-6126497_2385927	10.12.2018 21:13	300	клиента обслуживают несколько модераторов: Елена Ушакова, Валерий Фатхуллин
Внимание❗❗❗  Открылась мойка для автомобилей "Car Wash 51"!  Заполярный, здание 	https://vk.com/wall-6126497_2386361	11.12.2018 08:00	200	
Я представитель компании AVON.  Заказы принимаю до 28.12.18  Хорошие скидки  Сде	https://vk.com/wall-6126497_2386633	11.12.2018 12:25	200	
‼‼Внимание,Внимание ‼‼  Если вы не успели в этом году заказать Окно или натяжной	https://vk.com/wall-6126497_2386879	11.12.2018 15:02	200	
Продам настоящий мёд . Цветочный 3л (4,5кг) -1400р , гречишный 3л -2000р. С дост	https://vk.com/wall-6126497_2386943	11.12.2018 15:34	100	
	https://vk.com/wall-6126497_2387050	11.12.2018 16:30	300	
С 07.12.2018 по 31.12.2018  СКИДКА на одну покупку 30%, две и более 50%  Магазин	https://vk.com/wall-6126497_2387163	11.12.2018 17:40	200	клиента обслуживают несколько модераторов: Елена Ушакова, Валерий Фатхуллин
[club172395679|Окна. Двери. Потолки.]  Уважаемые жители Печенгского района! Толь	https://vk.com/wall-6126497_2387190	11.12.2018 18:00	200	
Новое поступление постельного белья. Бесплатная доставка: Печенга, Заполярный,км	https://vk.com/wall-6126497_2387279	11.12.2018 19:00	200	
😍Устройте сюрприз🎁 близкому человеку!  Наши мишки влюбляют в себя с первого взгл	https://vk.com/wall-6126497_2388191	12.12.2018 12:00	200	
Здравствуйте🙌🏻 Я сертифицированный мастер парикмахер 💇🏼‍♀💆🏽‍♀  Стаж 6 лет. Работ	https://vk.com/wall-6126497_2388729	12.12.2018 17:40	200	
Ремонт вмятин без покраски в Нижнем Луостари! 89216051173 https://vk.com/id37065	https://vk.com/wall-6126497_2388867	12.12.2018 19:00	200	
Последние отправки заказа Avon в 2018 году! Торопитесь!  Отправка 12 декабря, до	https://vk.com/wall-6126497_2388986	12.12.2018 20:15	200	
[club172395679|Окна. Двери. Потолки.]  Уважаемые жители Печенгского района! Толь	https://vk.com/wall-6126497_2389628	13.12.2018 10:00	200	
	https://vk.com/wall-6126497_2389740	13.12.2018 11:27	300	клиента обслуживают несколько модераторов: Елена Ушакова, Валерий Фатхуллин
‼‼Внимание,Внимание ‼‼  Если вы не успели в этом году заказать Окно или натяжной	https://vk.com/wall-6126497_2389768	13.12.2018 11:42	200	
Превратите Новый Год в настоящую сказку для своих деток.  Дед Мороз и Снегурочка	https://vk.com/wall-6126497_2389789	13.12.2018 12:00	200	
[club116020567|Женский секрет 👑👠💃] Кто не успел закупить подарки для близких и д	https://vk.com/wall-6126497_2389840	13.12.2018 12:30	200	
Продам комплекты постельного белья  Материал поплин.  2х спальный с европростынь	https://vk.com/wall-6126497_2390058	13.12.2018 14:38	200	
	https://vk.com/wall-6126497_2390122	13.12.2018 15:17	300	
‼‼Внимание,Внимание ‼‼  Если вы не успели в этом году заказать Окно или натяжной	https://vk.com/wall-6126497_2390459	13.12.2018 19:30	200	
Магазин [club52382782|"1000 МЕЛОЧЕЙ"] г. Заполярный ул.Юбилейная 13  Режим работ	https://vk.com/wall-6126497_2390790	13.12.2018 22:22	200	
Внимание❗❗❗  Открылась мойка для автомобилей "Car Wash 51"!  Заполярный, здание 	https://vk.com/wall-6126497_2391117	14.12.2018 08:00	200	
😍Устройте сюрприз🎁 близкому человеку!  Наши мишки влюбляют в себя с первого взгл	https://vk.com/wall-6126497_2391132	14.12.2018 08:20	200	
Ремонт вмятин без покраски в Нижнем Луостари! 89216051173 https://vk.com/id37065	https://vk.com/wall-6126497_2391922	14.12.2018 19:00	200	
С 07.12.2018 по 31.12.2018  СКИДКА на одну покупку 30%, две и более 50%  Магазин	https://vk.com/wall-6126497_2391939	14.12.2018 19:15	200	клиента обслуживают несколько модераторов: Елена Ушакова, Валерий Фатхуллин
Предоставляю парикмахерские услуги.Печенга. На дому. Мужские, женские, детские с	https://vk.com/wall-6126497_2391965	14.12.2018 19:35	100	
	https://vk.com/wall-6126497_2392044	14.12.2018 20:25	300	
📢📢📢Уже завтра и только один день состоится меховая выставка из г. Киров! Новая к	https://vk.com/wall-6126497_2392187	14.12.2018 21:34	200	
😍Устройте сюрприз🎁 близкому человеку!  Наши мишки влюбляют в себя с первого взгл	https://vk.com/wall-6126497_2392795	15.12.2018 12:00	200	
Превратите Новый Год в настоящую сказку для своих деток.  Дед Мороз и Снегурочка	https://vk.com/wall-6126497_2392828	15.12.2018 12:30	200	
Девушки! Услуги парикмахера, стрижки, укладки, окрашивание, прически. 8921735353	https://vk.com/wall-6126497_2393264	15.12.2018 17:09	100	
	https://vk.com/wall-6126497_2393277	15.12.2018 17:23	300	
Грузоперевозки и переезды по России.  АргоЛогистик - транспортная компания, ежед	https://vk.com/wall-6126497_2393343	15.12.2018 18:00	200	
🎀🍓🎀🍓 АКЦИЯ 1 + 1 = 3 🎀🍓🎀 17.12. - СТОП 🎀🍓🎀🍓  🐝🐝🐝 ПРИ ПОКУПКЕ 2 -х комплектов - 3	https://vk.com/wall-6126497_2393415	15.12.2018 18:54	200	
18 ДЕКАБРЯ последняя отправка заказа Avon в 2018 году! Торопитесь!  Доставка 26 	https://vk.com/wall-6126497_2393437	15.12.2018 19:15	200	
[club163700756|Натяжные потолки Печенгского района]	https://vk.com/wall-6126497_2393574	15.12.2018 20:50	200	клиента обслуживают несколько модераторов: Елена Ушакова, Дмитрий Дубов
[club172627128|Ремонтная служба- Никель]  Добрый день! Мы - ремонтная служба, вы	https://vk.com/wall-6126497_2394006	16.12.2018 03:00	200	
Хит продаж Похудения БЕЗ ДИЕТ от 10кг за месяц, замечательное средство быстрого 	https://vk.com/wall-6126497_2394265	16.12.2018 11:46	100	
‼‼Внимание,Внимание ‼‼  Если вы не успели в этом году заказать Окно или натяжной	https://vk.com/wall-6126497_2394586	16.12.2018 14:50	200	
😍Устройте сюрприз🎁 близкому человеку!  Наши мишки влюбляют в себя с первого взгл	https://vk.com/wall-6126497_2395044	16.12.2018 19:15	200	
Внимание❗❗❗  Открылась мойка для автомобилей "Car Wash 51"!  Заполярный, здание 	https://vk.com/wall-6126497_2395730	17.12.2018 08:00	200	
Превратите Новый Год в настоящую сказку для своих деток.  Дед Мороз и Снегурочка	https://vk.com/wall-6126497_2395953	17.12.2018 12:00	200	
Издательство детской литературы «Стрекоза» успешно работает на книжном рынке уже	https://vk.com/wall-6126497_2397081	17.12.2018 22:34	200	
Кто не успел купить подарки для родных и для себя любимых? Самое время это сдела	https://vk.com/wall-6126497_2397631	18.12.2018 12:01	200	
Всем привет!!!🙌🏻 Я дипломированный мастер. 💇🏼‍♀💆🏽‍♀  Стаж работы 6 лет.  Работал	https://vk.com/wall-6126497_2397764	18.12.2018 13:47	200	
НЕВЕРОЯТНОЕ НОВОГОДНЕЕ ПРЕДЛОЖЕНИЕ В НАШЕМ [club163435232|ХОСТЕЛЕ "ПОЛЯРНАЯ НОЧЬ	https://vk.com/wall-6126497_2397782	18.12.2018 14:00	200	
‼‼Внимание,Внимание ‼‼  Если вы не успели в этом году заказать Окно или натяжной	https://vk.com/wall-6126497_2398363	18.12.2018 20:00	200	
Превратите Новый Год в настоящую сказку для своих деток.  Дед Мороз и Снегурочка	https://vk.com/wall-6126497_2399130	19.12.2018 12:00	200	
	https://vk.com/wall-6126497_2399536	19.12.2018 16:33	300	
‼‼Внимание,Внимание ‼‼  Если вы не успели в этом году заказать Окно или натяжной	https://vk.com/wall-6126497_2399726	19.12.2018 19:00	200	
г. Заполярный  Всем привет ❄  Я, начинающий сертифицированный мастер маникюра и 	https://vk.com/wall-6126497_2400069	19.12.2018 22:00	200	
Внимание❗❗❗  Открылась мойка для автомобилей "Car Wash 51"!  Заполярный, здание 	https://vk.com/wall-6126497_2400441	20.12.2018 08:00	200	
😍Устройте сюрприз🎁 близкому человеку!  Наши мишки влюбляют в себя с первого взгл	https://vk.com/wall-6126497_2400480	20.12.2018 09:00	200	
Продам настоящий мёд . Цветочный 3л (4,5кг) -1400р , гречишный 3л -2000р. С дост	https://vk.com/wall-6126497_2400601	20.12.2018 10:39	100	
г. Заполярный  Всем привет ❄  Я, начинающий сертифицированный мастер маникюра и 	https://vk.com/wall-6126497_2400951	20.12.2018 14:30	200	
Грузоперевозки и переезды по России.  АргоЛогистик - транспортная компания, ежед	https://vk.com/wall-6126497_2401014	20.12.2018 15:00	200	
Предоставляю на дому парикмахерские услуги, окрашивание. Печенга. Мужские, женск	https://vk.com/wall-6126497_2401261	20.12.2018 17:43	100	
‼‼Внимание,Внимание ‼‼  Если вы не успели в этом году заказать Окно или натяжной	https://vk.com/wall-6126497_2401420	20.12.2018 19:30	200	
Здравствуйте, меня зовут [id13649588|Ирина]. Приглашаю моделей на комбинированны	https://vk.com/wall-6126497_2401539	20.12.2018 20:36	200	
Превратите Новый Год в настоящую сказку для своих деток.  Дед Мороз и Снегурочка	https://vk.com/wall-6126497_2402453	21.12.2018 12:00	200	
‼‼Внимание,Внимание ‼‼  Если вы не успели в этом году заказать Окно или натяжной	https://vk.com/wall-6126497_2403100	21.12.2018 19:12	200	
Магазин мужской одежды «KVK». Цокольный этаж крытого рынка г.Заполярный.  Идёт Н	https://vk.com/wall-6126497_2403120	21.12.2018 19:25	200	клиента обслуживают несколько модераторов: Елена Ушакова, Валерий Фатхуллин
Предоставляю на дому парикмахерские услуги, окрашивание. Печенга. Мужские, женск	https://vk.com/wall-6126497_2403169	21.12.2018 19:47	100	
	https://vk.com/wall-6126497_2403208	21.12.2018 20:17	300	
[club20504686|А Вы уже выбрали Полезные подарки для родных и близких? 🎁 ]   ✳ Се	https://vk.com/wall-6126497_2403222	21.12.2018 20:25	200	
г. Заполярный  Всем привет ❄  Я, начинающий сертифицированный мастер маникюра и 	https://vk.com/wall-6126497_2403787	22.12.2018 09:00	200	
	https://vk.com/wall-6126497_2404045	22.12.2018 12:39	300	
‼‼Внимание,Внимание ‼‼  Если вы не успели в этом году заказать Окно или натяжной	https://vk.com/wall-6126497_2404667	22.12.2018 19:30	200	
🎀🎀🎀 Фотошторы 3 Д Эффект. В НАЛИЧИИ 🎀🎀🎀  🐝🐝🐝 На заказ. Сбор заказа на 5 января 🐝	https://vk.com/wall-6126497_2404759	22.12.2018 20:24	200	
	https://vk.com/wall-6126497_2404769	22.12.2018 20:32	300	
Превратите Новый Год в настоящую сказку для своих деток.  Дед Мороз и Снегурочка	https://vk.com/wall-6126497_2405444	23.12.2018 12:00	200	
Орехи грецкие домашние с Кубани, колотые, не горчат, не прелые, этого года, разн	https://vk.com/wall-6126497_2406117	23.12.2018 18:36	200	
Скоро Новый Год !!! Порадуй себя и близких подарками из мастерской ZimaA. Подчер	https://vk.com/wall-6126497_2406206	23.12.2018 19:30	200	
Светодиодные балки в наличие! Новые в упаковке, отличный подарок! Светят примерн	https://vk.com/wall-6126497_2406278	23.12.2018 20:20	200	
Здравствуйте, меня зовут Ирина. Приглашаю моделей на комбинированный маникюр к н	https://vk.com/wall-6126497_2406286	23.12.2018 20:25	200	
[club163700756|Натяжные потолки Печенгского района]	https://vk.com/wall-6126497_2406313	23.12.2018 20:40	200	клиента обслуживают несколько модераторов: Елена Ушакова, Дмитрий Дубов
Превратите Новый Год в настоящую сказку для своих деток.  Дед Мороз и Снегурочка	https://vk.com/wall-6126497_2406920	24.12.2018 12:00	200	
Приглашаем Вас в наш магазин "Helix". У нас более 50 сортов чая,есть в наличие к	https://vk.com/wall-6126497_2407108	24.12.2018 14:12	200	
	https://vk.com/wall-6126497_2407269	24.12.2018 15:56	300	
	https://vk.com/wall-6126497_2407403	24.12.2018 16:56	300	
‼‼Внимание,Внимание ‼‼  Если вы не успели в этом году заказать Окно или натяжной	https://vk.com/wall-6126497_2407654	24.12.2018 19:30	200	
Издательство детской литературы «Стрекоза» успешно работает на книжном рынке уже	https://vk.com/wall-6126497_2407762	24.12.2018 20:20	200	
Превратите Новый Год в настоящую сказку для своих деток.  Дед Мороз и Снегурочка	https://vk.com/wall-6126497_2408654	25.12.2018 12:00	200	
Здравствуйте, меня зовут Ирина. Приглашаю моделей на комбинированный маникюр к н	https://vk.com/wall-6126497_2409310	25.12.2018 18:45	200	
‼‼Внимание,Внимание ‼‼  Если вы не успели в этом году заказать Окно или натяжной	https://vk.com/wall-6126497_2409327	25.12.2018 19:00	200	
💥💥💥Успей сделать ЗАКАЗ по Ценам 2018г.💥💥💥    💣💣💣 [club163700756|Натяжные потолки	https://vk.com/wall-6126497_2409646	25.12.2018 21:50	200	клиента обслуживают несколько модераторов: Елена Ушакова, Дмитрий Дубов
г. Заполярный  Всем привет ❄  Я, начинающий сертифицированный мастер маникюра и 	https://vk.com/wall-6126497_2409666	25.12.2018 22:00	200	
Превратите Новый Год в настоящую сказку для своих деток.  Дед Мороз и Снегурочка	https://vk.com/wall-6126497_2410448	26.12.2018 12:00	200	
	https://vk.com/wall-6126497_2410845	26.12.2018 15:59	300	
	https://vk.com/wall-6126497_2410946	26.12.2018 16:56	300	
Магазин стильной модной одежды PANDORA!🔥🔥🔥Милые Дамы спешим поздравить Вас с нас	https://vk.com/wall-6126497_2410975	26.12.2018 17:19	200	
г. Заполярный  Всем привет ❄  Я, начинающий сертифицированный мастер маникюра и 	https://vk.com/wall-6126497_2411032	26.12.2018 18:00	200	
	https://vk.com/wall-6126497_2411170	26.12.2018 19:20	300	
‼‼Внимание,Внимание ‼‼  Если вы не успели в этом году заказать Окно или натяжной	https://vk.com/wall-6126497_2411212	26.12.2018 19:45	200	
27 декабря в 21:00 открывается кафе бар " Арктика "  г.Заполярный, ул. Юбилейная	https://vk.com/wall-6126497_2411630	26.12.2018 23:38	200	
Магазин стильной модной одежды PANDORA!🔥🔥🔥Милые Дамы спешим поздравить Вас с нас	https://vk.com/wall-6126497_2412131	27.12.2018 11:50	200	
Превратите Новый Год в настоящую сказку для своих деток.  Дед Мороз и Снегурочка	https://vk.com/wall-6126497_2412149	27.12.2018 12:00	200	
До Нового года остались считанные дни, и если вы ещё не успели заготовить подаро	https://vk.com/wall-6126497_2412200	27.12.2018 12:31	200	
‼‼Внимание,Внимание ‼‼  Если вы не успели в этом году заказать Окно или натяжной	https://vk.com/wall-6126497_2412811	27.12.2018 19:00	200	
Магазин мужской одежды «KVK». Цокольный этаж крытого рынка г.Заполярный.  Идёт Н	https://vk.com/wall-6126497_2412872	27.12.2018 19:30	200	клиента обслуживают несколько модераторов: Елена Ушакова, Валерий Фатхуллин
https://vk.com/club153782658 Товары из Скандинавии, мороженое, сыры, креветки, в	https://vk.com/wall-6126497_2413942	28.12.2018 13:00	200	
💥💥💥Успей сделать ЗАКАЗ  по Ценам 2018г.💥💥💥  💣💣💣 [club163700756|Натяжные потолки 	https://vk.com/wall-6126497_2413981	28.12.2018 13:44	200	клиента обслуживают несколько модераторов: Елена Ушакова, Дмитрий Дубов
	https://vk.com/wall-6126497_2414277	28.12.2018 16:43	300	
Магазин мужской одежды «KVK». Цокольный этаж крытого рынка г.Заполярный.  Идёт Н	https://vk.com/wall-6126497_2414498	28.12.2018 18:30	200	клиента обслуживают несколько модераторов: Елена Ушакова, Валерий Фатхуллин
!!!СВЕТОДИОДНЫЕ БАЛКИ В НАЛИЧИИ!!! Только дальний свет. Новые в упаковке, отличн	https://vk.com/wall-6126497_2414580	28.12.2018 19:30	200	
‼‼Внимание,Внимание ‼‼  Если вы не успели в этом году заказать Окно или натяжной	https://vk.com/wall-6126497_2414611	28.12.2018 19:45	200	
	https://vk.com/wall-6126497_2414672	28.12.2018 20:14	300	
💥💥💥Успей сделать ЗАКАЗ  по Ценам 2018г.💥💥💥    💣💣💣 [club163700756|Натяжные потолк	https://vk.com/wall-6126497_2414825	28.12.2018 21:32	200	клиента обслуживают несколько модераторов: Елена Ушакова, Дмитрий Дубов
	https://vk.com/wall-6126497_2415619	29.12.2018 13:42	300	
‼‼Внимание,Внимание ‼‼  Если вы не успели в этом году заказать Окно или натяжной	https://vk.com/wall-6126497_2416109	29.12.2018 19:00	200	
	https://vk.com/wall-6126497_2417178	30.12.2018 13:51	300	
27 дек в 11:50  Магазин стильной модной одежды PANDORA!🔥🔥🔥Милые Дамы спешим позд	https://vk.com/wall-6126497_2417225	30.12.2018 14:22	200	
‼‼Внимание,Внимание ‼‼  Если вы не успели в этом году заказать Окно или натяжной	https://vk.com/wall-6126497_2417621	30.12.2018 19:30	200	
Новый год совсем близко, а Вы не успели приобрести подарок? У Вас ещё есть время	https://vk.com/wall-6126497_2418461	31.12.2018 13:17	200	
‼‼Внимание,Внимание ‼‼  Если вы не успели в этом году заказать Окно или натяжной	https://vk.com/wall-6126497_2418772	31.12.2018 19:30	200	