title	url	date	cost
Педикюр_от_Ирины	https://vk.com/wall-6126497_3963774	02.10.2023 06:11	220
Аргонная_сварка	https://vk.com/wall-6126497_3963863	02.10.2023 10:40	330
Север	https://vk.com/wall-6126497_3963920	02.10.2023 12:00	330
89217095675_куплю_золото	https://vk.com/wall-6126497_3963956	02.10.2023 13:03	220
89113470910_свежая_семга	https://vk.com/wall-6126497_3964040	02.10.2023 14:54	220
Александра_Карипова	https://vk.com/wall-6126497_3964079	02.10.2023 16:00	100
Педикюр_от_Ирины	https://vk.com/wall-6126497_3964122	02.10.2023 17:24	220
Швейное_ателье_Татьяна	https://vk.com/wall-6126497_3964143	02.10.2023 18:00	330
Евгения_Мокроусова	https://vk.com/wall-6126497_3964202	02.10.2023 20:00	500
Магазин_Штольня	https://vk.com/wall-6126497_3964671	03.10.2023 15:02	330
Александра_Карипова	https://vk.com/wall-6126497_3964708	03.10.2023 16:00	100
89217095675_куплю_золото	https://vk.com/wall-6126497_3965151	04.10.2023 13:04	220
Александра_Карипова	https://vk.com/wall-6126497_3965260	04.10.2023 16:00	100
Север	https://vk.com/wall-6126497_3965812	05.10.2023 12:00	330
89113470910_свежая_семга	https://vk.com/wall-6126497_3965914	05.10.2023 14:50	220
Аргонная_сварка	https://vk.com/wall-6126497_3965975	05.10.2023 17:20	330
Обувь_51	https://vk.com/wall-6126497_3966085	05.10.2023 21:00	500
89217095675_куплю_золото	https://vk.com/wall-6126497_3966404	06.10.2023 13:00	220
Обувь_51	https://vk.com/wall-6126497_3966797	06.10.2023 23:26	500
Маникюр_и_педикюр_Заполярный	https://vk.com/wall-6126497_3967090	07.10.2023 14:10	100
Аргонная_сварка	https://vk.com/wall-6126497_3967516	08.10.2023 10:50	330
Север	https://vk.com/wall-6126497_3967579	08.10.2023 12:00	330
Мобильные_аксесссуары	https://vk.com/wall-6126497_3968090	09.10.2023 11:08	500
89217095675_куплю_золото	https://vk.com/wall-6126497_3968152	09.10.2023 13:00	220
Маникюр_и_педикюр_Заполярный	https://vk.com/wall-6126497_3968215	09.10.2023 14:20	100
Швейное_ателье_Татьяна	https://vk.com/wall-6126497_3968342	09.10.2023 18:00	330
Юлия_мастер_ногтевого_сервиса	https://vk.com/wall-6126497_3968691	10.10.2023 12:01	220
Медицинский_массаж_Лиинахамари	https://vk.com/wall-6126497_3968968	10.10.2023 20:17	500
89217095675_куплю_золото	https://vk.com/wall-6126497_3969301	11.10.2023 13:04	220
Маникюр_и_педикюр_Заполярный	https://vk.com/wall-6126497_3969364	11.10.2023 14:20	100
Брови_ресницы_Заполярный	https://vk.com/wall-6126497_3969388	11.10.2023 14:56	100
Brows_artis	https://vk.com/wall-6126497_3969420	11.10.2023 16:00	100
Аргонная_сварка	https://vk.com/wall-6126497_3969458	11.10.2023 17:30	330
Брови_ресницы_Заполярный	https://vk.com/wall-6126497_3969498	11.10.2023 19:05	100
Брови_ресницы_Заполярный	https://vk.com/wall-6126497_3969714	12.10.2023 10:20	100
EvgeniyaStudio	https://vk.com/wall-6126497_3970000	12.10.2023 18:01	500
Брови_ресницы_Заполярный	https://vk.com/wall-6126497_3970001	12.10.2023 18:10	100
Юлия_мастер_ногтевого_сервиса	https://vk.com/wall-6126497_3970265	13.10.2023 10:00	220
89217095675_куплю_золото	https://vk.com/wall-6126497_3970366	13.10.2023 13:00	220
Маникюр_и_педикюр_Заполярный	https://vk.com/wall-6126497_3970411	13.10.2023 14:20	100
89113470910_свежая_семга	https://vk.com/wall-6126497_3970470	13.10.2023 15:46	220
Обувь_51	https://vk.com/wall-6126497_3970649	13.10.2023 21:30	500
Север	https://vk.com/wall-6126497_3970858	14.10.2023 12:00	330
Север	https://vk.com/wall-6126497_3970861	14.10.2023 12:03	330
Магазин_одежды_4_сезона	https://vk.com/wall-6126497_3970912	14.10.2023 13:00	220
Юлия_мастер_ногтевого_сервиса	https://vk.com/wall-6126497_3970952	14.10.2023 14:00	220
Магазин_Штольня	https://vk.com/wall-6126497_3971144	14.10.2023 20:13	330
Brows_artis	https://vk.com/wall-6126497_3971545	15.10.2023 16:00	100
Магазин_одежды_4_сезона	https://vk.com/wall-6126497_3971723	15.10.2023 20:00	220
89217095675_куплю_золото	https://vk.com/wall-6126497_3972001	16.10.2023 13:00	220
Швейное_ателье_Татьяна	https://vk.com/wall-6126497_3972227	16.10.2023 18:00	330
Юлия_мастер_ногтевого_сервиса	https://vk.com/wall-6126497_3972228	16.10.2023 18:02	220
Магазин_одежды_4_сезона	https://vk.com/wall-6126497_3972303	16.10.2023 20:00	220
Наталья_Кузьмина	https://vk.com/wall-6126497_3972505	17.10.2023 10:58	500
89113470910_свежая_семга	https://vk.com/wall-6126497_3972677	17.10.2023 16:14	220
Маникюр_и_педикюр_Заполярный	https://vk.com/wall-6126497_3972709	17.10.2023 16:52	100
Магазин_одежды_4_сезона	https://vk.com/wall-6126497_3972818	17.10.2023 20:00	220
Юлия_мастер_ногтевого_сервиса	https://vk.com/wall-6126497_3973013	18.10.2023 10:00	220
89217095675_куплю_золото	https://vk.com/wall-6126497_3973156	18.10.2023 13:00	220
Магазин_Штольня	https://vk.com/wall-6126497_3973289	18.10.2023 17:08	330
Артем_тату_мастер	https://vk.com/wall-6126497_3973309	18.10.2023 18:00	500
Магазин_одежды_4_сезона	https://vk.com/wall-6126497_3973382	18.10.2023 20:00	220
Милана_Касимова	https://vk.com/wall-6126497_3973639	19.10.2023 10:00	100
Магазин_Штольня	https://vk.com/wall-6126497_3973717	19.10.2023 12:02	330
Маникюр_и_педикюр_Заполярный	https://vk.com/wall-6126497_3973892	19.10.2023 16:53	100
Магазин_одежды_4_сезона	https://vk.com/wall-6126497_3974009	19.10.2023 20:00	220
Педикюр_от_Ирины	https://vk.com/wall-6126497_3974188	20.10.2023 00:34	220
Лазерная_эпиляция_в_Никеле	https://vk.com/wall-6126497_3974377	20.10.2023 12:01	500
89113470910_свежая_семга	https://vk.com/wall-6126497_3974387	20.10.2023 12:10	220
Юлия_мастер_ногтевого_сервиса	https://vk.com/wall-6126497_3974471	20.10.2023 14:01	220
Магазин_одежды_4_сезона	https://vk.com/wall-6126497_3974681	20.10.2023 20:00	220
Педикюр_от_Ирины	https://vk.com/wall-6126497_3974772	20.10.2023 23:27	220
Сайбат_Ягопирова	https://vk.com/wall-6126497_3975086	21.10.2023 14:58	100
Маникюр_и_педикюр_Заполярный	https://vk.com/wall-6126497_3975175	21.10.2023 16:53	100
Магазин_одежды_4_сезона	https://vk.com/wall-6126497_3975324	21.10.2023 20:00	220
Галина_Кротова_Русская_красавица	https://vk.com/wall-6126497_3975579	22.10.2023 12:15	500
Юлия_мастер_ногтевого_сервиса	https://vk.com/wall-6126497_3975859	22.10.2023 18:00	220
Магазин_одежды_4_сезона	https://vk.com/wall-6126497_3975919	22.10.2023 20:00	220
Brows_artis	https://vk.com/wall-6126497_3976299	23.10.2023 14:40	100
Маникюр_и_педикюр_Заполярный	https://vk.com/wall-6126497_3976379	23.10.2023 16:54	100
Швейное_ателье_Татьяна	https://vk.com/wall-6126497_3976419	23.10.2023 18:00	330
Магазин_одежды_4_сезона	https://vk.com/wall-6126497_3976489	23.10.2023 20:00	220
Педикюр_от_Ирины	https://vk.com/wall-6126497_3976560	23.10.2023 22:24	220
Юлия_мастер_ногтевого_сервиса	https://vk.com/wall-6126497_3976652	24.10.2023 10:00	220
89113470910_свежая_семга	https://vk.com/wall-6126497_3976849	24.10.2023 15:40	220
89217095675_куплю_золото	https://vk.com/wall-6126497_3977220	25.10.2023 13:00	220
Маникюр_и_педикюр_Заполярный	https://vk.com/wall-6126497_3977333	25.10.2023 16:54	100
89113470910_свежая_семга	https://vk.com/wall-6126497_3977598	26.10.2023 10:18	220
Юлия_мастер_ногтевого_сервиса	https://vk.com/wall-6126497_3977698	26.10.2023 14:00	220
Галина_Кротова_Русская_красавица	https://vk.com/wall-6126497_3978085	27.10.2023 11:05	500
89217095675_куплю_золото	https://vk.com/wall-6126497_3978140	27.10.2023 13:00	220
Маникюр_и_педикюр_Заполярный	https://vk.com/wall-6126497_3978280	27.10.2023 16:54	100
Педикюр_от_Ирины	https://vk.com/wall-6126497_3978470	27.10.2023 21:41	220
Буфет_Северное_сиянине	https://vk.com/wall-6126497_3978575	28.10.2023 02:22	500
89113470910_свежая_семга	https://vk.com/wall-6126497_3978668	28.10.2023 11:43	220
Плюшки_Ватрушки	https://vk.com/wall-6126497_3978800	28.10.2023 15:02	500
Юлия_мастер_ногтевого_сервиса	https://vk.com/wall-6126497_3978883	28.10.2023 18:00	220
Сайбат_Ягопирова	https://vk.com/wall-6126497_3978905	28.10.2023 18:32	100
Aqua_Life	https://vk.com/wall-6126497_3978917	28.10.2023 19:00	330
Aqua_Life	https://vk.com/wall-6126497_3979487	29.10.2023 19:03	330
89217095675_куплю_золото	https://vk.com/wall-6126497_3979781	30.10.2023 13:00	220
Aqua_Life	https://vk.com/wall-6126497_3980006	30.10.2023 19:00	330
Десткий_массаж	https://vk.com/wall-6126497_3980234	31.10.2023 11:58	500
Aqua_Life	https://vk.com/wall-6126497_3980471	31.10.2023 19:00	330