title	start-date	start-time	end-date	end-time	hours	cost
Самойлов	02.10.2023	17:00	02.10.2023	20:00	3	300
Мокроусова	02.10.2023	20:00	02.10.2023	22:00	2	200
Самойлов	04.10.2023	15:00	04.10.2023	17:00	2	200
Самойлов	05.10.2023	14:00	05.10.2023	17:00	3	300
Воробей	06.10.2023	10:00	06.10.2023	20:00	10	1000
Пушкарев	06.10.2023	20:00	06.10.2023	21:00	1	100
Самойлов	07.10.2023	07:00	07.10.2023	10:00	3	300
Воробей	07.10.2023	10:00	07.10.2023	19:00	9	900
Воробей	08.10.2023	23:00	09.10.2023	00:00	1	0
Воробей	09.10.2023	08:00	09.10.2023	12:00	4	400
Булат	09.10.2023	18:00	09.10.2023	23:00	5	500
Воробей	10.10.2023	08:00	10.10.2023	10:00	2	200
Пых	10.10.2023	09:00	10.10.2023	13:00	4	400
Гасанов	10.10.2023	13:00	10.10.2023	22:00	9	900
Воробей	11.10.2023	08:00	11.10.2023	09:00	1	100
Пых	11.10.2023	09:00	11.10.2023	13:00	4	400
Гасанов	11.10.2023	13:00	11.10.2023	22:00	9	900
Пых	12.10.2023	09:00	12.10.2023	13:00	4	400
Гасанов	12.10.2023	13:00	12.10.2023	22:00	9	900
Воробей	12.10.2023	22:00	12.10.2023	23:00	1	100
Пых	13.10.2023	09:00	13.10.2023	13:00	4	400
Гасанов	13.10.2023	13:00	13.10.2023	22:00	9	900
Женин	13.10.2023	22:00	13.10.2023	23:45	1	100
Кремкова	14.10.2023	10:00	14.10.2023	13:00	3	300
Гасанов	14.10.2023	13:00	14.10.2023	22:00	9	900
Женин	14.10.2023	22:00	14.10.2023	23:45	1	100
Ольга	15.10.2023	16:00	15.10.2023	22:00	6	600
Гордеева	16.10.2023	08:00	16.10.2023	19:00	11	1100
Кремкова	18.10.2023	12:00	18.10.2023	16:00	4	400
Пушкарев	18.10.2023	20:00	18.10.2023	21:00	1	100
Мокроусова	18.10.2023	21:00	18.10.2023	23:00	2	200
Искра	22.10.2023	08:00	22.10.2023	21:00	13	1300
Мокроусова	22.10.2023	21:00	22.10.2023	22:00	1	100
Ольга долька	25.10.2023	09:00	25.10.2023	23:45	14	1400
Пушкарев	26.10.2023	20:00	26.10.2023	21:00	1	100
Воробей	27.10.2023	22:00	27.10.2023	23:45	1	100
Кущенко	29.10.2023	08:00	29.10.2023	10:00	2	200
Воробей	29.10.2023	15:00	29.10.2023	23:45	8	800
Кущенко	30.10.2023	08:00	30.10.2023	12:00	4	400
Воробей	30.10.2023	12:00	30.10.2023	23:45	11	1100