title	url	date	cost
Автомагия	https://vk.com/wall-6126497_3963201	01.10.2023 09:37	220
Code_la_Dance	https://vk.com/wall-6126497_3963202	01.10.2023 09:37	220
89021328349_горбуша_непотрошенная	https://vk.com/wall-6126497_3963514	01.10.2023 17:21	100
Машина_на_заказ	https://vk.com/wall-6126497_3963577	01.10.2023 19:37	220
North_Style	https://vk.com/wall-6126497_3963818	02.10.2023 09:22	500
Code_la_Dance	https://vk.com/wall-6126497_3963875	02.10.2023 10:57	220
Константин_Фирсов	https://vk.com/wall-6126497_3963995	02.10.2023 14:00	220
Пых_пых	https://vk.com/wall-6126497_3964100	02.10.2023 16:44	220
Антошка	https://vk.com/wall-6126497_3964216	02.10.2023 20:39	220
Риелтор_Ульяна	https://vk.com/wall-6126497_3964280	02.10.2023 22:48	100
Code_la_Dance	https://vk.com/wall-6126497_3964516	03.10.2023 11:22	220
Автомагия	https://vk.com/wall-6126497_3964519	03.10.2023 11:22	220
Магия_красоты	https://vk.com/wall-6126497_3964581	03.10.2023 13:08	100
Домашние_товары_по_разумным_ценам	https://vk.com/wall-6126497_3964720	03.10.2023 16:21	100
89211601220_квартира_посуточно	https://vk.com/wall-6126497_3964724	03.10.2023 16:24	100
Code_la_Dance	https://vk.com/wall-6126497_3964743	03.10.2023 16:59	220
Три_хвоста	https://vk.com/wall-6126497_3964778	03.10.2023 18:00	220
Автомагия	https://vk.com/wall-6126497_3965109	04.10.2023 11:42	220
89021328349_горбуша_непотрошенная	https://vk.com/wall-6126497_3965208	04.10.2023 14:55	100
Константин_Фирсов	https://vk.com/wall-6126497_3965834	05.10.2023 12:46	220
Афрокудри_Наталья_Беляева	https://vk.com/wall-6126497_3965876	05.10.2023 13:57	500
Code_la_Dance	https://vk.com/wall-6126497_3965899	05.10.2023 14:26	220
89211601220_квартира_посуточно	https://vk.com/wall-6126497_3965912	05.10.2023 14:49	100
Code_la_Dance	https://vk.com/wall-6126497_3965960	05.10.2023 16:50	220
Автомагия	https://vk.com/wall-6126497_3965961	05.10.2023 16:50	220
Пых_пых	https://vk.com/wall-6126497_3965966	05.10.2023 16:57	220
Домашние_товары_по_разумным_ценам	https://vk.com/wall-6126497_3965988	05.10.2023 18:04	100
89021328349_горбуша_непотрошенная	https://vk.com/wall-6126497_3966019	05.10.2023 18:59	100
Антошка	https://vk.com/wall-6126497_3966130	05.10.2023 22:27	220
МедLike	https://vk.com/wall-6126497_3966133	05.10.2023 22:34	220
Code_la_Dance	https://vk.com/wall-6126497_3966409	06.10.2023 13:10	220
89210354705	https://vk.com/wall-6126497_3966431	06.10.2023 13:42	100
Автомагия	https://vk.com/wall-6126497_3966436	06.10.2023 13:48	220
89021328349_горбуша_непотрошенная	https://vk.com/wall-6126497_3966491	06.10.2023 15:08	100
Мобильные_аксессуары	https://vk.com/wall-6126497_3966544	06.10.2023 16:12	500
ProfMaster	https://vk.com/wall-6126497_3966562	06.10.2023 16:41	500
МедLike	https://vk.com/wall-6126497_3966633	06.10.2023 17:59	220
Антошка	https://vk.com/wall-6126497_3966752	06.10.2023 22:25	220
Code_la_Dance	https://vk.com/wall-6126497_3966934	07.10.2023 10:34	220
Автомагия	https://vk.com/wall-6126497_3966935	07.10.2023 10:34	220
Code_la_Dance	https://vk.com/wall-6126497_3966976	07.10.2023 11:32	220
Константин_Фирсов	https://vk.com/wall-6126497_3967086	07.10.2023 14:00	220
89021328349_горбуша_непотрошенная	https://vk.com/wall-6126497_3967162	07.10.2023 15:50	100
Машина_на_заказ	https://vk.com/wall-6126497_3967399	07.10.2023 23:30	220
89210354705	https://vk.com/wall-6126497_3967530	08.10.2023 11:11	100
Наталья_Шибецкая	https://vk.com/wall-6126497_3967589	08.10.2023 12:09	100
Мобильные_аксессуары	https://vk.com/wall-6126497_3967631	08.10.2023 13:19	500
Домашние_товары_по_разумным_ценам	https://vk.com/wall-6126497_3967654	08.10.2023 13:52	100
Автомагия	https://vk.com/wall-6126497_3967744	08.10.2023 16:51	220
Ульяна_Никитина	https://vk.com/wall-6126497_3967854	08.10.2023 20:10	500
89021328349_горбуша_непотрошенная	https://vk.com/wall-6126497_3967861	08.10.2023 20:24	100
Никель_поговорим_по_соседски	https://vk.com/wall-6126497_3967862	08.10.2023 20:24	500
Машина_на_заказ	https://vk.com/wall-6126497_3967936	08.10.2023 23:30	220
Code_la_Dance	https://vk.com/wall-6126497_3968068	09.10.2023 10:35	220
9144682635_репетитор	https://vk.com/wall-6126497_3968179	09.10.2023 13:29	500
Автомагия	https://vk.com/wall-6126497_3968270	09.10.2023 16:10	220
Домашние_товары_по_разумным_ценам	https://vk.com/wall-6126497_3968340	09.10.2023 17:59	100
89652017101_покупка_авто	https://vk.com/wall-6126497_3968343	09.10.2023 18:00	500
Антошка	https://vk.com/wall-6126497_3968477	09.10.2023 22:31	220
Антошка	https://vk.com/wall-6126497_3968479	09.10.2023 22:31	220
Пых_пых	https://vk.com/wall-6126497_3968579	10.10.2023 08:35	220
Ульяна_Никитина	https://vk.com/wall-6126497_3968703	10.10.2023 12:27	500
Константин_Фирсов	https://vk.com/wall-6126497_3968734	10.10.2023 13:00	220
Три_хвоста	https://vk.com/wall-6126497_3968899	10.10.2023 18:00	220
Машина_на_заказ	https://vk.com/wall-6126497_3969096	10.10.2023 23:32	220
IriS	https://vk.com/wall-6126497_3969525	11.10.2023 20:01	330
Магазин_одежды_и_обуви	https://vk.com/wall-6126497_3969772	12.10.2023 12:00	220
89210354705	https://vk.com/wall-6126497_3969821	12.10.2023 13:10	100
Константин_Фирсов	https://vk.com/wall-6126497_3969846	12.10.2023 14:00	220
Пых_пых	https://vk.com/wall-6126497_3969852	12.10.2023 14:05	220
Автомагия	https://vk.com/wall-6126497_3969942	12.10.2023 16:12	220
Code_la_Dance	https://vk.com/wall-6126497_3969943	12.10.2023 16:13	220
Наращивание_ресниц_Печенгский_район	https://vk.com/wall-6126497_3970004	12.10.2023 18:13	500
Домашние_товары_по_разумным_ценам	https://vk.com/wall-6126497_3970022	12.10.2023 18:44	100
Афрокудри_Наталья_Беляева	https://vk.com/wall-6126497_3970078	12.10.2023 20:53	100
Машина_на_заказ	https://vk.com/wall-6126497_3970158	12.10.2023 23:31	220
ProfMaster	https://vk.com/wall-6126497_3970319	13.10.2023 11:38	500
Магазин_одежды_и_обуви	https://vk.com/wall-6126497_3970380	13.10.2023 13:21	220
Автомагия	https://vk.com/wall-6126497_3970398	13.10.2023 13:57	220
PMU_Алена_Шеремет	https://vk.com/wall-6126497_3970445	13.10.2023 15:18	500
Риелтор_Ульяна	https://vk.com/wall-6126497_3970467	13.10.2023 15:43	100
89210354705	https://vk.com/wall-6126497_3970592	13.10.2023 19:20	100
МедLike	https://vk.com/wall-6126497_3970633	13.10.2023 20:44	220
Домашние_товары_по_разумным_ценам	https://vk.com/wall-6126497_3970634	13.10.2023 20:46	100
Пых_пых	https://vk.com/wall-6126497_3970954	14.10.2023 14:00	220
Константин_Фирсов	https://vk.com/wall-6126497_3970994	14.10.2023 15:00	220
Машина_на_заказ	https://vk.com/wall-6126497_3971218	14.10.2023 23:31	220
Магазин_одежды_и_обуви	https://vk.com/wall-6126497_3971398	15.10.2023 13:02	220
Автомагия	https://vk.com/wall-6126497_3971405	15.10.2023 13:17	220
Жижло	https://vk.com/wall-6126497_3971526	15.10.2023 15:32	500
Лилия_Зарипова_брови	https://vk.com/wall-6126497_3971561	15.10.2023 16:14	330
Три_хвоста	https://vk.com/wall-6126497_3971599	15.10.2023 17:00	220
МедLike	https://vk.com/wall-6126497_3971716	15.10.2023 19:41	220
Art_manick	https://vk.com/wall-6126497_3971817	16.10.2023 07:03	500
Code_la_Dance	https://vk.com/wall-6126497_3972089	16.10.2023 14:37	220
Магазин_одежды_и_обуви	https://vk.com/wall-6126497_3972135	16.10.2023 15:26	220
Риелтор_Ульяна	https://vk.com/wall-6126497_3972352	16.10.2023 22:04	330
Магия_красоты	https://vk.com/wall-6126497_3972543	17.10.2023 11:52	500
Константин_Фирсов	https://vk.com/wall-6126497_3972549	17.10.2023 12:00	220
Code_la_Dance	https://vk.com/wall-6126497_3972570	17.10.2023 12:42	220
Магазин_одежды_и_обуви	https://vk.com/wall-6126497_3972571	17.10.2023 12:43	220
Пых_пых	https://vk.com/wall-6126497_3972617	17.10.2023 13:50	220
Домашние_товары_по_разумным_ценам	https://vk.com/wall-6126497_3972698	17.10.2023 16:36	220
Заботливые_сердца	https://vk.com/wall-6126497_3972774	17.10.2023 19:06	500
Code_la_Dance	https://vk.com/wall-6126497_3973111	18.10.2023 12:02	220
Магия_красоты	https://vk.com/wall-6126497_3973131	18.10.2023 12:16	500
Автомагия	https://vk.com/wall-6126497_3973249	18.10.2023 15:41	220
Риелтор_Ульяна	https://vk.com/wall-6126497_3973258	18.10.2023 16:07	330
Никель_поговорим_по_соседски	https://vk.com/wall-6126497_3973306	18.10.2023 17:57	500
Три_хвоста	https://vk.com/wall-6126497_3973310	18.10.2023 18:01	220
IriS	https://vk.com/wall-6126497_3973360	18.10.2023 19:12	330
Магазин_одежды_и_обуви	https://vk.com/wall-6126497_3973833	19.10.2023 15:18	220
Константин_Фирсов	https://vk.com/wall-6126497_3973867	19.10.2023 16:00	220
89211601220_квартира_посуточно	https://vk.com/wall-6126497_3973898	19.10.2023 16:59	100
Лилия_Зарипова_брови	https://vk.com/wall-6126497_3973899	19.10.2023 17:00	330
Антошка	https://vk.com/wall-6126497_3974001	19.10.2023 19:54	220
Антошка	https://vk.com/wall-6126497_3974002	19.10.2023 19:54	220
Пых_пых	https://vk.com/wall-6126497_3974463	20.10.2023 13:49	220
Кофе_с_собой	https://vk.com/wall-6126497_3974615	20.10.2023 18:12	330
Домашние_товары_по_разумным_ценам	https://vk.com/wall-6126497_3974627	20.10.2023 18:41	220
Антошка	https://vk.com/wall-6126497_3974680	20.10.2023 19:57	220
Парок_семейная_сауна	https://vk.com/wall-6126497_3974690	20.10.2023 20:06	500
Игорь_Тишкин_ремонт_мобильных_телефонов	https://vk.com/wall-6126497_3974700	20.10.2023 20:28	500
Наращивание_ресниц_leshmaker	https://vk.com/wall-6126497_3974938	21.10.2023 11:27	100
МедLike	https://vk.com/wall-6126497_3974940	21.10.2023 11:28	220
Константин_Фирсов	https://vk.com/wall-6126497_3975181	21.10.2023 17:00	220
ЮК	https://vk.com/wall-6126497_3975182	21.10.2023 17:01	500
Магазин_одежды_и_обуви	https://vk.com/wall-6126497_3975213	21.10.2023 17:51	220
Три_хвоста	https://vk.com/wall-6126497_3975221	21.10.2023 18:00	220
ProfMaster	https://vk.com/wall-6126497_3975268	21.10.2023 19:01	500
Лилия_Зарипова_брови	https://vk.com/wall-6126497_3975663	22.10.2023 14:00	330
IriS	https://vk.com/wall-6126497_3975797	22.10.2023 16:29	330
89652017101_покупка_авто	https://vk.com/wall-6126497_3976204	23.10.2023 12:11	500
Автомагия	https://vk.com/wall-6126497_3976261	23.10.2023 13:48	220
Code_la_Dance	https://vk.com/wall-6126497_3976268	23.10.2023 13:55	220
Пых_пых	https://vk.com/wall-6126497_3976272	23.10.2023 14:00	220
Кофе_с_собой	https://vk.com/wall-6126497_3976514	23.10.2023 20:42	330
Автомагия	https://vk.com/wall-6126497_3976666	24.10.2023 10:22	220
Code_la_Dance	https://vk.com/wall-6126497_3976667	24.10.2023 10:23	220
МедLike	https://vk.com/wall-6126497_3976749	24.10.2023 13:02	220
Константин_Фирсов	https://vk.com/wall-6126497_3976789	24.10.2023 14:00	220
89211601220_квартира_посуточно	https://vk.com/wall-6126497_3976889	24.10.2023 16:32	100
Три_хвоста	https://vk.com/wall-6126497_3976958	24.10.2023 18:30	220
Афрокудри_Наталья_Беляева	https://vk.com/wall-6126497_3976969	24.10.2023 18:58	500
Жижло	https://vk.com/wall-6126497_3977116	25.10.2023 09:00	500
Code_la_Dance	https://vk.com/wall-6126497_3977141	25.10.2023 10:08	220
Автомагия	https://vk.com/wall-6126497_3977150	25.10.2023 10:24	220
Кофе_с_собой	https://vk.com/wall-6126497_3977160	25.10.2023 10:38	330
Code_la_Dance	https://vk.com/wall-6126497_3977328	25.10.2023 16:46	220
Константин_Фирсов	https://vk.com/wall-6126497_3977647	26.10.2023 12:00	220
Магазин_одежды_и_обуви	https://vk.com/wall-6126497_3977658	26.10.2023 12:30	220
Пых_пых	https://vk.com/wall-6126497_3977669	26.10.2023 12:51	220
Карат	https://vk.com/wall-6126497_3977706	26.10.2023 14:19	500
Машина_на_заказ	https://vk.com/wall-6126497_3977742	26.10.2023 15:19	220
Автомагия	https://vk.com/wall-6126497_3977747	26.10.2023 15:35	220
Code_la_Dance	https://vk.com/wall-6126497_3977781	26.10.2023 16:30	220
Домашние_товары_по_разумным_ценам	https://vk.com/wall-6126497_3977809	26.10.2023 17:24	220
Лилия_Зарипова_брови	https://vk.com/wall-6126497_3977825	26.10.2023 18:00	330
Магазин_одежды_и_обуви	https://vk.com/wall-6126497_3978120	27.10.2023 12:16	220
Мобильные_аксессуары	https://vk.com/wall-6126497_3978221	27.10.2023 15:14	500
Code_la_Dance	https://vk.com/wall-6126497_3978260	27.10.2023 16:25	220
Автомагия	https://vk.com/wall-6126497_3978261	27.10.2023 16:26	220
Сова	https://vk.com/wall-6126497_3978330	27.10.2023 18:00	220
Code_la_Dance	https://vk.com/wall-6126497_3978420	27.10.2023 20:20	220
IriS	https://vk.com/wall-6126497_3978431	27.10.2023 20:35	330
Магазин_одежды_и_обуви	https://vk.com/wall-6126497_3978704	28.10.2023 12:29	220
Дым_Дымыч	https://vk.com/wall-6126497_3978835	28.10.2023 16:00	500
ЮК	https://vk.com/wall-6126497_3978858	28.10.2023 17:01	500
Сова	https://vk.com/wall-6126497_3978884	28.10.2023 18:00	220
89021328349_горбуша_непотрошенная	https://vk.com/wall-6126497_3978991	28.10.2023 20:31	100
Code_la_Dance	https://vk.com/wall-6126497_3979151	29.10.2023 11:01	220
Автомагия	https://vk.com/wall-6126497_3979152	29.10.2023 11:02	220
Сова	https://vk.com/wall-6126497_3979194	29.10.2023 12:00	220
Лилия_Зарипова_брови	https://vk.com/wall-6126497_3979213	29.10.2023 12:30	330
Пых_пых	https://vk.com/wall-6126497_3979271	29.10.2023 14:00	220
Сова	https://vk.com/wall-6126497_3979313	29.10.2023 15:00	220
Сова	https://vk.com/wall-6126497_3979414	29.10.2023 17:00	220
Сова	https://vk.com/wall-6126497_3979484	29.10.2023 19:00	220
Кофе_с_собой	https://vk.com/wall-6126497_3979574	29.10.2023 21:25	330
Жижло	https://vk.com/wall-6126497_3979687	30.10.2023 10:00	500
Сова	https://vk.com/wall-6126497_3979734	30.10.2023 12:02	220
Code_la_Dance	https://vk.com/wall-6126497_3979789	30.10.2023 13:13	220
Автомагия	https://vk.com/wall-6126497_3979793	30.10.2023 13:19	220
Машина_на_заказ	https://vk.com/wall-6126497_3979839	30.10.2023 14:11	220
Прокат_товаров_в_Заполярном	https://vk.com/wall-6126497_3979909	30.10.2023 16:09	500
Nail_Fox	https://vk.com/wall-6126497_3979970	30.10.2023 18:00	100
Кафе_Встреча	https://vk.com/wall-6126497_3979971	30.10.2023 18:01	500
Code_la_Dance	https://vk.com/wall-6126497_3980214	31.10.2023 11:07	220
Магазин_одежды_и_обуви	https://vk.com/wall-6126497_3980233	31.10.2023 11:53	220
Домашние_товары_по_разумным_ценам	https://vk.com/wall-6126497_3980268	31.10.2023 12:29	220
Константин_Фирсов	https://vk.com/wall-6126497_3980269	31.10.2023 12:30	220
Парок_семейная_сауна	https://vk.com/wall-6126497_3980370	31.10.2023 15:39	500
Кофе_с_собой	https://vk.com/wall-6126497_3980411	31.10.2023 17:18	330
Три_хвоста	https://vk.com/wall-6126497_3980473	31.10.2023 19:01	220
Планета	https://vk.com/wall-6126497_3980512	31.10.2023 20:00	500