title	start-date	start-time	end-date	end-time	hours	cost
Парикмахер	06.04.2022	13:00	06.04.2022	14:00	1	80
	08.04.2022	15:00	08.04.2022	17:00	2	160
Минькова	08.04.2022	18:45	08.04.2022	20:45	2	240
	09.04.2022	15:00	09.04.2022	20:00	5	520
Хурзадай	09.04.2022	21:00	09.04.2022	23:45	2	240
	10.04.2022	13:00	10.04.2022	16:00	3	240
Ципилев	12.04.2022	15:00	12.04.2022	19:00	4	400
Мурадова	18.04.2022	21:00	18.04.2022	23:00	2	240
Гордеева	21.04.2022	00:00	21.04.2022	06:00	6	400
Мишина	21.04.2022	08:00	21.04.2022	22:00	14	1346
Мишина	22.04.2022	12:00	22.04.2022	21:00	9	900
Леха Воробей	25.04.2022	17:00	25.04.2022	23:45	6	720
Байминзан	27.04.2022	00:00	27.04.2022	21:00	21	1760
Мурманский	28.04.2022	13:00	28.04.2022	17:00	4	320
Сова	29.04.2022	16:00	29.04.2022	23:45	7	800