title	url	date	cost
	https://vk.com/wall-6126497_3777679	01.11.2022 12:21	199
Салон красоты приглашает на работу парикмахера! Возможность обучения и повышения	https://vk.com/wall-6126497_3777768	01.11.2022 14:10	500
	https://vk.com/wall-6126497_3777807	01.11.2022 14:59	199
Оказываю юридические услуги: 1) Гражданские дела 2)Административные дела 3)Трудо	https://vk.com/wall-6126497_3777979	01.11.2022 19:00	199
	https://vk.com/wall-6126497_3777984	01.11.2022 19:08	300
	https://vk.com/wall-6126497_3778055	01.11.2022 20:25	300
Заполярный.         👉 АрЕнДа 👈  https://vk.com/zapolyarny.arenda.prokat https://	https://vk.com/wall-6126497_3778141	01.11.2022 23:30	500
Распродажа косметики LETIQUE COSMETICS ❤️   ❗️Ознакомиться с товарами вы можете 	https://vk.com/wall-6126497_3778144	01.11.2022 23:35	500
	https://vk.com/wall-6126497_3778227	02.11.2022 09:10	199
г. Заполярный  В продаже 2-комнатные и 3-комнатные квартиры в разных районах гор	https://vk.com/wall-6126497_3778279	02.11.2022 10:42	100
!!НАРАЩИВАНИЕ РЕСНИЦ!!     Заполярный !     Дорогие девушки приглашаю на ресничк	https://vk.com/wall-6126497_3778330	02.11.2022 11:54	100
	https://vk.com/wall-6126497_3778515	02.11.2022 16:02	199
	https://vk.com/wall-6126497_3778584	02.11.2022 17:59	199
	https://vk.com/wall-6126497_3778592	02.11.2022 18:10	500
	https://vk.com/wall-6126497_3778606	02.11.2022 18:54	199
	https://vk.com/wall-6126497_3779114	03.11.2022 14:00	199
	https://vk.com/wall-6126497_3779159	03.11.2022 15:00	199
	https://vk.com/wall-6126497_3779167	03.11.2022 15:13	199
Эвакуатор 24 часа  Работаем с 2008 года!  Накоплен богатейший опыт транспортиров	https://vk.com/wall-6126497_3779201	03.11.2022 16:00	298
Заполярный.        👍 АрЕнДа 👍     Тепловая пушка 👉https://vk.com/market-18745442	https://vk.com/wall-6126497_3779225	03.11.2022 16:31	298
	https://vk.com/wall-6126497_3779270	03.11.2022 17:29	199
🌸Приглашаем всех жителей Печенгского района в Салон красоты по адресу г.Заполярн	https://vk.com/wall-6126497_3779271	03.11.2022 17:30	199
Оказываю юридические услуги: 1) Гражданские дела 2)Административные дела 3)Трудо	https://vk.com/wall-6126497_3779340	03.11.2022 19:00	199
	https://vk.com/wall-6126497_3779362	03.11.2022 19:44	500
Продам 2-комн. квартиру г. Заполярный,ул. Мира д.17 Рядом дет.сад 6 и 2,школа 19	https://vk.com/wall-6126497_3779392	03.11.2022 20:19	100
Г. Заполярный  Приглашаем на работу ‼️ ТРЕБУЕТСЯ ПРОДАВЕЦ-КОНСУЛЬТАНТ   📌Рассмат	https://vk.com/wall-6126497_3779869	04.11.2022 14:50	500
Оказываю юридические услуги: 1) Гражданские дела 2)Административные дела 3)Трудо	https://vk.com/wall-6126497_3780096	04.11.2022 19:00	199
Всем привет! Меня зовут Екатерина и я начинающий сертифицированный мастер по ухо	https://vk.com/wall-6126497_3780102	04.11.2022 19:05	298
Я помогу тебе с выбором подарка на Новый год маме, подруге, коллеге😋🎄🎁      ❗️Я 	https://vk.com/wall-6126497_3780165	04.11.2022 21:00	500
Всём привет!  Меня зовут Наталья, я мастер по реконструкции волос с дипломом. Ра	https://vk.com/wall-6126497_3780198	04.11.2022 21:50	298
Продам 3-комн.квартиру г. Заполярный,ул.Юбилейная,д.15 1500000 р. https://m.vk.c	https://vk.com/wall-6126497_3780505	05.11.2022 13:11	100
	https://vk.com/wall-6126497_3780778	05.11.2022 17:01	298
Оказываю юридические услуги: 1) Гражданские дела 2)Административные дела 3)Трудо	https://vk.com/wall-6126497_3780856	05.11.2022 19:00	199
	https://vk.com/wall-6126497_3780941	05.11.2022 20:46	500
❓Надоели белые точки на кончиках? Я тебе помогу 👌      https://vk.com/club192704	https://vk.com/wall-6126497_3781019	05.11.2022 23:20	500
Заполярный.        👍 АрЕнДа 👍    Реноватор 👉https://vk.com/market-187454425?w=pr	https://vk.com/wall-6126497_3781022	05.11.2022 23:30	298
Начинаем бронирование заказов на ❄ Ноябрь ❄ месяц.   Наши 🚗 автомобили класса Co	https://vk.com/wall-6126497_3781026	05.11.2022 23:35	200
Предлагаем Вашему вниманию 🔞Шуточный стриптиз🔥🔥🔥 от Антонио🕺 и Джулии 💃🏼 С нами 	https://vk.com/wall-6126497_3781112	06.11.2022 09:59	500
	https://vk.com/wall-6126497_3781455	06.11.2022 15:32	199
Эвакуатор 24 часа  Работаем с 2008 года!  Накоплен богатейший опыт транспортиров	https://vk.com/wall-6126497_3781544	06.11.2022 18:00	298
🌸Приглашаем всех жителей Печенгского района в Салон красоты по адресу г.Заполярн	https://vk.com/wall-6126497_3781577	06.11.2022 18:30	199
	https://vk.com/wall-6126497_3781581	06.11.2022 18:35	500
!!!НАРАЩИВАНИЕ РЕСНИЦ!!! !!!ОФОРМЛЕНИЕ БРОВЕЙ!!! Заполярный ! Оплата только за м	https://vk.com/wall-6126497_3781824	07.11.2022 08:16	500
В продаже 3-комнатная квартира Стоимость 1400000 р.  https://m.vk.com/saleapartm	https://vk.com/wall-6126497_3781994	07.11.2022 12:53	100
	https://vk.com/wall-6126497_3781996	07.11.2022 12:54	199
Милые девушки,женщины! Приглашаю вас на маникюр,покрытие гель-лаком,наращивание 	https://vk.com/wall-6126497_3782195	07.11.2022 17:13	298
	https://vk.com/wall-6126497_3782215	07.11.2022 18:00	199
!!НАРАЩИВАНИЕ РЕСНИЦ!!     Заполярный !     Дорогие девушки приглашаю на ресничк	https://vk.com/wall-6126497_3782529	08.11.2022 09:58	100
	https://vk.com/wall-6126497_3782530	08.11.2022 09:59	300
Милые девушки г. Заполярный, меня зовут Анна и я сертифицированный мастер маникю	https://vk.com/wall-6126497_3782732	08.11.2022 13:51	500
	https://vk.com/wall-6126497_3782733	08.11.2022 13:51	199
	https://vk.com/wall-6126497_3782734	08.11.2022 13:52	199
Заполярный. Начинающий сертифицированный мастер маникюра ищет моделей для пополн	https://vk.com/wall-6126497_3782970	08.11.2022 18:30	199
‼️‼️Куплю ваше авто, целое, битое требующее срочной продажи, оформление на месте	https://vk.com/wall-6126497_3783413	09.11.2022 11:21	500
	https://vk.com/wall-6126497_3783550	09.11.2022 13:59	199
Акция!  Ламинирование ресниц + окрашивание бровей всего за 1200₽   Присоединяйте	https://vk.com/wall-6126497_3783616	09.11.2022 15:14	100
	https://vk.com/wall-6126497_3783646	09.11.2022 15:43	199
🌸Приглашаем всех жителей Печенгского района в Салон красоты по адресу г.Заполярн	https://vk.com/wall-6126497_3783693	09.11.2022 16:30	199
п.Печенга!  Милые ДАМЫ   Приглашаю Вас на ШУГАРИНГ (сахарную депиляцию)  по прия	https://vk.com/wall-6126497_3783713	09.11.2022 16:51	500
Бью татуировки  Никель, Заполярный,  Печенга  территориально нахожусь в Никеле. 	https://vk.com/wall-6126497_3783715	09.11.2022 17:00	500
Эвакуатор 24 часа  Работаем с 2008 года!  Накоплен богатейший опыт транспортиров	https://vk.com/wall-6126497_3783744	09.11.2022 18:00	298
Заполярный. Начинающий сертифицированный мастер маникюра ищет моделей для пополн	https://vk.com/wall-6126497_3783777	09.11.2022 18:40	199
1) Гражданские дела 2)Административные дела 3)Трудовые споры 4)Земельные споры 5	https://vk.com/wall-6126497_3783786	09.11.2022 18:55	199
Предоставляю услуги: Сантехника и Электросварочных  Работ не Дорого  Вопросы тол	https://vk.com/wall-6126497_3783811	09.11.2022 19:37	500
	https://vk.com/wall-6126497_3783855	09.11.2022 20:37	298
❤️ПОЛИРОВКА ВОЛОС❤️   Это самый лёгкий и безопасный способ избавиться от секущих	https://vk.com/wall-6126497_3783984	09.11.2022 23:20	500
Заполярный 👍 Аренда 👍   Фен тепловой промышленный 👉 https://vk.com/market-187454	https://vk.com/wall-6126497_3783987	09.11.2022 23:30	298
	https://vk.com/wall-6126497_3784058	10.11.2022 07:33	199
Заполярный. Милые девушки, ищу моделей на наращивание ресниц! Для пополнения пор	https://vk.com/wall-6126497_3784131	10.11.2022 11:02	500
	https://vk.com/wall-6126497_3784132	10.11.2022 11:02	199
Дорогие девушки и женшины. Я, мастер с дипломом. Всех жду чтобы навести красотку	https://vk.com/wall-6126497_3784303	10.11.2022 14:45	298
	https://vk.com/wall-6126497_3784355	10.11.2022 15:59	199
	https://vk.com/wall-6126497_3784476	10.11.2022 17:44	199
Заполярный. Начинающий сертифицированный мастер маникюра ищет моделей для пополн	https://vk.com/wall-6126497_3784535	10.11.2022 19:00	199
1) Гражданские дела 2)Административные дела 3)Трудовые споры 4)Земельные споры 5	https://vk.com/wall-6126497_3784539	10.11.2022 19:05	199
	https://vk.com/wall-6126497_3784553	10.11.2022 19:22	199
Продам 2-комн.квартиру г.Заполярный, ул.Юбилейная, д.17 Стоимость 1,6 млн https:	https://vk.com/wall-6126497_3784642	10.11.2022 21:29	100
	https://vk.com/wall-6126497_3784650	10.11.2022 21:41	199
	https://vk.com/wall-6126497_3784672	10.11.2022 22:06	500
	https://vk.com/wall-6126497_3784937	11.11.2022 11:02	199
	https://vk.com/wall-6126497_3784962	11.11.2022 11:34	199
Начинающий сертифицированный мастер по наращиванию ресниц приглашает моделей. Дл	https://vk.com/wall-6126497_3785030	11.11.2022 12:55	500
	https://vk.com/wall-6126497_3785197	11.11.2022 16:03	500
	https://vk.com/wall-6126497_3785218	11.11.2022 16:18	199
В продаже 1-комнатная квартира г. Заполярный, ул. Мира, д.7 https://m.vk.com/uly	https://vk.com/wall-6126497_3785282	11.11.2022 17:42	100
	https://vk.com/wall-6126497_3785316	11.11.2022 18:24	298
Заполярный. Начинающий сертифицированный мастер маникюра ищет моделей для пополн	https://vk.com/wall-6126497_3785320	11.11.2022 18:30	199
	https://vk.com/wall-6126497_3785510	11.11.2022 22:11	298
	https://vk.com/wall-6126497_3785785	12.11.2022 12:02	199
	https://vk.com/wall-6126497_3785809	12.11.2022 12:30	298
В продаже 2-комнатная квартира г. Заполярный, ул. Ленина, д.19 Стоимость 1,4 млн	https://vk.com/wall-6126497_3785848	12.11.2022 13:06	100
Art tattoo home studio’ZELENKA”— это творческое сообщество в котором ценят искус	https://vk.com/wall-6126497_3786035	12.11.2022 16:13	500
Эвакуатор 24 часа  Работаем с 2008 года!  Накоплен богатейший опыт транспортиров	https://vk.com/wall-6126497_3786096	12.11.2022 18:00	298
🌸Приглашаем всех жителей Печенгского района в Салон красоты по адресу г.Заполярн	https://vk.com/wall-6126497_3786118	12.11.2022 18:30	199
https://vk.com/club216015741  подпишись и включи уведомления, скоро я разнесу  ч	https://vk.com/wall-6126497_3786133	12.11.2022 18:56	100
Заполярный. Начинающий сертифицированный мастер маникюра ищет моделей для пополн	https://vk.com/wall-6126497_3786140	12.11.2022 19:00	199
	https://vk.com/wall-6126497_3786577	13.11.2022 13:42	199
	https://vk.com/wall-6126497_3786597	13.11.2022 13:53	199
Продам 2-комнатную квартиру Ул. Крупской, д. 2, 2 этаж Стоимость 1,45 млн.р. htt	https://vk.com/wall-6126497_3786740	13.11.2022 16:07	100
‼️‼️Куплю ваше авто, целое, битое требующее срочной продажи, оформление на месте	https://vk.com/wall-6126497_3786806	13.11.2022 16:55	500
Предоставляю услуги по реставрации ванной жидким акрилом https://vk.com/club2109	https://vk.com/wall-6126497_3786860	13.11.2022 18:00	199
Заполярный. Начинающий сертифицированный мастер маникюра ищет моделей для пополн	https://vk.com/wall-6126497_3786879	13.11.2022 18:30	199
Заполярный."МАСТЕРСКАЯ ПОЛУФАБРИКАТОВ"предлагает продукцию домашних полуфабрикат	https://vk.com/wall-6126497_3786955	13.11.2022 20:23	500
Всём привет, есть места на персональное ведение и тренировки.  Подростки, юноши,	https://vk.com/wall-6126497_3786969	13.11.2022 21:00	298
Заполярный!!! Распродажа дублёнок и курток! Так же в продаже Белорусские деликат	https://vk.com/wall-6126497_3787203	14.11.2022 10:00	500
	https://vk.com/wall-6126497_3787318	14.11.2022 12:40	199
	https://vk.com/wall-6126497_3787323	14.11.2022 12:42	298
	https://vk.com/wall-6126497_3787429	14.11.2022 15:00	199
Заполярный. Начинающий сертифицированный мастер маникюра ищет моделей для пополн	https://vk.com/wall-6126497_3787566	14.11.2022 18:00	199
	https://vk.com/wall-6126497_3787567	14.11.2022 18:00	199
	https://vk.com/wall-6126497_3787571	14.11.2022 18:04	298
	https://vk.com/wall-6126497_3787628	14.11.2022 19:18	298
Продам 3-комнатную квартиру г. Заполярный, ул. Юбилейная, д.15 https://m.vk.com/	https://vk.com/wall-6126497_3787664	14.11.2022 20:10	100
	https://vk.com/wall-6126497_3787781	14.11.2022 22:19	298
	https://vk.com/wall-6126497_3787782	14.11.2022 22:19	298
	https://vk.com/wall-6126497_3787783	14.11.2022 22:19	298
Халтура - это сообщество , где Вы(Заказчик) можете написать что Вам нужно выполн	https://vk.com/wall-6126497_3787819	14.11.2022 22:57	500
Заполярный 👍 Аренда 👍    Индикатор качества бензина ОКТИС-2 👉  https://vk.com/ma	https://vk.com/wall-6126497_3787835	14.11.2022 23:29	298
Начинаем бронирование заказов на ❄ Ноябрь ❄ месяц.   Наши 🚗 автомобили класса Co	https://vk.com/wall-6126497_3787843	14.11.2022 23:34	200
Заполярный. Сертифицированный  мастер приглашает вас к себе на маникюр,наращиван	https://vk.com/wall-6126497_3788047	15.11.2022 11:55	100
Заполярный. Милые девушки, ищу моделей на наращивание ресниц! Для пополнения пор	https://vk.com/wall-6126497_3788054	15.11.2022 12:10	500
	https://vk.com/wall-6126497_3788071	15.11.2022 12:33	199
Успейте сегодня купить товары со скидкой 20% по белым ценникам в Магнит Косметик	https://vk.com/wall-6126497_3788130	15.11.2022 13:48	500
🌸Приглашаем всех жителей Печенгского района в Салон красоты по адресу г.Заполярн	https://vk.com/wall-6126497_3788287	15.11.2022 17:30	199
Эвакуатор 24 часа  Работаем с 2008 года!  Накоплен богатейший опыт транспортиров	https://vk.com/wall-6126497_3788303	15.11.2022 18:00	298
	https://vk.com/wall-6126497_3788305	15.11.2022 18:01	199
Оказываю юридические услуги: 1) Гражданские дела 2)Административные дела 3)Трудо	https://vk.com/wall-6126497_3788343	15.11.2022 19:00	199
Шугаринг (сахарная депиляция) город Заполярный. Проф материалы, сладкие цены, ую	https://vk.com/wall-6126497_3788438	15.11.2022 21:40	500
Предоставляю людей (Разнорабочих и не только) на строительные объекты, подработк	https://vk.com/wall-6126497_3788469	15.11.2022 22:28	500
	https://vk.com/wall-6126497_3788558	16.11.2022 07:31	199
	https://vk.com/wall-6126497_3788566	16.11.2022 08:08	199
	https://vk.com/wall-6126497_3788734	16.11.2022 13:05	199
	https://vk.com/wall-6126497_3788790	16.11.2022 14:03	500
п.Печенга!  Милые ДАМЫ   Приглашаю Вас на ШУГАРИНГ (сахарную депиляцию)  по прия	https://vk.com/wall-6126497_3788946	16.11.2022 17:33	500
	https://vk.com/wall-6126497_3788952	16.11.2022 17:43	199
Предоставляю услуги по реставрации ванной жидким акрилом https://vk.com/club2109	https://vk.com/wall-6126497_3788965	16.11.2022 18:00	199
Оказываю юридические услуги: 1) Гражданские дела 2)Административные дела 3)Трудо	https://vk.com/wall-6126497_3788986	16.11.2022 19:00	199
	https://vk.com/wall-6126497_3789020	16.11.2022 19:34	199
	https://vk.com/wall-6126497_3789046	16.11.2022 20:00	500
	https://vk.com/wall-6126497_3789067	16.11.2022 20:23	298
Продам 2-комнатную квартиру г. Заполярный, ул. К.Маркса, д.7 Цена 1,4 млн.р. htt	https://vk.com/wall-6126497_3789088	16.11.2022 20:51	100
Заполярный. Сертифицированный  мастер приглашает вас к себе на маникюр,наращиван	https://vk.com/wall-6126497_3789335	17.11.2022 12:03	100
Всём привет!  Меня зовут Наталья, я мастер по реконструкции волос с дипломом. Ра	https://vk.com/wall-6126497_3789406	17.11.2022 13:30	298
Всём привет, есть места на персональное ведение и тренировки. Подростки, юноши, 	https://vk.com/wall-6126497_3789559	17.11.2022 17:30	298
Оказываю юридические услуги: 1) Гражданские дела 2)Административные дела 3)Трудо	https://vk.com/wall-6126497_3789620	17.11.2022 19:00	199
	https://vk.com/wall-6126497_3789631	17.11.2022 19:13	298
📍19 НОЯБРЯ, МЫ ПРИГЛАШАЕМ ПОСЕТИТЬ НАШУ ВЫСТАВКУ-ПРОДАЖУ МЕХОВЫХ ИЗДЕЛИЙ!    КИР	https://vk.com/wall-6126497_3789962	18.11.2022 09:00	500
	https://vk.com/wall-6126497_3790001	18.11.2022 10:23	199
	https://vk.com/wall-6126497_3790013	18.11.2022 10:32	199
	https://vk.com/wall-6126497_3790121	18.11.2022 12:41	199
	https://vk.com/wall-6126497_3790320	18.11.2022 17:11	298
	https://vk.com/wall-6126497_3790325	18.11.2022 17:15	199
🌸Приглашаем всех жителей Печенгского района в Салон красоты по адресу г.Заполярн	https://vk.com/wall-6126497_3790369	18.11.2022 18:00	199
	https://vk.com/wall-6126497_3790386	18.11.2022 18:30	199
Оказываю юридические услуги: 1) Гражданские дела 2)Административные дела 3)Трудо	https://vk.com/wall-6126497_3790407	18.11.2022 19:00	199
	https://vk.com/wall-6126497_3790444	18.11.2022 19:59	500
Всем привет! Меня зовут Екатерина и я начинающий сертифицированный мастер по рек	https://vk.com/wall-6126497_3790503	18.11.2022 22:00	298
	https://vk.com/wall-6126497_3790658	19.11.2022 11:00	500
	https://vk.com/wall-6126497_3790697	19.11.2022 11:59	298
	https://vk.com/wall-6126497_3790815	19.11.2022 14:00	199
Предоставляю услуги по реставрации ванной жидким акрилом https://vk.com/club2109	https://vk.com/wall-6126497_3791006	19.11.2022 17:30	199
	https://vk.com/wall-6126497_3791076	19.11.2022 19:17	298
Пгт Никель  Печать фото 10х15 см - 10 р , от 100 штук по 9 р  А4 - 40 р   https:	https://vk.com/wall-6126497_3791123	19.11.2022 20:23	100
Заполярный 👍 Аренда 👍    Прицеп двухосный Экспедиция 3600 * 1500 👉https://vk.com	https://vk.com/wall-6126497_3791224	19.11.2022 23:30	298
Самые "Вкусные" цены только у нас😜    🚗Индивидуальный трансфер - это встреча зак	https://vk.com/wall-6126497_3791228	19.11.2022 23:35	200
	https://vk.com/wall-6126497_3791451	20.11.2022 13:06	199
Начинающий сертифицированный мастер по наращиванию ресниц приглашает моделей. Дл	https://vk.com/wall-6126497_3791589	20.11.2022 15:59	500
Всём привет, есть места на персональное ведение и тренировки. Подростки, юноши, 	https://vk.com/wall-6126497_3791665	20.11.2022 18:00	298
Проголодались?  "МАСТЕРСКАЯ ПОЛУФАБРИКАТОВ "🔥это исправит! С нами вы точно не ос	https://vk.com/wall-6126497_3791689	20.11.2022 18:30	500
Art tattoo home studio’ZELENKA”— это творческое сообщество в котором ценят искус	https://vk.com/wall-6126497_3791718	20.11.2022 19:17	500
‼️Дорогие жители Печенгского района‼️⁉️         ‼️АКЦИЯ ‼️АКЦИЯ ‼️АКЦИЯ ‼️      	https://vk.com/wall-6126497_3791743	20.11.2022 20:00	199
‼️Дорогие жители Печенгского района‼️⁉️         ‼️АКЦИЯ ‼️АКЦИЯ ‼️АКЦИЯ ‼️      	https://vk.com/wall-6126497_3792004	21.11.2022 12:00	199
	https://vk.com/wall-6126497_3792008	21.11.2022 12:11	0
https://vk.com/imperatrica_murmansk	https://vk.com/wall-6126497_3792009	21.11.2022 12:13	500
	https://vk.com/wall-6126497_3792010	21.11.2022 12:13	199
	https://vk.com/wall-6126497_3792031	21.11.2022 12:44	199
	https://vk.com/wall-6126497_3792129	21.11.2022 14:59	199
ВНИМАНИЕ ❗ВНИМАНИЕ ❗ ⚠️ВПЕРВЫЕ В Заполярный⚠️ 🕷️Уникальная выставка🕷️ "УДИВИТЕЛЬ	https://vk.com/wall-6126497_3792212	21.11.2022 16:30	298
Продам 3-комн.квартиру г. Заполярный,ул.Юбилейная,д.15 1300000 р. https://m.vk.c	https://vk.com/wall-6126497_3792232	21.11.2022 16:51	100
	https://vk.com/wall-6126497_3792261	21.11.2022 17:29	199
В магазине  «Альт» поступление товара: - Нижнее белье, до очень больших размеров	https://vk.com/wall-6126497_3792334	21.11.2022 19:34	200
Здравствуйте девочки🌺  Меня зовут Анастасия,и я являюсь мастером маникюра,со ста	https://vk.com/wall-6126497_3792335	21.11.2022 19:37	500
	https://vk.com/wall-6126497_3792357	21.11.2022 19:59	500
Продам 2-комнатную квартиру г. Заполярный, ул. Карла Маркса, д.7 Цена 1,35 млн.р	https://vk.com/wall-6126497_3792395	21.11.2022 20:49	100
	https://vk.com/wall-6126497_3792398	21.11.2022 20:51	500
	https://vk.com/wall-6126497_3792412	21.11.2022 21:20	298
Выставка шуб и пальто «Меховые Традиции»  23 ноября в Печенге в КДЦ "Платформа" 	https://vk.com/wall-6126497_3792616	22.11.2022 10:00	200
Дорогие женщины!!!  24, 25 и 26 ноября (четверг, пятница и суббота)) в ДК г.Запо	https://vk.com/wall-6126497_3792742	22.11.2022 13:00	199
ВНИМАНИЕ ❗ВНИМАНИЕ ❗ ⚠️ВПЕРВЫЕ В Заполярный⚠️ 🕷️Уникальная выставка🕷️ "УДИВИТЕЛЬ	https://vk.com/wall-6126497_3792757	22.11.2022 13:30	298
	https://vk.com/wall-6126497_3792759	22.11.2022 13:30	199
	https://vk.com/wall-6126497_3792760	22.11.2022 13:31	199
Предоставляю услуги по реставрации ванной жидким акрилом https://vk.com/club2109	https://vk.com/wall-6126497_3792914	22.11.2022 17:00	199
Дорогие женщины!!!  24, 25 и 26 ноября (четверг, пятница и суббота)) в ДК г.Запо	https://vk.com/wall-6126497_3792953	22.11.2022 18:05	199
Милые девушки г. Заполярный, меня зовут Анна и я сертифицированный мастер маникю	https://vk.com/wall-6126497_3793016	22.11.2022 19:50	500
‼️Дорогие жители Печенгского района‼️⁉️         ‼️АКЦИЯ ‼️АКЦИЯ ‼️АКЦИЯ ‼️      	https://vk.com/wall-6126497_3793028	22.11.2022 20:00	199
Пгт Никель 27 ноября - День матери🤱🏻❤️ Мы подготовили для Вас варианты подарков 	https://vk.com/wall-6126497_3793098	22.11.2022 21:47	500
!!НАРАЩИВАНИЕ РЕСНИЦ!! Заполярный ! Дорогие девушки приглашаю на реснички . По п	https://vk.com/wall-6126497_3793140	22.11.2022 22:55	100
	https://vk.com/wall-6126497_3793260	23.11.2022 09:07	300
Подписывайся в нашу группу https://vk.com/ekotumanzpl. Постоянным клиентам преду	https://vk.com/wall-6126497_3793271	23.11.2022 09:25	100
Дорогие женщины!!!  24, 25 и 26 ноября (четверг, пятница и суббота)) в ДК г.Запо	https://vk.com/wall-6126497_3793293	23.11.2022 10:00	199
	https://vk.com/wall-6126497_3793332	23.11.2022 11:10	199
	https://vk.com/wall-6126497_3793357	23.11.2022 11:55	199
‼️Дорогие жители Печенгского района‼️⁉️         ‼️АКЦИЯ ‼️АКЦИЯ ‼️АКЦИЯ ‼️ ‼️Маг	https://vk.com/wall-6126497_3793362	23.11.2022 12:00	199
ВНИМАНИЕ ❗ВНИМАНИЕ ❗ ⚠️ВПЕРВЫЕ В Заполярный⚠️ 🕷️Уникальная выставка🕷️ "УДИВИТЕЛЬ	https://vk.com/wall-6126497_3793436	23.11.2022 13:30	298
	https://vk.com/wall-6126497_3793464	23.11.2022 13:59	199
	https://vk.com/wall-6126497_3793483	23.11.2022 14:35	300
Дорогие женщины!!!  24, 25 и 26 ноября (четверг, пятница и суббота)) в ДК г.Запо	https://vk.com/wall-6126497_3793519	23.11.2022 16:00	199
	https://vk.com/wall-6126497_3793556	23.11.2022 17:11	199
💥Новый год не за горами поэтому решила Вас порадовать, в честь приближающихся пр	https://vk.com/wall-6126497_3793590	23.11.2022 17:59	500
Всём привет, есть места на персональное ведение и тренировки. Подростки, юноши, 	https://vk.com/wall-6126497_3793622	23.11.2022 19:00	298
Самые "Вкусные" цены только у нас😜    🚗Индивидуальный трансфер - это встреча зак	https://vk.com/wall-6126497_3793800	23.11.2022 23:30	200
Дорогие женщины!!!  24, 25 и 26 ноября (четверг, пятница и суббота)) в ДК г.Запо	https://vk.com/wall-6126497_3793907	24.11.2022 09:00	199
	https://vk.com/wall-6126497_3794009	24.11.2022 12:00	298
	https://vk.com/wall-6126497_3794010	24.11.2022 12:00	199
Есть в наличии от компании Nl INTERNATIONAL DrainEffect Collagen Formula OMEGA-3	https://vk.com/wall-6126497_3794032	24.11.2022 12:25	500
ВНИМАНИЕ ❗ВНИМАНИЕ ❗ ⚠️ВПЕРВЫЕ В Заполярный⚠️ 🕷️Уникальная выставка🕷️ "УДИВИТЕЛЬ	https://vk.com/wall-6126497_3794103	24.11.2022 13:30	298
	https://vk.com/wall-6126497_3794169	24.11.2022 15:00	199
	https://vk.com/wall-6126497_3794182	24.11.2022 15:33	199
	https://vk.com/wall-6126497_3794260	24.11.2022 17:29	199
Дорогие женщины!!!  24, 25 и 26 ноября (четверг, пятница и суббота)) в ДК г.Запо	https://vk.com/wall-6126497_3794286	24.11.2022 18:00	199
Заполярный. Сертифицированный  мастер приглашает вас к себе на маникюр,наращиван	https://vk.com/wall-6126497_3794357	24.11.2022 19:16	100
‼️Дорогие жители Печенгского района‼️⁉️         ‼️АКЦИЯ ‼️АКЦИЯ ‼️АКЦИЯ ‼️ ‼️Маг	https://vk.com/wall-6126497_3794393	24.11.2022 20:00	199
Продам 2-комн.квартиру г.Заполярный, ул.Юбилейная, д.17 Стоимость 1,6 млн https:	https://vk.com/wall-6126497_3794640	25.11.2022 10:32	100
❗❗❗❗❗❗❗❗❗❗❗❗❗❗  ⚡ЧЕРНАЯ ПЯТНИЦА ⚡в Магнит Косметик г. Заполярный,ул.Шмакова 2 а,	https://vk.com/wall-6126497_3794696	25.11.2022 11:55	500
‼️Дорогие жители Печенгского района‼️⁉️         ‼️АКЦИЯ ‼️АКЦИЯ ‼️АКЦИЯ ‼️ ‼️Маг	https://vk.com/wall-6126497_3794703	25.11.2022 12:00	199
ВНИМАНИЕ ❗ВНИМАНИЕ ❗ ⚠️ВПЕРВЫЕ В Заполярный⚠️ 🕷️Уникальная выставка🕷️ "УДИВИТЕЛЬ	https://vk.com/wall-6126497_3794768	25.11.2022 13:30	298
	https://vk.com/wall-6126497_3794771	25.11.2022 13:38	199
До Дня матери осталось 2 дня ⏳ Закажи цветы для самого родного человека ❤ по фик	https://vk.com/wall-6126497_3794778	25.11.2022 13:51	500
Милые девушки!До конца ноября акция Запишитесь на чистку лица(пилинг или альгина	https://vk.com/wall-6126497_3794792	25.11.2022 14:14	100
	https://vk.com/wall-6126497_3794795	25.11.2022 14:17	199
Предоставляю услуги по реставрации ванной жидким акрилом https://vk.com/club2109	https://vk.com/wall-6126497_3794941	25.11.2022 18:00	199
Юридические услуги: 1) Гражданские дела 2)Административные дела 3)Трудовые споры	https://vk.com/wall-6126497_3794986	25.11.2022 19:00	199
Уважаемые жители Печенгского округа, на ваш выбор мы готовы предложить: Туры по 	https://vk.com/wall-6126497_3795005	25.11.2022 19:49	200
📍Заполярный  Всем привет! Меня зовут Екатерина и я начинающий сертифицированный 	https://vk.com/wall-6126497_3795033	25.11.2022 20:30	298
Продам 2-комнатную квартиру г. Заполярный, ул. Ленина, д.19 Цена 1,7 млн.р. http	https://vk.com/wall-6126497_3795082	25.11.2022 21:36	100
Впереди очень много праздников! Давайте будем радовать наших любимых необычными 	https://vk.com/wall-6126497_3795276	26.11.2022 11:00	500
	https://vk.com/wall-6126497_3795293	26.11.2022 11:33	199
	https://vk.com/wall-6126497_3795398	26.11.2022 14:00	199
	https://vk.com/wall-6126497_3795471	26.11.2022 15:52	298
ОСТАЛОСЬ ДВА МЕСТА НА ПЕРСОНАЛЬНЫЕ ТРЕНИРОВКИ!!!!!!!!Подростки, юноши, мужчины,с	https://vk.com/wall-6126497_3795523	26.11.2022 17:00	500
Юридические услуги: 1) Гражданские дела 2)Административные дела 3)Трудовые споры	https://vk.com/wall-6126497_3795600	26.11.2022 19:00	199
‼️Дорогие жители Печенгского района‼️⁉️         ‼️АКЦИЯ ‼️АКЦИЯ ‼️АКЦИЯ ‼️ ‼️Маг	https://vk.com/wall-6126497_3795628	26.11.2022 20:00	199
	https://vk.com/wall-6126497_3795645	26.11.2022 20:30	298
Никель.Наращивание ресничек. Постоянным клиентам скидки и приятные подарочки к н	https://vk.com/wall-6126497_3795815	27.11.2022 08:53	100
	https://vk.com/wall-6126497_3795833	27.11.2022 10:07	199
‼️Дорогие жители Печенгского района‼️⁉️         ‼️АКЦИЯ ‼️АКЦИЯ ‼️АКЦИЯ ‼️ ‼️Маг	https://vk.com/wall-6126497_3795887	27.11.2022 12:00	199
	https://vk.com/wall-6126497_3796131	27.11.2022 17:00	199
	https://vk.com/wall-6126497_3796435	28.11.2022 10:14	199
Начинающий сертифицированный мастер по наращиванию ресниц приглашает моделей. Дл	https://vk.com/wall-6126497_3796525	28.11.2022 13:00	500
Предоставляю услуги по реставрации ванной жидким акрилом https://vk.com/club2109	https://vk.com/wall-6126497_3796780	28.11.2022 18:00	199
В продаже 3-комн.квартира г.Заполярный,ул.Юбилейная,д.15 1300000 р. https://m.vk	https://vk.com/wall-6126497_3796793	28.11.2022 18:28	100
	https://vk.com/wall-6126497_3796795	28.11.2022 18:30	298
	https://vk.com/wall-6126497_3796809	28.11.2022 19:02	199
Сдам 1-комнатные квартиры (ул.Сафонова 9, ул. Космонавтов 14) https://m.vk.com/s	https://vk.com/wall-6126497_3796930	28.11.2022 21:51	100
	https://vk.com/wall-6126497_3797166	29.11.2022 11:21	199
	https://vk.com/wall-6126497_3797167	29.11.2022 11:22	199
	https://vk.com/wall-6126497_3797263	29.11.2022 14:05	199
	https://vk.com/wall-6126497_3797466	29.11.2022 18:00	199
	https://vk.com/wall-6126497_3797854	30.11.2022 11:57	199
	https://vk.com/wall-6126497_3797855	30.11.2022 11:57	199
Поздравление с помoщью рoстовой куклы  Мишки Тедди 🧸или Бубы!Хотите удивить люби	https://vk.com/wall-6126497_3797856	30.11.2022 11:58	500
Предлагаем Вашему вниманию 🔞Шуточный стриптиз🔥🔥🔥 от Антонио🕺 и Джулии 💃🏼 С нами 	https://vk.com/wall-6126497_3797903	30.11.2022 12:58	500
	https://vk.com/wall-6126497_3797929	30.11.2022 13:33	500
Подписывайся в нашу группу сухой туман Заполярный https://vk.com/ekotumanzpl. По	https://vk.com/wall-6126497_3798094	30.11.2022 17:54	500
Заполярный. Начинающий сертифицированный мастер маникюра ищет моделей для пополн	https://vk.com/wall-6126497_3798128	30.11.2022 18:30	199