title	url	date	cost
	https://vk.com/wall-6126497_3885092	01.05.2023 05:39	330
	https://vk.com/wall-6126497_3885203	01.05.2023 12:00	220
	https://vk.com/wall-6126497_3885451	01.05.2023 19:00	220
	https://vk.com/wall-6126497_3885453	01.05.2023 19:02	220
Детские праздники становятся еще интереснее!!! 😃🎊 Пригласите на тематическую веч	https://vk.com/wall-6126497_3885475	01.05.2023 20:00	220
	https://vk.com/wall-6126497_3885740	02.05.2023 11:00	220
Куплю золото-лом дорого от 2000 за грамм ! Никель - Заполярный ! Возможен выезд 	https://vk.com/wall-6126497_3885806	02.05.2023 13:00	220
" В Печенгском районе появился медведь Михалыч ддя проведения мероприятий любого	https://vk.com/wall-6126497_3885838	02.05.2023 14:00	220
г. Заполярный! До 15 мая женский и мужской по 1000 р vk.com/club217481228	https://vk.com/wall-6126497_3885909	02.05.2023 16:20	100
	https://vk.com/wall-6126497_3886251	03.05.2023 10:35	500
16-17-18 Мая 2023г Кольский полуостров приезжает специалист Роман Барбашов по Ак	https://vk.com/wall-6126497_3886382	03.05.2023 15:00	330
	https://vk.com/wall-6126497_3886470	03.05.2023 18:00	220
	https://vk.com/wall-6126497_3886500	03.05.2023 19:00	220
Куплю золото-лом дорого от 2000 за грамм ! Никель - Заполярный ! Возможен выезд 	https://vk.com/wall-6126497_3886796	04.05.2023 13:00	220
г. Заполярный! До 15 мая женский и мужской по 1000 р vk.com/club217481228	https://vk.com/wall-6126497_3886894	04.05.2023 16:20	100
Узнайте первыми о событиях Печенгского округа, подписавшись на официальные источ	https://vk.com/wall-6126497_3886935	04.05.2023 17:31	220
	https://vk.com/wall-6126497_3887238	05.05.2023 11:51	500
Продам, ручная работа, обратная сторона ленты усилена, чтобы не заворачивалась, 	https://vk.com/wall-6126497_3887241	05.05.2023 11:54	220
	https://vk.com/wall-6126497_3887247	05.05.2023 12:00	220
Ламинирование ресниц и бровей + ботокс, CERAMIDE CONCENTRATE.  https://vk.com/cl	https://vk.com/wall-6126497_3887311	05.05.2023 14:00	100
	https://vk.com/wall-6126497_3887334	05.05.2023 14:34	500
Предлагаются к резерву и дальнейшей продаже бенгальские котята. ☘Официально заре	https://vk.com/wall-6126497_3887369	05.05.2023 16:00	330
	https://vk.com/wall-6126497_3887438	05.05.2023 19:00	220
Милые дамы, приглашаю вас на Маникюр Покрытие гель лак Заполярный 89512959041 ht	https://vk.com/wall-6126497_3887440	05.05.2023 19:04	100
Приглашаем в группу "Aqua Life" всех любителей аквариумных рыбок! https://vk.com	https://vk.com/wall-6126497_3887467	05.05.2023 20:00	220
Заполярный. Продаётся мальчишка немецкого шпица. Прививки по возрасту, приучен к	https://vk.com/wall-6126497_3887609	06.05.2023 09:49	220
Узнайте первыми о событиях Печенгского округа, подписавшись на официальные источ	https://vk.com/wall-6126497_3887692	06.05.2023 12:00	220
Куплю золото-лом дорого от 2000 за грамм ! Никель - Заполярный ! Возможен выезд 	https://vk.com/wall-6126497_3887732	06.05.2023 13:00	220
г. Заполярный! До 15 мая женский и мужской педикюр по 1000 р vk.com/club21748122	https://vk.com/wall-6126497_3887839	06.05.2023 16:20	100
Милые дамы, приглашаю вас на Маникюр Покрытие гель лак Заполярный 89512959041 ht	https://vk.com/wall-6126497_3887925	06.05.2023 19:00	100
Приглашаем в группу "Aqua Life" всех любителей аквариумных рыбок! https://vk.com	https://vk.com/wall-6126497_3887928	06.05.2023 19:04	220
Продаются попугайчики от 6 мес до 1 года, можно подобрать пару. Цена 900р/шт. Ес	https://vk.com/wall-6126497_3888047	06.05.2023 22:47	220
Ламинирование ресниц и бровей + ботокс, CERAMIDE CONCENTRATE.  https://vk.com/cl	https://vk.com/wall-6126497_3888352	07.05.2023 14:00	100
	https://vk.com/wall-6126497_3888499	07.05.2023 18:57	220
	https://vk.com/wall-6126497_3888504	07.05.2023 19:02	220
Милые дамы, приглашаю вас на Маникюр Покрытие гель лак Заполярный 89512959041 ht	https://vk.com/wall-6126497_3888507	07.05.2023 19:04	100
Приглашаем в группу "Aqua Life" всех любителей аквариумных рыбок! https://vk.com	https://vk.com/wall-6126497_3888508	07.05.2023 19:08	220
В наличии свежий морской гребешок и в вакуумной упаковке. Никель, Заполярный. 89	https://vk.com/wall-6126497_3888519	07.05.2023 19:22	220
	https://vk.com/wall-6126497_3888533	07.05.2023 20:00	500
	https://vk.com/wall-6126497_3888756	08.05.2023 12:00	220
Куплю золото-лом дорого от 2000 за грамм ! Никель - Заполярный ! Возможен выезд 	https://vk.com/wall-6126497_3888801	08.05.2023 13:00	220
Узнайте первыми о событиях Печенгского округа, подписавшись на официальные источ	https://vk.com/wall-6126497_3888831	08.05.2023 14:00	220
г. Заполярный! До 15 мая женский и мужской педикюр по 1000 р vk.com/club21748122	https://vk.com/wall-6126497_3888920	08.05.2023 16:20	100
Приглашаем в группу "Aqua Life" всех любителей аквариумных рыбок! https://vk.com	https://vk.com/wall-6126497_3889030	08.05.2023 19:00	220
	https://vk.com/wall-6126497_3889039	08.05.2023 19:03	220
Дорогие девушки,приглашаем вас на маникюр,брови и педикюр!   Во время процедуры 	https://vk.com/wall-6126497_3889081	08.05.2023 20:21	220
Шиномонтаж в Печенге, гараж находится в районе ул Стадионная д 5.  Обращаться по	https://vk.com/wall-6126497_3889083	08.05.2023 20:23	100
Куплю золото-лом дорого от 2000 за грамм ! Никель - Заполярный ! Возможен выезд 	https://vk.com/wall-6126497_3889309	09.05.2023 13:00	220
Порадуйте себя и своих близких дарами Баренцева моря! В наличии свежий морской г	https://vk.com/wall-6126497_3889341	09.05.2023 14:00	220
	https://vk.com/wall-6126497_3889342	09.05.2023 14:02	330
Ламинирование ресниц и бровей + ботокс, CERAMIDE CONCENTRATE.  https://vk.com/cl	https://vk.com/wall-6126497_3889346	09.05.2023 14:05	100
Предлагаются к резерву и дальнейшей продаже бенгальские котята. ☘Официально заре	https://vk.com/wall-6126497_3889424	09.05.2023 16:00	330
Приглашаем в группу "Aqua Life" всех любителей аквариумных рыбок! https://vk.com	https://vk.com/wall-6126497_3889528	09.05.2023 19:00	220
	https://vk.com/wall-6126497_3889531	09.05.2023 19:05	220
	https://vk.com/wall-6126497_3889561	09.05.2023 20:00	220
Заполярный. Продаётся мальчик немецкого шпица. Прививки по возрасту, любопытный,	https://vk.com/wall-6126497_3889753	10.05.2023 09:57	220
Заполярный! Процедура депиляции, уходовые процедуры ресниц. https://vk.com/club2	https://vk.com/wall-6126497_3889756	10.05.2023 10:05	100
Шиномонтаж, сезонная смена колёс в г. Заполярном  Запись в сообщения группы  или	https://vk.com/wall-6126497_3889823	10.05.2023 12:33	220
16-17-18 Мая 2023г Кольский полуостров приезжает специалист Роман Барбашов по Ак	https://vk.com/wall-6126497_3889921	10.05.2023 15:00	330
г. Заполярный! До 15 мая женский и мужской педикюр по 1000 р vk.com/club21748122	https://vk.com/wall-6126497_3889975	10.05.2023 16:20	100
Приглашаем в группу "Aqua Life" всех любителей аквариумных рыбок! https://vk.com	https://vk.com/wall-6126497_3890030	10.05.2023 19:00	220
	https://vk.com/wall-6126497_3890123	10.05.2023 22:00	220
Заполярный! Процедура депиляции, уходовые процедуры ресниц. https://vk.com/club2	https://vk.com/wall-6126497_3890249	11.05.2023 10:25	100
Куплю золото-лом дорого от 2000 за грамм ! Никель - Заполярный ! Возможен выезд 	https://vk.com/wall-6126497_3890333	11.05.2023 13:00	220
Ламинирование ресниц и бровей + ботокс, CERAMIDE CONCENTRATE.  https://vk.com/cl	https://vk.com/wall-6126497_3890367	11.05.2023 14:00	100
г. Заполярный! До 15 мая женский и мужской педикюр по 1000 р vk.com/club21748122	https://vk.com/wall-6126497_3890446	11.05.2023 16:20	100
Узнайте первыми о событиях Печенгского округа, подписавшись на официальные источ	https://vk.com/wall-6126497_3890500	11.05.2023 18:00	220
Приглашаем в группу "Aqua Life" всех любителей аквариумных рыбок! https://vk.com	https://vk.com/wall-6126497_3890526	11.05.2023 19:00	220
Заполярный! Процедура депиляции, уходовые процедуры ресниц. https://vk.com/club2	https://vk.com/wall-6126497_3890782	12.05.2023 11:11	100
Предлагаются к резерву и дальнейшей продаже бенгальские котята. ☘Официально заре	https://vk.com/wall-6126497_3890947	12.05.2023 16:00	330
	https://vk.com/wall-6126497_3891019	12.05.2023 18:37	500
НОВЫЙ ОНЛАЙН МАГАЗИН  В НИКЕЛЕ ЗАПОЛЯРНОМ Одежда | аксессуары | обувь  Присоедин	https://vk.com/wall-6126497_3891029	12.05.2023 18:56	100
Приглашаем в группу "Aqua Life" всех любителей аквариумных рыбок! https://vk.com	https://vk.com/wall-6126497_3891034	12.05.2023 19:00	220
🔥 ЖЕНСКАЯ ОБУВЬ🔥  Милые девушки, женщины ♥  Приглашаем Вас вступить в нашу групп	https://vk.com/wall-6126497_3891126	12.05.2023 21:30	500
Узнайте первыми о событиях Печенгского округа, подписавшись на официальные источ	https://vk.com/wall-6126497_3891317	13.05.2023 12:00	220
Куплю золото-лом дорого от 2000 за грамм ! Никель - Заполярный ! Возможен выезд 	https://vk.com/wall-6126497_3891350	13.05.2023 13:00	220
💆🏻‍♀ Здравствуйте. Предлагаю пройти сеансы [club217154219|массажа] в нп. Лиинаха	https://vk.com/wall-6126497_3891358	13.05.2023 13:05	500
Ламинирование ресниц и бровей + ботокс, CERAMIDE CONCENTRATE.  https://vk.com/cl	https://vk.com/wall-6126497_3891390	13.05.2023 14:00	100
НОВЫЙ ОНЛАЙН МАГАЗИН  В НИКЕЛЕ ЗАПОЛЯРНОМ Одежда | аксессуары | обувь  Присоедин	https://vk.com/wall-6126497_3891453	13.05.2023 15:47	100
Приглашаем в группу "Aqua Life" всех любителей аквариумных рыбок! https://vk.com	https://vk.com/wall-6126497_3891540	13.05.2023 19:00	220
	https://vk.com/wall-6126497_3891547	13.05.2023 19:04	220
	https://vk.com/wall-6126497_3891681	13.05.2023 23:44	330
Предлагаются к резерву и дальнейшей продаже бенгальские котята. ☘Официально заре	https://vk.com/wall-6126497_3892025	14.05.2023 17:00	330
Приглашаем в группу "Aqua Life" всех любителей аквариумных рыбок! https://vk.com	https://vk.com/wall-6126497_3892116	14.05.2023 19:00	220
	https://vk.com/wall-6126497_3892118	14.05.2023 19:04	220
	https://vk.com/wall-6126497_3892487	15.05.2023 12:24	500
Узнайте первыми о событиях Печенгского округа, подписавшись на официальные источ	https://vk.com/wall-6126497_3892539	15.05.2023 14:00	220
Шиномонтаж, сезонная смена колёс в г. Заполярном  Присутствует МОЙКА колёс !  За	https://vk.com/wall-6126497_3892671	15.05.2023 17:58	220
	https://vk.com/wall-6126497_3892673	15.05.2023 18:00	220
Милые дамы, приглашаю вас на Маникюр Покрытие гель лак Заполярный 89512959041 ht	https://vk.com/wall-6126497_3892721	15.05.2023 19:00	100
Куплю золото-лом дорого от 2000 за грамм ! Никель - Заполярный ! Возможен выезд 	https://vk.com/wall-6126497_3893052	16.05.2023 13:00	220
	https://vk.com/wall-6126497_3893288	16.05.2023 19:00	220
Милые дамы, приглашаю вас на Маникюр Покрытие гель лак Заполярный 89512959041 ht	https://vk.com/wall-6126497_3893293	16.05.2023 19:05	100
❤️‍🔥New collection 2023 !❤️‍🔥 Безумно классное худи -свитшоты собственный пошив 	https://vk.com/wall-6126497_3893406	16.05.2023 21:53	220
16-17-18 Мая 2023г Кольский полуостров приезжает специалист Роман Барбашов по Ак	https://vk.com/wall-6126497_3893751	17.05.2023 15:00	330
Милые дамы, приглашаю вас на Маникюр Покрытие гель лак Заполярный 89512959041 ht	https://vk.com/wall-6126497_3893858	17.05.2023 19:00	100
🌞Готовимся к лету вместе с “STEP by STEP”🌞 🦋Встречайте нашу новую коллекцию ЛЕТО	https://vk.com/wall-6126497_3893996	17.05.2023 23:58	500
Куплю золото-лом дорого от 2000 за грамм ! Никель - Заполярный ! Возможен выезд 	https://vk.com/wall-6126497_3894194	18.05.2023 13:00	220
	https://vk.com/wall-6126497_3894434	18.05.2023 19:00	220
Никель. Педикюр мужской и женский, маникюр, наращивание ногтей. Акция до конца м	https://vk.com/wall-6126497_3894566	19.05.2023 00:39	100
Заполярный, Никель Продам Свежая кумжа, сиг, окунь, щука.  В личку https://vk.co	https://vk.com/wall-6126497_3894737	19.05.2023 12:27	220
НОВЫЙ ОНЛАЙН МАГАЗИН  В НИКЕЛЕ ЗАПОЛЯРНОМ Одежда | аксессуары | обувь  Присоедин	https://vk.com/wall-6126497_3894858	19.05.2023 15:36	100
Предлагаются к резерву и дальнейшей продаже бенгальские котята. ☘Официально заре	https://vk.com/wall-6126497_3894877	19.05.2023 16:00	330
Куплю золото-лом дорого от 2000 за грамм ! Никель - Заполярный ! Возможен выезд 	https://vk.com/wall-6126497_3895287	20.05.2023 13:00	220
Никель-Заполярный! РАСПРОДАЖА!  Парфюм от 350₽ в наличии Футболки по 450₽ в нали	https://vk.com/wall-6126497_3895411	20.05.2023 15:48	100
Никель👋  Дорогие девушки, приглашаю вас за красивым взглядом✨ Для вас: 🌿 фракцио	https://vk.com/wall-6126497_3895497	20.05.2023 18:00	220
В новый салон требуются мастера массажа. Можно без опыта. Обучение в рамках сало	https://vk.com/wall-6126497_3896103	21.05.2023 19:00	500
🔥 ЖЕНСКАЯ ОБУВЬ🔥  Милые девушки, женщины ♥  Приглашаем Вас вступить в нашу групп	https://vk.com/wall-6126497_3896186	21.05.2023 21:30	500
Вакансия  В студию [club217083899|@laser_lab51] требуется мастер лазерной эпиляц	https://vk.com/wall-6126497_3896589	22.05.2023 18:56	500
Куплю золото-лом дорого от 2000 за грамм ! Никель - Заполярный ! Возможен выезд 	https://vk.com/wall-6126497_3896944	23.05.2023 14:35	220
Приглашаем на работу от проверенного работодателя: 1. Водителя вахтового автобус	https://vk.com/wall-6126497_3897028	23.05.2023 17:13	220
Милые дамы, приглашаю вас на Маникюр Покрытие гель лак Заполярный 89512959041 ht	https://vk.com/wall-6126497_3897087	23.05.2023 19:00	100
16-17-18 Мая 2023г Кольский полуостров приезжает специалист Роман Барбашов по Ак	https://vk.com/wall-6126497_3897512	24.05.2023 15:00	330
Милые дамы, приглашаю вас на Маникюр Покрытие гель лак Заполярный 89512959041 ht	https://vk.com/wall-6126497_3897651	24.05.2023 19:00	100
Продаются попугайчики волнистые домашнего разведения, возраст 7мес, имеются новы	https://vk.com/wall-6126497_3897891	25.05.2023 10:10	220
Морской гребешок свежий, Никель,Заполярный. 89892335611	https://vk.com/wall-6126497_3897905	25.05.2023 10:30	220
Хот-дог с рыбной сосиской? Нет, не пробовали🙃  Но обязательно попробуете на дегу	https://vk.com/wall-6126497_3898149	25.05.2023 18:30	500
Милые дамы, приглашаю вас на Маникюр Покрытие гель лак Заполярный 89512959041 ht	https://vk.com/wall-6126497_3898168	25.05.2023 19:00	100
	https://vk.com/wall-6126497_3898246	25.05.2023 21:11	220
Куплю золото-лом дорого от 2300 за грамм ! Никель - Заполярный ! Возможен выезд 	https://vk.com/wall-6126497_3899015	27.05.2023 13:00	220
Милые дамы, приглашаю вас на Маникюр Покрытие гель лак Заполярный 89512959041 ht	https://vk.com/wall-6126497_3899718	28.05.2023 18:00	100
Сертифицированный специалист по [id751919558|лазерной эпиляции] в Никеле. Контак	https://vk.com/wall-6126497_3899880	29.05.2023 07:30	220
Пригласите Уэнсдей на детский день рождения  🎁 и она проведет праздник в тематик	https://vk.com/wall-6126497_3900072	29.05.2023 14:30	220
Милые дамы, приглашаю вас на Маникюр Покрытие гель лак Заполярный 89512959041 ht	https://vk.com/wall-6126497_3900166	29.05.2023 18:00	100
Сертифицированный специалист по [id751919558|лазерной эпиляции] в Никеле. Контак	https://vk.com/wall-6126497_3900454	30.05.2023 12:00	220
Куплю золото-лом дорого от 2300 за грамм ! Никель - Заполярный ! Возможен выезд 	https://vk.com/wall-6126497_3900479	30.05.2023 13:00	220
	https://vk.com/wall-6126497_3900498	30.05.2023 13:33	500
Ламинирование ресниц и бровей + ботокс, CERAMIDE CONCENTRATE.  https://vk.com/cl	https://vk.com/wall-6126497_3900518	30.05.2023 14:00	100
Успейте воспользоваться супер предложением от компании ФиС 🔥  При заказе окна до	https://vk.com/wall-6126497_3900621	30.05.2023 17:00	220
В продаже морской гребешок в вакуумной упаковке на створках свежезамороженный, т	https://vk.com/wall-6126497_3900638	30.05.2023 17:39	220
Никель. Наращивание-Лами ресниц! vk.com/id627853774	https://vk.com/wall-6126497_3900644	30.05.2023 17:44	100
Милые дамы, приглашаю вас на Маникюр Покрытие гель лак Заполярный 89512959041 ht	https://vk.com/wall-6126497_3900659	30.05.2023 18:00	100
Продаются попугайчики волнистые домашнего разведения, возраст 7мес, имеются новы	https://vk.com/wall-6126497_3900661	30.05.2023 18:02	220
Здравствуйте! Занимаюсь 3d печатью в Заполярном. От вас требуется образец, чертё	https://vk.com/wall-6126497_3900681	30.05.2023 18:30	220
Еду в Мурманск 2.06.2023 в 11:00  и обратно 2.06.2023 в 19:00.  Тел: +7 953 303-	https://vk.com/wall-6126497_3900814	31.05.2023 01:29	100
	https://vk.com/wall-6126497_3900926	31.05.2023 12:00	330
Заполярный    В продаже свежемороженый краб (лапы). 1200 рублей за кг.   Писать 	https://vk.com/wall-6126497_3900947	31.05.2023 12:30	100
Велоремонт и ТО. (Заполярный, по согласованию возможен выезд по району). тел. 89	https://vk.com/wall-6126497_3901039	31.05.2023 15:00	500
Заполярный    В продаже свежемороженый краб (лапы). 1200 рублей за кг.   Писать 	https://vk.com/wall-6126497_3901106	31.05.2023 17:02	100
Здравствуйте! Занимаюсь 3d печатью в Заполярном. От вас требуется образец, чертё	https://vk.com/wall-6126497_3901132	31.05.2023 18:00	220