title	url	date	cost
	https://vk.com/wall-6126497_3885204	01.05.2023 12:00	330
	https://vk.com/wall-6126497_3885227	01.05.2023 12:34	220
	https://vk.com/wall-6126497_3885355	01.05.2023 15:29	220
Куплю лом золота от 2000 до 3000 рублей за грамм. Никель, Заполярный. Выезд по П	https://vk.com/wall-6126497_3885367	01.05.2023 16:00	220
г. Заполярный Продам  3-комнатные квартиры: Ул. Юбилейная, д. 6 Ул. Сафонова, д.	https://vk.com/wall-6126497_3885474	01.05.2023 19:52	220
	https://vk.com/wall-6126497_3885511	01.05.2023 21:00	330
🐕Натуральные сушеные лакомства для собак: ⛔без консервантов ⛔без красителей Прин	https://vk.com/wall-6126497_3886008	02.05.2023 19:00	220
	https://vk.com/wall-6126497_3886143	02.05.2023 23:10	220
	https://vk.com/wall-6126497_3886263	03.05.2023 11:12	330
Милые девушки! Приглашаю вас на маникюр с покрытием  гель-лаком! Вступайте в гру	https://vk.com/wall-6126497_3886355	03.05.2023 14:00	100
ТРЕБУЕТСЯ Продавец - Консультант  в Vape Shop г. Заполярный   Если ты пунктуален	https://vk.com/wall-6126497_3886394	03.05.2023 15:12	330
	https://vk.com/wall-6126497_3886547	03.05.2023 20:32	220
	https://vk.com/wall-6126497_3886549	03.05.2023 20:33	220
Сдам в аренду кабинет 10 кв.м. под любой вид деятельности!  С июня будет сдавать	https://vk.com/wall-6126497_3886656	04.05.2023 07:55	500
Еще месяц и наступит 🏝️ЛЕТО!!! 🌞 Давайте встретим его вместе!💚  🎉🎉🎉Мы 🚀 ЗАПУСКАЕ	https://vk.com/wall-6126497_3886657	04.05.2023 07:57	500
Заполярный. Милые девушки) Приглашаю вас на оформления бровей) Коррекция (пинцет	https://vk.com/wall-6126497_3886718	04.05.2023 10:31	500
г. Заполярный Сдам 2-комнатную квартиру с последующим выкупом Стоимость 10000 р.	https://vk.com/wall-6126497_3886719	04.05.2023 10:31	100
Куплю лом золота от 2000 до 3000 рублей за грамм. Никель, Заполярный. Выезд по П	https://vk.com/wall-6126497_3886760	04.05.2023 12:00	220
	https://vk.com/wall-6126497_3886892	04.05.2023 16:16	500
	https://vk.com/wall-6126497_3886897	04.05.2023 16:25	220
🐕Натуральные сушеные лакомства для собак: ⛔без консервантов ⛔без красителей Прин	https://vk.com/wall-6126497_3886934	04.05.2023 17:30	220
В магазине  «Альт» поступление купальников!  Ждём Вас по адресу: г.Заполярный, у	https://vk.com/wall-6126497_3887031	04.05.2023 21:32	500
	https://vk.com/wall-6126497_3887080	04.05.2023 23:30	330
Приглашаю на оформление бровей 🔥 Действуют акции ✔️ ЗНАКОМСТВО С МАСТЕРОМ Ламини	https://vk.com/wall-6126497_3887250	05.05.2023 12:01	500
Дорогие девушки Добро пожаловать ко мне в группу https://vk.com/kosmetikestetist	https://vk.com/wall-6126497_3887266	05.05.2023 12:33	100
	https://vk.com/wall-6126497_3887337	05.05.2023 14:42	220
	https://vk.com/wall-6126497_3887640	06.05.2023 10:40	220
ТРЕБУЕТСЯ Продавец - Консультант  в Vape Shop г. Заполярный   Если ты пунктуален	https://vk.com/wall-6126497_3887785	06.05.2023 14:44	330
Милые девушки! Приглашаю вас на маникюр с покрытием  гель-лаком! Вступайте в гру	https://vk.com/wall-6126497_3887853	06.05.2023 16:51	100
	https://vk.com/wall-6126497_3888157	07.05.2023 09:10	330
	https://vk.com/wall-6126497_3888161	07.05.2023 09:13	220
	https://vk.com/wall-6126497_3888425	07.05.2023 15:50	330
г. Заполярный Сдам 2-комнатную квартиру с последующим выкупом Стоимость аренды 1	https://vk.com/wall-6126497_3888456	07.05.2023 17:30	220
	https://vk.com/wall-6126497_3888457	07.05.2023 17:30	220
Куплю лом золота от 2000 до 3000 рублей за грамм. Никель, Заполярный. Выезд по П	https://vk.com/wall-6126497_3888503	07.05.2023 19:00	220
	https://vk.com/wall-6126497_3888693	08.05.2023 10:45	220
Г. Заполярный Продам 3-комнатную квартиру Ул. Сафонова, д. 5, 4 этаж Стоимость 1	https://vk.com/wall-6126497_3888737	08.05.2023 11:36	220
	https://vk.com/wall-6126497_3888860	08.05.2023 14:49	220
https://vk.com/diagnostic51rus  Компьютерная Диагностика Авторемонт Шиномонтаж h	https://vk.com/wall-6126497_3888924	08.05.2023 16:30	100
🐕Натуральные сушеные лакомства для собак: ⛔без консервантов ⛔без красителей Прин	https://vk.com/wall-6126497_3889087	08.05.2023 20:34	220
Продам в г. Заполярном 3-комнатные квартиры Ул. Юбилейная, д. 6 Ул. Юбилейная, д	https://vk.com/wall-6126497_3889460	09.05.2023 17:20	100
🐕Натуральные сушеные лакомства для собак: ⛔без консервантов ⛔без красителей Прин	https://vk.com/wall-6126497_3889592	09.05.2023 21:00	220
!!НАРАЩИВАНИЕ РЕСНИЦ!! Заполярный ! Дорогие девушки приглашаю на реснички . По п	https://vk.com/wall-6126497_3889628	09.05.2023 22:40	100
	https://vk.com/wall-6126497_3889652	09.05.2023 23:30	330
	https://vk.com/wall-6126497_3889711	10.05.2023 08:19	220
👉 https://vk.com/imperatrica_murmansk 👉 https://vk.com/id411444126	https://vk.com/wall-6126497_3889838	10.05.2023 12:59	500
Куплю лом золота от 2000 до 3000 рублей за грамм. Никель, Заполярный. Выезд по П	https://vk.com/wall-6126497_3889882	10.05.2023 14:00	220
Здравствуйте! Я,Мастер- Технолог по реконструкций волос 👧    Хотите иметь красив	https://vk.com/wall-6126497_3889989	10.05.2023 17:05	500
	https://vk.com/wall-6126497_3890025	10.05.2023 18:48	330
	https://vk.com/wall-6126497_3890031	10.05.2023 19:02	220
г. Заполярный Продам два гаража с документами (один-возле СТО Кардан, второй-нап	https://vk.com/wall-6126497_3890060	10.05.2023 20:04	100
	https://vk.com/wall-6126497_3890274	11.05.2023 11:27	330
🐕Натуральные сушеные лакомства для собак: ⛔без консервантов ⛔без красителей Прин	https://vk.com/wall-6126497_3890596	11.05.2023 21:00	220
	https://vk.com/wall-6126497_3890918	12.05.2023 15:12	220
	https://vk.com/wall-6126497_3891132	12.05.2023 21:36	220
	https://vk.com/wall-6126497_3891319	13.05.2023 12:00	220
	https://vk.com/wall-6126497_3891447	13.05.2023 15:42	220
Куплю лом золота от 2000 до 3000 рублей за грамм. Никель, Заполярный. Выезд по П	https://vk.com/wall-6126497_3891485	13.05.2023 17:00	220
🐕Натуральные сушеные лакомства для собак: ⛔без консервантов ⛔без красителей Прин	https://vk.com/wall-6126497_3891574	13.05.2023 20:00	220
	https://vk.com/wall-6126497_3891612	13.05.2023 21:02	220
Продам в г. Заполярном 1-комнатную квартиру: ул. Ленина, д. 18 2-комнатные кварт	https://vk.com/wall-6126497_3891648	13.05.2023 22:31	220
🐕Натуральные сушеные лакомства для собак: ⛔без консервантов ⛔без красителей Прин	https://vk.com/wall-6126497_3892030	14.05.2023 17:05	220
	https://vk.com/wall-6126497_3892545	15.05.2023 14:10	220
ТРЕБУЕТСЯ Продавец - Консультант  в Vape Shop г. Заполярный   Если ты пунктуален	https://vk.com/wall-6126497_3892758	15.05.2023 19:55	330
‼️Дорогие жители и гости  Печенгского района‼️ ️Магазин "ПЛАНЕТА  ОДЕЖДА, ОБУВЬ"	https://vk.com/wall-6126497_3892759	15.05.2023 20:00	220
	https://vk.com/wall-6126497_3892870	15.05.2023 23:30	330
‼️Дорогие жители и гости  Печенгского района‼️ ️Магазин "ПЛАНЕТА  ОДЕЖДА, ОБУВЬ"	https://vk.com/wall-6126497_3893019	16.05.2023 12:00	220
	https://vk.com/wall-6126497_3893022	16.05.2023 12:02	220
Куплю лом золота от 2000 до 3000 рублей за грамм. Никель, Заполярный. Выезд по П	https://vk.com/wall-6126497_3893147	16.05.2023 15:00	220
🐕Натуральные сушеные лакомства для собак: ⛔без консервантов ⛔без красителей 🚚Дос	https://vk.com/wall-6126497_3893287	16.05.2023 18:55	220
‼️Дорогие жители и гости  Печенгского района‼️ ️Магазин "ПЛАНЕТА  ОДЕЖДА, ОБУВЬ"	https://vk.com/wall-6126497_3893329	16.05.2023 20:00	220
‼️Дорогие жители и гости  Печенгского района‼️ ️Магазин "ПЛАНЕТА  ОДЕЖДА, ОБУВЬ"	https://vk.com/wall-6126497_3893645	17.05.2023 12:00	220
	https://vk.com/wall-6126497_3893692	17.05.2023 13:28	220
ТРЕБУЕТСЯ Продавец - Консультант  в Vape Shop г. Заполярный   Если ты пунктуален	https://vk.com/wall-6126497_3893698	17.05.2023 13:35	330
	https://vk.com/wall-6126497_3893712	17.05.2023 13:57	220
	https://vk.com/wall-6126497_3893820	17.05.2023 17:31	500
Здравствуйте я дипломированный специалист по косметологии   Мои услуги    ☘️Конт	https://vk.com/wall-6126497_3893836	17.05.2023 18:00	500
‼️Дорогие жители и гости  Печенгского района‼️ ️Магазин "ПЛАНЕТА  ОДЕЖДА, ОБУВЬ"	https://vk.com/wall-6126497_3893886	17.05.2023 20:00	220
г. Заполярный Продается 2-комнатная квартира, ул. Космонавтов, д. 8, 3 этаж Один	https://vk.com/wall-6126497_3893923	17.05.2023 21:00	220
‼️Дорогие жители и гости  Печенгского района‼️ ️Магазин "ПЛАНЕТА  ОДЕЖДА, ОБУВЬ"	https://vk.com/wall-6126497_3894150	18.05.2023 12:00	220
‼️‼️Куплю ваше авто,  мотоциклы, скутеры,целое, битое требующее срочной продажи,	https://vk.com/wall-6126497_3894235	18.05.2023 13:53	500
Здравствуйте! Принимаю заказы на десерты ,капкейки ,торты. Подробнее можно ознак	https://vk.com/wall-6126497_3894306	18.05.2023 15:17	500
	https://vk.com/wall-6126497_3894351	18.05.2023 16:26	220
🐕Натуральные сушеные лакомства для собак: ⛔без консервантов ⛔без красителей Прин	https://vk.com/wall-6126497_3894436	18.05.2023 19:05	220
Пгт Никель  Продам 2-комнатную квартиру Стоимость 550 т.р. https://m.vk.com/vash	https://vk.com/wall-6126497_3894449	18.05.2023 19:42	100
‼️Дорогие жители и гости  Печенгского района‼️ ️Магазин "ПЛАНЕТА  ОДЕЖДА, ОБУВЬ"	https://vk.com/wall-6126497_3894458	18.05.2023 20:00	220
‼️Дорогие жители и гости  Печенгского района‼️ ️Магазин "ПЛАНЕТА  ОДЕЖДА, ОБУВЬ"	https://vk.com/wall-6126497_3894725	19.05.2023 12:00	220
	https://vk.com/wall-6126497_3894738	19.05.2023 12:28	500
	https://vk.com/wall-6126497_3894825	19.05.2023 14:40	220
‼️‼️Куплю ваше авто,  мотоциклы, скутеры,целое, битое требующее срочной продажи,	https://vk.com/wall-6126497_3894859	19.05.2023 15:37	500
	https://vk.com/wall-6126497_3894892	19.05.2023 16:20	220
	https://vk.com/wall-6126497_3894894	19.05.2023 16:27	220
Куплю лом золота от 2000 до 3000 рублей за грамм. Никель, Заполярный. Выезд по П	https://vk.com/wall-6126497_3894949	19.05.2023 18:00	220
‼️Дорогие жители и гости  Печенгского района‼️ ️Магазин "ПЛАНЕТА  ОДЕЖДА, ОБУВЬ"	https://vk.com/wall-6126497_3895025	19.05.2023 20:00	220
	https://vk.com/wall-6126497_3895127	20.05.2023 00:24	330
‼️Дорогие жители и гости  Печенгского района‼️ ️Магазин "ПЛАНЕТА  ОДЕЖДА, ОБУВЬ"	https://vk.com/wall-6126497_3895330	20.05.2023 14:00	220
	https://vk.com/wall-6126497_3895412	20.05.2023 15:48	220
	https://vk.com/wall-6126497_3895413	20.05.2023 15:49	220
	https://vk.com/wall-6126497_3895419	20.05.2023 15:59	500
	https://vk.com/wall-6126497_3895919	21.05.2023 12:57	220
	https://vk.com/wall-6126497_3896003	21.05.2023 15:40	220
г. Заполярный Продам 1-комнатную квартиру, стоимость 900 т.р. 2-комнатную кварти	https://vk.com/wall-6126497_3896155	21.05.2023 20:31	220
	https://vk.com/wall-6126497_3896218	21.05.2023 23:30	330
	https://vk.com/wall-6126497_3896410	22.05.2023 12:49	220
Куплю лом золота от 2000 до 3000 рублей за грамм. Никель, Заполярный. Выезд по П	https://vk.com/wall-6126497_3896415	22.05.2023 13:00	220
	https://vk.com/wall-6126497_3896428	22.05.2023 13:23	500
	https://vk.com/wall-6126497_3896453	22.05.2023 13:54	220
	https://vk.com/wall-6126497_3896454	22.05.2023 13:55	220
	https://vk.com/wall-6126497_3896762	23.05.2023 08:33	220
🐕Натуральные сушеные лакомства для собак: ⛔без консервантов ⛔без красителей Прин	https://vk.com/wall-6126497_3897113	23.05.2023 20:00	220
‼️Дорогие жители и гости  Печенгского района‼️ ️Магазин "ПЛАНЕТА  ОДЕЖДА, ОБУВЬ"	https://vk.com/wall-6126497_3897130	23.05.2023 20:30	220
‼️Дорогие жители и гости  Печенгского района‼️ ️Магазин "ПЛАНЕТА  ОДЕЖДА, ОБУВЬ"	https://vk.com/wall-6126497_3897422	24.05.2023 12:30	220
	https://vk.com/wall-6126497_3897470	24.05.2023 13:47	330
	https://vk.com/wall-6126497_3897531	24.05.2023 15:38	220
Замена проводки под ключ , и другие работы связанные с электричеством . В лс или	https://vk.com/wall-6126497_3897559	24.05.2023 16:20	100
	https://vk.com/wall-6126497_3897566	24.05.2023 16:30	220
	https://vk.com/wall-6126497_3897641	24.05.2023 18:41	500
‼️Дорогие жители и гости  Печенгского района‼️ ️Магазин "ПЛАНЕТА  ОДЕЖДА, ОБУВЬ"	https://vk.com/wall-6126497_3897688	24.05.2023 20:00	220
‼️Дорогие жители и гости  Печенгского района‼️ ️Магазин "ПЛАНЕТА  ОДЕЖДА, ОБУВЬ"	https://vk.com/wall-6126497_3897954	25.05.2023 12:00	220
	https://vk.com/wall-6126497_3898036	25.05.2023 14:00	220
	https://vk.com/wall-6126497_3898072	25.05.2023 15:38	220
	https://vk.com/wall-6126497_3898146	25.05.2023 18:21	220
‼️Дорогие жители и гости  Печенгского района‼️ ️Магазин "ПЛАНЕТА  ОДЕЖДА, ОБУВЬ"	https://vk.com/wall-6126497_3898206	25.05.2023 20:00	220
	https://vk.com/wall-6126497_3898209	25.05.2023 20:00	500
🐕Натуральные сушеные лакомства для собак: ⛔без консервантов ⛔без красителей Прин	https://vk.com/wall-6126497_3898213	25.05.2023 20:05	220
‼️Дорогие жители и гости  Печенгского района‼️ ️Магазин "ПЛАНЕТА  ОДЕЖДА, ОБУВЬ"	https://vk.com/wall-6126497_3898490	26.05.2023 12:35	220
г. Заполярный В продаже 2-комнатные квартиры: Ул. Бабикова, д. 10, 4 этаж Ул. Юб	https://vk.com/wall-6126497_3898697	26.05.2023 19:26	220
‼️Дорогие жители и гости  Печенгского района‼️ ️Магазин "ПЛАНЕТА  ОДЕЖДА, ОБУВЬ"	https://vk.com/wall-6126497_3898723	26.05.2023 20:00	220
‼️Дорогие жители и гости  Печенгского района‼️ ️Магазин "ПЛАНЕТА  ОДЕЖДА, ОБУВЬ"	https://vk.com/wall-6126497_3898972	27.05.2023 12:00	220
	https://vk.com/wall-6126497_3899060	27.05.2023 13:40	330
‼️Дорогие жители и гости  Печенгского района‼️ ️Магазин "ПЛАНЕТА  ОДЕЖДА, ОБУВЬ"	https://vk.com/wall-6126497_3899255	27.05.2023 20:00	220
‼️Дорогие жители и гости  Печенгского района‼️ ️Магазин "ПЛАНЕТА  ОДЕЖДА, ОБУВЬ"	https://vk.com/wall-6126497_3899552	28.05.2023 12:30	220
	https://vk.com/wall-6126497_3899643	28.05.2023 15:33	220
‼️‼️Куплю ваше авто,  мотоциклы, скутеры,целое, битое требующее срочной продажи,	https://vk.com/wall-6126497_3900135	29.05.2023 17:04	500
	https://vk.com/wall-6126497_3900446	30.05.2023 11:38	220
Уважаемые жители Печенгского округа, на ваш выбор мы готовы предложить: Турцию и	https://vk.com/wall-6126497_3900534	30.05.2023 14:25	500
🐕Натуральные сушеные лакомства для собак: ⛔без консервантов ⛔без красителей Прин	https://vk.com/wall-6126497_3900740	30.05.2023 20:00	220
	https://vk.com/wall-6126497_3900808	30.05.2023 23:30	500
	https://vk.com/wall-6126497_3900839	31.05.2023 08:11	500
г. Заполярный Продам  1-комнатную квартиру по адресу: ул. Ленина, д. 18, 1 этаж 	https://vk.com/wall-6126497_3900882	31.05.2023 10:21	220
	https://vk.com/wall-6126497_3900931	31.05.2023 12:07	220
	https://vk.com/wall-6126497_3901028	31.05.2023 14:44	220
	https://vk.com/wall-6126497_3901037	31.05.2023 14:59	500
	https://vk.com/wall-6126497_3901051	31.05.2023 15:21	220