title	url	date	cost
Давайте сыграем в [club85476038|Мозгобойня!]  Угадайте что за реклама на картинк	https://vk.com/wall-6126497_3665711	01.06.2022 16:39	500
	https://vk.com/wall-6126497_3665712	01.06.2022 16:40	199
	https://vk.com/wall-6126497_3665713	01.06.2022 16:40	199
Предлагаем вашему вниманию  🔞 Шуточный стриптиз от горячего Антонио-программа дл	https://vk.com/wall-6126497_3665780	01.06.2022 18:12	199
	https://vk.com/wall-6126497_3665790	01.06.2022 18:27	199
	https://vk.com/wall-6126497_3665818	01.06.2022 19:16	150
	https://vk.com/wall-6126497_3665819	01.06.2022 19:16	300
	https://vk.com/wall-6126497_3665828	01.06.2022 19:26	199
	https://vk.com/wall-6126497_3666225	02.06.2022 12:30	150
	https://vk.com/wall-6126497_3666615	02.06.2022 22:15	199
Уважаемые РОДИТЕЛИ, чьи дети ходят в ШКОЛУ №22 г.Заполярный, заберите, пожалуйст	https://vk.com/wall-6126497_3666618	02.06.2022 22:16	199
	https://vk.com/wall-6126497_3666635	02.06.2022 22:40	199
	https://vk.com/wall-6126497_3666657	02.06.2022 23:10	199
	https://vk.com/wall-6126497_3666877	03.06.2022 12:08	199
	https://vk.com/wall-6126497_3666887	03.06.2022 12:30	150
Уставная форма для ЮНАРМИИ. А так же уставная военная форма для военнослужащих. 	https://vk.com/wall-6126497_3666898	03.06.2022 12:47	100
Грузоперевозки по Печенгскому району и Мурманской области. Беру груз до 1.5тонн 	https://vk.com/wall-6126497_3666904	03.06.2022 13:00	298
	https://vk.com/wall-6126497_3666941	03.06.2022 13:46	500
Мучают головные боли? ⛔️ Боли в шейной, грудной и поясничной области спины?📛 Я с	https://vk.com/wall-6126497_3667007	03.06.2022 15:00	199
ПРОДАМ ЯПОНСКИЕ ПОДГУЗНИКИ ТРУСИКИ ТВИНС Р-р: S M L XL Цена 990₽ Запись закрепле	https://vk.com/wall-6126497_3667184	03.06.2022 19:48	199
🤔Ты еще не подготовила свои волосы к лету?      👇🏻Тогда тебе ко мне!      ☀️Я сд	https://vk.com/wall-6126497_3667260	03.06.2022 22:00	199
	https://vk.com/wall-6126497_3667473	04.06.2022 10:49	199
	https://vk.com/wall-6126497_3667499	04.06.2022 11:22	199
ХОТИТЕ НАТЯЖНОЙ ПОТОЛОК? ОКНА? ДВЕРИ?  НУЖНА КОМПАНИЯ С ОПЫТОМ, ДОГОВОРОМ И ГАРА	https://vk.com/wall-6126497_3667500	04.06.2022 11:22	298
	https://vk.com/wall-6126497_3667803	04.06.2022 18:30	150
ПРОПАЛА СОБАКА!!! Заполярный. Ушла по следу в районе 34 км. В последний раз виде	https://vk.com/wall-6126497_3667970	04.06.2022 22:59	500
	https://vk.com/wall-6126497_3668195	05.06.2022 12:10	199
	https://vk.com/wall-6126497_3668218	05.06.2022 12:30	150
Привет,я Маша🤚 Приглашаю вас к себе на маникюр💅🏻  Принимаю в г.Заполярный на про	https://vk.com/wall-6126497_3668626	05.06.2022 21:00	500
	https://vk.com/wall-6126497_3668705	05.06.2022 23:36	199
	https://vk.com/wall-6126497_3668706	05.06.2022 23:36	199
	https://vk.com/wall-6126497_3669031	06.06.2022 15:01	199
❓ Чувствуете тяжесть и боль в ногах? Хотите проверить есть ли патологии стопы у 	https://vk.com/wall-6126497_3669129	06.06.2022 17:00	500
	https://vk.com/wall-6126497_3669230	06.06.2022 19:01	150
ПРОДАМ ЯПОНСКИЕ ПОДГУЗНИКИ ТРУСИКИ ТВИНС Р-р: S M L XL Цена 1050₽ Запись закрепл	https://vk.com/wall-6126497_3669268	06.06.2022 20:00	199
Грузоперевозки по Печенгскому району и Мурманской области. Беру груз до 1.5тонн 	https://vk.com/wall-6126497_3669498	07.06.2022 09:20	298
	https://vk.com/wall-6126497_3669622	07.06.2022 12:29	150
	https://vk.com/wall-6126497_3669645	07.06.2022 13:01	199
ИГРОВАЯ ЗОНА НИКЕЛЬ Погрузитесь в мир виртуальной реальности. Мы находимся по ад	https://vk.com/wall-6126497_3669876	07.06.2022 17:00	199
⚡ СКИДКА 20% на все игольчатые аппликаторы Кузнецова и массажные коврики только 	https://vk.com/wall-6126497_3669929	07.06.2022 18:27	500
	https://vk.com/wall-6126497_3670371	08.06.2022 13:02	150
Заполярный!Приглашаю на Ламинирование ресниц, оформление бровей.Депиляция -сахар	https://vk.com/wall-6126497_3670741	08.06.2022 20:30	199
	https://vk.com/wall-6126497_3671046	09.06.2022 10:50	199
	https://vk.com/wall-6126497_3671049	09.06.2022 10:51	500
Мучают головные боли? ⛔️ Боли в шейной, грудной и поясничной области спины?📛 Я с	https://vk.com/wall-6126497_3671352	09.06.2022 17:30	199
	https://vk.com/wall-6126497_3671509	09.06.2022 21:07	199
	https://vk.com/wall-6126497_3671592	09.06.2022 23:00	199
Планируете День рождения ребенка? 🎉  👇🏻7 причин, почему стоит обратиться к нам!👇	https://vk.com/wall-6126497_3671650	10.06.2022 00:58	199
Грузоперевозки по Печенгскому району и Мурманской области. Беру груз до 1.5тонн 	https://vk.com/wall-6126497_3671933	10.06.2022 13:00	298
	https://vk.com/wall-6126497_3671947	10.06.2022 13:17	300
	https://vk.com/wall-6126497_3671948	10.06.2022 13:17	199
Заполярный После 24.06 продаётся очень ласковый щенок чихуа-хуа, мальчик. На мом	https://vk.com/wall-6126497_3671951	10.06.2022 13:19	199
Кафе-бар « у Мангала» приглашает отметить эти выходные с нами!  А это пятница - 	https://vk.com/wall-6126497_3672305	10.06.2022 20:55	199
	https://vk.com/wall-6126497_3672308	10.06.2022 20:56	199
	https://vk.com/wall-6126497_3672616	11.06.2022 10:55	199
	https://vk.com/wall-6126497_3672693	11.06.2022 12:39	199
	https://vk.com/wall-6126497_3672703	11.06.2022 12:44	150
ХОТИТЕ НАТЯЖНОЙ ПОТОЛОК? ОКНА? ДВЕРИ?  НУЖНА КОМПАНИЯ С ОПЫТОМ, ДОГОВОРОМ И ГАРА	https://vk.com/wall-6126497_3672889	11.06.2022 16:46	298
Кафе-бар « у Мангала» приглашает отметить эти выходные с нами!  А это пятница - 	https://vk.com/wall-6126497_3672966	11.06.2022 19:00	199
	https://vk.com/wall-6126497_3673149	12.06.2022 00:30	199
Заполярный!Приглашаю на Ламинирование ресниц, оформление бровей.Депиляция -сахар	https://vk.com/wall-6126497_3673280	12.06.2022 11:19	199
	https://vk.com/wall-6126497_3673363	12.06.2022 12:55	199
Друзья, поздравляем вас с наступающими выходными по случаю празднования Дня Росс	https://vk.com/wall-6126497_3673475	12.06.2022 14:56	199
Заполярный!Приглашаю на Ламинирование ресниц, оформление бровей.Депиляция -сахар	https://vk.com/wall-6126497_3673633	12.06.2022 17:57	199
Первая студия электроэпиляции в Заполярном  На первую процедуру скидка 15%  http	https://vk.com/wall-6126497_3673654	12.06.2022 18:26	100
Друзья, поздравляем вас с наступающими выходными по случаю празднования Дня Росс	https://vk.com/wall-6126497_3673691	12.06.2022 18:56	199
Друзья, поздравляем вас с наступающими выходными по случаю празднования Дня Росс	https://vk.com/wall-6126497_3673788	12.06.2022 20:56	199
ПРОЕКТ СИЛА   Всем привет. Меня зовут Евгений. Я являюсь персональным тренером,н	https://vk.com/wall-6126497_3673789	12.06.2022 20:58	199
	https://vk.com/wall-6126497_3673809	12.06.2022 21:31	199
	https://vk.com/wall-6126497_3673810	12.06.2022 21:32	150
ХОТИТЕ НАТЯЖНОЙ ПОТОЛОК? ОКНА? ДВЕРИ?  НУЖНА КОМПАНИЯ С ОПЫТОМ, ДОГОВОРОМ И ГАРА	https://vk.com/wall-6126497_3673829	12.06.2022 22:11	298
	https://vk.com/wall-6126497_3674116	13.06.2022 12:38	150
Скоро День Рождения у ребенка? 🎉  Приглашаем отпраздновать в Антикафе!    Органи	https://vk.com/wall-6126497_3674561	13.06.2022 23:13	199
Грузоперевозки по Печенгскому району и Мурманской области. Беру груз до 1.5тонн 	https://vk.com/wall-6126497_3674638	14.06.2022 08:55	298
	https://vk.com/wall-6126497_3674740	14.06.2022 11:42	199
	https://vk.com/wall-6126497_3674741	14.06.2022 11:42	199
ХОТИТЕ НАТЯЖНОЙ ПОТОЛОК? ОКНА? ДВЕРИ?  НУЖНА КОМПАНИЯ С ОПЫТОМ, ДОГОВОРОМ И ГАРА	https://vk.com/wall-6126497_3674744	14.06.2022 11:44	298
	https://vk.com/wall-6126497_3674784	14.06.2022 12:28	150
Мучают головные боли? ⛔️ Боли в шейной, грудной и поясничной области спины?📛 Я с	https://vk.com/wall-6126497_3674813	14.06.2022 13:00	199
	https://vk.com/wall-6126497_3674933	14.06.2022 15:43	500
Заполярный  В наличии раки, 1400р за кг Икра форели фасованная по 250гр- 1200р h	https://vk.com/wall-6126497_3674983	14.06.2022 16:49	199
ПРОЕКТ СИЛА   Всем привет. Меня зовут Евгений. Я являюсь персональным тренером,н	https://vk.com/wall-6126497_3674986	14.06.2022 16:52	199
Мужские стрижки пгт.Печенга . Запись по тел. 89215120684 WhatsApp 89215120684  v	https://vk.com/wall-6126497_3675093	14.06.2022 18:41	100
Мужские стрижки пгт.Печенга . Запись по тел. 89215120684 WhatsApp 89215120684  v	https://vk.com/wall-6126497_3675702	15.06.2022 15:47	100
🌺Сезон отпусков начался🌺   Жду вас за красотой ваших ручек и ножек💅             	https://vk.com/wall-6126497_3675711	15.06.2022 16:00	199
	https://vk.com/wall-6126497_3675792	15.06.2022 18:00	150
Мужские стрижки пгт.Печенга . Запись по тел. 89215120684 WhatsApp 89215120684  v	https://vk.com/wall-6126497_3675880	15.06.2022 19:59	100
	https://vk.com/wall-6126497_3675967	15.06.2022 21:59	199
Заполярный!Процедура депиляции,уходовые процедуры ресниц/бровей!https://vk.com/c	https://vk.com/wall-6126497_3676107	16.06.2022 10:00	100
Займы на любые нужды от 2000 до 300 000 рублей. Никель, Заполярный. Вопросы в лс	https://vk.com/wall-6126497_3676108	16.06.2022 10:04	100
	https://vk.com/wall-6126497_3676273	16.06.2022 13:36	150
Заполярный!Процедура депиляции,уходовые процедуры ресниц/бровей!https://vk.com/c	https://vk.com/wall-6126497_3676291	16.06.2022 14:07	100
Заполярный!Процедура депиляции,уходовые процедуры ресниц/бровей!https://vk.com/c	https://vk.com/wall-6126497_3676485	16.06.2022 18:07	100
ПРОЕКТ СИЛА   Всем привет. Меня зовут Евгений. Я являюсь персональным тренером,н	https://vk.com/wall-6126497_3676727	16.06.2022 22:44	199
Первая студия электроэпиляции в Заполярном На первую процедуру скидка 15% https:	https://vk.com/wall-6126497_3677110	17.06.2022 15:00	100
	https://vk.com/wall-6126497_3677257	17.06.2022 18:30	150
	https://vk.com/wall-6126497_3677554	18.06.2022 09:15	199
	https://vk.com/wall-6126497_3677582	18.06.2022 10:10	199
« Бутлегер» паб - маркет, разливные напитки , ждём гостей ) Никель. Гвардейский 	https://vk.com/wall-6126497_3677584	18.06.2022 10:12	298
Друзья, поздравляем вас с наступающими выходными по случаю празднования Дня Росс	https://vk.com/wall-6126497_3677680	18.06.2022 12:18	199
	https://vk.com/wall-6126497_3677747	18.06.2022 13:34	150
	https://vk.com/wall-6126497_3677921	18.06.2022 16:40	199
Друзья, поздравляем вас с наступающими выходными по случаю празднования Дня Росс	https://vk.com/wall-6126497_3677994	18.06.2022 18:18	199
	https://vk.com/wall-6126497_3678058	18.06.2022 20:03	500
ПРОЕКТ СИЛА   Всем привет. Меня зовут Евгений. Я являюсь персональным тренером,н	https://vk.com/wall-6126497_3678178	18.06.2022 23:30	199
Заполярный!Процедура депиляции,уходовые процедуры ресниц/бровей!https://vk.com/c	https://vk.com/wall-6126497_3678180	18.06.2022 23:34	100
	https://vk.com/wall-6126497_3678332	19.06.2022 11:13	199
Заполярный!Процедура депиляции,уходовые процедуры ресниц/бровей!https://vk.com/c	https://vk.com/wall-6126497_3678366	19.06.2022 12:12	100
Сдается однокомнатная квартира в За полярном по ул Юбилейная 2. Для проживания в	https://vk.com/wall-6126497_3678374	19.06.2022 12:19	500
Заполярный.  В продаже имеются лещ горячего копчения и свежий судак.  Вопросы в 	https://vk.com/wall-6126497_3678401	19.06.2022 12:45	199
🍀🍀Требуется продавец в магазин " CLEVER"🍀🍀 г. Заполярный ул. Крупской,6  8921159	https://vk.com/wall-6126497_3678466	19.06.2022 13:49	500
« Бутлегер» паб - маркет, разливные напитки , ждём гостей ) Никель. Гвардейский 	https://vk.com/wall-6126497_3678599	19.06.2022 15:55	298
ХОТИТЕ НАТЯЖНОЙ ПОТОЛОК? ОКНА? ДВЕРИ?  НУЖНА КОМПАНИЯ С ОПЫТОМ, ДОГОВОРОМ И ГАРА	https://vk.com/wall-6126497_3678601	19.06.2022 15:56	298
Заполярный!Процедура депиляции,уходовые процедуры ресниц/бровей!https://vk.com/c	https://vk.com/wall-6126497_3678613	19.06.2022 16:12	100
	https://vk.com/wall-6126497_3678702	19.06.2022 18:30	150
	https://vk.com/wall-6126497_3678714	19.06.2022 18:55	199
Заполярный!Процедура депиляции,уходовые процедуры ресниц/бровей!https://vk.com/c	https://vk.com/wall-6126497_3678734	19.06.2022 19:12	100
Мужские стрижки пгт.Печенга . Запись по тел. 89215120684 WhatsApp 89215120684  v	https://vk.com/wall-6126497_3678760	19.06.2022 19:59	100
Заполярный.  Имеется в продаже копченый лещ  и свежий судак. Рыба с Карелии.  Вс	https://vk.com/wall-6126497_3679056	20.06.2022 11:15	100
	https://vk.com/wall-6126497_3679102	20.06.2022 12:31	150
У Вас в планах купить, продать или сдать в аренду квартиру? 🏡 Я с радостью помог	https://vk.com/wall-6126497_3679231	20.06.2022 15:35	199
	https://vk.com/wall-6126497_3679350	20.06.2022 18:55	199
ПРОЕКТ СИЛА   Всем привет. Меня зовут Евгений. Я являюсь персональным тренером,н	https://vk.com/wall-6126497_3679489	20.06.2022 22:00	199
🍀🍀Требуется продавец в магазин " CLEVER"🍀🍀 г. Заполярный ул. Крупской,6 89211597	https://vk.com/wall-6126497_3679532	20.06.2022 23:09	500
Заполярный.  Продам Шевроле Круз 1.6  2009 год , 450т.  Торг . Вопросы в л.с. ht	https://vk.com/wall-6126497_3679535	20.06.2022 23:23	199
Первая студия электроэпиляции в Заполярном На первую процедуру скидка 15% https:	https://vk.com/wall-6126497_3679735	21.06.2022 12:00	100
	https://vk.com/wall-6126497_3680053	21.06.2022 18:56	199
Мастер педикюpa! Сделаю ваши ножки красивыми и ухоженными! https://vk.com/id4931	https://vk.com/wall-6126497_3680097	21.06.2022 20:04	100
	https://vk.com/wall-6126497_3680181	21.06.2022 22:02	199
	https://vk.com/wall-6126497_3680413	22.06.2022 12:32	150
Мучают головные боли? ⛔️ Боли в шейной, грудной и поясничной области спины?📛 Я с	https://vk.com/wall-6126497_3680435	22.06.2022 13:00	199
	https://vk.com/wall-6126497_3680589	22.06.2022 15:56	199
	https://vk.com/wall-6126497_3680590	22.06.2022 15:56	199
Первая студия электроэпиляции в Заполярном На первую процедуру скидка 15% https:	https://vk.com/wall-6126497_3680624	22.06.2022 17:00	100
Натуральный мёд со своей пасеки из Поволжья. Пасека находится в экологически чис	https://vk.com/wall-6126497_3680664	22.06.2022 18:00	100
У Вас в планах купить, продать или сдать в аренду квартиру? 🏡 Я с радостью помог	https://vk.com/wall-6126497_3680714	22.06.2022 18:52	199
Дорогие покупатели!☘️ В Нашем Магазине : «Московская Ярмарка» поступление НОВОГО	https://vk.com/wall-6126497_3680721	22.06.2022 19:00	199
ЗАЙМЫ  выдаются только военнослужащим по контрату и офицерам служащим в г. Запол	https://vk.com/wall-6126497_3680770	22.06.2022 20:00	500
	https://vk.com/wall-6126497_3680885	22.06.2022 22:56	199
ПРОЕКТ СИЛА   Всем привет. Меня зовут Евгений. Я являюсь персональным тренером,н	https://vk.com/wall-6126497_3680892	22.06.2022 23:04	199
ПРОДАМ ЯПОНСКИЕ ПОДГУЗНИКИ ТРУСИКИ ТВИНС   Р-р: S M L XL   Цена 1050₽   Запись з	https://vk.com/wall-6126497_3681102	23.06.2022 12:29	199
Дорогие покупатели!☘️ В Нашем Магазине : «Московская Ярмарка» поступление НОВОГО	https://vk.com/wall-6126497_3681304	23.06.2022 18:08	199
	https://vk.com/wall-6126497_3681342	23.06.2022 18:56	199
	https://vk.com/wall-6126497_3681447	23.06.2022 21:22	298
	https://vk.com/wall-6126497_3681452	23.06.2022 21:32	150
	https://vk.com/wall-6126497_3681904	24.06.2022 15:47	199
	https://vk.com/wall-6126497_3681906	24.06.2022 15:47	199
	https://vk.com/wall-6126497_3681907	24.06.2022 15:47	199
	https://vk.com/wall-6126497_3682017	24.06.2022 18:57	199
Друзья, поздравляем вас с наступающими выходными по случаю празднования Дня Моло	https://vk.com/wall-6126497_3682130	24.06.2022 21:12	199
ПРОЕКТ СИЛА   Всем привет. Меня зовут Евгений. Я являюсь персональным тренером,н	https://vk.com/wall-6126497_3682170	24.06.2022 22:00	199
	https://vk.com/wall-6126497_3682454	25.06.2022 13:01	199
	https://vk.com/wall-6126497_3682499	25.06.2022 14:03	500
У Вас в планах купить, продать или сдать в аренду квартиру? 🏡 Я с радостью помог	https://vk.com/wall-6126497_3682539	25.06.2022 15:01	199
	https://vk.com/wall-6126497_3682559	25.06.2022 15:48	199
Заполярный!Процедура депиляции,уходовые процедуры ресниц/бровей!https://vk.com/c	https://vk.com/wall-6126497_3682561	25.06.2022 15:54	100
	https://vk.com/wall-6126497_3682664	25.06.2022 18:57	199
Заполярный!Процедура депиляции,уходовые процедуры ресниц/бровей!https://vk.com/c	https://vk.com/wall-6126497_3682731	25.06.2022 20:54	100
ПРОЕКТ СИЛА   Всем привет. Меня зовут Евгений. Я являюсь персональным тренером,н	https://vk.com/wall-6126497_3682757	25.06.2022 22:00	199
Заполярный!Процедура депиляции,уходовые процедуры ресниц/бровей!https://vk.com/c	https://vk.com/wall-6126497_3682946	26.06.2022 10:54	100
Заполярный!Процедура депиляции,уходовые процедуры ресниц/бровей!https://vk.com/c	https://vk.com/wall-6126497_3683236	26.06.2022 17:54	100
	https://vk.com/wall-6126497_3683271	26.06.2022 18:57	199
Продаётся Помещение свободного назначения(нежилое) ‼️‼️‼️  По адресу г. Заполярн	https://vk.com/wall-6126497_3683376	26.06.2022 22:00	199
Город Заполярный. Кафе бар «у Мангала» приглашает на работу!!! ✅Пекаря  ✅Помощни	https://vk.com/wall-6126497_3683377	26.06.2022 22:00	199
Продам павильон(ларёк) 🏠 Полностью утеплённый деревом изнутри⬅️  Передняя витрин	https://vk.com/wall-6126497_3683379	26.06.2022 22:01	500
ПРОЕКТ СИЛА   Всем привет. Меня зовут Евгений. Я являюсь персональным тренером,н	https://vk.com/wall-6126497_3683381	26.06.2022 22:02	199
Представьте❗  Чем будет заниматься летом ребенок, у которого нет учебы и разъеха	https://vk.com/wall-6126497_3683388	26.06.2022 22:07	500
Приглашаем на работу! В сети магазинов «Улыбка радуги» открыты вакансии «продаве	https://vk.com/wall-6126497_3683524	27.06.2022 10:01	199
« Бутлегер» паб - маркет, разливные напитки , ждём гостей ) Никель. Гвардейский 	https://vk.com/wall-6126497_3683538	27.06.2022 10:25	298
Заполярный Принимаю заказы на каталог Oriflame Отправка заказа 02.07 https://vk.	https://vk.com/wall-6126497_3683607	27.06.2022 12:45	199
	https://vk.com/wall-6126497_3683766	27.06.2022 16:33	199
Предлагаем вашему вниманию  🔞 Шуточный стриптиз от горячего Антонио-программа дл	https://vk.com/wall-6126497_3683771	27.06.2022 16:34	199
	https://vk.com/wall-6126497_3683781	27.06.2022 16:45	199
	https://vk.com/wall-6126497_3683787	27.06.2022 16:50	199
	https://vk.com/wall-6126497_3683854	27.06.2022 18:57	199
	https://vk.com/wall-6126497_3683872	27.06.2022 19:27	298
	https://vk.com/wall-6126497_3684264	28.06.2022 12:30	150
	https://vk.com/wall-6126497_3684548	28.06.2022 18:57	199
У Вас в планах купить, продать или сдать в аренду квартиру? 🏡 Я с радостью помог	https://vk.com/wall-6126497_3684560	28.06.2022 19:09	199
	https://vk.com/wall-6126497_3684612	28.06.2022 20:12	500
ПРОЕКТ СИЛА   Всем привет. Меня зовут Евгений. Я являюсь персональным тренером,н	https://vk.com/wall-6126497_3684677	28.06.2022 21:54	199
	https://vk.com/wall-6126497_3684691	28.06.2022 22:24	298
	https://vk.com/wall-6126497_3684908	29.06.2022 11:05	199
	https://vk.com/wall-6126497_3684909	29.06.2022 11:05	199
	https://vk.com/wall-6126497_3684910	29.06.2022 11:05	199
	https://vk.com/wall-6126497_3685199	29.06.2022 18:11	150
	https://vk.com/wall-6126497_3685201	29.06.2022 18:12	298
	https://vk.com/wall-6126497_3685211	29.06.2022 18:30	150
	https://vk.com/wall-6126497_3685337	29.06.2022 20:21	199
	https://vk.com/wall-6126497_3685339	29.06.2022 20:21	199
ПРОЕКТ СИЛА   Всем привет. Меня зовут Евгений. Я являюсь персональным тренером,н	https://vk.com/wall-6126497_3685487	29.06.2022 21:59	199
Дорогие покупатели!☘️ В Нашем Магазине : «Московская Ярмарка» поступление НОВОГО	https://vk.com/wall-6126497_3685683	30.06.2022 08:12	199
« Бутлегер» паб - маркет, разливные напитки , ждём гостей ) Никель. Гвардейский 	https://vk.com/wall-6126497_3685996	30.06.2022 14:51	298
Продавец-консультант (г. Заполярный) От 38500-45000  Требуемый опыт работы: не т	https://vk.com/wall-6126497_3686105	30.06.2022 17:16	500
	https://vk.com/wall-6126497_3686211	30.06.2022 19:12	500
Заполярный!Процедура депиляции,уходовые процедуры ресниц/бровей!https://vk.com/c	https://vk.com/wall-6126497_3686248	30.06.2022 20:06	100
	https://vk.com/wall-6126497_3686255	30.06.2022 20:20	298
В жаркие дни надо отжигать по максимуму!  Ждем вас на [club85476038|игре ☀]    К	https://vk.com/wall-6126497_3686386	30.06.2022 23:05	500